; GCODE Generated by cam.openbuilds.com on 2021-04-30 
G21 ; mm-mode
G54; Work Coordinates
G21; mm-mode
G90; Absolute Positioning
M3 S1000; Spindle On

; Operation 0: Drill: Continuous (Centered)
; Endmill Diameter: 3.17

G0 Z10; move to z-safe height
G0 F1000 X99.9000 Y86.1500

G0 Z0
G1 F100 Z0.0000
G1 F1000 X99.9000 Y86.1500 Z-3.0000 S1000
G1 F1000 X99.9000 Y86.1500 Z0.0000 S1000

G0 Z10; move to z-safe height
G0 X11.6000 Y86.1500

G0 Z0
G1 F100 Z0.0000
G1 F1000 X11.6000 Y86.1500 Z-3.0000 S1000
G1 F1000 X11.6000 Y86.1500 Z0.0000 S1000

G0 Z10; move to z-safe height
G0 X11.6000 Y27.8500

G0 Z0
G1 F100 Z0.0000
G1 F1000 X11.6000 Y27.8500 Z-3.0000 S1000
G1 F1000 X11.6000 Y27.8500 Z0.0000 S1000

G0 Z10; move to z-safe height
G0 X99.9000 Y27.8500

G0 Z0
G1 F100 Z0.0000
G1 F1000 X99.9000 Y27.8500 Z-3.0000 S1000
G1 F1000 X99.9000 Y27.8500 Z0.0000 S1000
; retracting back to z-safe
G0 Z10
; Operation 1: CNC: Vector (path inside)
; Endmill Diameter: 3.17

G0 Z10; move to z-safe height
G0 F1000 X16.5046 Y81.0958

G0 Z0
G1 F300 Z-1.5000
G1 F1000 X16.6543 Y81.2455 Z-1.5000 S1000
G1 F1000 X16.7091 Y81.4500 Z-1.5000 S1000
G1 F1000 X16.6543 Y81.6546 Z-1.5000 S1000
G1 F1000 X16.5047 Y81.8043 Z-1.5000 S1000
G1 F1000 X16.3001 Y81.8591 Z-1.5000 S1000
G1 F1000 X16.0956 Y81.8043 Z-1.5000 S1000
G1 F1000 X15.9458 Y81.6545 Z-1.5000 S1000
G1 F1000 X15.8910 Y81.4500 Z-1.5000 S1000
G1 F1000 X15.9458 Y81.2454 Z-1.5000 S1000
G1 F1000 X16.0955 Y81.0958 Z-1.5000 S1000
G1 F1000 X16.3001 Y81.0410 Z-1.5000 S1000
G1 F1000 X16.5046 Y81.0958 Z-1.5000 S1000
G1 F300 Z-3.0000
G1 F1000 X16.6543 Y81.2455 Z-3.0000 S1000
G1 F1000 X16.7091 Y81.4500 Z-3.0000 S1000
G1 F1000 X16.6543 Y81.6546 Z-3.0000 S1000
G1 F1000 X16.5047 Y81.8043 Z-3.0000 S1000
G1 F1000 X16.3001 Y81.8591 Z-3.0000 S1000
G1 F1000 X16.0956 Y81.8043 Z-3.0000 S1000
G1 F1000 X15.9458 Y81.6545 Z-3.0000 S1000
G1 F1000 X15.8910 Y81.4500 Z-3.0000 S1000
G1 F1000 X15.9458 Y81.2454 Z-3.0000 S1000
G1 F1000 X16.0955 Y81.0958 Z-3.0000 S1000
G1 F1000 X16.3001 Y81.0410 Z-3.0000 S1000
G1 F1000 X16.5046 Y81.0958 Z-3.0000 S1000
G1 F300 Z-4.5000
G1 F1000 X16.6543 Y81.2455 Z-4.5000 S1000
G1 F1000 X16.7091 Y81.4500 Z-4.5000 S1000
G1 F1000 X16.6543 Y81.6546 Z-4.5000 S1000
G1 F1000 X16.5047 Y81.8043 Z-4.5000 S1000
G1 F1000 X16.3001 Y81.8591 Z-4.5000 S1000
G1 F1000 X16.0956 Y81.8043 Z-4.5000 S1000
G1 F1000 X15.9458 Y81.6545 Z-4.5000 S1000
G1 F1000 X15.8910 Y81.4500 Z-4.5000 S1000
G1 F1000 X15.9458 Y81.2454 Z-4.5000 S1000
G1 F1000 X16.0955 Y81.0958 Z-4.5000 S1000
G1 F1000 X16.3001 Y81.0410 Z-4.5000 S1000
G1 F1000 X16.5046 Y81.0958 Z-4.5000 S1000
G1 F300 Z-6.0000
G1 F1000 X16.6543 Y81.2455 Z-6.0000 S1000
G1 F1000 X16.7091 Y81.4500 Z-6.0000 S1000
G1 F1000 X16.6543 Y81.6546 Z-6.0000 S1000
G1 F1000 X16.5047 Y81.8043 Z-6.0000 S1000
G1 F1000 X16.3001 Y81.8591 Z-6.0000 S1000
G1 F1000 X16.0956 Y81.8043 Z-6.0000 S1000
G1 F1000 X15.9458 Y81.6545 Z-6.0000 S1000
G1 F1000 X15.8910 Y81.4500 Z-6.0000 S1000
G1 F1000 X15.9458 Y81.2454 Z-6.0000 S1000
G1 F1000 X16.0955 Y81.0958 Z-6.0000 S1000
G1 F1000 X16.3001 Y81.0410 Z-6.0000 S1000
G1 F1000 X16.5046 Y81.0958 Z-6.0000 S1000
G1 F300 Z-7.0000
G1 F1000 X16.6543 Y81.2455 Z-7.0000 S1000
G1 F1000 X16.7091 Y81.4500 Z-7.0000 S1000
G1 F1000 X16.6543 Y81.6546 Z-7.0000 S1000
G1 F1000 X16.5047 Y81.8043 Z-7.0000 S1000
G1 F1000 X16.3001 Y81.8591 Z-7.0000 S1000
G1 F1000 X16.0956 Y81.8043 Z-7.0000 S1000
G1 F1000 X15.9458 Y81.6545 Z-7.0000 S1000
G1 F1000 X15.8910 Y81.4500 Z-7.0000 S1000
G1 F1000 X15.9458 Y81.2454 Z-7.0000 S1000
G1 F1000 X16.0955 Y81.0958 Z-7.0000 S1000
G1 F1000 X16.3001 Y81.0410 Z-7.0000 S1000
G1 F1000 X16.5046 Y81.0958 Z-7.0000 S1000

G0 Z10; move to z-safe height
G0 X16.5047 Y32.1957

G0 Z0
G1 F300 Z-1.5000
G1 F1000 X16.6543 Y32.3454 Z-1.5000 S1000
G1 F1000 X16.7091 Y32.5500 Z-1.5000 S1000
G1 F1000 X16.6543 Y32.7545 Z-1.5000 S1000
G1 F1000 X16.5046 Y32.9042 Z-1.5000 S1000
G1 F1000 X16.3001 Y32.9590 Z-1.5000 S1000
G1 F1000 X16.0955 Y32.9042 Z-1.5000 S1000
G1 F1000 X15.9458 Y32.7546 Z-1.5000 S1000
G1 F1000 X15.8910 Y32.5500 Z-1.5000 S1000
G1 F1000 X15.9458 Y32.3455 Z-1.5000 S1000
G1 F1000 X16.0956 Y32.1957 Z-1.5000 S1000
G1 F1000 X16.3001 Y32.1409 Z-1.5000 S1000
G1 F1000 X16.5047 Y32.1957 Z-1.5000 S1000
G1 F300 Z-3.0000
G1 F1000 X16.6543 Y32.3454 Z-3.0000 S1000
G1 F1000 X16.7091 Y32.5500 Z-3.0000 S1000
G1 F1000 X16.6543 Y32.7545 Z-3.0000 S1000
G1 F1000 X16.5046 Y32.9042 Z-3.0000 S1000
G1 F1000 X16.3001 Y32.9590 Z-3.0000 S1000
G1 F1000 X16.0955 Y32.9042 Z-3.0000 S1000
G1 F1000 X15.9458 Y32.7546 Z-3.0000 S1000
G1 F1000 X15.8910 Y32.5500 Z-3.0000 S1000
G1 F1000 X15.9458 Y32.3455 Z-3.0000 S1000
G1 F1000 X16.0956 Y32.1957 Z-3.0000 S1000
G1 F1000 X16.3001 Y32.1409 Z-3.0000 S1000
G1 F1000 X16.5047 Y32.1957 Z-3.0000 S1000
G1 F300 Z-4.5000
G1 F1000 X16.6543 Y32.3454 Z-4.5000 S1000
G1 F1000 X16.7091 Y32.5500 Z-4.5000 S1000
G1 F1000 X16.6543 Y32.7545 Z-4.5000 S1000
G1 F1000 X16.5046 Y32.9042 Z-4.5000 S1000
G1 F1000 X16.3001 Y32.9590 Z-4.5000 S1000
G1 F1000 X16.0955 Y32.9042 Z-4.5000 S1000
G1 F1000 X15.9458 Y32.7546 Z-4.5000 S1000
G1 F1000 X15.8910 Y32.5500 Z-4.5000 S1000
G1 F1000 X15.9458 Y32.3455 Z-4.5000 S1000
G1 F1000 X16.0956 Y32.1957 Z-4.5000 S1000
G1 F1000 X16.3001 Y32.1409 Z-4.5000 S1000
G1 F1000 X16.5047 Y32.1957 Z-4.5000 S1000
G1 F300 Z-6.0000
G1 F1000 X16.6543 Y32.3454 Z-6.0000 S1000
G1 F1000 X16.7091 Y32.5500 Z-6.0000 S1000
G1 F1000 X16.6543 Y32.7545 Z-6.0000 S1000
G1 F1000 X16.5046 Y32.9042 Z-6.0000 S1000
G1 F1000 X16.3001 Y32.9590 Z-6.0000 S1000
G1 F1000 X16.0955 Y32.9042 Z-6.0000 S1000
G1 F1000 X15.9458 Y32.7546 Z-6.0000 S1000
G1 F1000 X15.8910 Y32.5500 Z-6.0000 S1000
G1 F1000 X15.9458 Y32.3455 Z-6.0000 S1000
G1 F1000 X16.0956 Y32.1957 Z-6.0000 S1000
G1 F1000 X16.3001 Y32.1409 Z-6.0000 S1000
G1 F1000 X16.5047 Y32.1957 Z-6.0000 S1000
G1 F300 Z-7.0000
G1 F1000 X16.6543 Y32.3454 Z-7.0000 S1000
G1 F1000 X16.7091 Y32.5500 Z-7.0000 S1000
G1 F1000 X16.6543 Y32.7545 Z-7.0000 S1000
G1 F1000 X16.5046 Y32.9042 Z-7.0000 S1000
G1 F1000 X16.3001 Y32.9590 Z-7.0000 S1000
G1 F1000 X16.0955 Y32.9042 Z-7.0000 S1000
G1 F1000 X15.9458 Y32.7546 Z-7.0000 S1000
G1 F1000 X15.8910 Y32.5500 Z-7.0000 S1000
G1 F1000 X15.9458 Y32.3455 Z-7.0000 S1000
G1 F1000 X16.0956 Y32.1957 Z-7.0000 S1000
G1 F1000 X16.3001 Y32.1409 Z-7.0000 S1000
G1 F1000 X16.5047 Y32.1957 Z-7.0000 S1000

G0 Z10; move to z-safe height
G0 X95.4046 Y32.1957

G0 Z0
G1 F300 Z-1.5000
G1 F1000 X95.5542 Y32.3454 Z-1.5000 S1000
G1 F1000 X95.6090 Y32.5500 Z-1.5000 S1000
G1 F1000 X95.5542 Y32.7545 Z-1.5000 S1000
G1 F1000 X95.4045 Y32.9042 Z-1.5000 S1000
G1 F1000 X95.2000 Y32.9590 Z-1.5000 S1000
G1 F1000 X94.9954 Y32.9042 Z-1.5000 S1000
G1 F1000 X94.8457 Y32.7546 Z-1.5000 S1000
G1 F1000 X94.7909 Y32.5500 Z-1.5000 S1000
G1 F1000 X94.8457 Y32.3455 Z-1.5000 S1000
G1 F1000 X94.9955 Y32.1957 Z-1.5000 S1000
G1 F1000 X95.2000 Y32.1409 Z-1.5000 S1000
G1 F1000 X95.4046 Y32.1957 Z-1.5000 S1000
G1 F300 Z-3.0000
G1 F1000 X95.5542 Y32.3454 Z-3.0000 S1000
G1 F1000 X95.6090 Y32.5500 Z-3.0000 S1000
G1 F1000 X95.5542 Y32.7545 Z-3.0000 S1000
G1 F1000 X95.4045 Y32.9042 Z-3.0000 S1000
G1 F1000 X95.2000 Y32.9590 Z-3.0000 S1000
G1 F1000 X94.9954 Y32.9042 Z-3.0000 S1000
G1 F1000 X94.8457 Y32.7546 Z-3.0000 S1000
G1 F1000 X94.7909 Y32.5500 Z-3.0000 S1000
G1 F1000 X94.8457 Y32.3455 Z-3.0000 S1000
G1 F1000 X94.9955 Y32.1957 Z-3.0000 S1000
G1 F1000 X95.2000 Y32.1409 Z-3.0000 S1000
G1 F1000 X95.4046 Y32.1957 Z-3.0000 S1000
G1 F300 Z-4.5000
G1 F1000 X95.5542 Y32.3454 Z-4.5000 S1000
G1 F1000 X95.6090 Y32.5500 Z-4.5000 S1000
G1 F1000 X95.5542 Y32.7545 Z-4.5000 S1000
G1 F1000 X95.4045 Y32.9042 Z-4.5000 S1000
G1 F1000 X95.2000 Y32.9590 Z-4.5000 S1000
G1 F1000 X94.9954 Y32.9042 Z-4.5000 S1000
G1 F1000 X94.8457 Y32.7546 Z-4.5000 S1000
G1 F1000 X94.7909 Y32.5500 Z-4.5000 S1000
G1 F1000 X94.8457 Y32.3455 Z-4.5000 S1000
G1 F1000 X94.9955 Y32.1957 Z-4.5000 S1000
G1 F1000 X95.2000 Y32.1409 Z-4.5000 S1000
G1 F1000 X95.4046 Y32.1957 Z-4.5000 S1000
G1 F300 Z-6.0000
G1 F1000 X95.5542 Y32.3454 Z-6.0000 S1000
G1 F1000 X95.6090 Y32.5500 Z-6.0000 S1000
G1 F1000 X95.5542 Y32.7545 Z-6.0000 S1000
G1 F1000 X95.4045 Y32.9042 Z-6.0000 S1000
G1 F1000 X95.2000 Y32.9590 Z-6.0000 S1000
G1 F1000 X94.9954 Y32.9042 Z-6.0000 S1000
G1 F1000 X94.8457 Y32.7546 Z-6.0000 S1000
G1 F1000 X94.7909 Y32.5500 Z-6.0000 S1000
G1 F1000 X94.8457 Y32.3455 Z-6.0000 S1000
G1 F1000 X94.9955 Y32.1957 Z-6.0000 S1000
G1 F1000 X95.2000 Y32.1409 Z-6.0000 S1000
G1 F1000 X95.4046 Y32.1957 Z-6.0000 S1000
G1 F300 Z-7.0000
G1 F1000 X95.5542 Y32.3454 Z-7.0000 S1000
G1 F1000 X95.6090 Y32.5500 Z-7.0000 S1000
G1 F1000 X95.5542 Y32.7545 Z-7.0000 S1000
G1 F1000 X95.4045 Y32.9042 Z-7.0000 S1000
G1 F1000 X95.2000 Y32.9590 Z-7.0000 S1000
G1 F1000 X94.9954 Y32.9042 Z-7.0000 S1000
G1 F1000 X94.8457 Y32.7546 Z-7.0000 S1000
G1 F1000 X94.7909 Y32.5500 Z-7.0000 S1000
G1 F1000 X94.8457 Y32.3455 Z-7.0000 S1000
G1 F1000 X94.9955 Y32.1957 Z-7.0000 S1000
G1 F1000 X95.2000 Y32.1409 Z-7.0000 S1000
G1 F1000 X95.4046 Y32.1957 Z-7.0000 S1000

G0 Z10; move to z-safe height
G0 X95.4045 Y81.0958

G0 Z0
G1 F300 Z-1.5000
G1 F1000 X95.5542 Y81.2455 Z-1.5000 S1000
G1 F1000 X95.6090 Y81.4500 Z-1.5000 S1000
G1 F1000 X95.5542 Y81.6546 Z-1.5000 S1000
G1 F1000 X95.4046 Y81.8043 Z-1.5000 S1000
G1 F1000 X95.2000 Y81.8591 Z-1.5000 S1000
G1 F1000 X94.9955 Y81.8043 Z-1.5000 S1000
G1 F1000 X94.8457 Y81.6545 Z-1.5000 S1000
G1 F1000 X94.7909 Y81.4500 Z-1.5000 S1000
G1 F1000 X94.8457 Y81.2454 Z-1.5000 S1000
G1 F1000 X94.9954 Y81.0958 Z-1.5000 S1000
G1 F1000 X95.2000 Y81.0410 Z-1.5000 S1000
G1 F1000 X95.4045 Y81.0958 Z-1.5000 S1000
G1 F300 Z-3.0000
G1 F1000 X95.5542 Y81.2455 Z-3.0000 S1000
G1 F1000 X95.6090 Y81.4500 Z-3.0000 S1000
G1 F1000 X95.5542 Y81.6546 Z-3.0000 S1000
G1 F1000 X95.4046 Y81.8043 Z-3.0000 S1000
G1 F1000 X95.2000 Y81.8591 Z-3.0000 S1000
G1 F1000 X94.9955 Y81.8043 Z-3.0000 S1000
G1 F1000 X94.8457 Y81.6545 Z-3.0000 S1000
G1 F1000 X94.7909 Y81.4500 Z-3.0000 S1000
G1 F1000 X94.8457 Y81.2454 Z-3.0000 S1000
G1 F1000 X94.9954 Y81.0958 Z-3.0000 S1000
G1 F1000 X95.2000 Y81.0410 Z-3.0000 S1000
G1 F1000 X95.4045 Y81.0958 Z-3.0000 S1000
G1 F300 Z-4.5000
G1 F1000 X95.5542 Y81.2455 Z-4.5000 S1000
G1 F1000 X95.6090 Y81.4500 Z-4.5000 S1000
G1 F1000 X95.5542 Y81.6546 Z-4.5000 S1000
G1 F1000 X95.4046 Y81.8043 Z-4.5000 S1000
G1 F1000 X95.2000 Y81.8591 Z-4.5000 S1000
G1 F1000 X94.9955 Y81.8043 Z-4.5000 S1000
G1 F1000 X94.8457 Y81.6545 Z-4.5000 S1000
G1 F1000 X94.7909 Y81.4500 Z-4.5000 S1000
G1 F1000 X94.8457 Y81.2454 Z-4.5000 S1000
G1 F1000 X94.9954 Y81.0958 Z-4.5000 S1000
G1 F1000 X95.2000 Y81.0410 Z-4.5000 S1000
G1 F1000 X95.4045 Y81.0958 Z-4.5000 S1000
G1 F300 Z-6.0000
G1 F1000 X95.5542 Y81.2455 Z-6.0000 S1000
G1 F1000 X95.6090 Y81.4500 Z-6.0000 S1000
G1 F1000 X95.5542 Y81.6546 Z-6.0000 S1000
G1 F1000 X95.4046 Y81.8043 Z-6.0000 S1000
G1 F1000 X95.2000 Y81.8591 Z-6.0000 S1000
G1 F1000 X94.9955 Y81.8043 Z-6.0000 S1000
G1 F1000 X94.8457 Y81.6545 Z-6.0000 S1000
G1 F1000 X94.7909 Y81.4500 Z-6.0000 S1000
G1 F1000 X94.8457 Y81.2454 Z-6.0000 S1000
G1 F1000 X94.9954 Y81.0958 Z-6.0000 S1000
G1 F1000 X95.2000 Y81.0410 Z-6.0000 S1000
G1 F1000 X95.4045 Y81.0958 Z-6.0000 S1000
G1 F300 Z-7.0000
G1 F1000 X95.5542 Y81.2455 Z-7.0000 S1000
G1 F1000 X95.6090 Y81.4500 Z-7.0000 S1000
G1 F1000 X95.5542 Y81.6546 Z-7.0000 S1000
G1 F1000 X95.4046 Y81.8043 Z-7.0000 S1000
G1 F1000 X95.2000 Y81.8591 Z-7.0000 S1000
G1 F1000 X94.9955 Y81.8043 Z-7.0000 S1000
G1 F1000 X94.8457 Y81.6545 Z-7.0000 S1000
G1 F1000 X94.7909 Y81.4500 Z-7.0000 S1000
G1 F1000 X94.8457 Y81.2454 Z-7.0000 S1000
G1 F1000 X94.9954 Y81.0958 Z-7.0000 S1000
G1 F1000 X95.2000 Y81.0410 Z-7.0000 S1000
G1 F1000 X95.4045 Y81.0958 Z-7.0000 S1000
; retracting back to z-safe
G0 Z10
; Operation 2: CNC: Vector (path inside)
; Endmill Diameter: 3.17

G0 Z10; move to z-safe height
G0 F1000 X99.9150 Y86.1650

G0 Z0
G1 F300 Z-1.5000
G1 F1000 X11.5850 Y86.1650 Z-1.5000 S1000
G1 F1000 X11.5850 Y27.8350 Z-1.5000 S1000
G1 F1000 X99.9150 Y27.8350 Z-1.5000 S1000
G1 F1000 X99.9150 Y86.1650 Z-1.5000 S1000
G1 F300 Z-3.0000
G1 F1000 X11.5850 Y86.1650 Z-3.0000 S1000
G1 F1000 X11.5850 Y27.8350 Z-3.0000 S1000
G1 F1000 X99.9150 Y27.8350 Z-3.0000 S1000
G1 F1000 X99.9150 Y86.1650 Z-3.0000 S1000
; retracting back to z-safe
G0 Z10
; Operation 3: Drill: Peck (Centered)
; Endmill Diameter: 3.17

G0 Z10; move to z-safe height
G0 F1000 X137.0285 Y12.0352

G0 Z0
G1 F300 Z0.0000
G1 F1000 X137.0285 Y12.0352 Z0.0000 S1000
G1 F1000 X137.0285 Y12.0352 Z0.0000 S1000
G1 F300 Z0.0000
G1 F1000 X137.0285 Y12.0352 Z-1.5000 S1000
G1 F1000 X137.0285 Y12.0352 Z0.0000 S1000
G1 F300 Z-1.5000
G1 F1000 X137.0285 Y12.0352 Z-3.0000 S1000
G1 F1000 X137.0285 Y12.0352 Z0.0000 S1000
G1 F300 Z-3.0000
G1 F1000 X137.0285 Y12.0352 Z-4.5000 S1000
G1 F1000 X137.0285 Y12.0352 Z0.0000 S1000
G1 F300 Z-4.5000
G1 F1000 X137.0285 Y12.0352 Z-6.0000 S1000
G1 F1000 X137.0285 Y12.0352 Z0.0000 S1000
G1 F300 Z-6.0000
G1 F1000 X137.0285 Y12.0352 Z-7.5000 S1000
G1 F1000 X137.0285 Y12.0352 Z0.0000 S1000
G1 F300 Z-7.5000
G1 F1000 X137.0285 Y12.0352 Z-9.0000 S1000
G1 F1000 X137.0285 Y12.0352 Z0.0000 S1000

G0 Z10; move to z-safe height
G0 X155.0002 Y12.0352

G0 Z0
G1 F300 Z0.0000
G1 F1000 X155.0002 Y12.0352 Z0.0000 S1000
G1 F1000 X155.0002 Y12.0352 Z0.0000 S1000
G1 F300 Z0.0000
G1 F1000 X155.0002 Y12.0352 Z-1.5000 S1000
G1 F1000 X155.0002 Y12.0352 Z0.0000 S1000
G1 F300 Z-1.5000
G1 F1000 X155.0002 Y12.0352 Z-3.0000 S1000
G1 F1000 X155.0002 Y12.0352 Z0.0000 S1000
G1 F300 Z-3.0000
G1 F1000 X155.0002 Y12.0352 Z-4.5000 S1000
G1 F1000 X155.0002 Y12.0352 Z0.0000 S1000
G1 F300 Z-4.5000
G1 F1000 X155.0002 Y12.0352 Z-6.0000 S1000
G1 F1000 X155.0002 Y12.0352 Z0.0000 S1000
G1 F300 Z-6.0000
G1 F1000 X155.0002 Y12.0352 Z-7.5000 S1000
G1 F1000 X155.0002 Y12.0352 Z0.0000 S1000
G1 F300 Z-7.5000
G1 F1000 X155.0002 Y12.0352 Z-9.0000 S1000
G1 F1000 X155.0002 Y12.0352 Z0.0000 S1000

G0 Z10; move to z-safe height
G0 X142.8002 Y12.0352

G0 Z0
G1 F300 Z0.0000
G1 F1000 X142.8002 Y12.0352 Z0.0000 S1000
G1 F1000 X142.8002 Y12.0352 Z0.0000 S1000
G1 F300 Z0.0000
G1 F1000 X142.8002 Y12.0352 Z-1.5000 S1000
G1 F1000 X142.8002 Y12.0352 Z0.0000 S1000
G1 F300 Z-1.5000
G1 F1000 X142.8002 Y12.0352 Z-3.0000 S1000
G1 F1000 X142.8002 Y12.0352 Z0.0000 S1000
G1 F300 Z-3.0000
G1 F1000 X142.8002 Y12.0352 Z-4.5000 S1000
G1 F1000 X142.8002 Y12.0352 Z0.0000 S1000
G1 F300 Z-4.5000
G1 F1000 X142.8002 Y12.0352 Z-6.0000 S1000
G1 F1000 X142.8002 Y12.0352 Z0.0000 S1000
G1 F300 Z-6.0000
G1 F1000 X142.8002 Y12.0352 Z-7.5000 S1000
G1 F1000 X142.8002 Y12.0352 Z0.0000 S1000
G1 F300 Z-7.5000
G1 F1000 X142.8002 Y12.0352 Z-9.0000 S1000
G1 F1000 X142.8002 Y12.0352 Z0.0000 S1000

G0 Z10; move to z-safe height
G0 X124.8285 Y12.0352

G0 Z0
G1 F300 Z0.0000
G1 F1000 X124.8285 Y12.0352 Z0.0000 S1000
G1 F1000 X124.8285 Y12.0352 Z0.0000 S1000
G1 F300 Z0.0000
G1 F1000 X124.8285 Y12.0352 Z-1.5000 S1000
G1 F1000 X124.8285 Y12.0352 Z0.0000 S1000
G1 F300 Z-1.5000
G1 F1000 X124.8285 Y12.0352 Z-3.0000 S1000
G1 F1000 X124.8285 Y12.0352 Z0.0000 S1000
G1 F300 Z-3.0000
G1 F1000 X124.8285 Y12.0352 Z-4.5000 S1000
G1 F1000 X124.8285 Y12.0352 Z0.0000 S1000
G1 F300 Z-4.5000
G1 F1000 X124.8285 Y12.0352 Z-6.0000 S1000
G1 F1000 X124.8285 Y12.0352 Z0.0000 S1000
G1 F300 Z-6.0000
G1 F1000 X124.8285 Y12.0352 Z-7.5000 S1000
G1 F1000 X124.8285 Y12.0352 Z0.0000 S1000
G1 F300 Z-7.5000
G1 F1000 X124.8285 Y12.0352 Z-9.0000 S1000
G1 F1000 X124.8285 Y12.0352 Z0.0000 S1000
; retracting back to z-safe
G0 Z10

M5 S0; Spindle Off
