; GCODE Generated by cam.openbuilds.com on 2021-04-30 
G21 ; mm-mode
G54; Work Coordinates
G21; mm-mode
G90; Absolute Positioning
M3 S1000; Spindle On

; Operation 0: Drill: Peck (Centered)
; Endmill Diameter: 6.35

G0 Z10; move to z-safe height
G0 F1000 X21.7935 Y42.4514

G0 Z0
G1 F300 Z0.0000
G1 F1000 X21.7935 Y42.4514 Z0.0000 S1000
G1 F1000 X21.7935 Y42.4514 Z0.0000 S1000
G1 F300 Z0.0000
G1 F1000 X21.7935 Y42.4514 Z-1.5000 S1000
G1 F1000 X21.7935 Y42.4514 Z0.0000 S1000
G1 F300 Z-1.5000
G1 F1000 X21.7935 Y42.4514 Z-3.0000 S1000
G1 F1000 X21.7935 Y42.4514 Z0.0000 S1000
G1 F300 Z-3.0000
G1 F1000 X21.7935 Y42.4514 Z-4.0000 S1000
G1 F1000 X21.7935 Y42.4514 Z0.0000 S1000

G0 Z10; move to z-safe height
G0 X167.5789 Y42.5836

G0 Z0
G1 F300 Z0.0000
G1 F1000 X167.5789 Y42.5836 Z0.0000 S1000
G1 F1000 X167.5789 Y42.5836 Z0.0000 S1000
G1 F300 Z0.0000
G1 F1000 X167.5789 Y42.5836 Z-1.5000 S1000
G1 F1000 X167.5789 Y42.5836 Z0.0000 S1000
G1 F300 Z-1.5000
G1 F1000 X167.5789 Y42.5836 Z-3.0000 S1000
G1 F1000 X167.5789 Y42.5836 Z0.0000 S1000
G1 F300 Z-3.0000
G1 F1000 X167.5789 Y42.5836 Z-4.0000 S1000
G1 F1000 X167.5789 Y42.5836 Z0.0000 S1000
; retracting back to z-safe
G0 Z10
; Operation 1: CNC: Vector (path inside)
; Endmill Diameter: 3.17

G0 Z10; move to z-safe height
G0 F1000 X158.0100 Y38.3273

G0 Z0
G1 F100 Z-1.5000
G1 F1000 X158.3048 Y38.5243 Z-1.5000 S1000
G1 F1000 X158.5020 Y38.8194 Z-1.5000 S1000
G1 F1000 X158.5712 Y39.1671 Z-1.5000 S1000
G1 F1000 X158.5020 Y39.5148 Z-1.5000 S1000
G1 F1000 X158.3050 Y39.8097 Z-1.5000 S1000
G1 F1000 X158.0098 Y40.0070 Z-1.5000 S1000
G1 F1000 X157.6622 Y40.0761 Z-1.5000 S1000
G1 F1000 X157.3145 Y40.0069 Z-1.5000 S1000
G1 F1000 X157.0195 Y39.8098 Z-1.5000 S1000
G1 F1000 X156.8224 Y39.5148 Z-1.5000 S1000
G1 F1000 X156.7532 Y39.1671 Z-1.5000 S1000
G1 F1000 X156.8224 Y38.8192 Z-1.5000 S1000
G1 F1000 X157.0194 Y38.5243 Z-1.5000 S1000
G1 F1000 X157.3143 Y38.3273 Z-1.5000 S1000
G1 F1000 X157.6622 Y38.2581 Z-1.5000 S1000
G1 F1000 X158.0100 Y38.3273 Z-1.5000 S1000
G1 F100 Z-3.0000
G1 F1000 X158.3048 Y38.5243 Z-3.0000 S1000
G1 F1000 X158.5020 Y38.8194 Z-3.0000 S1000
G1 F1000 X158.5712 Y39.1671 Z-3.0000 S1000
G1 F1000 X158.5020 Y39.5148 Z-3.0000 S1000
G1 F1000 X158.3050 Y39.8097 Z-3.0000 S1000
G1 F1000 X158.0098 Y40.0070 Z-3.0000 S1000
G1 F1000 X157.6622 Y40.0761 Z-3.0000 S1000
G1 F1000 X157.3145 Y40.0069 Z-3.0000 S1000
G1 F1000 X157.0195 Y39.8098 Z-3.0000 S1000
G1 F1000 X156.8224 Y39.5148 Z-3.0000 S1000
G1 F1000 X156.7532 Y39.1671 Z-3.0000 S1000
G1 F1000 X156.8224 Y38.8192 Z-3.0000 S1000
G1 F1000 X157.0194 Y38.5243 Z-3.0000 S1000
G1 F1000 X157.3143 Y38.3273 Z-3.0000 S1000
G1 F1000 X157.6622 Y38.2581 Z-3.0000 S1000
G1 F1000 X158.0100 Y38.3273 Z-3.0000 S1000
G1 F100 Z-4.5000
G1 F1000 X158.3048 Y38.5243 Z-4.5000 S1000
G1 F1000 X158.5020 Y38.8194 Z-4.5000 S1000
G1 F1000 X158.5712 Y39.1671 Z-4.5000 S1000
G1 F1000 X158.5020 Y39.5148 Z-4.5000 S1000
G1 F1000 X158.3050 Y39.8097 Z-4.5000 S1000
G1 F1000 X158.0098 Y40.0070 Z-4.5000 S1000
G1 F1000 X157.6622 Y40.0761 Z-4.5000 S1000
G1 F1000 X157.3145 Y40.0069 Z-4.5000 S1000
G1 F1000 X157.0195 Y39.8098 Z-4.5000 S1000
G1 F1000 X156.8224 Y39.5148 Z-4.5000 S1000
G1 F1000 X156.7532 Y39.1671 Z-4.5000 S1000
G1 F1000 X156.8224 Y38.8192 Z-4.5000 S1000
G1 F1000 X157.0194 Y38.5243 Z-4.5000 S1000
G1 F1000 X157.3143 Y38.3273 Z-4.5000 S1000
G1 F1000 X157.6622 Y38.2581 Z-4.5000 S1000
G1 F1000 X158.0100 Y38.3273 Z-4.5000 S1000
G1 F100 Z-6.0000
G1 F1000 X158.3048 Y38.5243 Z-6.0000 S1000
G1 F1000 X158.5020 Y38.8194 Z-6.0000 S1000
G1 F1000 X158.5712 Y39.1671 Z-6.0000 S1000
G1 F1000 X158.5020 Y39.5148 Z-6.0000 S1000
G1 F1000 X158.3050 Y39.8097 Z-6.0000 S1000
G1 F1000 X158.0098 Y40.0070 Z-6.0000 S1000
G1 F1000 X157.6622 Y40.0761 Z-6.0000 S1000
G1 F1000 X157.3145 Y40.0069 Z-6.0000 S1000
G1 F1000 X157.0195 Y39.8098 Z-6.0000 S1000
G1 F1000 X156.8224 Y39.5148 Z-6.0000 S1000
G1 F1000 X156.7532 Y39.1671 Z-6.0000 S1000
G1 F1000 X156.8224 Y38.8192 Z-6.0000 S1000
G1 F1000 X157.0194 Y38.5243 Z-6.0000 S1000
G1 F1000 X157.3143 Y38.3273 Z-6.0000 S1000
G1 F1000 X157.6622 Y38.2581 Z-6.0000 S1000
G1 F1000 X158.0100 Y38.3273 Z-6.0000 S1000
G1 F100 Z-7.5000
G1 F1000 X158.3048 Y38.5243 Z-7.5000 S1000
G1 F1000 X158.5020 Y38.8194 Z-7.5000 S1000
G1 F1000 X158.5712 Y39.1671 Z-7.5000 S1000
G1 F1000 X158.5020 Y39.5148 Z-7.5000 S1000
G1 F1000 X158.3050 Y39.8097 Z-7.5000 S1000
G1 F1000 X158.0098 Y40.0070 Z-7.5000 S1000
G1 F1000 X157.6622 Y40.0761 Z-7.5000 S1000
G1 F1000 X157.3145 Y40.0069 Z-7.5000 S1000
G1 F1000 X157.0195 Y39.8098 Z-7.5000 S1000
G1 F1000 X156.8224 Y39.5148 Z-7.5000 S1000
G1 F1000 X156.7532 Y39.1671 Z-7.5000 S1000
G1 F1000 X156.8224 Y38.8192 Z-7.5000 S1000
G1 F1000 X157.0194 Y38.5243 Z-7.5000 S1000
G1 F1000 X157.3143 Y38.3273 Z-7.5000 S1000
G1 F1000 X157.6622 Y38.2581 Z-7.5000 S1000
G1 F1000 X158.0100 Y38.3273 Z-7.5000 S1000
G1 F100 Z-8.8000
G1 F1000 X158.3048 Y38.5243 Z-8.8000 S1000
G1 F1000 X158.5020 Y38.8194 Z-8.8000 S1000
G1 F1000 X158.5712 Y39.1671 Z-8.8000 S1000
G1 F1000 X158.5020 Y39.5148 Z-8.8000 S1000
G1 F1000 X158.3050 Y39.8097 Z-8.8000 S1000
G1 F1000 X158.0098 Y40.0070 Z-8.8000 S1000
G1 F1000 X157.6622 Y40.0761 Z-8.8000 S1000
G1 F1000 X157.3145 Y40.0069 Z-8.8000 S1000
G1 F1000 X157.0195 Y39.8098 Z-8.8000 S1000
G1 F1000 X156.8224 Y39.5148 Z-8.8000 S1000
G1 F1000 X156.7532 Y39.1671 Z-8.8000 S1000
G1 F1000 X156.8224 Y38.8192 Z-8.8000 S1000
G1 F1000 X157.0194 Y38.5243 Z-8.8000 S1000
G1 F1000 X157.3143 Y38.3273 Z-8.8000 S1000
G1 F1000 X157.6622 Y38.2581 Z-8.8000 S1000
G1 F1000 X158.0100 Y38.3273 Z-8.8000 S1000

G0 Z10; move to z-safe height
G0 X104.0955 Y21.7272

G0 Z0
G1 F100 Z-1.5000
G1 F1000 X104.3907 Y21.9245 Z-1.5000 S1000
G1 F1000 X104.5877 Y22.2194 Z-1.5000 S1000
G1 F1000 X104.6569 Y22.5671 Z-1.5000 S1000
G1 F1000 X104.5877 Y22.9148 Z-1.5000 S1000
G1 F1000 X104.3905 Y23.2099 Z-1.5000 S1000
G1 F1000 X104.0957 Y23.4069 Z-1.5000 S1000
G1 F1000 X103.7479 Y23.4761 Z-1.5000 S1000
G1 F1000 X103.4000 Y23.4069 Z-1.5000 S1000
G1 F1000 X103.1051 Y23.2099 Z-1.5000 S1000
G1 F1000 X102.9081 Y22.9150 Z-1.5000 S1000
G1 F1000 X102.8389 Y22.5671 Z-1.5000 S1000
G1 F1000 X102.9081 Y22.2194 Z-1.5000 S1000
G1 F1000 X103.1052 Y21.9244 Z-1.5000 S1000
G1 F1000 X103.4002 Y21.7273 Z-1.5000 S1000
G1 F1000 X103.7479 Y21.6581 Z-1.5000 S1000
G1 F1000 X104.0955 Y21.7272 Z-1.5000 S1000
G1 F100 Z-3.0000
G1 F1000 X104.3907 Y21.9245 Z-3.0000 S1000
G1 F1000 X104.5877 Y22.2194 Z-3.0000 S1000
G1 F1000 X104.6569 Y22.5671 Z-3.0000 S1000
G1 F1000 X104.5877 Y22.9148 Z-3.0000 S1000
G1 F1000 X104.3905 Y23.2099 Z-3.0000 S1000
G1 F1000 X104.0957 Y23.4069 Z-3.0000 S1000
G1 F1000 X103.7479 Y23.4761 Z-3.0000 S1000
G1 F1000 X103.4000 Y23.4069 Z-3.0000 S1000
G1 F1000 X103.1051 Y23.2099 Z-3.0000 S1000
G1 F1000 X102.9081 Y22.9150 Z-3.0000 S1000
G1 F1000 X102.8389 Y22.5671 Z-3.0000 S1000
G1 F1000 X102.9081 Y22.2194 Z-3.0000 S1000
G1 F1000 X103.1052 Y21.9244 Z-3.0000 S1000
G1 F1000 X103.4002 Y21.7273 Z-3.0000 S1000
G1 F1000 X103.7479 Y21.6581 Z-3.0000 S1000
G1 F1000 X104.0955 Y21.7272 Z-3.0000 S1000
G1 F100 Z-4.5000
G1 F1000 X104.3907 Y21.9245 Z-4.5000 S1000
G1 F1000 X104.5877 Y22.2194 Z-4.5000 S1000
G1 F1000 X104.6569 Y22.5671 Z-4.5000 S1000
G1 F1000 X104.5877 Y22.9148 Z-4.5000 S1000
G1 F1000 X104.3905 Y23.2099 Z-4.5000 S1000
G1 F1000 X104.0957 Y23.4069 Z-4.5000 S1000
G1 F1000 X103.7479 Y23.4761 Z-4.5000 S1000
G1 F1000 X103.4000 Y23.4069 Z-4.5000 S1000
G1 F1000 X103.1051 Y23.2099 Z-4.5000 S1000
G1 F1000 X102.9081 Y22.9150 Z-4.5000 S1000
G1 F1000 X102.8389 Y22.5671 Z-4.5000 S1000
G1 F1000 X102.9081 Y22.2194 Z-4.5000 S1000
G1 F1000 X103.1052 Y21.9244 Z-4.5000 S1000
G1 F1000 X103.4002 Y21.7273 Z-4.5000 S1000
G1 F1000 X103.7479 Y21.6581 Z-4.5000 S1000
G1 F1000 X104.0955 Y21.7272 Z-4.5000 S1000
G1 F100 Z-6.0000
G1 F1000 X104.3907 Y21.9245 Z-6.0000 S1000
G1 F1000 X104.5877 Y22.2194 Z-6.0000 S1000
G1 F1000 X104.6569 Y22.5671 Z-6.0000 S1000
G1 F1000 X104.5877 Y22.9148 Z-6.0000 S1000
G1 F1000 X104.3905 Y23.2099 Z-6.0000 S1000
G1 F1000 X104.0957 Y23.4069 Z-6.0000 S1000
G1 F1000 X103.7479 Y23.4761 Z-6.0000 S1000
G1 F1000 X103.4000 Y23.4069 Z-6.0000 S1000
G1 F1000 X103.1051 Y23.2099 Z-6.0000 S1000
G1 F1000 X102.9081 Y22.9150 Z-6.0000 S1000
G1 F1000 X102.8389 Y22.5671 Z-6.0000 S1000
G1 F1000 X102.9081 Y22.2194 Z-6.0000 S1000
G1 F1000 X103.1052 Y21.9244 Z-6.0000 S1000
G1 F1000 X103.4002 Y21.7273 Z-6.0000 S1000
G1 F1000 X103.7479 Y21.6581 Z-6.0000 S1000
G1 F1000 X104.0955 Y21.7272 Z-6.0000 S1000
G1 F100 Z-7.5000
G1 F1000 X104.3907 Y21.9245 Z-7.5000 S1000
G1 F1000 X104.5877 Y22.2194 Z-7.5000 S1000
G1 F1000 X104.6569 Y22.5671 Z-7.5000 S1000
G1 F1000 X104.5877 Y22.9148 Z-7.5000 S1000
G1 F1000 X104.3905 Y23.2099 Z-7.5000 S1000
G1 F1000 X104.0957 Y23.4069 Z-7.5000 S1000
G1 F1000 X103.7479 Y23.4761 Z-7.5000 S1000
G1 F1000 X103.4000 Y23.4069 Z-7.5000 S1000
G1 F1000 X103.1051 Y23.2099 Z-7.5000 S1000
G1 F1000 X102.9081 Y22.9150 Z-7.5000 S1000
G1 F1000 X102.8389 Y22.5671 Z-7.5000 S1000
G1 F1000 X102.9081 Y22.2194 Z-7.5000 S1000
G1 F1000 X103.1052 Y21.9244 Z-7.5000 S1000
G1 F1000 X103.4002 Y21.7273 Z-7.5000 S1000
G1 F1000 X103.7479 Y21.6581 Z-7.5000 S1000
G1 F1000 X104.0955 Y21.7272 Z-7.5000 S1000
G1 F100 Z-8.8000
G1 F1000 X104.3907 Y21.9245 Z-8.8000 S1000
G1 F1000 X104.5877 Y22.2194 Z-8.8000 S1000
G1 F1000 X104.6569 Y22.5671 Z-8.8000 S1000
G1 F1000 X104.5877 Y22.9148 Z-8.8000 S1000
G1 F1000 X104.3905 Y23.2099 Z-8.8000 S1000
G1 F1000 X104.0957 Y23.4069 Z-8.8000 S1000
G1 F1000 X103.7479 Y23.4761 Z-8.8000 S1000
G1 F1000 X103.4000 Y23.4069 Z-8.8000 S1000
G1 F1000 X103.1051 Y23.2099 Z-8.8000 S1000
G1 F1000 X102.9081 Y22.9150 Z-8.8000 S1000
G1 F1000 X102.8389 Y22.5671 Z-8.8000 S1000
G1 F1000 X102.9081 Y22.2194 Z-8.8000 S1000
G1 F1000 X103.1052 Y21.9244 Z-8.8000 S1000
G1 F1000 X103.4002 Y21.7273 Z-8.8000 S1000
G1 F1000 X103.7479 Y21.6581 Z-8.8000 S1000
G1 F1000 X104.0955 Y21.7272 Z-8.8000 S1000

G0 Z10; move to z-safe height
G0 X122.0672 Y38.3273

G0 Z0
G1 F100 Z-1.5000
G1 F1000 X122.3621 Y38.5243 Z-1.5000 S1000
G1 F1000 X122.5591 Y38.8192 Z-1.5000 S1000
G1 F1000 X122.6283 Y39.1671 Z-1.5000 S1000
G1 F1000 X122.5591 Y39.5148 Z-1.5000 S1000
G1 F1000 X122.3620 Y39.8098 Z-1.5000 S1000
G1 F1000 X122.0670 Y40.0069 Z-1.5000 S1000
G1 F1000 X121.7193 Y40.0761 Z-1.5000 S1000
G1 F1000 X121.3716 Y40.0069 Z-1.5000 S1000
G1 F1000 X121.0766 Y39.8098 Z-1.5000 S1000
G1 F1000 X120.8795 Y39.5148 Z-1.5000 S1000
G1 F1000 X120.8103 Y39.1671 Z-1.5000 S1000
G1 F1000 X120.8795 Y38.8194 Z-1.5000 S1000
G1 F1000 X121.0766 Y38.5244 Z-1.5000 S1000
G1 F1000 X121.3716 Y38.3273 Z-1.5000 S1000
G1 F1000 X121.7193 Y38.2581 Z-1.5000 S1000
G1 F1000 X122.0672 Y38.3273 Z-1.5000 S1000
G1 F100 Z-3.0000
G1 F1000 X122.3621 Y38.5243 Z-3.0000 S1000
G1 F1000 X122.5591 Y38.8192 Z-3.0000 S1000
G1 F1000 X122.6283 Y39.1671 Z-3.0000 S1000
G1 F1000 X122.5591 Y39.5148 Z-3.0000 S1000
G1 F1000 X122.3620 Y39.8098 Z-3.0000 S1000
G1 F1000 X122.0670 Y40.0069 Z-3.0000 S1000
G1 F1000 X121.7193 Y40.0761 Z-3.0000 S1000
G1 F1000 X121.3716 Y40.0069 Z-3.0000 S1000
G1 F1000 X121.0766 Y39.8098 Z-3.0000 S1000
G1 F1000 X120.8795 Y39.5148 Z-3.0000 S1000
G1 F1000 X120.8103 Y39.1671 Z-3.0000 S1000
G1 F1000 X120.8795 Y38.8194 Z-3.0000 S1000
G1 F1000 X121.0766 Y38.5244 Z-3.0000 S1000
G1 F1000 X121.3716 Y38.3273 Z-3.0000 S1000
G1 F1000 X121.7193 Y38.2581 Z-3.0000 S1000
G1 F1000 X122.0672 Y38.3273 Z-3.0000 S1000
G1 F100 Z-4.5000
G1 F1000 X122.3621 Y38.5243 Z-4.5000 S1000
G1 F1000 X122.5591 Y38.8192 Z-4.5000 S1000
G1 F1000 X122.6283 Y39.1671 Z-4.5000 S1000
G1 F1000 X122.5591 Y39.5148 Z-4.5000 S1000
G1 F1000 X122.3620 Y39.8098 Z-4.5000 S1000
G1 F1000 X122.0670 Y40.0069 Z-4.5000 S1000
G1 F1000 X121.7193 Y40.0761 Z-4.5000 S1000
G1 F1000 X121.3716 Y40.0069 Z-4.5000 S1000
G1 F1000 X121.0766 Y39.8098 Z-4.5000 S1000
G1 F1000 X120.8795 Y39.5148 Z-4.5000 S1000
G1 F1000 X120.8103 Y39.1671 Z-4.5000 S1000
G1 F1000 X120.8795 Y38.8194 Z-4.5000 S1000
G1 F1000 X121.0766 Y38.5244 Z-4.5000 S1000
G1 F1000 X121.3716 Y38.3273 Z-4.5000 S1000
G1 F1000 X121.7193 Y38.2581 Z-4.5000 S1000
G1 F1000 X122.0672 Y38.3273 Z-4.5000 S1000
G1 F100 Z-6.0000
G1 F1000 X122.3621 Y38.5243 Z-6.0000 S1000
G1 F1000 X122.5591 Y38.8192 Z-6.0000 S1000
G1 F1000 X122.6283 Y39.1671 Z-6.0000 S1000
G1 F1000 X122.5591 Y39.5148 Z-6.0000 S1000
G1 F1000 X122.3620 Y39.8098 Z-6.0000 S1000
G1 F1000 X122.0670 Y40.0069 Z-6.0000 S1000
G1 F1000 X121.7193 Y40.0761 Z-6.0000 S1000
G1 F1000 X121.3716 Y40.0069 Z-6.0000 S1000
G1 F1000 X121.0766 Y39.8098 Z-6.0000 S1000
G1 F1000 X120.8795 Y39.5148 Z-6.0000 S1000
G1 F1000 X120.8103 Y39.1671 Z-6.0000 S1000
G1 F1000 X120.8795 Y38.8194 Z-6.0000 S1000
G1 F1000 X121.0766 Y38.5244 Z-6.0000 S1000
G1 F1000 X121.3716 Y38.3273 Z-6.0000 S1000
G1 F1000 X121.7193 Y38.2581 Z-6.0000 S1000
G1 F1000 X122.0672 Y38.3273 Z-6.0000 S1000
G1 F100 Z-7.5000
G1 F1000 X122.3621 Y38.5243 Z-7.5000 S1000
G1 F1000 X122.5591 Y38.8192 Z-7.5000 S1000
G1 F1000 X122.6283 Y39.1671 Z-7.5000 S1000
G1 F1000 X122.5591 Y39.5148 Z-7.5000 S1000
G1 F1000 X122.3620 Y39.8098 Z-7.5000 S1000
G1 F1000 X122.0670 Y40.0069 Z-7.5000 S1000
G1 F1000 X121.7193 Y40.0761 Z-7.5000 S1000
G1 F1000 X121.3716 Y40.0069 Z-7.5000 S1000
G1 F1000 X121.0766 Y39.8098 Z-7.5000 S1000
G1 F1000 X120.8795 Y39.5148 Z-7.5000 S1000
G1 F1000 X120.8103 Y39.1671 Z-7.5000 S1000
G1 F1000 X120.8795 Y38.8194 Z-7.5000 S1000
G1 F1000 X121.0766 Y38.5244 Z-7.5000 S1000
G1 F1000 X121.3716 Y38.3273 Z-7.5000 S1000
G1 F1000 X121.7193 Y38.2581 Z-7.5000 S1000
G1 F1000 X122.0672 Y38.3273 Z-7.5000 S1000
G1 F100 Z-8.8000
G1 F1000 X122.3621 Y38.5243 Z-8.8000 S1000
G1 F1000 X122.5591 Y38.8192 Z-8.8000 S1000
G1 F1000 X122.6283 Y39.1671 Z-8.8000 S1000
G1 F1000 X122.5591 Y39.5148 Z-8.8000 S1000
G1 F1000 X122.3620 Y39.8098 Z-8.8000 S1000
G1 F1000 X122.0670 Y40.0069 Z-8.8000 S1000
G1 F1000 X121.7193 Y40.0761 Z-8.8000 S1000
G1 F1000 X121.3716 Y40.0069 Z-8.8000 S1000
G1 F1000 X121.0766 Y39.8098 Z-8.8000 S1000
G1 F1000 X120.8795 Y39.5148 Z-8.8000 S1000
G1 F1000 X120.8103 Y39.1671 Z-8.8000 S1000
G1 F1000 X120.8795 Y38.8194 Z-8.8000 S1000
G1 F1000 X121.0766 Y38.5244 Z-8.8000 S1000
G1 F1000 X121.3716 Y38.3273 Z-8.8000 S1000
G1 F1000 X121.7193 Y38.2581 Z-8.8000 S1000
G1 F1000 X122.0672 Y38.3273 Z-8.8000 S1000

G0 Z10; move to z-safe height
G0 X68.1528 Y38.3273

G0 Z0
G1 F100 Z-1.5000
G1 F1000 X68.4478 Y38.5244 Z-1.5000 S1000
G1 F1000 X68.6449 Y38.8194 Z-1.5000 S1000
G1 F1000 X68.7141 Y39.1671 Z-1.5000 S1000
G1 F1000 X68.6449 Y39.5148 Z-1.5000 S1000
G1 F1000 X68.4478 Y39.8098 Z-1.5000 S1000
G1 F1000 X68.1528 Y40.0069 Z-1.5000 S1000
G1 F1000 X67.8051 Y40.0761 Z-1.5000 S1000
G1 F1000 X67.4574 Y40.0069 Z-1.5000 S1000
G1 F1000 X67.1624 Y39.8098 Z-1.5000 S1000
G1 F1000 X66.9653 Y39.5148 Z-1.5000 S1000
G1 F1000 X66.8961 Y39.1671 Z-1.5000 S1000
G1 F1000 X66.9653 Y38.8192 Z-1.5000 S1000
G1 F1000 X67.1623 Y38.5243 Z-1.5000 S1000
G1 F1000 X67.4572 Y38.3273 Z-1.5000 S1000
G1 F1000 X67.8051 Y38.2581 Z-1.5000 S1000
G1 F1000 X68.1528 Y38.3273 Z-1.5000 S1000
G1 F100 Z-3.0000
G1 F1000 X68.4478 Y38.5244 Z-3.0000 S1000
G1 F1000 X68.6449 Y38.8194 Z-3.0000 S1000
G1 F1000 X68.7141 Y39.1671 Z-3.0000 S1000
G1 F1000 X68.6449 Y39.5148 Z-3.0000 S1000
G1 F1000 X68.4478 Y39.8098 Z-3.0000 S1000
G1 F1000 X68.1528 Y40.0069 Z-3.0000 S1000
G1 F1000 X67.8051 Y40.0761 Z-3.0000 S1000
G1 F1000 X67.4574 Y40.0069 Z-3.0000 S1000
G1 F1000 X67.1624 Y39.8098 Z-3.0000 S1000
G1 F1000 X66.9653 Y39.5148 Z-3.0000 S1000
G1 F1000 X66.8961 Y39.1671 Z-3.0000 S1000
G1 F1000 X66.9653 Y38.8192 Z-3.0000 S1000
G1 F1000 X67.1623 Y38.5243 Z-3.0000 S1000
G1 F1000 X67.4572 Y38.3273 Z-3.0000 S1000
G1 F1000 X67.8051 Y38.2581 Z-3.0000 S1000
G1 F1000 X68.1528 Y38.3273 Z-3.0000 S1000
G1 F100 Z-4.5000
G1 F1000 X68.4478 Y38.5244 Z-4.5000 S1000
G1 F1000 X68.6449 Y38.8194 Z-4.5000 S1000
G1 F1000 X68.7141 Y39.1671 Z-4.5000 S1000
G1 F1000 X68.6449 Y39.5148 Z-4.5000 S1000
G1 F1000 X68.4478 Y39.8098 Z-4.5000 S1000
G1 F1000 X68.1528 Y40.0069 Z-4.5000 S1000
G1 F1000 X67.8051 Y40.0761 Z-4.5000 S1000
G1 F1000 X67.4574 Y40.0069 Z-4.5000 S1000
G1 F1000 X67.1624 Y39.8098 Z-4.5000 S1000
G1 F1000 X66.9653 Y39.5148 Z-4.5000 S1000
G1 F1000 X66.8961 Y39.1671 Z-4.5000 S1000
G1 F1000 X66.9653 Y38.8192 Z-4.5000 S1000
G1 F1000 X67.1623 Y38.5243 Z-4.5000 S1000
G1 F1000 X67.4572 Y38.3273 Z-4.5000 S1000
G1 F1000 X67.8051 Y38.2581 Z-4.5000 S1000
G1 F1000 X68.1528 Y38.3273 Z-4.5000 S1000
G1 F100 Z-6.0000
G1 F1000 X68.4478 Y38.5244 Z-6.0000 S1000
G1 F1000 X68.6449 Y38.8194 Z-6.0000 S1000
G1 F1000 X68.7141 Y39.1671 Z-6.0000 S1000
G1 F1000 X68.6449 Y39.5148 Z-6.0000 S1000
G1 F1000 X68.4478 Y39.8098 Z-6.0000 S1000
G1 F1000 X68.1528 Y40.0069 Z-6.0000 S1000
G1 F1000 X67.8051 Y40.0761 Z-6.0000 S1000
G1 F1000 X67.4574 Y40.0069 Z-6.0000 S1000
G1 F1000 X67.1624 Y39.8098 Z-6.0000 S1000
G1 F1000 X66.9653 Y39.5148 Z-6.0000 S1000
G1 F1000 X66.8961 Y39.1671 Z-6.0000 S1000
G1 F1000 X66.9653 Y38.8192 Z-6.0000 S1000
G1 F1000 X67.1623 Y38.5243 Z-6.0000 S1000
G1 F1000 X67.4572 Y38.3273 Z-6.0000 S1000
G1 F1000 X67.8051 Y38.2581 Z-6.0000 S1000
G1 F1000 X68.1528 Y38.3273 Z-6.0000 S1000
G1 F100 Z-7.5000
G1 F1000 X68.4478 Y38.5244 Z-7.5000 S1000
G1 F1000 X68.6449 Y38.8194 Z-7.5000 S1000
G1 F1000 X68.7141 Y39.1671 Z-7.5000 S1000
G1 F1000 X68.6449 Y39.5148 Z-7.5000 S1000
G1 F1000 X68.4478 Y39.8098 Z-7.5000 S1000
G1 F1000 X68.1528 Y40.0069 Z-7.5000 S1000
G1 F1000 X67.8051 Y40.0761 Z-7.5000 S1000
G1 F1000 X67.4574 Y40.0069 Z-7.5000 S1000
G1 F1000 X67.1624 Y39.8098 Z-7.5000 S1000
G1 F1000 X66.9653 Y39.5148 Z-7.5000 S1000
G1 F1000 X66.8961 Y39.1671 Z-7.5000 S1000
G1 F1000 X66.9653 Y38.8192 Z-7.5000 S1000
G1 F1000 X67.1623 Y38.5243 Z-7.5000 S1000
G1 F1000 X67.4572 Y38.3273 Z-7.5000 S1000
G1 F1000 X67.8051 Y38.2581 Z-7.5000 S1000
G1 F1000 X68.1528 Y38.3273 Z-7.5000 S1000
G1 F100 Z-8.8000
G1 F1000 X68.4478 Y38.5244 Z-8.8000 S1000
G1 F1000 X68.6449 Y38.8194 Z-8.8000 S1000
G1 F1000 X68.7141 Y39.1671 Z-8.8000 S1000
G1 F1000 X68.6449 Y39.5148 Z-8.8000 S1000
G1 F1000 X68.4478 Y39.8098 Z-8.8000 S1000
G1 F1000 X68.1528 Y40.0069 Z-8.8000 S1000
G1 F1000 X67.8051 Y40.0761 Z-8.8000 S1000
G1 F1000 X67.4574 Y40.0069 Z-8.8000 S1000
G1 F1000 X67.1624 Y39.8098 Z-8.8000 S1000
G1 F1000 X66.9653 Y39.5148 Z-8.8000 S1000
G1 F1000 X66.8961 Y39.1671 Z-8.8000 S1000
G1 F1000 X66.9653 Y38.8192 Z-8.8000 S1000
G1 F1000 X67.1623 Y38.5243 Z-8.8000 S1000
G1 F1000 X67.4572 Y38.3273 Z-8.8000 S1000
G1 F1000 X67.8051 Y38.2581 Z-8.8000 S1000
G1 F1000 X68.1528 Y38.3273 Z-8.8000 S1000

G0 Z10; move to z-safe height
G0 X122.0670 Y21.7273

G0 Z0
G1 F100 Z-1.5000
G1 F1000 X122.3620 Y21.9244 Z-1.5000 S1000
G1 F1000 X122.5591 Y22.2194 Z-1.5000 S1000
G1 F1000 X122.6283 Y22.5671 Z-1.5000 S1000
G1 F1000 X122.5591 Y22.9150 Z-1.5000 S1000
G1 F1000 X122.3621 Y23.2099 Z-1.5000 S1000
G1 F1000 X122.0672 Y23.4069 Z-1.5000 S1000
G1 F1000 X121.7193 Y23.4761 Z-1.5000 S1000
G1 F1000 X121.3716 Y23.4069 Z-1.5000 S1000
G1 F1000 X121.0766 Y23.2098 Z-1.5000 S1000
G1 F1000 X120.8795 Y22.9148 Z-1.5000 S1000
G1 F1000 X120.8103 Y22.5671 Z-1.5000 S1000
G1 F1000 X120.8795 Y22.2194 Z-1.5000 S1000
G1 F1000 X121.0766 Y21.9244 Z-1.5000 S1000
G1 F1000 X121.3716 Y21.7273 Z-1.5000 S1000
G1 F1000 X121.7193 Y21.6581 Z-1.5000 S1000
G1 F1000 X122.0670 Y21.7273 Z-1.5000 S1000
G1 F100 Z-3.0000
G1 F1000 X122.3620 Y21.9244 Z-3.0000 S1000
G1 F1000 X122.5591 Y22.2194 Z-3.0000 S1000
G1 F1000 X122.6283 Y22.5671 Z-3.0000 S1000
G1 F1000 X122.5591 Y22.9150 Z-3.0000 S1000
G1 F1000 X122.3621 Y23.2099 Z-3.0000 S1000
G1 F1000 X122.0672 Y23.4069 Z-3.0000 S1000
G1 F1000 X121.7193 Y23.4761 Z-3.0000 S1000
G1 F1000 X121.3716 Y23.4069 Z-3.0000 S1000
G1 F1000 X121.0766 Y23.2098 Z-3.0000 S1000
G1 F1000 X120.8795 Y22.9148 Z-3.0000 S1000
G1 F1000 X120.8103 Y22.5671 Z-3.0000 S1000
G1 F1000 X120.8795 Y22.2194 Z-3.0000 S1000
G1 F1000 X121.0766 Y21.9244 Z-3.0000 S1000
G1 F1000 X121.3716 Y21.7273 Z-3.0000 S1000
G1 F1000 X121.7193 Y21.6581 Z-3.0000 S1000
G1 F1000 X122.0670 Y21.7273 Z-3.0000 S1000
G1 F100 Z-4.5000
G1 F1000 X122.3620 Y21.9244 Z-4.5000 S1000
G1 F1000 X122.5591 Y22.2194 Z-4.5000 S1000
G1 F1000 X122.6283 Y22.5671 Z-4.5000 S1000
G1 F1000 X122.5591 Y22.9150 Z-4.5000 S1000
G1 F1000 X122.3621 Y23.2099 Z-4.5000 S1000
G1 F1000 X122.0672 Y23.4069 Z-4.5000 S1000
G1 F1000 X121.7193 Y23.4761 Z-4.5000 S1000
G1 F1000 X121.3716 Y23.4069 Z-4.5000 S1000
G1 F1000 X121.0766 Y23.2098 Z-4.5000 S1000
G1 F1000 X120.8795 Y22.9148 Z-4.5000 S1000
G1 F1000 X120.8103 Y22.5671 Z-4.5000 S1000
G1 F1000 X120.8795 Y22.2194 Z-4.5000 S1000
G1 F1000 X121.0766 Y21.9244 Z-4.5000 S1000
G1 F1000 X121.3716 Y21.7273 Z-4.5000 S1000
G1 F1000 X121.7193 Y21.6581 Z-4.5000 S1000
G1 F1000 X122.0670 Y21.7273 Z-4.5000 S1000
G1 F100 Z-6.0000
G1 F1000 X122.3620 Y21.9244 Z-6.0000 S1000
G1 F1000 X122.5591 Y22.2194 Z-6.0000 S1000
G1 F1000 X122.6283 Y22.5671 Z-6.0000 S1000
G1 F1000 X122.5591 Y22.9150 Z-6.0000 S1000
G1 F1000 X122.3621 Y23.2099 Z-6.0000 S1000
G1 F1000 X122.0672 Y23.4069 Z-6.0000 S1000
G1 F1000 X121.7193 Y23.4761 Z-6.0000 S1000
G1 F1000 X121.3716 Y23.4069 Z-6.0000 S1000
G1 F1000 X121.0766 Y23.2098 Z-6.0000 S1000
G1 F1000 X120.8795 Y22.9148 Z-6.0000 S1000
G1 F1000 X120.8103 Y22.5671 Z-6.0000 S1000
G1 F1000 X120.8795 Y22.2194 Z-6.0000 S1000
G1 F1000 X121.0766 Y21.9244 Z-6.0000 S1000
G1 F1000 X121.3716 Y21.7273 Z-6.0000 S1000
G1 F1000 X121.7193 Y21.6581 Z-6.0000 S1000
G1 F1000 X122.0670 Y21.7273 Z-6.0000 S1000
G1 F100 Z-7.5000
G1 F1000 X122.3620 Y21.9244 Z-7.5000 S1000
G1 F1000 X122.5591 Y22.2194 Z-7.5000 S1000
G1 F1000 X122.6283 Y22.5671 Z-7.5000 S1000
G1 F1000 X122.5591 Y22.9150 Z-7.5000 S1000
G1 F1000 X122.3621 Y23.2099 Z-7.5000 S1000
G1 F1000 X122.0672 Y23.4069 Z-7.5000 S1000
G1 F1000 X121.7193 Y23.4761 Z-7.5000 S1000
G1 F1000 X121.3716 Y23.4069 Z-7.5000 S1000
G1 F1000 X121.0766 Y23.2098 Z-7.5000 S1000
G1 F1000 X120.8795 Y22.9148 Z-7.5000 S1000
G1 F1000 X120.8103 Y22.5671 Z-7.5000 S1000
G1 F1000 X120.8795 Y22.2194 Z-7.5000 S1000
G1 F1000 X121.0766 Y21.9244 Z-7.5000 S1000
G1 F1000 X121.3716 Y21.7273 Z-7.5000 S1000
G1 F1000 X121.7193 Y21.6581 Z-7.5000 S1000
G1 F1000 X122.0670 Y21.7273 Z-7.5000 S1000
G1 F100 Z-8.8000
G1 F1000 X122.3620 Y21.9244 Z-8.8000 S1000
G1 F1000 X122.5591 Y22.2194 Z-8.8000 S1000
G1 F1000 X122.6283 Y22.5671 Z-8.8000 S1000
G1 F1000 X122.5591 Y22.9150 Z-8.8000 S1000
G1 F1000 X122.3621 Y23.2099 Z-8.8000 S1000
G1 F1000 X122.0672 Y23.4069 Z-8.8000 S1000
G1 F1000 X121.7193 Y23.4761 Z-8.8000 S1000
G1 F1000 X121.3716 Y23.4069 Z-8.8000 S1000
G1 F1000 X121.0766 Y23.2098 Z-8.8000 S1000
G1 F1000 X120.8795 Y22.9148 Z-8.8000 S1000
G1 F1000 X120.8103 Y22.5671 Z-8.8000 S1000
G1 F1000 X120.8795 Y22.2194 Z-8.8000 S1000
G1 F1000 X121.0766 Y21.9244 Z-8.8000 S1000
G1 F1000 X121.3716 Y21.7273 Z-8.8000 S1000
G1 F1000 X121.7193 Y21.6581 Z-8.8000 S1000
G1 F1000 X122.0670 Y21.7273 Z-8.8000 S1000

G0 Z10; move to z-safe height
G0 X140.0386 Y38.3273

G0 Z0
G1 F100 Z-1.5000
G1 F1000 X140.3334 Y38.5243 Z-1.5000 S1000
G1 F1000 X140.5306 Y38.8194 Z-1.5000 S1000
G1 F1000 X140.5998 Y39.1671 Z-1.5000 S1000
G1 F1000 X140.5306 Y39.5148 Z-1.5000 S1000
G1 F1000 X140.3336 Y39.8097 Z-1.5000 S1000
G1 F1000 X140.0384 Y40.0070 Z-1.5000 S1000
G1 F1000 X139.6908 Y40.0761 Z-1.5000 S1000
G1 F1000 X139.3431 Y40.0069 Z-1.5000 S1000
G1 F1000 X139.0481 Y39.8098 Z-1.5000 S1000
G1 F1000 X138.8510 Y39.5148 Z-1.5000 S1000
G1 F1000 X138.7818 Y39.1671 Z-1.5000 S1000
G1 F1000 X138.8510 Y38.8192 Z-1.5000 S1000
G1 F1000 X139.0480 Y38.5243 Z-1.5000 S1000
G1 F1000 X139.3429 Y38.3273 Z-1.5000 S1000
G1 F1000 X139.6908 Y38.2581 Z-1.5000 S1000
G1 F1000 X140.0386 Y38.3273 Z-1.5000 S1000
G1 F100 Z-3.0000
G1 F1000 X140.3334 Y38.5243 Z-3.0000 S1000
G1 F1000 X140.5306 Y38.8194 Z-3.0000 S1000
G1 F1000 X140.5998 Y39.1671 Z-3.0000 S1000
G1 F1000 X140.5306 Y39.5148 Z-3.0000 S1000
G1 F1000 X140.3336 Y39.8097 Z-3.0000 S1000
G1 F1000 X140.0384 Y40.0070 Z-3.0000 S1000
G1 F1000 X139.6908 Y40.0761 Z-3.0000 S1000
G1 F1000 X139.3431 Y40.0069 Z-3.0000 S1000
G1 F1000 X139.0481 Y39.8098 Z-3.0000 S1000
G1 F1000 X138.8510 Y39.5148 Z-3.0000 S1000
G1 F1000 X138.7818 Y39.1671 Z-3.0000 S1000
G1 F1000 X138.8510 Y38.8192 Z-3.0000 S1000
G1 F1000 X139.0480 Y38.5243 Z-3.0000 S1000
G1 F1000 X139.3429 Y38.3273 Z-3.0000 S1000
G1 F1000 X139.6908 Y38.2581 Z-3.0000 S1000
G1 F1000 X140.0386 Y38.3273 Z-3.0000 S1000
G1 F100 Z-4.5000
G1 F1000 X140.3334 Y38.5243 Z-4.5000 S1000
G1 F1000 X140.5306 Y38.8194 Z-4.5000 S1000
G1 F1000 X140.5998 Y39.1671 Z-4.5000 S1000
G1 F1000 X140.5306 Y39.5148 Z-4.5000 S1000
G1 F1000 X140.3336 Y39.8097 Z-4.5000 S1000
G1 F1000 X140.0384 Y40.0070 Z-4.5000 S1000
G1 F1000 X139.6908 Y40.0761 Z-4.5000 S1000
G1 F1000 X139.3431 Y40.0069 Z-4.5000 S1000
G1 F1000 X139.0481 Y39.8098 Z-4.5000 S1000
G1 F1000 X138.8510 Y39.5148 Z-4.5000 S1000
G1 F1000 X138.7818 Y39.1671 Z-4.5000 S1000
G1 F1000 X138.8510 Y38.8192 Z-4.5000 S1000
G1 F1000 X139.0480 Y38.5243 Z-4.5000 S1000
G1 F1000 X139.3429 Y38.3273 Z-4.5000 S1000
G1 F1000 X139.6908 Y38.2581 Z-4.5000 S1000
G1 F1000 X140.0386 Y38.3273 Z-4.5000 S1000
G1 F100 Z-6.0000
G1 F1000 X140.3334 Y38.5243 Z-6.0000 S1000
G1 F1000 X140.5306 Y38.8194 Z-6.0000 S1000
G1 F1000 X140.5998 Y39.1671 Z-6.0000 S1000
G1 F1000 X140.5306 Y39.5148 Z-6.0000 S1000
G1 F1000 X140.3336 Y39.8097 Z-6.0000 S1000
G1 F1000 X140.0384 Y40.0070 Z-6.0000 S1000
G1 F1000 X139.6908 Y40.0761 Z-6.0000 S1000
G1 F1000 X139.3431 Y40.0069 Z-6.0000 S1000
G1 F1000 X139.0481 Y39.8098 Z-6.0000 S1000
G1 F1000 X138.8510 Y39.5148 Z-6.0000 S1000
G1 F1000 X138.7818 Y39.1671 Z-6.0000 S1000
G1 F1000 X138.8510 Y38.8192 Z-6.0000 S1000
G1 F1000 X139.0480 Y38.5243 Z-6.0000 S1000
G1 F1000 X139.3429 Y38.3273 Z-6.0000 S1000
G1 F1000 X139.6908 Y38.2581 Z-6.0000 S1000
G1 F1000 X140.0386 Y38.3273 Z-6.0000 S1000
G1 F100 Z-7.5000
G1 F1000 X140.3334 Y38.5243 Z-7.5000 S1000
G1 F1000 X140.5306 Y38.8194 Z-7.5000 S1000
G1 F1000 X140.5998 Y39.1671 Z-7.5000 S1000
G1 F1000 X140.5306 Y39.5148 Z-7.5000 S1000
G1 F1000 X140.3336 Y39.8097 Z-7.5000 S1000
G1 F1000 X140.0384 Y40.0070 Z-7.5000 S1000
G1 F1000 X139.6908 Y40.0761 Z-7.5000 S1000
G1 F1000 X139.3431 Y40.0069 Z-7.5000 S1000
G1 F1000 X139.0481 Y39.8098 Z-7.5000 S1000
G1 F1000 X138.8510 Y39.5148 Z-7.5000 S1000
G1 F1000 X138.7818 Y39.1671 Z-7.5000 S1000
G1 F1000 X138.8510 Y38.8192 Z-7.5000 S1000
G1 F1000 X139.0480 Y38.5243 Z-7.5000 S1000
G1 F1000 X139.3429 Y38.3273 Z-7.5000 S1000
G1 F1000 X139.6908 Y38.2581 Z-7.5000 S1000
G1 F1000 X140.0386 Y38.3273 Z-7.5000 S1000
G1 F100 Z-8.8000
G1 F1000 X140.3334 Y38.5243 Z-8.8000 S1000
G1 F1000 X140.5306 Y38.8194 Z-8.8000 S1000
G1 F1000 X140.5998 Y39.1671 Z-8.8000 S1000
G1 F1000 X140.5306 Y39.5148 Z-8.8000 S1000
G1 F1000 X140.3336 Y39.8097 Z-8.8000 S1000
G1 F1000 X140.0384 Y40.0070 Z-8.8000 S1000
G1 F1000 X139.6908 Y40.0761 Z-8.8000 S1000
G1 F1000 X139.3431 Y40.0069 Z-8.8000 S1000
G1 F1000 X139.0481 Y39.8098 Z-8.8000 S1000
G1 F1000 X138.8510 Y39.5148 Z-8.8000 S1000
G1 F1000 X138.7818 Y39.1671 Z-8.8000 S1000
G1 F1000 X138.8510 Y38.8192 Z-8.8000 S1000
G1 F1000 X139.0480 Y38.5243 Z-8.8000 S1000
G1 F1000 X139.3429 Y38.3273 Z-8.8000 S1000
G1 F1000 X139.6908 Y38.2581 Z-8.8000 S1000
G1 F1000 X140.0386 Y38.3273 Z-8.8000 S1000

G0 Z10; move to z-safe height
G0 X158.0098 Y21.7272

G0 Z0
G1 F100 Z-1.5000
G1 F1000 X158.3050 Y21.9245 Z-1.5000 S1000
G1 F1000 X158.5020 Y22.2194 Z-1.5000 S1000
G1 F1000 X158.5712 Y22.5671 Z-1.5000 S1000
G1 F1000 X158.5020 Y22.9148 Z-1.5000 S1000
G1 F1000 X158.3048 Y23.2099 Z-1.5000 S1000
G1 F1000 X158.0100 Y23.4069 Z-1.5000 S1000
G1 F1000 X157.6622 Y23.4761 Z-1.5000 S1000
G1 F1000 X157.3143 Y23.4069 Z-1.5000 S1000
G1 F1000 X157.0194 Y23.2099 Z-1.5000 S1000
G1 F1000 X156.8224 Y22.9150 Z-1.5000 S1000
G1 F1000 X156.7532 Y22.5671 Z-1.5000 S1000
G1 F1000 X156.8224 Y22.2194 Z-1.5000 S1000
G1 F1000 X157.0195 Y21.9244 Z-1.5000 S1000
G1 F1000 X157.3145 Y21.7273 Z-1.5000 S1000
G1 F1000 X157.6622 Y21.6581 Z-1.5000 S1000
G1 F1000 X158.0098 Y21.7272 Z-1.5000 S1000
G1 F100 Z-3.0000
G1 F1000 X158.3050 Y21.9245 Z-3.0000 S1000
G1 F1000 X158.5020 Y22.2194 Z-3.0000 S1000
G1 F1000 X158.5712 Y22.5671 Z-3.0000 S1000
G1 F1000 X158.5020 Y22.9148 Z-3.0000 S1000
G1 F1000 X158.3048 Y23.2099 Z-3.0000 S1000
G1 F1000 X158.0100 Y23.4069 Z-3.0000 S1000
G1 F1000 X157.6622 Y23.4761 Z-3.0000 S1000
G1 F1000 X157.3143 Y23.4069 Z-3.0000 S1000
G1 F1000 X157.0194 Y23.2099 Z-3.0000 S1000
G1 F1000 X156.8224 Y22.9150 Z-3.0000 S1000
G1 F1000 X156.7532 Y22.5671 Z-3.0000 S1000
G1 F1000 X156.8224 Y22.2194 Z-3.0000 S1000
G1 F1000 X157.0195 Y21.9244 Z-3.0000 S1000
G1 F1000 X157.3145 Y21.7273 Z-3.0000 S1000
G1 F1000 X157.6622 Y21.6581 Z-3.0000 S1000
G1 F1000 X158.0098 Y21.7272 Z-3.0000 S1000
G1 F100 Z-4.5000
G1 F1000 X158.3050 Y21.9245 Z-4.5000 S1000
G1 F1000 X158.5020 Y22.2194 Z-4.5000 S1000
G1 F1000 X158.5712 Y22.5671 Z-4.5000 S1000
G1 F1000 X158.5020 Y22.9148 Z-4.5000 S1000
G1 F1000 X158.3048 Y23.2099 Z-4.5000 S1000
G1 F1000 X158.0100 Y23.4069 Z-4.5000 S1000
G1 F1000 X157.6622 Y23.4761 Z-4.5000 S1000
G1 F1000 X157.3143 Y23.4069 Z-4.5000 S1000
G1 F1000 X157.0194 Y23.2099 Z-4.5000 S1000
G1 F1000 X156.8224 Y22.9150 Z-4.5000 S1000
G1 F1000 X156.7532 Y22.5671 Z-4.5000 S1000
G1 F1000 X156.8224 Y22.2194 Z-4.5000 S1000
G1 F1000 X157.0195 Y21.9244 Z-4.5000 S1000
G1 F1000 X157.3145 Y21.7273 Z-4.5000 S1000
G1 F1000 X157.6622 Y21.6581 Z-4.5000 S1000
G1 F1000 X158.0098 Y21.7272 Z-4.5000 S1000
G1 F100 Z-6.0000
G1 F1000 X158.3050 Y21.9245 Z-6.0000 S1000
G1 F1000 X158.5020 Y22.2194 Z-6.0000 S1000
G1 F1000 X158.5712 Y22.5671 Z-6.0000 S1000
G1 F1000 X158.5020 Y22.9148 Z-6.0000 S1000
G1 F1000 X158.3048 Y23.2099 Z-6.0000 S1000
G1 F1000 X158.0100 Y23.4069 Z-6.0000 S1000
G1 F1000 X157.6622 Y23.4761 Z-6.0000 S1000
G1 F1000 X157.3143 Y23.4069 Z-6.0000 S1000
G1 F1000 X157.0194 Y23.2099 Z-6.0000 S1000
G1 F1000 X156.8224 Y22.9150 Z-6.0000 S1000
G1 F1000 X156.7532 Y22.5671 Z-6.0000 S1000
G1 F1000 X156.8224 Y22.2194 Z-6.0000 S1000
G1 F1000 X157.0195 Y21.9244 Z-6.0000 S1000
G1 F1000 X157.3145 Y21.7273 Z-6.0000 S1000
G1 F1000 X157.6622 Y21.6581 Z-6.0000 S1000
G1 F1000 X158.0098 Y21.7272 Z-6.0000 S1000
G1 F100 Z-7.5000
G1 F1000 X158.3050 Y21.9245 Z-7.5000 S1000
G1 F1000 X158.5020 Y22.2194 Z-7.5000 S1000
G1 F1000 X158.5712 Y22.5671 Z-7.5000 S1000
G1 F1000 X158.5020 Y22.9148 Z-7.5000 S1000
G1 F1000 X158.3048 Y23.2099 Z-7.5000 S1000
G1 F1000 X158.0100 Y23.4069 Z-7.5000 S1000
G1 F1000 X157.6622 Y23.4761 Z-7.5000 S1000
G1 F1000 X157.3143 Y23.4069 Z-7.5000 S1000
G1 F1000 X157.0194 Y23.2099 Z-7.5000 S1000
G1 F1000 X156.8224 Y22.9150 Z-7.5000 S1000
G1 F1000 X156.7532 Y22.5671 Z-7.5000 S1000
G1 F1000 X156.8224 Y22.2194 Z-7.5000 S1000
G1 F1000 X157.0195 Y21.9244 Z-7.5000 S1000
G1 F1000 X157.3145 Y21.7273 Z-7.5000 S1000
G1 F1000 X157.6622 Y21.6581 Z-7.5000 S1000
G1 F1000 X158.0098 Y21.7272 Z-7.5000 S1000
G1 F100 Z-8.8000
G1 F1000 X158.3050 Y21.9245 Z-8.8000 S1000
G1 F1000 X158.5020 Y22.2194 Z-8.8000 S1000
G1 F1000 X158.5712 Y22.5671 Z-8.8000 S1000
G1 F1000 X158.5020 Y22.9148 Z-8.8000 S1000
G1 F1000 X158.3048 Y23.2099 Z-8.8000 S1000
G1 F1000 X158.0100 Y23.4069 Z-8.8000 S1000
G1 F1000 X157.6622 Y23.4761 Z-8.8000 S1000
G1 F1000 X157.3143 Y23.4069 Z-8.8000 S1000
G1 F1000 X157.0194 Y23.2099 Z-8.8000 S1000
G1 F1000 X156.8224 Y22.9150 Z-8.8000 S1000
G1 F1000 X156.7532 Y22.5671 Z-8.8000 S1000
G1 F1000 X156.8224 Y22.2194 Z-8.8000 S1000
G1 F1000 X157.0195 Y21.9244 Z-8.8000 S1000
G1 F1000 X157.3145 Y21.7273 Z-8.8000 S1000
G1 F1000 X157.6622 Y21.6581 Z-8.8000 S1000
G1 F1000 X158.0098 Y21.7272 Z-8.8000 S1000

G0 Z10; move to z-safe height
G0 X68.1528 Y21.7273

G0 Z0
G1 F100 Z-1.5000
G1 F1000 X68.4478 Y21.9244 Z-1.5000 S1000
G1 F1000 X68.6449 Y22.2194 Z-1.5000 S1000
G1 F1000 X68.7141 Y22.5671 Z-1.5000 S1000
G1 F1000 X68.6449 Y22.9148 Z-1.5000 S1000
G1 F1000 X68.4478 Y23.2098 Z-1.5000 S1000
G1 F1000 X68.1528 Y23.4069 Z-1.5000 S1000
G1 F1000 X67.8051 Y23.4761 Z-1.5000 S1000
G1 F1000 X67.4572 Y23.4069 Z-1.5000 S1000
G1 F1000 X67.1623 Y23.2099 Z-1.5000 S1000
G1 F1000 X66.9653 Y22.9150 Z-1.5000 S1000
G1 F1000 X66.8961 Y22.5671 Z-1.5000 S1000
G1 F1000 X66.9653 Y22.2194 Z-1.5000 S1000
G1 F1000 X67.1624 Y21.9244 Z-1.5000 S1000
G1 F1000 X67.4574 Y21.7273 Z-1.5000 S1000
G1 F1000 X67.8051 Y21.6581 Z-1.5000 S1000
G1 F1000 X68.1528 Y21.7273 Z-1.5000 S1000
G1 F100 Z-3.0000
G1 F1000 X68.4478 Y21.9244 Z-3.0000 S1000
G1 F1000 X68.6449 Y22.2194 Z-3.0000 S1000
G1 F1000 X68.7141 Y22.5671 Z-3.0000 S1000
G1 F1000 X68.6449 Y22.9148 Z-3.0000 S1000
G1 F1000 X68.4478 Y23.2098 Z-3.0000 S1000
G1 F1000 X68.1528 Y23.4069 Z-3.0000 S1000
G1 F1000 X67.8051 Y23.4761 Z-3.0000 S1000
G1 F1000 X67.4572 Y23.4069 Z-3.0000 S1000
G1 F1000 X67.1623 Y23.2099 Z-3.0000 S1000
G1 F1000 X66.9653 Y22.9150 Z-3.0000 S1000
G1 F1000 X66.8961 Y22.5671 Z-3.0000 S1000
G1 F1000 X66.9653 Y22.2194 Z-3.0000 S1000
G1 F1000 X67.1624 Y21.9244 Z-3.0000 S1000
G1 F1000 X67.4574 Y21.7273 Z-3.0000 S1000
G1 F1000 X67.8051 Y21.6581 Z-3.0000 S1000
G1 F1000 X68.1528 Y21.7273 Z-3.0000 S1000
G1 F100 Z-4.5000
G1 F1000 X68.4478 Y21.9244 Z-4.5000 S1000
G1 F1000 X68.6449 Y22.2194 Z-4.5000 S1000
G1 F1000 X68.7141 Y22.5671 Z-4.5000 S1000
G1 F1000 X68.6449 Y22.9148 Z-4.5000 S1000
G1 F1000 X68.4478 Y23.2098 Z-4.5000 S1000
G1 F1000 X68.1528 Y23.4069 Z-4.5000 S1000
G1 F1000 X67.8051 Y23.4761 Z-4.5000 S1000
G1 F1000 X67.4572 Y23.4069 Z-4.5000 S1000
G1 F1000 X67.1623 Y23.2099 Z-4.5000 S1000
G1 F1000 X66.9653 Y22.9150 Z-4.5000 S1000
G1 F1000 X66.8961 Y22.5671 Z-4.5000 S1000
G1 F1000 X66.9653 Y22.2194 Z-4.5000 S1000
G1 F1000 X67.1624 Y21.9244 Z-4.5000 S1000
G1 F1000 X67.4574 Y21.7273 Z-4.5000 S1000
G1 F1000 X67.8051 Y21.6581 Z-4.5000 S1000
G1 F1000 X68.1528 Y21.7273 Z-4.5000 S1000
G1 F100 Z-6.0000
G1 F1000 X68.4478 Y21.9244 Z-6.0000 S1000
G1 F1000 X68.6449 Y22.2194 Z-6.0000 S1000
G1 F1000 X68.7141 Y22.5671 Z-6.0000 S1000
G1 F1000 X68.6449 Y22.9148 Z-6.0000 S1000
G1 F1000 X68.4478 Y23.2098 Z-6.0000 S1000
G1 F1000 X68.1528 Y23.4069 Z-6.0000 S1000
G1 F1000 X67.8051 Y23.4761 Z-6.0000 S1000
G1 F1000 X67.4572 Y23.4069 Z-6.0000 S1000
G1 F1000 X67.1623 Y23.2099 Z-6.0000 S1000
G1 F1000 X66.9653 Y22.9150 Z-6.0000 S1000
G1 F1000 X66.8961 Y22.5671 Z-6.0000 S1000
G1 F1000 X66.9653 Y22.2194 Z-6.0000 S1000
G1 F1000 X67.1624 Y21.9244 Z-6.0000 S1000
G1 F1000 X67.4574 Y21.7273 Z-6.0000 S1000
G1 F1000 X67.8051 Y21.6581 Z-6.0000 S1000
G1 F1000 X68.1528 Y21.7273 Z-6.0000 S1000
G1 F100 Z-7.5000
G1 F1000 X68.4478 Y21.9244 Z-7.5000 S1000
G1 F1000 X68.6449 Y22.2194 Z-7.5000 S1000
G1 F1000 X68.7141 Y22.5671 Z-7.5000 S1000
G1 F1000 X68.6449 Y22.9148 Z-7.5000 S1000
G1 F1000 X68.4478 Y23.2098 Z-7.5000 S1000
G1 F1000 X68.1528 Y23.4069 Z-7.5000 S1000
G1 F1000 X67.8051 Y23.4761 Z-7.5000 S1000
G1 F1000 X67.4572 Y23.4069 Z-7.5000 S1000
G1 F1000 X67.1623 Y23.2099 Z-7.5000 S1000
G1 F1000 X66.9653 Y22.9150 Z-7.5000 S1000
G1 F1000 X66.8961 Y22.5671 Z-7.5000 S1000
G1 F1000 X66.9653 Y22.2194 Z-7.5000 S1000
G1 F1000 X67.1624 Y21.9244 Z-7.5000 S1000
G1 F1000 X67.4574 Y21.7273 Z-7.5000 S1000
G1 F1000 X67.8051 Y21.6581 Z-7.5000 S1000
G1 F1000 X68.1528 Y21.7273 Z-7.5000 S1000
G1 F100 Z-8.8000
G1 F1000 X68.4478 Y21.9244 Z-8.8000 S1000
G1 F1000 X68.6449 Y22.2194 Z-8.8000 S1000
G1 F1000 X68.7141 Y22.5671 Z-8.8000 S1000
G1 F1000 X68.6449 Y22.9148 Z-8.8000 S1000
G1 F1000 X68.4478 Y23.2098 Z-8.8000 S1000
G1 F1000 X68.1528 Y23.4069 Z-8.8000 S1000
G1 F1000 X67.8051 Y23.4761 Z-8.8000 S1000
G1 F1000 X67.4572 Y23.4069 Z-8.8000 S1000
G1 F1000 X67.1623 Y23.2099 Z-8.8000 S1000
G1 F1000 X66.9653 Y22.9150 Z-8.8000 S1000
G1 F1000 X66.8961 Y22.5671 Z-8.8000 S1000
G1 F1000 X66.9653 Y22.2194 Z-8.8000 S1000
G1 F1000 X67.1624 Y21.9244 Z-8.8000 S1000
G1 F1000 X67.4574 Y21.7273 Z-8.8000 S1000
G1 F1000 X67.8051 Y21.6581 Z-8.8000 S1000
G1 F1000 X68.1528 Y21.7273 Z-8.8000 S1000

G0 Z10; move to z-safe height
G0 X86.1241 Y21.7272

G0 Z0
G1 F100 Z-1.5000
G1 F1000 X86.4191 Y21.9244 Z-1.5000 S1000
G1 F1000 X86.6162 Y22.2194 Z-1.5000 S1000
G1 F1000 X86.6854 Y22.5671 Z-1.5000 S1000
G1 F1000 X86.6162 Y22.9150 Z-1.5000 S1000
G1 F1000 X86.4192 Y23.2099 Z-1.5000 S1000
G1 F1000 X86.1243 Y23.4069 Z-1.5000 S1000
G1 F1000 X85.7765 Y23.4761 Z-1.5000 S1000
G1 F1000 X85.4286 Y23.4069 Z-1.5000 S1000
G1 F1000 X85.1337 Y23.2099 Z-1.5000 S1000
G1 F1000 X84.9367 Y22.9150 Z-1.5000 S1000
G1 F1000 X84.8675 Y22.5671 Z-1.5000 S1000
G1 F1000 X84.9367 Y22.2194 Z-1.5000 S1000
G1 F1000 X85.1338 Y21.9244 Z-1.5000 S1000
G1 F1000 X85.4288 Y21.7273 Z-1.5000 S1000
G1 F1000 X85.7765 Y21.6581 Z-1.5000 S1000
G1 F1000 X86.1241 Y21.7272 Z-1.5000 S1000
G1 F100 Z-3.0000
G1 F1000 X86.4191 Y21.9244 Z-3.0000 S1000
G1 F1000 X86.6162 Y22.2194 Z-3.0000 S1000
G1 F1000 X86.6854 Y22.5671 Z-3.0000 S1000
G1 F1000 X86.6162 Y22.9150 Z-3.0000 S1000
G1 F1000 X86.4192 Y23.2099 Z-3.0000 S1000
G1 F1000 X86.1243 Y23.4069 Z-3.0000 S1000
G1 F1000 X85.7765 Y23.4761 Z-3.0000 S1000
G1 F1000 X85.4286 Y23.4069 Z-3.0000 S1000
G1 F1000 X85.1337 Y23.2099 Z-3.0000 S1000
G1 F1000 X84.9367 Y22.9150 Z-3.0000 S1000
G1 F1000 X84.8675 Y22.5671 Z-3.0000 S1000
G1 F1000 X84.9367 Y22.2194 Z-3.0000 S1000
G1 F1000 X85.1338 Y21.9244 Z-3.0000 S1000
G1 F1000 X85.4288 Y21.7273 Z-3.0000 S1000
G1 F1000 X85.7765 Y21.6581 Z-3.0000 S1000
G1 F1000 X86.1241 Y21.7272 Z-3.0000 S1000
G1 F100 Z-4.5000
G1 F1000 X86.4191 Y21.9244 Z-4.5000 S1000
G1 F1000 X86.6162 Y22.2194 Z-4.5000 S1000
G1 F1000 X86.6854 Y22.5671 Z-4.5000 S1000
G1 F1000 X86.6162 Y22.9150 Z-4.5000 S1000
G1 F1000 X86.4192 Y23.2099 Z-4.5000 S1000
G1 F1000 X86.1243 Y23.4069 Z-4.5000 S1000
G1 F1000 X85.7765 Y23.4761 Z-4.5000 S1000
G1 F1000 X85.4286 Y23.4069 Z-4.5000 S1000
G1 F1000 X85.1337 Y23.2099 Z-4.5000 S1000
G1 F1000 X84.9367 Y22.9150 Z-4.5000 S1000
G1 F1000 X84.8675 Y22.5671 Z-4.5000 S1000
G1 F1000 X84.9367 Y22.2194 Z-4.5000 S1000
G1 F1000 X85.1338 Y21.9244 Z-4.5000 S1000
G1 F1000 X85.4288 Y21.7273 Z-4.5000 S1000
G1 F1000 X85.7765 Y21.6581 Z-4.5000 S1000
G1 F1000 X86.1241 Y21.7272 Z-4.5000 S1000
G1 F100 Z-6.0000
G1 F1000 X86.4191 Y21.9244 Z-6.0000 S1000
G1 F1000 X86.6162 Y22.2194 Z-6.0000 S1000
G1 F1000 X86.6854 Y22.5671 Z-6.0000 S1000
G1 F1000 X86.6162 Y22.9150 Z-6.0000 S1000
G1 F1000 X86.4192 Y23.2099 Z-6.0000 S1000
G1 F1000 X86.1243 Y23.4069 Z-6.0000 S1000
G1 F1000 X85.7765 Y23.4761 Z-6.0000 S1000
G1 F1000 X85.4286 Y23.4069 Z-6.0000 S1000
G1 F1000 X85.1337 Y23.2099 Z-6.0000 S1000
G1 F1000 X84.9367 Y22.9150 Z-6.0000 S1000
G1 F1000 X84.8675 Y22.5671 Z-6.0000 S1000
G1 F1000 X84.9367 Y22.2194 Z-6.0000 S1000
G1 F1000 X85.1338 Y21.9244 Z-6.0000 S1000
G1 F1000 X85.4288 Y21.7273 Z-6.0000 S1000
G1 F1000 X85.7765 Y21.6581 Z-6.0000 S1000
G1 F1000 X86.1241 Y21.7272 Z-6.0000 S1000
G1 F100 Z-7.5000
G1 F1000 X86.4191 Y21.9244 Z-7.5000 S1000
G1 F1000 X86.6162 Y22.2194 Z-7.5000 S1000
G1 F1000 X86.6854 Y22.5671 Z-7.5000 S1000
G1 F1000 X86.6162 Y22.9150 Z-7.5000 S1000
G1 F1000 X86.4192 Y23.2099 Z-7.5000 S1000
G1 F1000 X86.1243 Y23.4069 Z-7.5000 S1000
G1 F1000 X85.7765 Y23.4761 Z-7.5000 S1000
G1 F1000 X85.4286 Y23.4069 Z-7.5000 S1000
G1 F1000 X85.1337 Y23.2099 Z-7.5000 S1000
G1 F1000 X84.9367 Y22.9150 Z-7.5000 S1000
G1 F1000 X84.8675 Y22.5671 Z-7.5000 S1000
G1 F1000 X84.9367 Y22.2194 Z-7.5000 S1000
G1 F1000 X85.1338 Y21.9244 Z-7.5000 S1000
G1 F1000 X85.4288 Y21.7273 Z-7.5000 S1000
G1 F1000 X85.7765 Y21.6581 Z-7.5000 S1000
G1 F1000 X86.1241 Y21.7272 Z-7.5000 S1000
G1 F100 Z-8.8000
G1 F1000 X86.4191 Y21.9244 Z-8.8000 S1000
G1 F1000 X86.6162 Y22.2194 Z-8.8000 S1000
G1 F1000 X86.6854 Y22.5671 Z-8.8000 S1000
G1 F1000 X86.6162 Y22.9150 Z-8.8000 S1000
G1 F1000 X86.4192 Y23.2099 Z-8.8000 S1000
G1 F1000 X86.1243 Y23.4069 Z-8.8000 S1000
G1 F1000 X85.7765 Y23.4761 Z-8.8000 S1000
G1 F1000 X85.4286 Y23.4069 Z-8.8000 S1000
G1 F1000 X85.1337 Y23.2099 Z-8.8000 S1000
G1 F1000 X84.9367 Y22.9150 Z-8.8000 S1000
G1 F1000 X84.8675 Y22.5671 Z-8.8000 S1000
G1 F1000 X84.9367 Y22.2194 Z-8.8000 S1000
G1 F1000 X85.1338 Y21.9244 Z-8.8000 S1000
G1 F1000 X85.4288 Y21.7273 Z-8.8000 S1000
G1 F1000 X85.7765 Y21.6581 Z-8.8000 S1000
G1 F1000 X86.1241 Y21.7272 Z-8.8000 S1000

G0 Z10; move to z-safe height
G0 X140.0384 Y21.7272

G0 Z0
G1 F100 Z-1.5000
G1 F1000 X140.3336 Y21.9245 Z-1.5000 S1000
G1 F1000 X140.5306 Y22.2194 Z-1.5000 S1000
G1 F1000 X140.5998 Y22.5671 Z-1.5000 S1000
G1 F1000 X140.5306 Y22.9148 Z-1.5000 S1000
G1 F1000 X140.3334 Y23.2099 Z-1.5000 S1000
G1 F1000 X140.0386 Y23.4069 Z-1.5000 S1000
G1 F1000 X139.6908 Y23.4761 Z-1.5000 S1000
G1 F1000 X139.3429 Y23.4069 Z-1.5000 S1000
G1 F1000 X139.0480 Y23.2099 Z-1.5000 S1000
G1 F1000 X138.8510 Y22.9150 Z-1.5000 S1000
G1 F1000 X138.7818 Y22.5671 Z-1.5000 S1000
G1 F1000 X138.8510 Y22.2194 Z-1.5000 S1000
G1 F1000 X139.0481 Y21.9244 Z-1.5000 S1000
G1 F1000 X139.3431 Y21.7273 Z-1.5000 S1000
G1 F1000 X139.6908 Y21.6581 Z-1.5000 S1000
G1 F1000 X140.0384 Y21.7272 Z-1.5000 S1000
G1 F100 Z-3.0000
G1 F1000 X140.3336 Y21.9245 Z-3.0000 S1000
G1 F1000 X140.5306 Y22.2194 Z-3.0000 S1000
G1 F1000 X140.5998 Y22.5671 Z-3.0000 S1000
G1 F1000 X140.5306 Y22.9148 Z-3.0000 S1000
G1 F1000 X140.3334 Y23.2099 Z-3.0000 S1000
G1 F1000 X140.0386 Y23.4069 Z-3.0000 S1000
G1 F1000 X139.6908 Y23.4761 Z-3.0000 S1000
G1 F1000 X139.3429 Y23.4069 Z-3.0000 S1000
G1 F1000 X139.0480 Y23.2099 Z-3.0000 S1000
G1 F1000 X138.8510 Y22.9150 Z-3.0000 S1000
G1 F1000 X138.7818 Y22.5671 Z-3.0000 S1000
G1 F1000 X138.8510 Y22.2194 Z-3.0000 S1000
G1 F1000 X139.0481 Y21.9244 Z-3.0000 S1000
G1 F1000 X139.3431 Y21.7273 Z-3.0000 S1000
G1 F1000 X139.6908 Y21.6581 Z-3.0000 S1000
G1 F1000 X140.0384 Y21.7272 Z-3.0000 S1000
G1 F100 Z-4.5000
G1 F1000 X140.3336 Y21.9245 Z-4.5000 S1000
G1 F1000 X140.5306 Y22.2194 Z-4.5000 S1000
G1 F1000 X140.5998 Y22.5671 Z-4.5000 S1000
G1 F1000 X140.5306 Y22.9148 Z-4.5000 S1000
G1 F1000 X140.3334 Y23.2099 Z-4.5000 S1000
G1 F1000 X140.0386 Y23.4069 Z-4.5000 S1000
G1 F1000 X139.6908 Y23.4761 Z-4.5000 S1000
G1 F1000 X139.3429 Y23.4069 Z-4.5000 S1000
G1 F1000 X139.0480 Y23.2099 Z-4.5000 S1000
G1 F1000 X138.8510 Y22.9150 Z-4.5000 S1000
G1 F1000 X138.7818 Y22.5671 Z-4.5000 S1000
G1 F1000 X138.8510 Y22.2194 Z-4.5000 S1000
G1 F1000 X139.0481 Y21.9244 Z-4.5000 S1000
G1 F1000 X139.3431 Y21.7273 Z-4.5000 S1000
G1 F1000 X139.6908 Y21.6581 Z-4.5000 S1000
G1 F1000 X140.0384 Y21.7272 Z-4.5000 S1000
G1 F100 Z-6.0000
G1 F1000 X140.3336 Y21.9245 Z-6.0000 S1000
G1 F1000 X140.5306 Y22.2194 Z-6.0000 S1000
G1 F1000 X140.5998 Y22.5671 Z-6.0000 S1000
G1 F1000 X140.5306 Y22.9148 Z-6.0000 S1000
G1 F1000 X140.3334 Y23.2099 Z-6.0000 S1000
G1 F1000 X140.0386 Y23.4069 Z-6.0000 S1000
G1 F1000 X139.6908 Y23.4761 Z-6.0000 S1000
G1 F1000 X139.3429 Y23.4069 Z-6.0000 S1000
G1 F1000 X139.0480 Y23.2099 Z-6.0000 S1000
G1 F1000 X138.8510 Y22.9150 Z-6.0000 S1000
G1 F1000 X138.7818 Y22.5671 Z-6.0000 S1000
G1 F1000 X138.8510 Y22.2194 Z-6.0000 S1000
G1 F1000 X139.0481 Y21.9244 Z-6.0000 S1000
G1 F1000 X139.3431 Y21.7273 Z-6.0000 S1000
G1 F1000 X139.6908 Y21.6581 Z-6.0000 S1000
G1 F1000 X140.0384 Y21.7272 Z-6.0000 S1000
G1 F100 Z-7.5000
G1 F1000 X140.3336 Y21.9245 Z-7.5000 S1000
G1 F1000 X140.5306 Y22.2194 Z-7.5000 S1000
G1 F1000 X140.5998 Y22.5671 Z-7.5000 S1000
G1 F1000 X140.5306 Y22.9148 Z-7.5000 S1000
G1 F1000 X140.3334 Y23.2099 Z-7.5000 S1000
G1 F1000 X140.0386 Y23.4069 Z-7.5000 S1000
G1 F1000 X139.6908 Y23.4761 Z-7.5000 S1000
G1 F1000 X139.3429 Y23.4069 Z-7.5000 S1000
G1 F1000 X139.0480 Y23.2099 Z-7.5000 S1000
G1 F1000 X138.8510 Y22.9150 Z-7.5000 S1000
G1 F1000 X138.7818 Y22.5671 Z-7.5000 S1000
G1 F1000 X138.8510 Y22.2194 Z-7.5000 S1000
G1 F1000 X139.0481 Y21.9244 Z-7.5000 S1000
G1 F1000 X139.3431 Y21.7273 Z-7.5000 S1000
G1 F1000 X139.6908 Y21.6581 Z-7.5000 S1000
G1 F1000 X140.0384 Y21.7272 Z-7.5000 S1000
G1 F100 Z-8.8000
G1 F1000 X140.3336 Y21.9245 Z-8.8000 S1000
G1 F1000 X140.5306 Y22.2194 Z-8.8000 S1000
G1 F1000 X140.5998 Y22.5671 Z-8.8000 S1000
G1 F1000 X140.5306 Y22.9148 Z-8.8000 S1000
G1 F1000 X140.3334 Y23.2099 Z-8.8000 S1000
G1 F1000 X140.0386 Y23.4069 Z-8.8000 S1000
G1 F1000 X139.6908 Y23.4761 Z-8.8000 S1000
G1 F1000 X139.3429 Y23.4069 Z-8.8000 S1000
G1 F1000 X139.0480 Y23.2099 Z-8.8000 S1000
G1 F1000 X138.8510 Y22.9150 Z-8.8000 S1000
G1 F1000 X138.7818 Y22.5671 Z-8.8000 S1000
G1 F1000 X138.8510 Y22.2194 Z-8.8000 S1000
G1 F1000 X139.0481 Y21.9244 Z-8.8000 S1000
G1 F1000 X139.3431 Y21.7273 Z-8.8000 S1000
G1 F1000 X139.6908 Y21.6581 Z-8.8000 S1000
G1 F1000 X140.0384 Y21.7272 Z-8.8000 S1000

G0 Z10; move to z-safe height
G0 X104.0957 Y38.3273

G0 Z0
G1 F100 Z-1.5000
G1 F1000 X104.3905 Y38.5243 Z-1.5000 S1000
G1 F1000 X104.5877 Y38.8194 Z-1.5000 S1000
G1 F1000 X104.6569 Y39.1671 Z-1.5000 S1000
G1 F1000 X104.5877 Y39.5148 Z-1.5000 S1000
G1 F1000 X104.3907 Y39.8097 Z-1.5000 S1000
G1 F1000 X104.0955 Y40.0070 Z-1.5000 S1000
G1 F1000 X103.7479 Y40.0761 Z-1.5000 S1000
G1 F1000 X103.4002 Y40.0069 Z-1.5000 S1000
G1 F1000 X103.1052 Y39.8098 Z-1.5000 S1000
G1 F1000 X102.9081 Y39.5148 Z-1.5000 S1000
G1 F1000 X102.8389 Y39.1671 Z-1.5000 S1000
G1 F1000 X102.9081 Y38.8192 Z-1.5000 S1000
G1 F1000 X103.1051 Y38.5243 Z-1.5000 S1000
G1 F1000 X103.4000 Y38.3273 Z-1.5000 S1000
G1 F1000 X103.7479 Y38.2581 Z-1.5000 S1000
G1 F1000 X104.0957 Y38.3273 Z-1.5000 S1000
G1 F100 Z-3.0000
G1 F1000 X104.3905 Y38.5243 Z-3.0000 S1000
G1 F1000 X104.5877 Y38.8194 Z-3.0000 S1000
G1 F1000 X104.6569 Y39.1671 Z-3.0000 S1000
G1 F1000 X104.5877 Y39.5148 Z-3.0000 S1000
G1 F1000 X104.3907 Y39.8097 Z-3.0000 S1000
G1 F1000 X104.0955 Y40.0070 Z-3.0000 S1000
G1 F1000 X103.7479 Y40.0761 Z-3.0000 S1000
G1 F1000 X103.4002 Y40.0069 Z-3.0000 S1000
G1 F1000 X103.1052 Y39.8098 Z-3.0000 S1000
G1 F1000 X102.9081 Y39.5148 Z-3.0000 S1000
G1 F1000 X102.8389 Y39.1671 Z-3.0000 S1000
G1 F1000 X102.9081 Y38.8192 Z-3.0000 S1000
G1 F1000 X103.1051 Y38.5243 Z-3.0000 S1000
G1 F1000 X103.4000 Y38.3273 Z-3.0000 S1000
G1 F1000 X103.7479 Y38.2581 Z-3.0000 S1000
G1 F1000 X104.0957 Y38.3273 Z-3.0000 S1000
G1 F100 Z-4.5000
G1 F1000 X104.3905 Y38.5243 Z-4.5000 S1000
G1 F1000 X104.5877 Y38.8194 Z-4.5000 S1000
G1 F1000 X104.6569 Y39.1671 Z-4.5000 S1000
G1 F1000 X104.5877 Y39.5148 Z-4.5000 S1000
G1 F1000 X104.3907 Y39.8097 Z-4.5000 S1000
G1 F1000 X104.0955 Y40.0070 Z-4.5000 S1000
G1 F1000 X103.7479 Y40.0761 Z-4.5000 S1000
G1 F1000 X103.4002 Y40.0069 Z-4.5000 S1000
G1 F1000 X103.1052 Y39.8098 Z-4.5000 S1000
G1 F1000 X102.9081 Y39.5148 Z-4.5000 S1000
G1 F1000 X102.8389 Y39.1671 Z-4.5000 S1000
G1 F1000 X102.9081 Y38.8192 Z-4.5000 S1000
G1 F1000 X103.1051 Y38.5243 Z-4.5000 S1000
G1 F1000 X103.4000 Y38.3273 Z-4.5000 S1000
G1 F1000 X103.7479 Y38.2581 Z-4.5000 S1000
G1 F1000 X104.0957 Y38.3273 Z-4.5000 S1000
G1 F100 Z-6.0000
G1 F1000 X104.3905 Y38.5243 Z-6.0000 S1000
G1 F1000 X104.5877 Y38.8194 Z-6.0000 S1000
G1 F1000 X104.6569 Y39.1671 Z-6.0000 S1000
G1 F1000 X104.5877 Y39.5148 Z-6.0000 S1000
G1 F1000 X104.3907 Y39.8097 Z-6.0000 S1000
G1 F1000 X104.0955 Y40.0070 Z-6.0000 S1000
G1 F1000 X103.7479 Y40.0761 Z-6.0000 S1000
G1 F1000 X103.4002 Y40.0069 Z-6.0000 S1000
G1 F1000 X103.1052 Y39.8098 Z-6.0000 S1000
G1 F1000 X102.9081 Y39.5148 Z-6.0000 S1000
G1 F1000 X102.8389 Y39.1671 Z-6.0000 S1000
G1 F1000 X102.9081 Y38.8192 Z-6.0000 S1000
G1 F1000 X103.1051 Y38.5243 Z-6.0000 S1000
G1 F1000 X103.4000 Y38.3273 Z-6.0000 S1000
G1 F1000 X103.7479 Y38.2581 Z-6.0000 S1000
G1 F1000 X104.0957 Y38.3273 Z-6.0000 S1000
G1 F100 Z-7.5000
G1 F1000 X104.3905 Y38.5243 Z-7.5000 S1000
G1 F1000 X104.5877 Y38.8194 Z-7.5000 S1000
G1 F1000 X104.6569 Y39.1671 Z-7.5000 S1000
G1 F1000 X104.5877 Y39.5148 Z-7.5000 S1000
G1 F1000 X104.3907 Y39.8097 Z-7.5000 S1000
G1 F1000 X104.0955 Y40.0070 Z-7.5000 S1000
G1 F1000 X103.7479 Y40.0761 Z-7.5000 S1000
G1 F1000 X103.4002 Y40.0069 Z-7.5000 S1000
G1 F1000 X103.1052 Y39.8098 Z-7.5000 S1000
G1 F1000 X102.9081 Y39.5148 Z-7.5000 S1000
G1 F1000 X102.8389 Y39.1671 Z-7.5000 S1000
G1 F1000 X102.9081 Y38.8192 Z-7.5000 S1000
G1 F1000 X103.1051 Y38.5243 Z-7.5000 S1000
G1 F1000 X103.4000 Y38.3273 Z-7.5000 S1000
G1 F1000 X103.7479 Y38.2581 Z-7.5000 S1000
G1 F1000 X104.0957 Y38.3273 Z-7.5000 S1000
G1 F100 Z-8.8000
G1 F1000 X104.3905 Y38.5243 Z-8.8000 S1000
G1 F1000 X104.5877 Y38.8194 Z-8.8000 S1000
G1 F1000 X104.6569 Y39.1671 Z-8.8000 S1000
G1 F1000 X104.5877 Y39.5148 Z-8.8000 S1000
G1 F1000 X104.3907 Y39.8097 Z-8.8000 S1000
G1 F1000 X104.0955 Y40.0070 Z-8.8000 S1000
G1 F1000 X103.7479 Y40.0761 Z-8.8000 S1000
G1 F1000 X103.4002 Y40.0069 Z-8.8000 S1000
G1 F1000 X103.1052 Y39.8098 Z-8.8000 S1000
G1 F1000 X102.9081 Y39.5148 Z-8.8000 S1000
G1 F1000 X102.8389 Y39.1671 Z-8.8000 S1000
G1 F1000 X102.9081 Y38.8192 Z-8.8000 S1000
G1 F1000 X103.1051 Y38.5243 Z-8.8000 S1000
G1 F1000 X103.4000 Y38.3273 Z-8.8000 S1000
G1 F1000 X103.7479 Y38.2581 Z-8.8000 S1000
G1 F1000 X104.0957 Y38.3273 Z-8.8000 S1000

G0 Z10; move to z-safe height
G0 X86.1243 Y38.3273

G0 Z0
G1 F100 Z-1.5000
G1 F1000 X86.4192 Y38.5243 Z-1.5000 S1000
G1 F1000 X86.6162 Y38.8192 Z-1.5000 S1000
G1 F1000 X86.6854 Y39.1671 Z-1.5000 S1000
G1 F1000 X86.6162 Y39.5148 Z-1.5000 S1000
G1 F1000 X86.4191 Y39.8098 Z-1.5000 S1000
G1 F1000 X86.1241 Y40.0070 Z-1.5000 S1000
G1 F1000 X85.7765 Y40.0761 Z-1.5000 S1000
G1 F1000 X85.4288 Y40.0069 Z-1.5000 S1000
G1 F1000 X85.1338 Y39.8098 Z-1.5000 S1000
G1 F1000 X84.9367 Y39.5148 Z-1.5000 S1000
G1 F1000 X84.8675 Y39.1671 Z-1.5000 S1000
G1 F1000 X84.9367 Y38.8192 Z-1.5000 S1000
G1 F1000 X85.1337 Y38.5243 Z-1.5000 S1000
G1 F1000 X85.4286 Y38.3273 Z-1.5000 S1000
G1 F1000 X85.7765 Y38.2581 Z-1.5000 S1000
G1 F1000 X86.1243 Y38.3273 Z-1.5000 S1000
G1 F100 Z-3.0000
G1 F1000 X86.4192 Y38.5243 Z-3.0000 S1000
G1 F1000 X86.6162 Y38.8192 Z-3.0000 S1000
G1 F1000 X86.6854 Y39.1671 Z-3.0000 S1000
G1 F1000 X86.6162 Y39.5148 Z-3.0000 S1000
G1 F1000 X86.4191 Y39.8098 Z-3.0000 S1000
G1 F1000 X86.1241 Y40.0070 Z-3.0000 S1000
G1 F1000 X85.7765 Y40.0761 Z-3.0000 S1000
G1 F1000 X85.4288 Y40.0069 Z-3.0000 S1000
G1 F1000 X85.1338 Y39.8098 Z-3.0000 S1000
G1 F1000 X84.9367 Y39.5148 Z-3.0000 S1000
G1 F1000 X84.8675 Y39.1671 Z-3.0000 S1000
G1 F1000 X84.9367 Y38.8192 Z-3.0000 S1000
G1 F1000 X85.1337 Y38.5243 Z-3.0000 S1000
G1 F1000 X85.4286 Y38.3273 Z-3.0000 S1000
G1 F1000 X85.7765 Y38.2581 Z-3.0000 S1000
G1 F1000 X86.1243 Y38.3273 Z-3.0000 S1000
G1 F100 Z-4.5000
G1 F1000 X86.4192 Y38.5243 Z-4.5000 S1000
G1 F1000 X86.6162 Y38.8192 Z-4.5000 S1000
G1 F1000 X86.6854 Y39.1671 Z-4.5000 S1000
G1 F1000 X86.6162 Y39.5148 Z-4.5000 S1000
G1 F1000 X86.4191 Y39.8098 Z-4.5000 S1000
G1 F1000 X86.1241 Y40.0070 Z-4.5000 S1000
G1 F1000 X85.7765 Y40.0761 Z-4.5000 S1000
G1 F1000 X85.4288 Y40.0069 Z-4.5000 S1000
G1 F1000 X85.1338 Y39.8098 Z-4.5000 S1000
G1 F1000 X84.9367 Y39.5148 Z-4.5000 S1000
G1 F1000 X84.8675 Y39.1671 Z-4.5000 S1000
G1 F1000 X84.9367 Y38.8192 Z-4.5000 S1000
G1 F1000 X85.1337 Y38.5243 Z-4.5000 S1000
G1 F1000 X85.4286 Y38.3273 Z-4.5000 S1000
G1 F1000 X85.7765 Y38.2581 Z-4.5000 S1000
G1 F1000 X86.1243 Y38.3273 Z-4.5000 S1000
G1 F100 Z-6.0000
G1 F1000 X86.4192 Y38.5243 Z-6.0000 S1000
G1 F1000 X86.6162 Y38.8192 Z-6.0000 S1000
G1 F1000 X86.6854 Y39.1671 Z-6.0000 S1000
G1 F1000 X86.6162 Y39.5148 Z-6.0000 S1000
G1 F1000 X86.4191 Y39.8098 Z-6.0000 S1000
G1 F1000 X86.1241 Y40.0070 Z-6.0000 S1000
G1 F1000 X85.7765 Y40.0761 Z-6.0000 S1000
G1 F1000 X85.4288 Y40.0069 Z-6.0000 S1000
G1 F1000 X85.1338 Y39.8098 Z-6.0000 S1000
G1 F1000 X84.9367 Y39.5148 Z-6.0000 S1000
G1 F1000 X84.8675 Y39.1671 Z-6.0000 S1000
G1 F1000 X84.9367 Y38.8192 Z-6.0000 S1000
G1 F1000 X85.1337 Y38.5243 Z-6.0000 S1000
G1 F1000 X85.4286 Y38.3273 Z-6.0000 S1000
G1 F1000 X85.7765 Y38.2581 Z-6.0000 S1000
G1 F1000 X86.1243 Y38.3273 Z-6.0000 S1000
G1 F100 Z-7.5000
G1 F1000 X86.4192 Y38.5243 Z-7.5000 S1000
G1 F1000 X86.6162 Y38.8192 Z-7.5000 S1000
G1 F1000 X86.6854 Y39.1671 Z-7.5000 S1000
G1 F1000 X86.6162 Y39.5148 Z-7.5000 S1000
G1 F1000 X86.4191 Y39.8098 Z-7.5000 S1000
G1 F1000 X86.1241 Y40.0070 Z-7.5000 S1000
G1 F1000 X85.7765 Y40.0761 Z-7.5000 S1000
G1 F1000 X85.4288 Y40.0069 Z-7.5000 S1000
G1 F1000 X85.1338 Y39.8098 Z-7.5000 S1000
G1 F1000 X84.9367 Y39.5148 Z-7.5000 S1000
G1 F1000 X84.8675 Y39.1671 Z-7.5000 S1000
G1 F1000 X84.9367 Y38.8192 Z-7.5000 S1000
G1 F1000 X85.1337 Y38.5243 Z-7.5000 S1000
G1 F1000 X85.4286 Y38.3273 Z-7.5000 S1000
G1 F1000 X85.7765 Y38.2581 Z-7.5000 S1000
G1 F1000 X86.1243 Y38.3273 Z-7.5000 S1000
G1 F100 Z-8.8000
G1 F1000 X86.4192 Y38.5243 Z-8.8000 S1000
G1 F1000 X86.6162 Y38.8192 Z-8.8000 S1000
G1 F1000 X86.6854 Y39.1671 Z-8.8000 S1000
G1 F1000 X86.6162 Y39.5148 Z-8.8000 S1000
G1 F1000 X86.4191 Y39.8098 Z-8.8000 S1000
G1 F1000 X86.1241 Y40.0070 Z-8.8000 S1000
G1 F1000 X85.7765 Y40.0761 Z-8.8000 S1000
G1 F1000 X85.4288 Y40.0069 Z-8.8000 S1000
G1 F1000 X85.1338 Y39.8098 Z-8.8000 S1000
G1 F1000 X84.9367 Y39.5148 Z-8.8000 S1000
G1 F1000 X84.8675 Y39.1671 Z-8.8000 S1000
G1 F1000 X84.9367 Y38.8192 Z-8.8000 S1000
G1 F1000 X85.1337 Y38.5243 Z-8.8000 S1000
G1 F1000 X85.4286 Y38.3273 Z-8.8000 S1000
G1 F1000 X85.7765 Y38.2581 Z-8.8000 S1000
G1 F1000 X86.1243 Y38.3273 Z-8.8000 S1000

G0 Z10; move to z-safe height
G0 X55.4585 Y24.6421

G0 Z0
G1 F100 Z-1.5000
G1 F1000 X44.2085 Y24.6421 Z-1.5000 S1000
G1 F1000 X44.2085 Y20.4921 Z-1.5000 S1000
G1 F1000 X55.4585 Y20.4921 Z-1.5000 S1000
G1 F1000 X55.4585 Y24.6421 Z-1.5000 S1000
G1 F100 Z-3.0000
G1 F1000 X44.2085 Y24.6421 Z-3.0000 S1000
G1 F1000 X44.2085 Y20.4921 Z-3.0000 S1000
G1 F1000 X55.4585 Y20.4921 Z-3.0000 S1000
G1 F1000 X55.4585 Y24.6421 Z-3.0000 S1000
G1 F100 Z-4.5000
G1 F1000 X44.2085 Y24.6421 Z-4.5000 S1000
G1 F1000 X44.2085 Y20.4921 Z-4.5000 S1000
G1 F1000 X55.4585 Y20.4921 Z-4.5000 S1000
G1 F1000 X55.4585 Y24.6421 Z-4.5000 S1000
G1 F100 Z-6.0000
G1 F1000 X44.2085 Y24.6421 Z-6.0000 S1000
G1 F1000 X44.2085 Y20.4921 Z-6.0000 S1000
G1 F1000 X55.4585 Y20.4921 Z-6.0000 S1000
G1 F1000 X55.4585 Y24.6421 Z-6.0000 S1000
G1 F100 Z-7.5000
G1 F1000 X44.2085 Y24.6421 Z-7.5000 S1000
G1 F1000 X44.2085 Y20.4921 Z-7.5000 S1000
G1 F1000 X55.4585 Y20.4921 Z-7.5000 S1000
G1 F1000 X55.4585 Y24.6421 Z-7.5000 S1000
G1 F100 Z-8.8000
G1 F1000 X44.2085 Y24.6421 Z-8.8000 S1000
G1 F1000 X44.2085 Y20.4921 Z-8.8000 S1000
G1 F1000 X55.4585 Y20.4921 Z-8.8000 S1000
G1 F1000 X55.4585 Y24.6421 Z-8.8000 S1000

G0 Z10; move to z-safe height
G0 X37.4872 Y41.2421

G0 Z0
G1 F100 Z-1.5000
G1 F1000 X26.2372 Y41.2421 Z-1.5000 S1000
G1 F1000 X26.2372 Y37.0921 Z-1.5000 S1000
G1 F1000 X37.4872 Y37.0921 Z-1.5000 S1000
G1 F1000 X37.4872 Y41.2421 Z-1.5000 S1000
G1 F100 Z-3.0000
G1 F1000 X26.2372 Y41.2421 Z-3.0000 S1000
G1 F1000 X26.2372 Y37.0921 Z-3.0000 S1000
G1 F1000 X37.4872 Y37.0921 Z-3.0000 S1000
G1 F1000 X37.4872 Y41.2421 Z-3.0000 S1000
G1 F100 Z-4.5000
G1 F1000 X26.2372 Y41.2421 Z-4.5000 S1000
G1 F1000 X26.2372 Y37.0921 Z-4.5000 S1000
G1 F1000 X37.4872 Y37.0921 Z-4.5000 S1000
G1 F1000 X37.4872 Y41.2421 Z-4.5000 S1000
G1 F100 Z-6.0000
G1 F1000 X26.2372 Y41.2421 Z-6.0000 S1000
G1 F1000 X26.2372 Y37.0921 Z-6.0000 S1000
G1 F1000 X37.4872 Y37.0921 Z-6.0000 S1000
G1 F1000 X37.4872 Y41.2421 Z-6.0000 S1000
G1 F100 Z-7.5000
G1 F1000 X26.2372 Y41.2421 Z-7.5000 S1000
G1 F1000 X26.2372 Y37.0921 Z-7.5000 S1000
G1 F1000 X37.4872 Y37.0921 Z-7.5000 S1000
G1 F1000 X37.4872 Y41.2421 Z-7.5000 S1000
G1 F100 Z-8.8000
G1 F1000 X26.2372 Y41.2421 Z-8.8000 S1000
G1 F1000 X26.2372 Y37.0921 Z-8.8000 S1000
G1 F1000 X37.4872 Y37.0921 Z-8.8000 S1000
G1 F1000 X37.4872 Y41.2421 Z-8.8000 S1000

G0 Z10; move to z-safe height
G0 X55.4585 Y41.2421

G0 Z0
G1 F100 Z-1.5000
G1 F1000 X44.2085 Y41.2421 Z-1.5000 S1000
G1 F1000 X44.2085 Y37.0921 Z-1.5000 S1000
G1 F1000 X55.4585 Y37.0921 Z-1.5000 S1000
G1 F1000 X55.4585 Y41.2421 Z-1.5000 S1000
G1 F100 Z-3.0000
G1 F1000 X44.2085 Y41.2421 Z-3.0000 S1000
G1 F1000 X44.2085 Y37.0921 Z-3.0000 S1000
G1 F1000 X55.4585 Y37.0921 Z-3.0000 S1000
G1 F1000 X55.4585 Y41.2421 Z-3.0000 S1000
G1 F100 Z-4.5000
G1 F1000 X44.2085 Y41.2421 Z-4.5000 S1000
G1 F1000 X44.2085 Y37.0921 Z-4.5000 S1000
G1 F1000 X55.4585 Y37.0921 Z-4.5000 S1000
G1 F1000 X55.4585 Y41.2421 Z-4.5000 S1000
G1 F100 Z-6.0000
G1 F1000 X44.2085 Y41.2421 Z-6.0000 S1000
G1 F1000 X44.2085 Y37.0921 Z-6.0000 S1000
G1 F1000 X55.4585 Y37.0921 Z-6.0000 S1000
G1 F1000 X55.4585 Y41.2421 Z-6.0000 S1000
G1 F100 Z-7.5000
G1 F1000 X44.2085 Y41.2421 Z-7.5000 S1000
G1 F1000 X44.2085 Y37.0921 Z-7.5000 S1000
G1 F1000 X55.4585 Y37.0921 Z-7.5000 S1000
G1 F1000 X55.4585 Y41.2421 Z-7.5000 S1000
G1 F100 Z-8.8000
G1 F1000 X44.2085 Y41.2421 Z-8.8000 S1000
G1 F1000 X44.2085 Y37.0921 Z-8.8000 S1000
G1 F1000 X55.4585 Y37.0921 Z-8.8000 S1000
G1 F1000 X55.4585 Y41.2421 Z-8.8000 S1000

G0 Z10; move to z-safe height
G0 X37.4872 Y24.6421

G0 Z0
G1 F100 Z-1.5000
G1 F1000 X26.2372 Y24.6421 Z-1.5000 S1000
G1 F1000 X26.2372 Y20.4921 Z-1.5000 S1000
G1 F1000 X37.4872 Y20.4921 Z-1.5000 S1000
G1 F1000 X37.4872 Y24.6421 Z-1.5000 S1000
G1 F100 Z-3.0000
G1 F1000 X26.2372 Y24.6421 Z-3.0000 S1000
G1 F1000 X26.2372 Y20.4921 Z-3.0000 S1000
G1 F1000 X37.4872 Y20.4921 Z-3.0000 S1000
G1 F1000 X37.4872 Y24.6421 Z-3.0000 S1000
G1 F100 Z-4.5000
G1 F1000 X26.2372 Y24.6421 Z-4.5000 S1000
G1 F1000 X26.2372 Y20.4921 Z-4.5000 S1000
G1 F1000 X37.4872 Y20.4921 Z-4.5000 S1000
G1 F1000 X37.4872 Y24.6421 Z-4.5000 S1000
G1 F100 Z-6.0000
G1 F1000 X26.2372 Y24.6421 Z-6.0000 S1000
G1 F1000 X26.2372 Y20.4921 Z-6.0000 S1000
G1 F1000 X37.4872 Y20.4921 Z-6.0000 S1000
G1 F1000 X37.4872 Y24.6421 Z-6.0000 S1000
G1 F100 Z-7.5000
G1 F1000 X26.2372 Y24.6421 Z-7.5000 S1000
G1 F1000 X26.2372 Y20.4921 Z-7.5000 S1000
G1 F1000 X37.4872 Y20.4921 Z-7.5000 S1000
G1 F1000 X37.4872 Y24.6421 Z-7.5000 S1000
G1 F100 Z-8.8000
G1 F1000 X26.2372 Y24.6421 Z-8.8000 S1000
G1 F1000 X26.2372 Y20.4921 Z-8.8000 S1000
G1 F1000 X37.4872 Y20.4921 Z-8.8000 S1000
G1 F1000 X37.4872 Y24.6421 Z-8.8000 S1000
; retracting back to z-safe
G0 Z10
; Operation 2: CNC: Pocket
; Endmill Diameter: 3.17

G0 Z10; move to z-safe height
G0 F1000 X60.7629 Y34.6198

G0 Z0
G1 F100 Z-1.0000
G1 F1000 X20.9329 Y34.6198 Z-1.0000 S1000
G1 F1000 X20.9329 Y34.2898 Z-1.0000 S1000
G1 F1000 X60.7629 Y34.2898 Z-1.0000 S1000
G1 F1000 X60.7629 Y34.6198 Z-1.0000 S1000

G0 Z10; move to z-safe height
G0 X60.7629 Y18.0201

G0 Z0
G1 F100 Z-1.0000
G1 F1000 X20.9329 Y18.0201 Z-1.0000 S1000
G1 F1000 X20.9329 Y17.6901 Z-1.0000 S1000
G1 F1000 X60.7629 Y17.6901 Z-1.0000 S1000
G1 F1000 X60.7629 Y18.0201 Z-1.0000 S1000

G0 Z10; move to z-safe height
G0 X60.7629 Y34.6198

G0 Z0
G1 F100 Z-2.5000
G1 F1000 X20.9329 Y34.6198 Z-2.5000 S1000
G1 F1000 X20.9329 Y34.2898 Z-2.5000 S1000
G1 F1000 X60.7629 Y34.2898 Z-2.5000 S1000
G1 F1000 X60.7629 Y34.6198 Z-2.5000 S1000

G0 Z10; move to z-safe height
G0 X60.7629 Y18.0201

G0 Z0
G1 F100 Z-2.5000
G1 F1000 X20.9329 Y18.0201 Z-2.5000 S1000
G1 F1000 X20.9329 Y17.6901 Z-2.5000 S1000
G1 F1000 X60.7629 Y17.6901 Z-2.5000 S1000
G1 F1000 X60.7629 Y18.0201 Z-2.5000 S1000

G0 Z10; move to z-safe height
G0 X60.7629 Y34.6198

G0 Z0
G1 F100 Z-4.0000
G1 F1000 X20.9329 Y34.6198 Z-4.0000 S1000
G1 F1000 X20.9329 Y34.2898 Z-4.0000 S1000
G1 F1000 X60.7629 Y34.2898 Z-4.0000 S1000
G1 F1000 X60.7629 Y34.6198 Z-4.0000 S1000

G0 Z10; move to z-safe height
G0 X60.7629 Y18.0201

G0 Z0
G1 F100 Z-4.0000
G1 F1000 X20.9329 Y18.0201 Z-4.0000 S1000
G1 F1000 X20.9329 Y17.6901 Z-4.0000 S1000
G1 F1000 X60.7629 Y17.6901 Z-4.0000 S1000
G1 F1000 X60.7629 Y18.0201 Z-4.0000 S1000
; retracting back to z-safe
G0 Z10
; Operation 3: CNC: Vector (path outside)
; Endmill Diameter: 3.17

G0 Z10; move to z-safe height
G0 F1000 X180.5120 Y10.4324

G0 Z0
G1 F100 Z-1.5000
G1 F1000 X9.0124 Y10.4324 Z-1.5000 S1000
G1 F1000 X8.5462 Y10.5025 Z-1.5000 S1000
G1 F1000 X8.0958 Y10.7243 Z-1.5000 S1000
G1 F1000 X7.7374 Y11.0758 Z-1.5000 S1000
G1 F1000 X7.5069 Y11.5217 Z-1.5000 S1000
G1 F1000 X7.4274 Y12.0174 Z-1.5000 S1000
G1 F1000 X7.4274 Y42.5044 Z-1.5000 S1000
G1 F1000 X7.4975 Y42.9706 Z-1.5000 S1000
G1 F1000 X7.7193 Y43.4210 Z-1.5000 S1000
G1 F1000 X8.0708 Y43.7794 Z-1.5000 S1000
G1 F1000 X8.5167 Y44.0099 Z-1.5000 S1000
G1 F1000 X9.0124 Y44.0894 Z-1.5000 S1000
G1 F1000 X20.3274 Y44.0894 Z-1.5000 S1000
G1 F1000 X20.3274 Y50.6042 Z-1.5000 S1000
G1 F1000 X20.3975 Y51.0704 Z-1.5000 S1000
G1 F1000 X20.6193 Y51.5208 Z-1.5000 S1000
G1 F1000 X20.9708 Y51.8792 Z-1.5000 S1000
G1 F1000 X21.4167 Y52.1097 Z-1.5000 S1000
G1 F1000 X21.9124 Y52.1892 Z-1.5000 S1000
G1 F1000 X167.6120 Y52.1892 Z-1.5000 S1000
G1 F1000 X168.0782 Y52.1191 Z-1.5000 S1000
G1 F1000 X168.5286 Y51.8973 Z-1.5000 S1000
G1 F1000 X168.8870 Y51.5458 Z-1.5000 S1000
G1 F1000 X169.1175 Y51.0999 Z-1.5000 S1000
G1 F1000 X169.1970 Y50.6042 Z-1.5000 S1000
G1 F1000 X169.1970 Y44.0894 Z-1.5000 S1000
G1 F1000 X180.5120 Y44.0894 Z-1.5000 S1000
G1 F1000 X180.9782 Y44.0193 Z-1.5000 S1000
G1 F1000 X181.4286 Y43.7975 Z-1.5000 S1000
G1 F1000 X181.7870 Y43.4460 Z-1.5000 S1000
G1 F1000 X182.0175 Y43.0001 Z-1.5000 S1000
G1 F1000 X182.0970 Y42.5044 Z-1.5000 S1000
G1 F1000 X182.0970 Y12.0174 Z-1.5000 S1000
G1 F1000 X182.0269 Y11.5512 Z-1.5000 S1000
G1 F1000 X181.8051 Y11.1008 Z-1.5000 S1000
G1 F1000 X181.4536 Y10.7424 Z-1.5000 S1000
G1 F1000 X181.0077 Y10.5119 Z-1.5000 S1000
G1 F1000 X180.5120 Y10.4324 Z-1.5000 S1000
G1 F100 Z-3.0000
G1 F1000 X9.0124 Y10.4324 Z-3.0000 S1000
G1 F1000 X8.5462 Y10.5025 Z-3.0000 S1000
G1 F1000 X8.0958 Y10.7243 Z-3.0000 S1000
G1 F1000 X7.7374 Y11.0758 Z-3.0000 S1000
G1 F1000 X7.5069 Y11.5217 Z-3.0000 S1000
G1 F1000 X7.4274 Y12.0174 Z-3.0000 S1000
G1 F1000 X7.4274 Y42.5044 Z-3.0000 S1000
G1 F1000 X7.4975 Y42.9706 Z-3.0000 S1000
G1 F1000 X7.7193 Y43.4210 Z-3.0000 S1000
G1 F1000 X8.0708 Y43.7794 Z-3.0000 S1000
G1 F1000 X8.5167 Y44.0099 Z-3.0000 S1000
G1 F1000 X9.0124 Y44.0894 Z-3.0000 S1000
G1 F1000 X20.3274 Y44.0894 Z-3.0000 S1000
G1 F1000 X20.3274 Y50.6042 Z-3.0000 S1000
G1 F1000 X20.3975 Y51.0704 Z-3.0000 S1000
G1 F1000 X20.6193 Y51.5208 Z-3.0000 S1000
G1 F1000 X20.9708 Y51.8792 Z-3.0000 S1000
G1 F1000 X21.4167 Y52.1097 Z-3.0000 S1000
G1 F1000 X21.9124 Y52.1892 Z-3.0000 S1000
G1 F1000 X167.6120 Y52.1892 Z-3.0000 S1000
G1 F1000 X168.0782 Y52.1191 Z-3.0000 S1000
G1 F1000 X168.5286 Y51.8973 Z-3.0000 S1000
G1 F1000 X168.8870 Y51.5458 Z-3.0000 S1000
G1 F1000 X169.1175 Y51.0999 Z-3.0000 S1000
G1 F1000 X169.1970 Y50.6042 Z-3.0000 S1000
G1 F1000 X169.1970 Y44.0894 Z-3.0000 S1000
G1 F1000 X180.5120 Y44.0894 Z-3.0000 S1000
G1 F1000 X180.9782 Y44.0193 Z-3.0000 S1000
G1 F1000 X181.4286 Y43.7975 Z-3.0000 S1000
G1 F1000 X181.7870 Y43.4460 Z-3.0000 S1000
G1 F1000 X182.0175 Y43.0001 Z-3.0000 S1000
G1 F1000 X182.0970 Y42.5044 Z-3.0000 S1000
G1 F1000 X182.0970 Y12.0174 Z-3.0000 S1000
G1 F1000 X182.0269 Y11.5512 Z-3.0000 S1000
G1 F1000 X181.8051 Y11.1008 Z-3.0000 S1000
G1 F1000 X181.4536 Y10.7424 Z-3.0000 S1000
G1 F1000 X181.0077 Y10.5119 Z-3.0000 S1000
G1 F1000 X180.5120 Y10.4324 Z-3.0000 S1000
G1 F100 Z-4.0000
G1 F1000 X9.0124 Y10.4324 Z-4.0000 S1000
G1 F1000 X8.5462 Y10.5025 Z-4.0000 S1000
G1 F1000 X8.0958 Y10.7243 Z-4.0000 S1000
G1 F1000 X7.7374 Y11.0758 Z-4.0000 S1000
G1 F1000 X7.5069 Y11.5217 Z-4.0000 S1000
G1 F1000 X7.4274 Y12.0174 Z-4.0000 S1000
G1 F1000 X7.4274 Y42.5044 Z-4.0000 S1000
G1 F1000 X7.4975 Y42.9706 Z-4.0000 S1000
G1 F1000 X7.7193 Y43.4210 Z-4.0000 S1000
G1 F1000 X8.0708 Y43.7794 Z-4.0000 S1000
G1 F1000 X8.5167 Y44.0099 Z-4.0000 S1000
G1 F1000 X9.0124 Y44.0894 Z-4.0000 S1000
G1 F1000 X20.3274 Y44.0894 Z-4.0000 S1000
G1 F1000 X20.3274 Y50.6042 Z-4.0000 S1000
G1 F1000 X20.3975 Y51.0704 Z-4.0000 S1000
G1 F1000 X20.6193 Y51.5208 Z-4.0000 S1000
G1 F1000 X20.9708 Y51.8792 Z-4.0000 S1000
G1 F1000 X21.4167 Y52.1097 Z-4.0000 S1000
G1 F1000 X21.9124 Y52.1892 Z-4.0000 S1000
G1 F1000 X167.6120 Y52.1892 Z-4.0000 S1000
G1 F1000 X168.0782 Y52.1191 Z-4.0000 S1000
G1 F1000 X168.5286 Y51.8973 Z-4.0000 S1000
G1 F1000 X168.8870 Y51.5458 Z-4.0000 S1000
G1 F1000 X169.1175 Y51.0999 Z-4.0000 S1000
G1 F1000 X169.1970 Y50.6042 Z-4.0000 S1000
G1 F1000 X169.1970 Y44.0894 Z-4.0000 S1000
G1 F1000 X180.5120 Y44.0894 Z-4.0000 S1000
G1 F1000 X180.9782 Y44.0193 Z-4.0000 S1000
G1 F1000 X181.4286 Y43.7975 Z-4.0000 S1000
G1 F1000 X181.7870 Y43.4460 Z-4.0000 S1000
G1 F1000 X182.0175 Y43.0001 Z-4.0000 S1000
G1 F1000 X182.0970 Y42.5044 Z-4.0000 S1000
G1 F1000 X182.0970 Y12.0174 Z-4.0000 S1000
G1 F1000 X182.0269 Y11.5512 Z-4.0000 S1000
G1 F1000 X181.8051 Y11.1008 Z-4.0000 S1000
G1 F1000 X181.4536 Y10.7424 Z-4.0000 S1000
G1 F1000 X181.0077 Y10.5119 Z-4.0000 S1000
G1 F1000 X180.5120 Y10.4324 Z-4.0000 S1000
; retracting back to z-safe
G0 Z10

M5 S0; Spindle Off
