; GCODE Generated by cam.openbuilds.com on 2021-04-30 
G21 ; mm-mode
G54; Work Coordinates
G21; mm-mode
G90; Absolute Positioning
M3 S1000; Spindle On

; Operation 5: Drill: Peck (Centered)
; Endmill Diameter: 6

G0 Z10; move to z-safe height
G0 F1000 X84.0000 Y54.0001

G0 Z0
G1 F100 Z0.0000
G1 F1000 X84.0000 Y54.0001 Z0.0000 S1000
G1 F1000 X84.0000 Y54.0001 Z0.0000 S1000
G1 F100 Z0.0000
G1 F1000 X84.0000 Y54.0001 Z-1.5000 S1000
G1 F1000 X84.0000 Y54.0001 Z0.0000 S1000
G1 F100 Z-1.5000
G1 F1000 X84.0000 Y54.0001 Z-3.0000 S1000
G1 F1000 X84.0000 Y54.0001 Z0.0000 S1000
G1 F100 Z-3.0000
G1 F1000 X84.0000 Y54.0001 Z-4.5000 S1000
G1 F1000 X84.0000 Y54.0001 Z0.0000 S1000
G1 F100 Z-4.5000
G1 F1000 X84.0000 Y54.0001 Z-6.0000 S1000
G1 F1000 X84.0000 Y54.0001 Z0.0000 S1000
G1 F100 Z-6.0000
G1 F1000 X84.0000 Y54.0001 Z-7.5000 S1000
G1 F1000 X84.0000 Y54.0001 Z0.0000 S1000
G1 F100 Z-7.5000
G1 F1000 X84.0000 Y54.0001 Z-8.8000 S1000
G1 F1000 X84.0000 Y54.0001 Z0.0000 S1000

G0 Z10; move to z-safe height
G0 X4.0000 Y54.0001

G0 Z0
G1 F100 Z0.0000
G1 F1000 X4.0000 Y54.0001 Z0.0000 S1000
G1 F1000 X4.0000 Y54.0001 Z0.0000 S1000
G1 F100 Z0.0000
G1 F1000 X4.0000 Y54.0001 Z-1.5000 S1000
G1 F1000 X4.0000 Y54.0001 Z0.0000 S1000
G1 F100 Z-1.5000
G1 F1000 X4.0000 Y54.0001 Z-3.0000 S1000
G1 F1000 X4.0000 Y54.0001 Z0.0000 S1000
G1 F100 Z-3.0000
G1 F1000 X4.0000 Y54.0001 Z-4.5000 S1000
G1 F1000 X4.0000 Y54.0001 Z0.0000 S1000
G1 F100 Z-4.5000
G1 F1000 X4.0000 Y54.0001 Z-6.0000 S1000
G1 F1000 X4.0000 Y54.0001 Z0.0000 S1000
G1 F100 Z-6.0000
G1 F1000 X4.0000 Y54.0001 Z-7.5000 S1000
G1 F1000 X4.0000 Y54.0001 Z0.0000 S1000
G1 F100 Z-7.5000
G1 F1000 X4.0000 Y54.0001 Z-8.8000 S1000
G1 F1000 X4.0000 Y54.0001 Z0.0000 S1000

G0 Z10; move to z-safe height
G0 X4.0000 Y4.0001

G0 Z0
G1 F100 Z0.0000
G1 F1000 X4.0000 Y4.0001 Z0.0000 S1000
G1 F1000 X4.0000 Y4.0001 Z0.0000 S1000
G1 F100 Z0.0000
G1 F1000 X4.0000 Y4.0001 Z-1.5000 S1000
G1 F1000 X4.0000 Y4.0001 Z0.0000 S1000
G1 F100 Z-1.5000
G1 F1000 X4.0000 Y4.0001 Z-3.0000 S1000
G1 F1000 X4.0000 Y4.0001 Z0.0000 S1000
G1 F100 Z-3.0000
G1 F1000 X4.0000 Y4.0001 Z-4.5000 S1000
G1 F1000 X4.0000 Y4.0001 Z0.0000 S1000
G1 F100 Z-4.5000
G1 F1000 X4.0000 Y4.0001 Z-6.0000 S1000
G1 F1000 X4.0000 Y4.0001 Z0.0000 S1000
G1 F100 Z-6.0000
G1 F1000 X4.0000 Y4.0001 Z-7.5000 S1000
G1 F1000 X4.0000 Y4.0001 Z0.0000 S1000
G1 F100 Z-7.5000
G1 F1000 X4.0000 Y4.0001 Z-8.8000 S1000
G1 F1000 X4.0000 Y4.0001 Z0.0000 S1000

G0 Z10; move to z-safe height
G0 X84.0000 Y4.0001

G0 Z0
G1 F100 Z0.0000
G1 F1000 X84.0000 Y4.0001 Z0.0000 S1000
G1 F1000 X84.0000 Y4.0001 Z0.0000 S1000
G1 F100 Z0.0000
G1 F1000 X84.0000 Y4.0001 Z-1.5000 S1000
G1 F1000 X84.0000 Y4.0001 Z0.0000 S1000
G1 F100 Z-1.5000
G1 F1000 X84.0000 Y4.0001 Z-3.0000 S1000
G1 F1000 X84.0000 Y4.0001 Z0.0000 S1000
G1 F100 Z-3.0000
G1 F1000 X84.0000 Y4.0001 Z-4.5000 S1000
G1 F1000 X84.0000 Y4.0001 Z0.0000 S1000
G1 F100 Z-4.5000
G1 F1000 X84.0000 Y4.0001 Z-6.0000 S1000
G1 F1000 X84.0000 Y4.0001 Z0.0000 S1000
G1 F100 Z-6.0000
G1 F1000 X84.0000 Y4.0001 Z-7.5000 S1000
G1 F1000 X84.0000 Y4.0001 Z0.0000 S1000
G1 F100 Z-7.5000
G1 F1000 X84.0000 Y4.0001 Z-8.8000 S1000
G1 F1000 X84.0000 Y4.0001 Z0.0000 S1000
; retracting back to z-safe
G0 Z10
; Operation 6: Drill: Continuous (Centered)
; Endmill Diameter: 3.17

G0 Z10; move to z-safe height
G0 F1000 X72.0000 Y47.0000

G0 Z0
G1 F100 Z0.0000
G1 F1000 X72.0000 Y47.0000 Z-4.0000 S1000
G1 F1000 X72.0000 Y47.0000 Z0.0000 S1000

G0 Z10; move to z-safe height
G0 X60.5000 Y45.5000

G0 Z0
G1 F100 Z0.0000
G1 F1000 X60.5000 Y45.5000 Z-4.0000 S1000
G1 F1000 X60.5000 Y45.5000 Z0.0000 S1000

G0 Z10; move to z-safe height
G0 X16.0000 Y47.0000

G0 Z0
G1 F100 Z0.0000
G1 F1000 X16.0000 Y47.0000 Z-4.0000 S1000
G1 F1000 X16.0000 Y47.0000 Z0.0000 S1000

G0 Z10; move to z-safe height
G0 X72.0000 Y11.0000

G0 Z0
G1 F100 Z0.0000
G1 F1000 X72.0000 Y11.0000 Z-4.0000 S1000
G1 F1000 X72.0000 Y11.0000 Z0.0000 S1000

G0 Z10; move to z-safe height
G0 X16.0000 Y11.0000

G0 Z0
G1 F100 Z0.0000
G1 F1000 X16.0000 Y11.0000 Z-4.0000 S1000
G1 F1000 X16.0000 Y11.0000 Z0.0000 S1000

G0 Z10; move to z-safe height
G0 X12.2532 Y20.1033

G0 Z0
G1 F100 Z0.0000
G1 F1000 X12.2532 Y20.1033 Z-4.0000 S1000
G1 F1000 X12.2532 Y20.1033 Z0.0000 S1000

G0 Z10; move to z-safe height
G0 X63.0481 Y4.8518

G0 Z0
G1 F100 Z0.0000
G1 F1000 X63.0481 Y4.8518 Z-4.0000 S1000
G1 F1000 X63.0481 Y4.8518 Z0.0000 S1000

G0 Z10; move to z-safe height
G0 X27.5000 Y12.5000

G0 Z0
G1 F100 Z0.0000
G1 F1000 X27.5000 Y12.5000 Z-4.0000 S1000
G1 F1000 X27.5000 Y12.5000 Z0.0000 S1000

G0 Z10; move to z-safe height
G0 X12.2532 Y48.0645

G0 Z0
G1 F100 Z0.0000
G1 F1000 X12.2532 Y48.0645 Z-4.0000 S1000
G1 F1000 X12.2532 Y48.0645 Z0.0000 S1000

G0 Z10; move to z-safe height
G0 X27.5000 Y45.5000

G0 Z0
G1 F100 Z0.0000
G1 F1000 X27.5000 Y45.5000 Z-4.0000 S1000
G1 F1000 X27.5000 Y45.5000 Z0.0000 S1000

G0 Z10; move to z-safe height
G0 X60.5000 Y12.5000

G0 Z0
G1 F100 Z0.0000
G1 F1000 X60.5000 Y12.5000 Z-4.0000 S1000
G1 F1000 X60.5000 Y12.5000 Z0.0000 S1000

G0 Z10; move to z-safe height
G0 X64.3181 Y53.1483

G0 Z0
G1 F100 Z0.0000
G1 F1000 X64.3181 Y53.1483 Z-4.0000 S1000
G1 F1000 X64.3181 Y53.1483 Z0.0000 S1000
; retracting back to z-safe
G0 Z10
; Operation 7: CNC: Vector (path inside)
; Endmill Diameter: 3.17

G0 Z10; move to z-safe height
G0 F1000 X60.7079 Y45.1395

G0 Z0
G1 F80 Z-1.5000
G1 F1000 X60.8605 Y45.2921 Z-1.5000 S1000
G1 F1000 X60.9162 Y45.5000 Z-1.5000 S1000
G1 F1000 X60.8605 Y45.7079 Z-1.5000 S1000
G1 F1000 X60.7079 Y45.8605 Z-1.5000 S1000
G1 F1000 X60.5000 Y45.9162 Z-1.5000 S1000
G1 F1000 X60.2921 Y45.8605 Z-1.5000 S1000
G1 F1000 X60.1395 Y45.7079 Z-1.5000 S1000
G1 F1000 X60.0838 Y45.5000 Z-1.5000 S1000
G1 F1000 X60.1395 Y45.2921 Z-1.5000 S1000
G1 F1000 X60.2921 Y45.1395 Z-1.5000 S1000
G1 F1000 X60.5000 Y45.0838 Z-1.5000 S1000
G1 F1000 X60.7079 Y45.1395 Z-1.5000 S1000
G1 F80 Z-3.0000
G1 F1000 X60.8605 Y45.2921 Z-3.0000 S1000
G1 F1000 X60.9162 Y45.5000 Z-3.0000 S1000
G1 F1000 X60.8605 Y45.7079 Z-3.0000 S1000
G1 F1000 X60.7079 Y45.8605 Z-3.0000 S1000
G1 F1000 X60.5000 Y45.9162 Z-3.0000 S1000
G1 F1000 X60.2921 Y45.8605 Z-3.0000 S1000
G1 F1000 X60.1395 Y45.7079 Z-3.0000 S1000
G1 F1000 X60.0838 Y45.5000 Z-3.0000 S1000
G1 F1000 X60.1395 Y45.2921 Z-3.0000 S1000
G1 F1000 X60.2921 Y45.1395 Z-3.0000 S1000
G1 F1000 X60.5000 Y45.0838 Z-3.0000 S1000
G1 F1000 X60.7079 Y45.1395 Z-3.0000 S1000
G1 F80 Z-4.5000
G1 F1000 X60.8605 Y45.2921 Z-4.5000 S1000
G1 F1000 X60.9162 Y45.5000 Z-4.5000 S1000
G1 F1000 X60.8605 Y45.7079 Z-4.5000 S1000
G1 F1000 X60.7079 Y45.8605 Z-4.5000 S1000
G1 F1000 X60.5000 Y45.9162 Z-4.5000 S1000
G1 F1000 X60.2921 Y45.8605 Z-4.5000 S1000
G1 F1000 X60.1395 Y45.7079 Z-4.5000 S1000
G1 F1000 X60.0838 Y45.5000 Z-4.5000 S1000
G1 F1000 X60.1395 Y45.2921 Z-4.5000 S1000
G1 F1000 X60.2921 Y45.1395 Z-4.5000 S1000
G1 F1000 X60.5000 Y45.0838 Z-4.5000 S1000
G1 F1000 X60.7079 Y45.1395 Z-4.5000 S1000
G1 F80 Z-6.0000
G1 F1000 X60.8605 Y45.2921 Z-6.0000 S1000
G1 F1000 X60.9162 Y45.5000 Z-6.0000 S1000
G1 F1000 X60.8605 Y45.7079 Z-6.0000 S1000
G1 F1000 X60.7079 Y45.8605 Z-6.0000 S1000
G1 F1000 X60.5000 Y45.9162 Z-6.0000 S1000
G1 F1000 X60.2921 Y45.8605 Z-6.0000 S1000
G1 F1000 X60.1395 Y45.7079 Z-6.0000 S1000
G1 F1000 X60.0838 Y45.5000 Z-6.0000 S1000
G1 F1000 X60.1395 Y45.2921 Z-6.0000 S1000
G1 F1000 X60.2921 Y45.1395 Z-6.0000 S1000
G1 F1000 X60.5000 Y45.0838 Z-6.0000 S1000
G1 F1000 X60.7079 Y45.1395 Z-6.0000 S1000
G1 F80 Z-7.5000
G1 F1000 X60.8605 Y45.2921 Z-7.5000 S1000
G1 F1000 X60.9162 Y45.5000 Z-7.5000 S1000
G1 F1000 X60.8605 Y45.7079 Z-7.5000 S1000
G1 F1000 X60.7079 Y45.8605 Z-7.5000 S1000
G1 F1000 X60.5000 Y45.9162 Z-7.5000 S1000
G1 F1000 X60.2921 Y45.8605 Z-7.5000 S1000
G1 F1000 X60.1395 Y45.7079 Z-7.5000 S1000
G1 F1000 X60.0838 Y45.5000 Z-7.5000 S1000
G1 F1000 X60.1395 Y45.2921 Z-7.5000 S1000
G1 F1000 X60.2921 Y45.1395 Z-7.5000 S1000
G1 F1000 X60.5000 Y45.0838 Z-7.5000 S1000
G1 F1000 X60.7079 Y45.1395 Z-7.5000 S1000
G1 F80 Z-8.8000
G1 F1000 X60.8605 Y45.2921 Z-8.8000 S1000
G1 F1000 X60.9162 Y45.5000 Z-8.8000 S1000
G1 F1000 X60.8605 Y45.7079 Z-8.8000 S1000
G1 F1000 X60.7079 Y45.8605 Z-8.8000 S1000
G1 F1000 X60.5000 Y45.9162 Z-8.8000 S1000
G1 F1000 X60.2921 Y45.8605 Z-8.8000 S1000
G1 F1000 X60.1395 Y45.7079 Z-8.8000 S1000
G1 F1000 X60.0838 Y45.5000 Z-8.8000 S1000
G1 F1000 X60.1395 Y45.2921 Z-8.8000 S1000
G1 F1000 X60.2921 Y45.1395 Z-8.8000 S1000
G1 F1000 X60.5000 Y45.0838 Z-8.8000 S1000
G1 F1000 X60.7079 Y45.1395 Z-8.8000 S1000

G0 Z10; move to z-safe height
G0 X27.7079 Y12.1395

G0 Z0
G1 F80 Z-1.5000
G1 F1000 X27.8605 Y12.2921 Z-1.5000 S1000
G1 F1000 X27.9162 Y12.5000 Z-1.5000 S1000
G1 F1000 X27.8605 Y12.7079 Z-1.5000 S1000
G1 F1000 X27.7079 Y12.8605 Z-1.5000 S1000
G1 F1000 X27.5000 Y12.9162 Z-1.5000 S1000
G1 F1000 X27.2921 Y12.8605 Z-1.5000 S1000
G1 F1000 X27.1395 Y12.7079 Z-1.5000 S1000
G1 F1000 X27.0838 Y12.5000 Z-1.5000 S1000
G1 F1000 X27.1395 Y12.2921 Z-1.5000 S1000
G1 F1000 X27.2921 Y12.1395 Z-1.5000 S1000
G1 F1000 X27.5000 Y12.0838 Z-1.5000 S1000
G1 F1000 X27.7079 Y12.1395 Z-1.5000 S1000
G1 F80 Z-3.0000
G1 F1000 X27.8605 Y12.2921 Z-3.0000 S1000
G1 F1000 X27.9162 Y12.5000 Z-3.0000 S1000
G1 F1000 X27.8605 Y12.7079 Z-3.0000 S1000
G1 F1000 X27.7079 Y12.8605 Z-3.0000 S1000
G1 F1000 X27.5000 Y12.9162 Z-3.0000 S1000
G1 F1000 X27.2921 Y12.8605 Z-3.0000 S1000
G1 F1000 X27.1395 Y12.7079 Z-3.0000 S1000
G1 F1000 X27.0838 Y12.5000 Z-3.0000 S1000
G1 F1000 X27.1395 Y12.2921 Z-3.0000 S1000
G1 F1000 X27.2921 Y12.1395 Z-3.0000 S1000
G1 F1000 X27.5000 Y12.0838 Z-3.0000 S1000
G1 F1000 X27.7079 Y12.1395 Z-3.0000 S1000
G1 F80 Z-4.5000
G1 F1000 X27.8605 Y12.2921 Z-4.5000 S1000
G1 F1000 X27.9162 Y12.5000 Z-4.5000 S1000
G1 F1000 X27.8605 Y12.7079 Z-4.5000 S1000
G1 F1000 X27.7079 Y12.8605 Z-4.5000 S1000
G1 F1000 X27.5000 Y12.9162 Z-4.5000 S1000
G1 F1000 X27.2921 Y12.8605 Z-4.5000 S1000
G1 F1000 X27.1395 Y12.7079 Z-4.5000 S1000
G1 F1000 X27.0838 Y12.5000 Z-4.5000 S1000
G1 F1000 X27.1395 Y12.2921 Z-4.5000 S1000
G1 F1000 X27.2921 Y12.1395 Z-4.5000 S1000
G1 F1000 X27.5000 Y12.0838 Z-4.5000 S1000
G1 F1000 X27.7079 Y12.1395 Z-4.5000 S1000
G1 F80 Z-6.0000
G1 F1000 X27.8605 Y12.2921 Z-6.0000 S1000
G1 F1000 X27.9162 Y12.5000 Z-6.0000 S1000
G1 F1000 X27.8605 Y12.7079 Z-6.0000 S1000
G1 F1000 X27.7079 Y12.8605 Z-6.0000 S1000
G1 F1000 X27.5000 Y12.9162 Z-6.0000 S1000
G1 F1000 X27.2921 Y12.8605 Z-6.0000 S1000
G1 F1000 X27.1395 Y12.7079 Z-6.0000 S1000
G1 F1000 X27.0838 Y12.5000 Z-6.0000 S1000
G1 F1000 X27.1395 Y12.2921 Z-6.0000 S1000
G1 F1000 X27.2921 Y12.1395 Z-6.0000 S1000
G1 F1000 X27.5000 Y12.0838 Z-6.0000 S1000
G1 F1000 X27.7079 Y12.1395 Z-6.0000 S1000
G1 F80 Z-7.5000
G1 F1000 X27.8605 Y12.2921 Z-7.5000 S1000
G1 F1000 X27.9162 Y12.5000 Z-7.5000 S1000
G1 F1000 X27.8605 Y12.7079 Z-7.5000 S1000
G1 F1000 X27.7079 Y12.8605 Z-7.5000 S1000
G1 F1000 X27.5000 Y12.9162 Z-7.5000 S1000
G1 F1000 X27.2921 Y12.8605 Z-7.5000 S1000
G1 F1000 X27.1395 Y12.7079 Z-7.5000 S1000
G1 F1000 X27.0838 Y12.5000 Z-7.5000 S1000
G1 F1000 X27.1395 Y12.2921 Z-7.5000 S1000
G1 F1000 X27.2921 Y12.1395 Z-7.5000 S1000
G1 F1000 X27.5000 Y12.0838 Z-7.5000 S1000
G1 F1000 X27.7079 Y12.1395 Z-7.5000 S1000
G1 F80 Z-8.8000
G1 F1000 X27.8605 Y12.2921 Z-8.8000 S1000
G1 F1000 X27.9162 Y12.5000 Z-8.8000 S1000
G1 F1000 X27.8605 Y12.7079 Z-8.8000 S1000
G1 F1000 X27.7079 Y12.8605 Z-8.8000 S1000
G1 F1000 X27.5000 Y12.9162 Z-8.8000 S1000
G1 F1000 X27.2921 Y12.8605 Z-8.8000 S1000
G1 F1000 X27.1395 Y12.7079 Z-8.8000 S1000
G1 F1000 X27.0838 Y12.5000 Z-8.8000 S1000
G1 F1000 X27.1395 Y12.2921 Z-8.8000 S1000
G1 F1000 X27.2921 Y12.1395 Z-8.8000 S1000
G1 F1000 X27.5000 Y12.0838 Z-8.8000 S1000
G1 F1000 X27.7079 Y12.1395 Z-8.8000 S1000

G0 Z10; move to z-safe height
G0 X27.7079 Y45.1395

G0 Z0
G1 F80 Z-1.5000
G1 F1000 X27.8605 Y45.2921 Z-1.5000 S1000
G1 F1000 X27.9162 Y45.5000 Z-1.5000 S1000
G1 F1000 X27.8605 Y45.7079 Z-1.5000 S1000
G1 F1000 X27.7079 Y45.8605 Z-1.5000 S1000
G1 F1000 X27.5000 Y45.9162 Z-1.5000 S1000
G1 F1000 X27.2921 Y45.8605 Z-1.5000 S1000
G1 F1000 X27.1395 Y45.7079 Z-1.5000 S1000
G1 F1000 X27.0838 Y45.5000 Z-1.5000 S1000
G1 F1000 X27.1395 Y45.2921 Z-1.5000 S1000
G1 F1000 X27.2921 Y45.1395 Z-1.5000 S1000
G1 F1000 X27.5000 Y45.0838 Z-1.5000 S1000
G1 F1000 X27.7079 Y45.1395 Z-1.5000 S1000
G1 F80 Z-3.0000
G1 F1000 X27.8605 Y45.2921 Z-3.0000 S1000
G1 F1000 X27.9162 Y45.5000 Z-3.0000 S1000
G1 F1000 X27.8605 Y45.7079 Z-3.0000 S1000
G1 F1000 X27.7079 Y45.8605 Z-3.0000 S1000
G1 F1000 X27.5000 Y45.9162 Z-3.0000 S1000
G1 F1000 X27.2921 Y45.8605 Z-3.0000 S1000
G1 F1000 X27.1395 Y45.7079 Z-3.0000 S1000
G1 F1000 X27.0838 Y45.5000 Z-3.0000 S1000
G1 F1000 X27.1395 Y45.2921 Z-3.0000 S1000
G1 F1000 X27.2921 Y45.1395 Z-3.0000 S1000
G1 F1000 X27.5000 Y45.0838 Z-3.0000 S1000
G1 F1000 X27.7079 Y45.1395 Z-3.0000 S1000
G1 F80 Z-4.5000
G1 F1000 X27.8605 Y45.2921 Z-4.5000 S1000
G1 F1000 X27.9162 Y45.5000 Z-4.5000 S1000
G1 F1000 X27.8605 Y45.7079 Z-4.5000 S1000
G1 F1000 X27.7079 Y45.8605 Z-4.5000 S1000
G1 F1000 X27.5000 Y45.9162 Z-4.5000 S1000
G1 F1000 X27.2921 Y45.8605 Z-4.5000 S1000
G1 F1000 X27.1395 Y45.7079 Z-4.5000 S1000
G1 F1000 X27.0838 Y45.5000 Z-4.5000 S1000
G1 F1000 X27.1395 Y45.2921 Z-4.5000 S1000
G1 F1000 X27.2921 Y45.1395 Z-4.5000 S1000
G1 F1000 X27.5000 Y45.0838 Z-4.5000 S1000
G1 F1000 X27.7079 Y45.1395 Z-4.5000 S1000
G1 F80 Z-6.0000
G1 F1000 X27.8605 Y45.2921 Z-6.0000 S1000
G1 F1000 X27.9162 Y45.5000 Z-6.0000 S1000
G1 F1000 X27.8605 Y45.7079 Z-6.0000 S1000
G1 F1000 X27.7079 Y45.8605 Z-6.0000 S1000
G1 F1000 X27.5000 Y45.9162 Z-6.0000 S1000
G1 F1000 X27.2921 Y45.8605 Z-6.0000 S1000
G1 F1000 X27.1395 Y45.7079 Z-6.0000 S1000
G1 F1000 X27.0838 Y45.5000 Z-6.0000 S1000
G1 F1000 X27.1395 Y45.2921 Z-6.0000 S1000
G1 F1000 X27.2921 Y45.1395 Z-6.0000 S1000
G1 F1000 X27.5000 Y45.0838 Z-6.0000 S1000
G1 F1000 X27.7079 Y45.1395 Z-6.0000 S1000
G1 F80 Z-7.5000
G1 F1000 X27.8605 Y45.2921 Z-7.5000 S1000
G1 F1000 X27.9162 Y45.5000 Z-7.5000 S1000
G1 F1000 X27.8605 Y45.7079 Z-7.5000 S1000
G1 F1000 X27.7079 Y45.8605 Z-7.5000 S1000
G1 F1000 X27.5000 Y45.9162 Z-7.5000 S1000
G1 F1000 X27.2921 Y45.8605 Z-7.5000 S1000
G1 F1000 X27.1395 Y45.7079 Z-7.5000 S1000
G1 F1000 X27.0838 Y45.5000 Z-7.5000 S1000
G1 F1000 X27.1395 Y45.2921 Z-7.5000 S1000
G1 F1000 X27.2921 Y45.1395 Z-7.5000 S1000
G1 F1000 X27.5000 Y45.0838 Z-7.5000 S1000
G1 F1000 X27.7079 Y45.1395 Z-7.5000 S1000
G1 F80 Z-8.8000
G1 F1000 X27.8605 Y45.2921 Z-8.8000 S1000
G1 F1000 X27.9162 Y45.5000 Z-8.8000 S1000
G1 F1000 X27.8605 Y45.7079 Z-8.8000 S1000
G1 F1000 X27.7079 Y45.8605 Z-8.8000 S1000
G1 F1000 X27.5000 Y45.9162 Z-8.8000 S1000
G1 F1000 X27.2921 Y45.8605 Z-8.8000 S1000
G1 F1000 X27.1395 Y45.7079 Z-8.8000 S1000
G1 F1000 X27.0838 Y45.5000 Z-8.8000 S1000
G1 F1000 X27.1395 Y45.2921 Z-8.8000 S1000
G1 F1000 X27.2921 Y45.1395 Z-8.8000 S1000
G1 F1000 X27.5000 Y45.0838 Z-8.8000 S1000
G1 F1000 X27.7079 Y45.1395 Z-8.8000 S1000

G0 Z10; move to z-safe height
G0 X60.7079 Y12.1395

G0 Z0
G1 F80 Z-1.5000
G1 F1000 X60.8605 Y12.2921 Z-1.5000 S1000
G1 F1000 X60.9162 Y12.5000 Z-1.5000 S1000
G1 F1000 X60.8605 Y12.7079 Z-1.5000 S1000
G1 F1000 X60.7079 Y12.8605 Z-1.5000 S1000
G1 F1000 X60.5000 Y12.9162 Z-1.5000 S1000
G1 F1000 X60.2921 Y12.8605 Z-1.5000 S1000
G1 F1000 X60.1395 Y12.7079 Z-1.5000 S1000
G1 F1000 X60.0838 Y12.5000 Z-1.5000 S1000
G1 F1000 X60.1395 Y12.2921 Z-1.5000 S1000
G1 F1000 X60.2921 Y12.1395 Z-1.5000 S1000
G1 F1000 X60.5000 Y12.0838 Z-1.5000 S1000
G1 F1000 X60.7079 Y12.1395 Z-1.5000 S1000
G1 F80 Z-3.0000
G1 F1000 X60.8605 Y12.2921 Z-3.0000 S1000
G1 F1000 X60.9162 Y12.5000 Z-3.0000 S1000
G1 F1000 X60.8605 Y12.7079 Z-3.0000 S1000
G1 F1000 X60.7079 Y12.8605 Z-3.0000 S1000
G1 F1000 X60.5000 Y12.9162 Z-3.0000 S1000
G1 F1000 X60.2921 Y12.8605 Z-3.0000 S1000
G1 F1000 X60.1395 Y12.7079 Z-3.0000 S1000
G1 F1000 X60.0838 Y12.5000 Z-3.0000 S1000
G1 F1000 X60.1395 Y12.2921 Z-3.0000 S1000
G1 F1000 X60.2921 Y12.1395 Z-3.0000 S1000
G1 F1000 X60.5000 Y12.0838 Z-3.0000 S1000
G1 F1000 X60.7079 Y12.1395 Z-3.0000 S1000
G1 F80 Z-4.5000
G1 F1000 X60.8605 Y12.2921 Z-4.5000 S1000
G1 F1000 X60.9162 Y12.5000 Z-4.5000 S1000
G1 F1000 X60.8605 Y12.7079 Z-4.5000 S1000
G1 F1000 X60.7079 Y12.8605 Z-4.5000 S1000
G1 F1000 X60.5000 Y12.9162 Z-4.5000 S1000
G1 F1000 X60.2921 Y12.8605 Z-4.5000 S1000
G1 F1000 X60.1395 Y12.7079 Z-4.5000 S1000
G1 F1000 X60.0838 Y12.5000 Z-4.5000 S1000
G1 F1000 X60.1395 Y12.2921 Z-4.5000 S1000
G1 F1000 X60.2921 Y12.1395 Z-4.5000 S1000
G1 F1000 X60.5000 Y12.0838 Z-4.5000 S1000
G1 F1000 X60.7079 Y12.1395 Z-4.5000 S1000
G1 F80 Z-6.0000
G1 F1000 X60.8605 Y12.2921 Z-6.0000 S1000
G1 F1000 X60.9162 Y12.5000 Z-6.0000 S1000
G1 F1000 X60.8605 Y12.7079 Z-6.0000 S1000
G1 F1000 X60.7079 Y12.8605 Z-6.0000 S1000
G1 F1000 X60.5000 Y12.9162 Z-6.0000 S1000
G1 F1000 X60.2921 Y12.8605 Z-6.0000 S1000
G1 F1000 X60.1395 Y12.7079 Z-6.0000 S1000
G1 F1000 X60.0838 Y12.5000 Z-6.0000 S1000
G1 F1000 X60.1395 Y12.2921 Z-6.0000 S1000
G1 F1000 X60.2921 Y12.1395 Z-6.0000 S1000
G1 F1000 X60.5000 Y12.0838 Z-6.0000 S1000
G1 F1000 X60.7079 Y12.1395 Z-6.0000 S1000
G1 F80 Z-7.5000
G1 F1000 X60.8605 Y12.2921 Z-7.5000 S1000
G1 F1000 X60.9162 Y12.5000 Z-7.5000 S1000
G1 F1000 X60.8605 Y12.7079 Z-7.5000 S1000
G1 F1000 X60.7079 Y12.8605 Z-7.5000 S1000
G1 F1000 X60.5000 Y12.9162 Z-7.5000 S1000
G1 F1000 X60.2921 Y12.8605 Z-7.5000 S1000
G1 F1000 X60.1395 Y12.7079 Z-7.5000 S1000
G1 F1000 X60.0838 Y12.5000 Z-7.5000 S1000
G1 F1000 X60.1395 Y12.2921 Z-7.5000 S1000
G1 F1000 X60.2921 Y12.1395 Z-7.5000 S1000
G1 F1000 X60.5000 Y12.0838 Z-7.5000 S1000
G1 F1000 X60.7079 Y12.1395 Z-7.5000 S1000
G1 F80 Z-8.8000
G1 F1000 X60.8605 Y12.2921 Z-8.8000 S1000
G1 F1000 X60.9162 Y12.5000 Z-8.8000 S1000
G1 F1000 X60.8605 Y12.7079 Z-8.8000 S1000
G1 F1000 X60.7079 Y12.8605 Z-8.8000 S1000
G1 F1000 X60.5000 Y12.9162 Z-8.8000 S1000
G1 F1000 X60.2921 Y12.8605 Z-8.8000 S1000
G1 F1000 X60.1395 Y12.7079 Z-8.8000 S1000
G1 F1000 X60.0838 Y12.5000 Z-8.8000 S1000
G1 F1000 X60.1395 Y12.2921 Z-8.8000 S1000
G1 F1000 X60.2921 Y12.1395 Z-8.8000 S1000
G1 F1000 X60.5000 Y12.0838 Z-8.8000 S1000
G1 F1000 X60.7079 Y12.1395 Z-8.8000 S1000
; retracting back to z-safe
G0 Z10

M5 S0; Spindle Off
