; GCODE Generated by cam.openbuilds.com on 2021-04-30 
G21 ; mm-mode
G54; Work Coordinates
G21; mm-mode
G90; Absolute Positioning
M3 S1000; Spindle On

; Operation 3: CNC: Pocket
; Endmill Diameter: 6

G0 Z10; move to z-safe height
G0 F1000 X72.7000 Y58.9500

G0 Z0
G1 F100 Z-3.0000
G1 F1000 X38.8000 Y58.9500 Z-3.0000 S1000
G1 F1000 X38.8000 Y55.0500 Z-3.0000 S1000
G1 F1000 X72.7000 Y55.0500 Z-3.0000 S1000
G1 F1000 X72.7000 Y58.9500 Z-3.0000 S1000

G0 Z10; move to z-safe height
G0 X75.1000 Y61.3500

G0 Z0
G1 F100 Z-3.0000
G1 F1000 X36.4000 Y61.3500 Z-3.0000 S1000
G1 F1000 X36.4000 Y52.6500 Z-3.0000 S1000
G1 F1000 X75.1000 Y52.6500 Z-3.0000 S1000
G1 F1000 X75.1000 Y61.3500 Z-3.0000 S1000

G0 Z10; move to z-safe height
G0 X77.5000 Y63.7500

G0 Z0
G1 F100 Z-3.0000
G1 F1000 X34.0000 Y63.7500 Z-3.0000 S1000
G1 F1000 X34.0000 Y50.2500 Z-3.0000 S1000
G1 F1000 X77.5000 Y50.2500 Z-3.0000 S1000
G1 F1000 X77.5000 Y63.7500 Z-3.0000 S1000

G0 Z10; move to z-safe height
G0 X79.9000 Y66.1500

G0 Z0
G1 F100 Z-3.0000
G1 F1000 X31.6000 Y66.1500 Z-3.0000 S1000
G1 F1000 X31.6000 Y47.8500 Z-3.0000 S1000
G1 F1000 X79.9000 Y47.8500 Z-3.0000 S1000
G1 F1000 X79.9000 Y66.1500 Z-3.0000 S1000

G0 Z10; move to z-safe height
G0 X82.3000 Y68.5500

G0 Z0
G1 F100 Z-3.0000
G1 F1000 X29.2000 Y68.5500 Z-3.0000 S1000
G1 F1000 X29.2000 Y45.4500 Z-3.0000 S1000
G1 F1000 X82.3000 Y45.4500 Z-3.0000 S1000
G1 F1000 X82.3000 Y68.5500 Z-3.0000 S1000

G0 Z10; move to z-safe height
G0 X84.7000 Y70.9500

G0 Z0
G1 F100 Z-3.0000
G1 F1000 X26.8000 Y70.9500 Z-3.0000 S1000
G1 F1000 X26.8000 Y43.0500 Z-3.0000 S1000
G1 F1000 X84.7000 Y43.0500 Z-3.0000 S1000
G1 F1000 X84.7000 Y70.9500 Z-3.0000 S1000

G0 Z10; move to z-safe height
G0 X87.1000 Y73.3500

G0 Z0
G1 F100 Z-3.0000
G1 F1000 X24.4000 Y73.3500 Z-3.0000 S1000
G1 F1000 X24.4000 Y40.6500 Z-3.0000 S1000
G1 F1000 X87.1000 Y40.6500 Z-3.0000 S1000
G1 F1000 X87.1000 Y73.3500 Z-3.0000 S1000

G0 Z10; move to z-safe height
G0 X89.5000 Y75.7500

G0 Z0
G1 F100 Z-3.0000
G1 F1000 X22.0000 Y75.7500 Z-3.0000 S1000
G1 F1000 X22.0000 Y38.2500 Z-3.0000 S1000
G1 F1000 X89.5000 Y38.2500 Z-3.0000 S1000
G1 F1000 X89.5000 Y75.7500 Z-3.0000 S1000

G0 Z10; move to z-safe height
G0 X91.9000 Y78.1500

G0 Z0
G1 F100 Z-3.0000
G1 F1000 X19.6000 Y78.1500 Z-3.0000 S1000
G1 F1000 X19.6000 Y35.8500 Z-3.0000 S1000
G1 F1000 X91.9000 Y35.8500 Z-3.0000 S1000
G1 F1000 X91.9000 Y78.1500 Z-3.0000 S1000

G0 Z10; move to z-safe height
G0 X94.3000 Y80.5500

G0 Z0
G1 F100 Z-3.0000
G1 F1000 X17.2000 Y80.5500 Z-3.0000 S1000
G1 F1000 X17.2000 Y33.4500 Z-3.0000 S1000
G1 F1000 X94.3000 Y33.4500 Z-3.0000 S1000
G1 F1000 X94.3000 Y80.5500 Z-3.0000 S1000

G0 Z10; move to z-safe height
G0 X96.7000 Y82.9500

G0 Z0
G1 F100 Z-3.0000
G1 F1000 X14.8000 Y82.9500 Z-3.0000 S1000
G1 F1000 X14.8000 Y31.0500 Z-3.0000 S1000
G1 F1000 X96.7000 Y31.0500 Z-3.0000 S1000
G1 F1000 X96.7000 Y82.9500 Z-3.0000 S1000

G0 Z10; move to z-safe height
G0 X98.5000 Y84.7500

G0 Z0
G1 F100 Z-3.0000
G1 F1000 X13.0000 Y84.7500 Z-3.0000 S1000
G1 F1000 X13.0000 Y29.2500 Z-3.0000 S1000
G1 F1000 X98.5000 Y29.2500 Z-3.0000 S1000
G1 F1000 X98.5000 Y84.7500 Z-3.0000 S1000
; retracting back to z-safe
G0 Z10
; Operation 4: CNC: Vector (path outside)
; Endmill Diameter: 6

G0 Z10; move to z-safe height
G0 F1000 X172.0000 Y-3.0000

G0 Z0
G1 F100 Z-3.0000
G1 F1000 X0.0000 Y-3.0000 Z-3.0000 S1000
G1 F1000 X-0.5500 Y-2.9491 Z-3.0000 S1000
G1 F1000 X-1.2108 Y-2.7448 Z-3.0000 S1000
G1 F1000 X-1.8072 Y-2.3946 Z-3.0000 S1000
G1 F1000 X-2.3076 Y-1.9170 Z-3.0000 S1000
G1 F1000 X-2.6853 Y-1.3376 Z-3.0000 S1000
G1 F1000 X-2.9203 Y-0.6871 Z-3.0000 S1000
G1 F1000 X-3.0000 Y0.0000 Z-3.0000 S1000
G1 F1000 X-3.0000 Y92.0000 Z-3.0000 S1000
G1 F1000 X-2.9491 Y92.5500 Z-3.0000 S1000
G1 F1000 X-2.7448 Y93.2108 Z-3.0000 S1000
G1 F1000 X-2.3946 Y93.8072 Z-3.0000 S1000
G1 F1000 X-1.9170 Y94.3076 Z-3.0000 S1000
G1 F1000 X-1.3376 Y94.6853 Z-3.0000 S1000
G1 F1000 X-0.6871 Y94.9203 Z-3.0000 S1000
G1 F1000 X0.0000 Y95.0000 Z-3.0000 S1000
G1 F1000 X172.0000 Y95.0000 Z-3.0000 S1000
G1 F1000 X172.5500 Y94.9491 Z-3.0000 S1000
G1 F1000 X173.2108 Y94.7448 Z-3.0000 S1000
G1 F1000 X173.8072 Y94.3946 Z-3.0000 S1000
G1 F1000 X174.3076 Y93.9170 Z-3.0000 S1000
G1 F1000 X174.6853 Y93.3376 Z-3.0000 S1000
G1 F1000 X174.9203 Y92.6871 Z-3.0000 S1000
G1 F1000 X175.0000 Y92.0000 Z-3.0000 S1000
G1 F1000 X175.0000 Y0.0000 Z-3.0000 S1000
G1 F1000 X174.9491 Y-0.5500 Z-3.0000 S1000
G1 F1000 X174.7448 Y-1.2108 Z-3.0000 S1000
G1 F1000 X174.3946 Y-1.8072 Z-3.0000 S1000
G1 F1000 X173.9170 Y-2.3076 Z-3.0000 S1000
G1 F1000 X173.3376 Y-2.6853 Z-3.0000 S1000
G1 F1000 X172.6871 Y-2.9203 Z-3.0000 S1000
G1 F1000 X172.0000 Y-3.0000 Z-3.0000 S1000
G1 F100 Z-6.0000
G1 F1000 X0.0000 Y-3.0000 Z-6.0000 S1000
G1 F1000 X-0.5500 Y-2.9491 Z-6.0000 S1000
G1 F1000 X-1.2108 Y-2.7448 Z-6.0000 S1000
G1 F1000 X-1.8072 Y-2.3946 Z-6.0000 S1000
G1 F1000 X-2.3076 Y-1.9170 Z-6.0000 S1000
G1 F1000 X-2.6853 Y-1.3376 Z-6.0000 S1000
G1 F1000 X-2.9203 Y-0.6871 Z-6.0000 S1000
G1 F1000 X-3.0000 Y0.0000 Z-6.0000 S1000
G1 F1000 X-3.0000 Y92.0000 Z-6.0000 S1000
G1 F1000 X-2.9491 Y92.5500 Z-6.0000 S1000
G1 F1000 X-2.7448 Y93.2108 Z-6.0000 S1000
G1 F1000 X-2.3946 Y93.8072 Z-6.0000 S1000
G1 F1000 X-1.9170 Y94.3076 Z-6.0000 S1000
G1 F1000 X-1.3376 Y94.6853 Z-6.0000 S1000
G1 F1000 X-0.6871 Y94.9203 Z-6.0000 S1000
G1 F1000 X0.0000 Y95.0000 Z-6.0000 S1000
G1 F1000 X172.0000 Y95.0000 Z-6.0000 S1000
G1 F1000 X172.5500 Y94.9491 Z-6.0000 S1000
G1 F1000 X173.2108 Y94.7448 Z-6.0000 S1000
G1 F1000 X173.8072 Y94.3946 Z-6.0000 S1000
G1 F1000 X174.3076 Y93.9170 Z-6.0000 S1000
G1 F1000 X174.6853 Y93.3376 Z-6.0000 S1000
G1 F1000 X174.9203 Y92.6871 Z-6.0000 S1000
G1 F1000 X175.0000 Y92.0000 Z-6.0000 S1000
G1 F1000 X175.0000 Y0.0000 Z-6.0000 S1000
G1 F1000 X174.9491 Y-0.5500 Z-6.0000 S1000
G1 F1000 X174.7448 Y-1.2108 Z-6.0000 S1000
G1 F1000 X174.3946 Y-1.8072 Z-6.0000 S1000
G1 F1000 X173.9170 Y-2.3076 Z-6.0000 S1000
G1 F1000 X173.3376 Y-2.6853 Z-6.0000 S1000
G1 F1000 X172.6871 Y-2.9203 Z-6.0000 S1000
G1 F1000 X172.0000 Y-3.0000 Z-6.0000 S1000
G1 F100 Z-8.6000
G1 F1000 X91.5000 Y-3.0000 Z-8.6000 S1000
G1 F1000 X91.5000 Y-3.0000 Z-6.1000 S1000
G1 F1000 X80.5000 Y-3.0000 Z-6.1000 S1000
G1 F1000 X80.5000 Y-3.0000 Z-8.6000 S1000
G1 F1000 X0.0000 Y-3.0000 Z-8.6000 S1000
G1 F1000 X0.0000 Y-3.0000 Z-8.6000 S1000
G1 F1000 X-0.5500 Y-2.9491 Z-8.6000 S1000
G1 F1000 X-1.2108 Y-2.7448 Z-8.6000 S1000
G1 F1000 X-1.8072 Y-2.3946 Z-8.6000 S1000
G1 F1000 X-2.3076 Y-1.9170 Z-8.6000 S1000
G1 F1000 X-2.6853 Y-1.3376 Z-8.6000 S1000
G1 F1000 X-2.9203 Y-0.6871 Z-8.6000 S1000
G1 F1000 X-3.0000 Y0.0000 Z-8.6000 S1000
G1 F1000 X-3.0000 Y40.5000 Z-8.6000 S1000
G1 F1000 X-3.0000 Y40.5000 Z-6.1000 S1000
G1 F1000 X-3.0000 Y51.5000 Z-6.1000 S1000
G1 F1000 X-3.0000 Y51.5000 Z-8.6000 S1000
G1 F1000 X-3.0000 Y92.0000 Z-8.6000 S1000
G1 F1000 X-3.0000 Y92.0000 Z-8.6000 S1000
G1 F1000 X-2.9491 Y92.5500 Z-8.6000 S1000
G1 F1000 X-2.7448 Y93.2108 Z-8.6000 S1000
G1 F1000 X-2.3946 Y93.8072 Z-8.6000 S1000
G1 F1000 X-1.9170 Y94.3076 Z-8.6000 S1000
G1 F1000 X-1.3376 Y94.6853 Z-8.6000 S1000
G1 F1000 X-0.6871 Y94.9203 Z-8.6000 S1000
G1 F1000 X0.0000 Y95.0000 Z-8.6000 S1000
G1 F1000 X172.0000 Y95.0000 Z-8.6000 S1000
G1 F1000 X172.5500 Y94.9491 Z-8.6000 S1000
G1 F1000 X173.2108 Y94.7448 Z-8.6000 S1000
G1 F1000 X173.8072 Y94.3946 Z-8.6000 S1000
G1 F1000 X174.3076 Y93.9170 Z-8.6000 S1000
G1 F1000 X174.6853 Y93.3376 Z-8.6000 S1000
G1 F1000 X174.9203 Y92.6871 Z-8.6000 S1000
G1 F1000 X175.0000 Y92.0000 Z-8.6000 S1000
G1 F1000 X175.0000 Y51.5000 Z-8.6000 S1000
G1 F1000 X175.0000 Y51.5000 Z-6.1000 S1000
G1 F1000 X175.0000 Y40.5000 Z-6.1000 S1000
G1 F1000 X175.0000 Y40.5000 Z-8.6000 S1000
G1 F1000 X175.0000 Y0.0000 Z-8.6000 S1000
G1 F1000 X175.0000 Y0.0000 Z-8.6000 S1000
G1 F1000 X174.9491 Y-0.5500 Z-8.6000 S1000
G1 F1000 X174.7448 Y-1.2108 Z-8.6000 S1000
G1 F1000 X174.3946 Y-1.8072 Z-8.6000 S1000
G1 F1000 X173.9170 Y-2.3076 Z-8.6000 S1000
G1 F1000 X173.3376 Y-2.6853 Z-8.6000 S1000
G1 F1000 X172.6871 Y-2.9203 Z-8.6000 S1000
G1 F1000 X172.0000 Y-3.0000 Z-8.6000 S1000
; retracting back to z-safe
G0 Z10

M5 S0; Spindle Off
