; GCODE Generated by cam.openbuilds.com on 2021-04-30 
G21 ; mm-mode
G54; Work Coordinates
G21; mm-mode
G90; Absolute Positioning
M3 S1000; Spindle On

; Operation 8: CNC: Pocket
; Endmill Diameter: 6

G0 Z10; move to z-safe height
G0 F1000 X59.2000 Y29.2000

G0 Z0
G1 F100 Z-3.0000
G1 F1000 X28.8000 Y29.2000 Z-3.0000 S1000
G1 F1000 X28.8000 Y28.8000 Z-3.0000 S1000
G1 F1000 X59.2000 Y28.8000 Z-3.0000 S1000
G1 F1000 X59.2000 Y29.2000 Z-3.0000 S1000

G0 Z10; move to z-safe height
G0 X61.6000 Y31.6000

G0 Z0
G1 F100 Z-3.0000
G1 F1000 X26.4000 Y31.6000 Z-3.0000 S1000
G1 F1000 X26.4000 Y26.4000 Z-3.0000 S1000
G1 F1000 X61.6000 Y26.4000 Z-3.0000 S1000
G1 F1000 X61.6000 Y31.6000 Z-3.0000 S1000

G0 Z10; move to z-safe height
G0 X64.0000 Y34.0000

G0 Z0
G1 F100 Z-3.0000
G1 F1000 X24.0000 Y34.0000 Z-3.0000 S1000
G1 F1000 X24.0000 Y24.0000 Z-3.0000 S1000
G1 F1000 X64.0000 Y24.0000 Z-3.0000 S1000
G1 F1000 X64.0000 Y34.0000 Z-3.0000 S1000

G0 Z10; move to z-safe height
G0 X66.4000 Y36.4000

G0 Z0
G1 F100 Z-3.0000
G1 F1000 X21.6000 Y36.4000 Z-3.0000 S1000
G1 F1000 X21.6000 Y21.6000 Z-3.0000 S1000
G1 F1000 X66.4000 Y21.6000 Z-3.0000 S1000
G1 F1000 X66.4000 Y36.4000 Z-3.0000 S1000

G0 Z10; move to z-safe height
G0 X68.8000 Y38.8000

G0 Z0
G1 F100 Z-3.0000
G1 F1000 X19.2000 Y38.8000 Z-3.0000 S1000
G1 F1000 X19.2000 Y19.2000 Z-3.0000 S1000
G1 F1000 X68.8000 Y19.2000 Z-3.0000 S1000
G1 F1000 X68.8000 Y38.8000 Z-3.0000 S1000

G0 Z10; move to z-safe height
G0 X71.2000 Y41.2000

G0 Z0
G1 F100 Z-3.0000
G1 F1000 X16.8000 Y41.2000 Z-3.0000 S1000
G1 F1000 X16.8000 Y16.8000 Z-3.0000 S1000
G1 F1000 X71.2000 Y16.8000 Z-3.0000 S1000
G1 F1000 X71.2000 Y41.2000 Z-3.0000 S1000

G0 Z10; move to z-safe height
G0 X73.6000 Y43.6000

G0 Z0
G1 F100 Z-3.0000
G1 F1000 X14.4000 Y43.6000 Z-3.0000 S1000
G1 F1000 X14.4000 Y14.4000 Z-3.0000 S1000
G1 F1000 X73.6000 Y14.4000 Z-3.0000 S1000
G1 F1000 X73.6000 Y43.6000 Z-3.0000 S1000

G0 Z10; move to z-safe height
G0 X76.0000 Y46.0000

G0 Z0
G1 F100 Z-3.0000
G1 F1000 X12.0000 Y46.0000 Z-3.0000 S1000
G1 F1000 X12.0000 Y12.0000 Z-3.0000 S1000
G1 F1000 X76.0000 Y12.0000 Z-3.0000 S1000
G1 F1000 X76.0000 Y46.0000 Z-3.0000 S1000

G0 Z10; move to z-safe height
G0 X78.4000 Y48.4000

G0 Z0
G1 F100 Z-3.0000
G1 F1000 X9.6000 Y48.4000 Z-3.0000 S1000
G1 F1000 X9.6000 Y9.6000 Z-3.0000 S1000
G1 F1000 X78.4000 Y9.6000 Z-3.0000 S1000
G1 F1000 X78.4000 Y48.4000 Z-3.0000 S1000

G0 Z10; move to z-safe height
G0 X80.8000 Y50.8000

G0 Z0
G1 F100 Z-3.0000
G1 F1000 X7.2000 Y50.8000 Z-3.0000 S1000
G1 F1000 X7.2000 Y7.2000 Z-3.0000 S1000
G1 F1000 X80.8000 Y7.2000 Z-3.0000 S1000
G1 F1000 X80.8000 Y50.8000 Z-3.0000 S1000

G0 Z10; move to z-safe height
G0 X83.2000 Y53.2000

G0 Z0
G1 F100 Z-3.0000
G1 F1000 X4.8000 Y53.2000 Z-3.0000 S1000
G1 F1000 X4.8000 Y4.8000 Z-3.0000 S1000
G1 F1000 X83.2000 Y4.8000 Z-3.0000 S1000
G1 F1000 X83.2000 Y53.2000 Z-3.0000 S1000

G0 Z10; move to z-safe height
G0 X85.0000 Y55.0000

G0 Z0
G1 F100 Z-3.0000
G1 F1000 X3.0000 Y55.0000 Z-3.0000 S1000
G1 F1000 X3.0000 Y3.0000 Z-3.0000 S1000
G1 F1000 X85.0000 Y3.0000 Z-3.0000 S1000
G1 F1000 X85.0000 Y55.0000 Z-3.0000 S1000
; retracting back to z-safe
G0 Z10
; Operation 9: CNC: Vector (path outside)
; Endmill Diameter: 6

G0 Z10; move to z-safe height
G0 F1000 X88.0000 Y-3.0000

G0 Z0
G1 F100 Z-3.0000
G1 F1000 X0.0000 Y-3.0000 Z-3.0000 S1000
G1 F1000 X-0.5500 Y-2.9491 Z-3.0000 S1000
G1 F1000 X-1.2108 Y-2.7448 Z-3.0000 S1000
G1 F1000 X-1.8072 Y-2.3946 Z-3.0000 S1000
G1 F1000 X-2.3076 Y-1.9170 Z-3.0000 S1000
G1 F1000 X-2.6853 Y-1.3376 Z-3.0000 S1000
G1 F1000 X-2.9203 Y-0.6871 Z-3.0000 S1000
G1 F1000 X-3.0000 Y0.0000 Z-3.0000 S1000
G1 F1000 X-3.0000 Y58.0000 Z-3.0000 S1000
G1 F1000 X-2.9491 Y58.5500 Z-3.0000 S1000
G1 F1000 X-2.7448 Y59.2108 Z-3.0000 S1000
G1 F1000 X-2.3946 Y59.8072 Z-3.0000 S1000
G1 F1000 X-1.9170 Y60.3076 Z-3.0000 S1000
G1 F1000 X-1.3376 Y60.6853 Z-3.0000 S1000
G1 F1000 X-0.6871 Y60.9203 Z-3.0000 S1000
G1 F1000 X0.0000 Y61.0000 Z-3.0000 S1000
G1 F1000 X88.0000 Y61.0000 Z-3.0000 S1000
G1 F1000 X88.5500 Y60.9491 Z-3.0000 S1000
G1 F1000 X89.2108 Y60.7448 Z-3.0000 S1000
G1 F1000 X89.8072 Y60.3946 Z-3.0000 S1000
G1 F1000 X90.3076 Y59.9170 Z-3.0000 S1000
G1 F1000 X90.6853 Y59.3376 Z-3.0000 S1000
G1 F1000 X90.9203 Y58.6871 Z-3.0000 S1000
G1 F1000 X91.0000 Y58.0000 Z-3.0000 S1000
G1 F1000 X91.0000 Y0.0000 Z-3.0000 S1000
G1 F1000 X90.9491 Y-0.5500 Z-3.0000 S1000
G1 F1000 X90.7448 Y-1.2108 Z-3.0000 S1000
G1 F1000 X90.3946 Y-1.8072 Z-3.0000 S1000
G1 F1000 X89.9170 Y-2.3076 Z-3.0000 S1000
G1 F1000 X89.3376 Y-2.6853 Z-3.0000 S1000
G1 F1000 X88.6871 Y-2.9203 Z-3.0000 S1000
G1 F1000 X88.0000 Y-3.0000 Z-3.0000 S1000
G1 F100 Z-6.0000
G1 F1000 X0.0000 Y-3.0000 Z-6.0000 S1000
G1 F1000 X-0.5500 Y-2.9491 Z-6.0000 S1000
G1 F1000 X-1.2108 Y-2.7448 Z-6.0000 S1000
G1 F1000 X-1.8072 Y-2.3946 Z-6.0000 S1000
G1 F1000 X-2.3076 Y-1.9170 Z-6.0000 S1000
G1 F1000 X-2.6853 Y-1.3376 Z-6.0000 S1000
G1 F1000 X-2.9203 Y-0.6871 Z-6.0000 S1000
G1 F1000 X-3.0000 Y0.0000 Z-6.0000 S1000
G1 F1000 X-3.0000 Y58.0000 Z-6.0000 S1000
G1 F1000 X-2.9491 Y58.5500 Z-6.0000 S1000
G1 F1000 X-2.7448 Y59.2108 Z-6.0000 S1000
G1 F1000 X-2.3946 Y59.8072 Z-6.0000 S1000
G1 F1000 X-1.9170 Y60.3076 Z-6.0000 S1000
G1 F1000 X-1.3376 Y60.6853 Z-6.0000 S1000
G1 F1000 X-0.6871 Y60.9203 Z-6.0000 S1000
G1 F1000 X0.0000 Y61.0000 Z-6.0000 S1000
G1 F1000 X88.0000 Y61.0000 Z-6.0000 S1000
G1 F1000 X88.5500 Y60.9491 Z-6.0000 S1000
G1 F1000 X89.2108 Y60.7448 Z-6.0000 S1000
G1 F1000 X89.8072 Y60.3946 Z-6.0000 S1000
G1 F1000 X90.3076 Y59.9170 Z-6.0000 S1000
G1 F1000 X90.6853 Y59.3376 Z-6.0000 S1000
G1 F1000 X90.9203 Y58.6871 Z-6.0000 S1000
G1 F1000 X91.0000 Y58.0000 Z-6.0000 S1000
G1 F1000 X91.0000 Y0.0000 Z-6.0000 S1000
G1 F1000 X90.9491 Y-0.5500 Z-6.0000 S1000
G1 F1000 X90.7448 Y-1.2108 Z-6.0000 S1000
G1 F1000 X90.3946 Y-1.8072 Z-6.0000 S1000
G1 F1000 X89.9170 Y-2.3076 Z-6.0000 S1000
G1 F1000 X89.3376 Y-2.6853 Z-6.0000 S1000
G1 F1000 X88.6871 Y-2.9203 Z-6.0000 S1000
G1 F1000 X88.0000 Y-3.0000 Z-6.0000 S1000
G1 F100 Z-8.8000
G1 F1000 X49.5000 Y-3.0000 Z-8.8000 S1000
G1 F1000 X49.5000 Y-3.0000 Z-6.3000 S1000
G1 F1000 X38.5000 Y-3.0000 Z-6.3000 S1000
G1 F1000 X38.5000 Y-3.0000 Z-8.8000 S1000
G1 F1000 X0.0000 Y-3.0000 Z-8.8000 S1000
G1 F1000 X0.0000 Y-3.0000 Z-8.8000 S1000
G1 F1000 X-0.5500 Y-2.9491 Z-8.8000 S1000
G1 F1000 X-1.2108 Y-2.7448 Z-8.8000 S1000
G1 F1000 X-1.8072 Y-2.3946 Z-8.8000 S1000
G1 F1000 X-2.3076 Y-1.9170 Z-8.8000 S1000
G1 F1000 X-2.6853 Y-1.3376 Z-8.8000 S1000
G1 F1000 X-2.9203 Y-0.6871 Z-8.8000 S1000
G1 F1000 X-3.0000 Y0.0000 Z-8.8000 S1000
G1 F1000 X-3.0000 Y58.0000 Z-8.8000 S1000
G1 F1000 X-2.9491 Y58.5500 Z-8.8000 S1000
G1 F1000 X-2.7448 Y59.2108 Z-8.8000 S1000
G1 F1000 X-2.3946 Y59.8072 Z-8.8000 S1000
G1 F1000 X-1.9170 Y60.3076 Z-8.8000 S1000
G1 F1000 X-1.3376 Y60.6853 Z-8.8000 S1000
G1 F1000 X-0.6871 Y60.9203 Z-8.8000 S1000
G1 F1000 X0.0000 Y61.0000 Z-8.8000 S1000
G1 F1000 X38.5000 Y61.0000 Z-8.8000 S1000
G1 F1000 X38.5000 Y61.0000 Z-6.3000 S1000
G1 F1000 X49.5000 Y61.0000 Z-6.3000 S1000
G1 F1000 X49.5000 Y61.0000 Z-8.8000 S1000
G1 F1000 X88.0000 Y61.0000 Z-8.8000 S1000
G1 F1000 X88.0000 Y61.0000 Z-8.8000 S1000
G1 F1000 X88.5500 Y60.9491 Z-8.8000 S1000
G1 F1000 X89.2108 Y60.7448 Z-8.8000 S1000
G1 F1000 X89.8072 Y60.3946 Z-8.8000 S1000
G1 F1000 X90.3076 Y59.9170 Z-8.8000 S1000
G1 F1000 X90.6853 Y59.3376 Z-8.8000 S1000
G1 F1000 X90.9203 Y58.6871 Z-8.8000 S1000
G1 F1000 X91.0000 Y58.0000 Z-8.8000 S1000
G1 F1000 X91.0000 Y0.0000 Z-8.8000 S1000
G1 F1000 X90.9491 Y-0.5500 Z-8.8000 S1000
G1 F1000 X90.7448 Y-1.2108 Z-8.8000 S1000
G1 F1000 X90.3946 Y-1.8072 Z-8.8000 S1000
G1 F1000 X89.9170 Y-2.3076 Z-8.8000 S1000
G1 F1000 X89.3376 Y-2.6853 Z-8.8000 S1000
G1 F1000 X88.6871 Y-2.9203 Z-8.8000 S1000
G1 F1000 X88.0000 Y-3.0000 Z-8.8000 S1000
; retracting back to z-safe
G0 Z10

M5 S0; Spindle Off
