; GCODE Generated by cam.openbuilds.com on 2021-04-30 
G21 ; mm-mode
G54; Work Coordinates
G21; mm-mode
G90; Absolute Positioning
M3 S1000; Spindle On

; Operation 4: CNC: Pocket
; Endmill Diameter: 6

G0 Z10; move to z-safe height
G0 F1000 X12.6307 Y53.0559

G0 Z0
G1 F100 Z-2.0000
G1 F1000 X12.9020 Y53.8669 Z-2.0000 S1000
G1 F1000 X9.6000 Y53.8669 Z-2.0000 S1000
G1 F1000 X9.6000 Y52.1044 Z-2.0000 S1000
G1 F1000 X12.4441 Y52.1044 Z-2.0000 S1000
G1 F1000 X12.6307 Y53.0559 Z-2.0000 S1000

G0 Z10; move to z-safe height
G0 X179.9244 Y53.8669

G0 Z0
G1 F100 Z-2.0000
G1 F1000 X176.6193 Y53.8669 Z-2.0000 S1000
G1 F1000 X176.8393 Y53.2533 Z-2.0000 S1000
G1 F1000 X177.0901 Y52.1044 Z-2.0000 S1000
G1 F1000 X179.9244 Y52.1044 Z-2.0000 S1000
G1 F1000 X179.9244 Y53.8669 Z-2.0000 S1000

G0 Z10; move to z-safe height
G0 X12.6307 Y53.0559

G0 Z0
G1 F100 Z-4.0000
G1 F1000 X12.9020 Y53.8669 Z-4.0000 S1000
G1 F1000 X9.6000 Y53.8669 Z-4.0000 S1000
G1 F1000 X9.6000 Y52.1044 Z-4.0000 S1000
G1 F1000 X12.4441 Y52.1044 Z-4.0000 S1000
G1 F1000 X12.6307 Y53.0559 Z-4.0000 S1000

G0 Z10; move to z-safe height
G0 X179.9244 Y53.8669

G0 Z0
G1 F100 Z-4.0000
G1 F1000 X176.6193 Y53.8669 Z-4.0000 S1000
G1 F1000 X176.8393 Y53.2533 Z-4.0000 S1000
G1 F1000 X177.0901 Y52.1044 Z-4.0000 S1000
G1 F1000 X179.9244 Y52.1044 Z-4.0000 S1000
G1 F1000 X179.9244 Y53.8669 Z-4.0000 S1000

G0 Z10; move to z-safe height
G0 X7.3791 Y49.5167

G0 Z0
G1 F100 Z-2.0000
G1 F1000 X8.4389 Y49.6815 Z-2.0000 S1000
G1 F1000 X9.0124 Y49.7044 Z-2.0000 S1000
G1 F1000 X14.7124 Y49.7044 Z-2.0000 S1000
G1 F1000 X14.7124 Y50.6042 Z-2.0000 S1000
G1 F1000 X14.7923 Y51.6738 Z-2.0000 S1000
G1 F1000 X15.0302 Y52.7196 Z-2.0000 S1000
G1 F1000 X15.4208 Y53.7185 Z-2.0000 S1000
G1 F1000 X15.9555 Y54.6483 Z-2.0000 S1000
G1 F1000 X16.6223 Y55.4884 Z-2.0000 S1000
G1 F1000 X17.4066 Y56.2201 Z-2.0000 S1000
G1 F1000 X17.4748 Y56.2669 Z-2.0000 S1000
G1 F1000 X7.2000 Y56.2669 Z-2.0000 S1000
G1 F1000 X7.2000 Y49.4606 Z-2.0000 S1000
G1 F1000 X7.3791 Y49.5167 Z-2.0000 S1000

G0 Z10; move to z-safe height
G0 X182.3244 Y56.2669

G0 Z0
G1 F100 Z-2.0000
G1 F1000 X172.0268 Y56.2669 Z-2.0000 S1000
G1 F1000 X172.4962 Y55.8943 Z-2.0000 S1000
G1 F1000 X173.2279 Y55.1100 Z-2.0000 S1000
G1 F1000 X173.8349 Y54.2257 Z-2.0000 S1000
G1 F1000 X174.3038 Y53.2611 Z-2.0000 S1000
G1 F1000 X174.6243 Y52.2375 Z-2.0000 S1000
G1 F1000 X174.7891 Y51.1777 Z-2.0000 S1000
G1 F1000 X174.8120 Y50.6042 Z-2.0000 S1000
G1 F1000 X174.8120 Y49.7044 Z-2.0000 S1000
G1 F1000 X180.5120 Y49.7044 Z-2.0000 S1000
G1 F1000 X181.5816 Y49.6245 Z-2.0000 S1000
G1 F1000 X182.3244 Y49.4555 Z-2.0000 S1000
G1 F1000 X182.3244 Y56.2669 Z-2.0000 S1000

G0 Z10; move to z-safe height
G0 X7.3791 Y49.5167

G0 Z0
G1 F100 Z-4.0000
G1 F1000 X8.4389 Y49.6815 Z-4.0000 S1000
G1 F1000 X9.0124 Y49.7044 Z-4.0000 S1000
G1 F1000 X14.7124 Y49.7044 Z-4.0000 S1000
G1 F1000 X14.7124 Y50.6042 Z-4.0000 S1000
G1 F1000 X14.7923 Y51.6738 Z-4.0000 S1000
G1 F1000 X15.0302 Y52.7196 Z-4.0000 S1000
G1 F1000 X15.4208 Y53.7185 Z-4.0000 S1000
G1 F1000 X15.9555 Y54.6483 Z-4.0000 S1000
G1 F1000 X16.6223 Y55.4884 Z-4.0000 S1000
G1 F1000 X17.4066 Y56.2201 Z-4.0000 S1000
G1 F1000 X17.4748 Y56.2669 Z-4.0000 S1000
G1 F1000 X7.2000 Y56.2669 Z-4.0000 S1000
G1 F1000 X7.2000 Y49.4606 Z-4.0000 S1000
G1 F1000 X7.3791 Y49.5167 Z-4.0000 S1000

G0 Z10; move to z-safe height
G0 X182.3244 Y56.2669

G0 Z0
G1 F100 Z-4.0000
G1 F1000 X172.0268 Y56.2669 Z-4.0000 S1000
G1 F1000 X172.4962 Y55.8943 Z-4.0000 S1000
G1 F1000 X173.2279 Y55.1100 Z-4.0000 S1000
G1 F1000 X173.8349 Y54.2257 Z-4.0000 S1000
G1 F1000 X174.3038 Y53.2611 Z-4.0000 S1000
G1 F1000 X174.6243 Y52.2375 Z-4.0000 S1000
G1 F1000 X174.7891 Y51.1777 Z-4.0000 S1000
G1 F1000 X174.8120 Y50.6042 Z-4.0000 S1000
G1 F1000 X174.8120 Y49.7044 Z-4.0000 S1000
G1 F1000 X180.5120 Y49.7044 Z-4.0000 S1000
G1 F1000 X181.5816 Y49.6245 Z-4.0000 S1000
G1 F1000 X182.3244 Y49.4555 Z-4.0000 S1000
G1 F1000 X182.3244 Y56.2669 Z-4.0000 S1000

G0 Z10; move to z-safe height
G0 X4.9151 Y45.0048

G0 Z0
G1 F100 Z-2.0000
G1 F1000 X5.4373 Y45.7073 Z-2.0000 S1000
G1 F1000 X6.0785 Y46.3034 Z-2.0000 S1000
G1 F1000 X6.8173 Y46.7731 Z-2.0000 S1000
G1 F1000 X7.6291 Y47.1008 Z-2.0000 S1000
G1 F1000 X8.4869 Y47.2755 Z-2.0000 S1000
G1 F1000 X9.0124 Y47.3044 Z-2.0000 S1000
G1 F1000 X17.1124 Y47.3044 Z-2.0000 S1000
G1 F1000 X17.1124 Y50.6042 Z-2.0000 S1000
G1 F1000 X17.1922 Y51.4760 Z-2.0000 S1000
G1 F1000 X17.4291 Y52.3188 Z-2.0000 S1000
G1 F1000 X17.8151 Y53.1046 Z-2.0000 S1000
G1 F1000 X18.3373 Y53.8071 Z-2.0000 S1000
G1 F1000 X18.9785 Y54.4032 Z-2.0000 S1000
G1 F1000 X19.7173 Y54.8729 Z-2.0000 S1000
G1 F1000 X20.5291 Y55.2006 Z-2.0000 S1000
G1 F1000 X21.3869 Y55.3753 Z-2.0000 S1000
G1 F1000 X21.9124 Y55.4042 Z-2.0000 S1000
G1 F1000 X167.6120 Y55.4042 Z-2.0000 S1000
G1 F1000 X168.4838 Y55.3244 Z-2.0000 S1000
G1 F1000 X169.3266 Y55.0875 Z-2.0000 S1000
G1 F1000 X170.1124 Y54.7015 Z-2.0000 S1000
G1 F1000 X170.8149 Y54.1793 Z-2.0000 S1000
G1 F1000 X171.4110 Y53.5381 Z-2.0000 S1000
G1 F1000 X171.8807 Y52.7993 Z-2.0000 S1000
G1 F1000 X172.2084 Y51.9875 Z-2.0000 S1000
G1 F1000 X172.3831 Y51.1297 Z-2.0000 S1000
G1 F1000 X172.4120 Y50.6042 Z-2.0000 S1000
G1 F1000 X172.4120 Y47.3044 Z-2.0000 S1000
G1 F1000 X180.5120 Y47.3044 Z-2.0000 S1000
G1 F1000 X181.3838 Y47.2246 Z-2.0000 S1000
G1 F1000 X182.2266 Y46.9877 Z-2.0000 S1000
G1 F1000 X183.0124 Y46.6017 Z-2.0000 S1000
G1 F1000 X183.7149 Y46.0795 Z-2.0000 S1000
G1 F1000 X184.3110 Y45.4383 Z-2.0000 S1000
G1 F1000 X184.7244 Y44.7881 Z-2.0000 S1000
G1 F1000 X184.7244 Y58.6669 Z-2.0000 S1000
G1 F1000 X4.8000 Y58.6669 Z-2.0000 S1000
G1 F1000 X4.8000 Y44.7705 Z-2.0000 S1000
G1 F1000 X4.9151 Y45.0048 Z-2.0000 S1000

G0 Z10; move to z-safe height
G0 X184.7244 Y9.7513

G0 Z0
G1 F100 Z-2.0000
G1 F1000 X184.6093 Y9.5170 Z-2.0000 S1000
G1 F1000 X184.0871 Y8.8145 Z-2.0000 S1000
G1 F1000 X183.4459 Y8.2184 Z-2.0000 S1000
G1 F1000 X182.7071 Y7.7487 Z-2.0000 S1000
G1 F1000 X181.8953 Y7.4210 Z-2.0000 S1000
G1 F1000 X181.0375 Y7.2463 Z-2.0000 S1000
G1 F1000 X180.5120 Y7.2174 Z-2.0000 S1000
G1 F1000 X9.0124 Y7.2174 Z-2.0000 S1000
G1 F1000 X8.1406 Y7.2972 Z-2.0000 S1000
G1 F1000 X7.2978 Y7.5341 Z-2.0000 S1000
G1 F1000 X6.5120 Y7.9201 Z-2.0000 S1000
G1 F1000 X5.8095 Y8.4423 Z-2.0000 S1000
G1 F1000 X5.2134 Y9.0835 Z-2.0000 S1000
G1 F1000 X4.8000 Y9.7337 Z-2.0000 S1000
G1 F1000 X4.8000 Y4.8000 Z-2.0000 S1000
G1 F1000 X184.7244 Y4.8000 Z-2.0000 S1000
G1 F1000 X184.7244 Y9.7513 Z-2.0000 S1000

G0 Z10; move to z-safe height
G0 X4.9151 Y45.0048

G0 Z0
G1 F100 Z-4.0000
G1 F1000 X5.4373 Y45.7073 Z-4.0000 S1000
G1 F1000 X6.0785 Y46.3034 Z-4.0000 S1000
G1 F1000 X6.8173 Y46.7731 Z-4.0000 S1000
G1 F1000 X7.6291 Y47.1008 Z-4.0000 S1000
G1 F1000 X8.4869 Y47.2755 Z-4.0000 S1000
G1 F1000 X9.0124 Y47.3044 Z-4.0000 S1000
G1 F1000 X17.1124 Y47.3044 Z-4.0000 S1000
G1 F1000 X17.1124 Y50.6042 Z-4.0000 S1000
G1 F1000 X17.1922 Y51.4760 Z-4.0000 S1000
G1 F1000 X17.4291 Y52.3188 Z-4.0000 S1000
G1 F1000 X17.8151 Y53.1046 Z-4.0000 S1000
G1 F1000 X18.3373 Y53.8071 Z-4.0000 S1000
G1 F1000 X18.9785 Y54.4032 Z-4.0000 S1000
G1 F1000 X19.7173 Y54.8729 Z-4.0000 S1000
G1 F1000 X20.5291 Y55.2006 Z-4.0000 S1000
G1 F1000 X21.3869 Y55.3753 Z-4.0000 S1000
G1 F1000 X21.9124 Y55.4042 Z-4.0000 S1000
G1 F1000 X167.6120 Y55.4042 Z-4.0000 S1000
G1 F1000 X168.4838 Y55.3244 Z-4.0000 S1000
G1 F1000 X169.3266 Y55.0875 Z-4.0000 S1000
G1 F1000 X170.1124 Y54.7015 Z-4.0000 S1000
G1 F1000 X170.8149 Y54.1793 Z-4.0000 S1000
G1 F1000 X171.4110 Y53.5381 Z-4.0000 S1000
G1 F1000 X171.8807 Y52.7993 Z-4.0000 S1000
G1 F1000 X172.2084 Y51.9875 Z-4.0000 S1000
G1 F1000 X172.3831 Y51.1297 Z-4.0000 S1000
G1 F1000 X172.4120 Y50.6042 Z-4.0000 S1000
G1 F1000 X172.4120 Y47.3044 Z-4.0000 S1000
G1 F1000 X180.5120 Y47.3044 Z-4.0000 S1000
G1 F1000 X181.3838 Y47.2246 Z-4.0000 S1000
G1 F1000 X182.2266 Y46.9877 Z-4.0000 S1000
G1 F1000 X183.0124 Y46.6017 Z-4.0000 S1000
G1 F1000 X183.7149 Y46.0795 Z-4.0000 S1000
G1 F1000 X184.3110 Y45.4383 Z-4.0000 S1000
G1 F1000 X184.7244 Y44.7881 Z-4.0000 S1000
G1 F1000 X184.7244 Y58.6669 Z-4.0000 S1000
G1 F1000 X4.8000 Y58.6669 Z-4.0000 S1000
G1 F1000 X4.8000 Y44.7705 Z-4.0000 S1000
G1 F1000 X4.9151 Y45.0048 Z-4.0000 S1000

G0 Z10; move to z-safe height
G0 X184.7244 Y9.7513

G0 Z0
G1 F100 Z-4.0000
G1 F1000 X184.6093 Y9.5170 Z-4.0000 S1000
G1 F1000 X184.0871 Y8.8145 Z-4.0000 S1000
G1 F1000 X183.4459 Y8.2184 Z-4.0000 S1000
G1 F1000 X182.7071 Y7.7487 Z-4.0000 S1000
G1 F1000 X181.8953 Y7.4210 Z-4.0000 S1000
G1 F1000 X181.0375 Y7.2463 Z-4.0000 S1000
G1 F1000 X180.5120 Y7.2174 Z-4.0000 S1000
G1 F1000 X9.0124 Y7.2174 Z-4.0000 S1000
G1 F1000 X8.1406 Y7.2972 Z-4.0000 S1000
G1 F1000 X7.2978 Y7.5341 Z-4.0000 S1000
G1 F1000 X6.5120 Y7.9201 Z-4.0000 S1000
G1 F1000 X5.8095 Y8.4423 Z-4.0000 S1000
G1 F1000 X5.2134 Y9.0835 Z-4.0000 S1000
G1 F1000 X4.8000 Y9.7337 Z-4.0000 S1000
G1 F1000 X4.8000 Y4.8000 Z-4.0000 S1000
G1 F1000 X184.7244 Y4.8000 Z-4.0000 S1000
G1 F1000 X184.7244 Y9.7513 Z-4.0000 S1000

G0 Z10; move to z-safe height
G0 X186.5244 Y60.4669

G0 Z0
G1 F100 Z-2.0000
G1 F1000 X3.0000 Y60.4669 Z-2.0000 S1000
G1 F1000 X3.0000 Y3.0000 Z-2.0000 S1000
G1 F1000 X186.5244 Y3.0000 Z-2.0000 S1000
G1 F1000 X186.5244 Y60.4669 Z-2.0000 S1000

G0 Z10; move to z-safe height
G0 X9.0124 Y9.0174

G0 Z0
G1 F100 Z-2.0000
G1 F1000 X8.3253 Y9.0971 Z-2.0000 S1000
G1 F1000 X7.6748 Y9.3321 Z-2.0000 S1000
G1 F1000 X7.0954 Y9.7098 Z-2.0000 S1000
G1 F1000 X6.6178 Y10.2102 Z-2.0000 S1000
G1 F1000 X6.2676 Y10.8066 Z-2.0000 S1000
G1 F1000 X6.0633 Y11.4674 Z-2.0000 S1000
G1 F1000 X6.0124 Y12.0174 Z-2.0000 S1000
G1 F1000 X6.0124 Y42.5044 Z-2.0000 S1000
G1 F1000 X6.0921 Y43.1915 Z-2.0000 S1000
G1 F1000 X6.3271 Y43.8420 Z-2.0000 S1000
G1 F1000 X6.7048 Y44.4214 Z-2.0000 S1000
G1 F1000 X7.2052 Y44.8990 Z-2.0000 S1000
G1 F1000 X7.8016 Y45.2492 Z-2.0000 S1000
G1 F1000 X8.4624 Y45.4535 Z-2.0000 S1000
G1 F1000 X9.0124 Y45.5044 Z-2.0000 S1000
G1 F1000 X18.9124 Y45.5044 Z-2.0000 S1000
G1 F1000 X18.9124 Y50.6042 Z-2.0000 S1000
G1 F1000 X18.9921 Y51.2913 Z-2.0000 S1000
G1 F1000 X19.2271 Y51.9418 Z-2.0000 S1000
G1 F1000 X19.6048 Y52.5212 Z-2.0000 S1000
G1 F1000 X20.1052 Y52.9988 Z-2.0000 S1000
G1 F1000 X20.7016 Y53.3490 Z-2.0000 S1000
G1 F1000 X21.3624 Y53.5533 Z-2.0000 S1000
G1 F1000 X21.9124 Y53.6042 Z-2.0000 S1000
G1 F1000 X167.6120 Y53.6042 Z-2.0000 S1000
G1 F1000 X168.2991 Y53.5245 Z-2.0000 S1000
G1 F1000 X168.9496 Y53.2895 Z-2.0000 S1000
G1 F1000 X169.5290 Y52.9118 Z-2.0000 S1000
G1 F1000 X170.0066 Y52.4114 Z-2.0000 S1000
G1 F1000 X170.3568 Y51.8150 Z-2.0000 S1000
G1 F1000 X170.5611 Y51.1542 Z-2.0000 S1000
G1 F1000 X170.6120 Y50.6042 Z-2.0000 S1000
G1 F1000 X170.6120 Y45.5044 Z-2.0000 S1000
G1 F1000 X180.5120 Y45.5044 Z-2.0000 S1000
G1 F1000 X181.1991 Y45.4247 Z-2.0000 S1000
G1 F1000 X181.8496 Y45.1897 Z-2.0000 S1000
G1 F1000 X182.4290 Y44.8120 Z-2.0000 S1000
G1 F1000 X182.9066 Y44.3116 Z-2.0000 S1000
G1 F1000 X183.2568 Y43.7152 Z-2.0000 S1000
G1 F1000 X183.4611 Y43.0544 Z-2.0000 S1000
G1 F1000 X183.5120 Y42.5044 Z-2.0000 S1000
G1 F1000 X183.5120 Y12.0174 Z-2.0000 S1000
G1 F1000 X183.4323 Y11.3303 Z-2.0000 S1000
G1 F1000 X183.1973 Y10.6798 Z-2.0000 S1000
G1 F1000 X182.8196 Y10.1004 Z-2.0000 S1000
G1 F1000 X182.3192 Y9.6228 Z-2.0000 S1000
G1 F1000 X181.7228 Y9.2726 Z-2.0000 S1000
G1 F1000 X181.0620 Y9.0683 Z-2.0000 S1000
G1 F1000 X180.5120 Y9.0174 Z-2.0000 S1000
G1 F1000 X9.0124 Y9.0174 Z-2.0000 S1000

G0 Z10; move to z-safe height
G0 X186.5244 Y60.4669

G0 Z0
G1 F100 Z-4.0000
G1 F1000 X3.0000 Y60.4669 Z-4.0000 S1000
G1 F1000 X3.0000 Y3.0000 Z-4.0000 S1000
G1 F1000 X186.5244 Y3.0000 Z-4.0000 S1000
G1 F1000 X186.5244 Y60.4669 Z-4.0000 S1000

G0 Z10; move to z-safe height
G0 X9.0124 Y9.0174

G0 Z0
G1 F100 Z-4.0000
G1 F1000 X8.3253 Y9.0971 Z-4.0000 S1000
G1 F1000 X7.6748 Y9.3321 Z-4.0000 S1000
G1 F1000 X7.0954 Y9.7098 Z-4.0000 S1000
G1 F1000 X6.6178 Y10.2102 Z-4.0000 S1000
G1 F1000 X6.2676 Y10.8066 Z-4.0000 S1000
G1 F1000 X6.0633 Y11.4674 Z-4.0000 S1000
G1 F1000 X6.0124 Y12.0174 Z-4.0000 S1000
G1 F1000 X6.0124 Y42.5044 Z-4.0000 S1000
G1 F1000 X6.0921 Y43.1915 Z-4.0000 S1000
G1 F1000 X6.3271 Y43.8420 Z-4.0000 S1000
G1 F1000 X6.7048 Y44.4214 Z-4.0000 S1000
G1 F1000 X7.2052 Y44.8990 Z-4.0000 S1000
G1 F1000 X7.8016 Y45.2492 Z-4.0000 S1000
G1 F1000 X8.4624 Y45.4535 Z-4.0000 S1000
G1 F1000 X9.0124 Y45.5044 Z-4.0000 S1000
G1 F1000 X18.9124 Y45.5044 Z-4.0000 S1000
G1 F1000 X18.9124 Y50.6042 Z-4.0000 S1000
G1 F1000 X18.9921 Y51.2913 Z-4.0000 S1000
G1 F1000 X19.2271 Y51.9418 Z-4.0000 S1000
G1 F1000 X19.6048 Y52.5212 Z-4.0000 S1000
G1 F1000 X20.1052 Y52.9988 Z-4.0000 S1000
G1 F1000 X20.7016 Y53.3490 Z-4.0000 S1000
G1 F1000 X21.3624 Y53.5533 Z-4.0000 S1000
G1 F1000 X21.9124 Y53.6042 Z-4.0000 S1000
G1 F1000 X167.6120 Y53.6042 Z-4.0000 S1000
G1 F1000 X168.2991 Y53.5245 Z-4.0000 S1000
G1 F1000 X168.9496 Y53.2895 Z-4.0000 S1000
G1 F1000 X169.5290 Y52.9118 Z-4.0000 S1000
G1 F1000 X170.0066 Y52.4114 Z-4.0000 S1000
G1 F1000 X170.3568 Y51.8150 Z-4.0000 S1000
G1 F1000 X170.5611 Y51.1542 Z-4.0000 S1000
G1 F1000 X170.6120 Y50.6042 Z-4.0000 S1000
G1 F1000 X170.6120 Y45.5044 Z-4.0000 S1000
G1 F1000 X180.5120 Y45.5044 Z-4.0000 S1000
G1 F1000 X181.1991 Y45.4247 Z-4.0000 S1000
G1 F1000 X181.8496 Y45.1897 Z-4.0000 S1000
G1 F1000 X182.4290 Y44.8120 Z-4.0000 S1000
G1 F1000 X182.9066 Y44.3116 Z-4.0000 S1000
G1 F1000 X183.2568 Y43.7152 Z-4.0000 S1000
G1 F1000 X183.4611 Y43.0544 Z-4.0000 S1000
G1 F1000 X183.5120 Y42.5044 Z-4.0000 S1000
G1 F1000 X183.5120 Y12.0174 Z-4.0000 S1000
G1 F1000 X183.4323 Y11.3303 Z-4.0000 S1000
G1 F1000 X183.1973 Y10.6798 Z-4.0000 S1000
G1 F1000 X182.8196 Y10.1004 Z-4.0000 S1000
G1 F1000 X182.3192 Y9.6228 Z-4.0000 S1000
G1 F1000 X181.7228 Y9.2726 Z-4.0000 S1000
G1 F1000 X181.0620 Y9.0683 Z-4.0000 S1000
G1 F1000 X180.5120 Y9.0174 Z-4.0000 S1000
G1 F1000 X9.0124 Y9.0174 Z-4.0000 S1000
; retracting back to z-safe
G0 Z10
; Operation 5: CNC: Vector (path outside)
; Endmill Diameter: 6

G0 Z10; move to z-safe height
G0 F1000 X184.7622 Y0.3671

G0 Z0
G1 F100 Z-3.0000
G1 F1000 X4.7622 Y0.3671 Z-3.0000 S1000
G1 F1000 X4.2122 Y0.4180 Z-3.0000 S1000
G1 F1000 X3.5514 Y0.6223 Z-3.0000 S1000
G1 F1000 X2.9550 Y0.9725 Z-3.0000 S1000
G1 F1000 X2.4546 Y1.4501 Z-3.0000 S1000
G1 F1000 X2.0769 Y2.0295 Z-3.0000 S1000
G1 F1000 X1.8419 Y2.6800 Z-3.0000 S1000
G1 F1000 X1.7622 Y3.3671 Z-3.0000 S1000
G1 F1000 X1.7622 Y58.3671 Z-3.0000 S1000
G1 F1000 X1.8131 Y58.9171 Z-3.0000 S1000
G1 F1000 X2.0174 Y59.5779 Z-3.0000 S1000
G1 F1000 X2.3676 Y60.1743 Z-3.0000 S1000
G1 F1000 X2.8452 Y60.6747 Z-3.0000 S1000
G1 F1000 X3.4246 Y61.0524 Z-3.0000 S1000
G1 F1000 X4.0751 Y61.2874 Z-3.0000 S1000
G1 F1000 X4.7622 Y61.3671 Z-3.0000 S1000
G1 F1000 X184.7622 Y61.3671 Z-3.0000 S1000
G1 F1000 X185.3122 Y61.3162 Z-3.0000 S1000
G1 F1000 X185.9730 Y61.1119 Z-3.0000 S1000
G1 F1000 X186.5694 Y60.7617 Z-3.0000 S1000
G1 F1000 X187.0698 Y60.2841 Z-3.0000 S1000
G1 F1000 X187.4475 Y59.7047 Z-3.0000 S1000
G1 F1000 X187.6825 Y59.0542 Z-3.0000 S1000
G1 F1000 X187.7622 Y58.3671 Z-3.0000 S1000
G1 F1000 X187.7622 Y3.3671 Z-3.0000 S1000
G1 F1000 X187.7113 Y2.8171 Z-3.0000 S1000
G1 F1000 X187.5070 Y2.1563 Z-3.0000 S1000
G1 F1000 X187.1568 Y1.5599 Z-3.0000 S1000
G1 F1000 X186.6792 Y1.0595 Z-3.0000 S1000
G1 F1000 X186.0998 Y0.6818 Z-3.0000 S1000
G1 F1000 X185.4493 Y0.4468 Z-3.0000 S1000
G1 F1000 X184.7622 Y0.3671 Z-3.0000 S1000
G1 F100 Z-6.0000
G1 F1000 X4.7622 Y0.3671 Z-6.0000 S1000
G1 F1000 X4.2122 Y0.4180 Z-6.0000 S1000
G1 F1000 X3.5514 Y0.6223 Z-6.0000 S1000
G1 F1000 X2.9550 Y0.9725 Z-6.0000 S1000
G1 F1000 X2.4546 Y1.4501 Z-6.0000 S1000
G1 F1000 X2.0769 Y2.0295 Z-6.0000 S1000
G1 F1000 X1.8419 Y2.6800 Z-6.0000 S1000
G1 F1000 X1.7622 Y3.3671 Z-6.0000 S1000
G1 F1000 X1.7622 Y58.3671 Z-6.0000 S1000
G1 F1000 X1.8131 Y58.9171 Z-6.0000 S1000
G1 F1000 X2.0174 Y59.5779 Z-6.0000 S1000
G1 F1000 X2.3676 Y60.1743 Z-6.0000 S1000
G1 F1000 X2.8452 Y60.6747 Z-6.0000 S1000
G1 F1000 X3.4246 Y61.0524 Z-6.0000 S1000
G1 F1000 X4.0751 Y61.2874 Z-6.0000 S1000
G1 F1000 X4.7622 Y61.3671 Z-6.0000 S1000
G1 F1000 X184.7622 Y61.3671 Z-6.0000 S1000
G1 F1000 X185.3122 Y61.3162 Z-6.0000 S1000
G1 F1000 X185.9730 Y61.1119 Z-6.0000 S1000
G1 F1000 X186.5694 Y60.7617 Z-6.0000 S1000
G1 F1000 X187.0698 Y60.2841 Z-6.0000 S1000
G1 F1000 X187.4475 Y59.7047 Z-6.0000 S1000
G1 F1000 X187.6825 Y59.0542 Z-6.0000 S1000
G1 F1000 X187.7622 Y58.3671 Z-6.0000 S1000
G1 F1000 X187.7622 Y3.3671 Z-6.0000 S1000
G1 F1000 X187.7113 Y2.8171 Z-6.0000 S1000
G1 F1000 X187.5070 Y2.1563 Z-6.0000 S1000
G1 F1000 X187.1568 Y1.5599 Z-6.0000 S1000
G1 F1000 X186.6792 Y1.0595 Z-6.0000 S1000
G1 F1000 X186.0998 Y0.6818 Z-6.0000 S1000
G1 F1000 X185.4493 Y0.4468 Z-6.0000 S1000
G1 F1000 X184.7622 Y0.3671 Z-6.0000 S1000
G1 F100 Z-8.8000
G1 F1000 X145.2622 Y0.3671 Z-8.8000 S1000
G1 F1000 X145.2622 Y0.3671 Z-6.3000 S1000
G1 F1000 X134.2622 Y0.3671 Z-6.3000 S1000
G1 F1000 X134.2622 Y0.3671 Z-8.8000 S1000
G1 F1000 X94.7622 Y0.3671 Z-8.8000 S1000
G1 F1000 X55.2622 Y0.3671 Z-8.8000 S1000
G1 F1000 X55.2622 Y0.3671 Z-6.3000 S1000
G1 F1000 X44.2622 Y0.3671 Z-6.3000 S1000
G1 F1000 X44.2622 Y0.3671 Z-8.8000 S1000
G1 F1000 X4.7622 Y0.3671 Z-8.8000 S1000
G1 F1000 X4.7622 Y0.3671 Z-8.8000 S1000
G1 F1000 X4.2122 Y0.4180 Z-8.8000 S1000
G1 F1000 X3.5514 Y0.6223 Z-8.8000 S1000
G1 F1000 X2.9550 Y0.9725 Z-8.8000 S1000
G1 F1000 X2.4546 Y1.4501 Z-8.8000 S1000
G1 F1000 X2.0769 Y2.0295 Z-8.8000 S1000
G1 F1000 X1.8419 Y2.6800 Z-8.8000 S1000
G1 F1000 X1.7622 Y3.3671 Z-8.8000 S1000
G1 F1000 X1.7622 Y58.3671 Z-8.8000 S1000
G1 F1000 X1.8131 Y58.9171 Z-8.8000 S1000
G1 F1000 X2.0174 Y59.5779 Z-8.8000 S1000
G1 F1000 X2.3676 Y60.1743 Z-8.8000 S1000
G1 F1000 X2.8452 Y60.6747 Z-8.8000 S1000
G1 F1000 X3.4246 Y61.0524 Z-8.8000 S1000
G1 F1000 X4.0751 Y61.2874 Z-8.8000 S1000
G1 F1000 X4.7622 Y61.3671 Z-8.8000 S1000
G1 F1000 X184.7622 Y61.3671 Z-8.8000 S1000
G1 F1000 X185.3122 Y61.3162 Z-8.8000 S1000
G1 F1000 X185.9730 Y61.1119 Z-8.8000 S1000
G1 F1000 X186.5694 Y60.7617 Z-8.8000 S1000
G1 F1000 X187.0698 Y60.2841 Z-8.8000 S1000
G1 F1000 X187.4475 Y59.7047 Z-8.8000 S1000
G1 F1000 X187.6825 Y59.0542 Z-8.8000 S1000
G1 F1000 X187.7622 Y58.3671 Z-8.8000 S1000
G1 F1000 X187.7622 Y3.3671 Z-8.8000 S1000
G1 F1000 X187.7113 Y2.8171 Z-8.8000 S1000
G1 F1000 X187.5070 Y2.1563 Z-8.8000 S1000
G1 F1000 X187.1568 Y1.5599 Z-8.8000 S1000
G1 F1000 X186.6792 Y1.0595 Z-8.8000 S1000
G1 F1000 X186.0998 Y0.6818 Z-8.8000 S1000
G1 F1000 X185.4493 Y0.4468 Z-8.8000 S1000
G1 F1000 X184.7622 Y0.3671 Z-8.8000 S1000
; retracting back to z-safe
G0 Z10

M5 S0; Spindle Off
