; GCODE Generated by cam.openbuilds.com on 2021-04-30 
G21 ; mm-mode
G54; Work Coordinates
G21; mm-mode
G90; Absolute Positioning
M3 S1000; Spindle On

; Operation 1: Drill: Continuous (Centered)
; Endmill Diameter: 6

G0 Z10; move to z-safe height
G0 F1000 X29.6592 Y6.3750

G0 Z0
G1 F100 Z0.0000
G1 F1000 X29.6592 Y6.3750 Z-4.0000 S1000
G1 F1000 X29.6592 Y6.3750 Z0.0000 S1000

G0 Z10; move to z-safe height
G0 X6.3759 Y6.3750

G0 Z0
G1 F100 Z0.0000
G1 F1000 X6.3759 Y6.3750 Z-4.0000 S1000
G1 F1000 X6.3759 Y6.3750 Z0.0000 S1000

G0 Z10; move to z-safe height
G0 X6.3759 Y85.6247

G0 Z0
G1 F100 Z0.0000
G1 F1000 X6.3759 Y85.6247 Z-4.0000 S1000
G1 F1000 X6.3759 Y85.6247 Z0.0000 S1000

G0 Z10; move to z-safe height
G0 X29.6592 Y85.6247

G0 Z0
G1 F100 Z0.0000
G1 F1000 X29.6592 Y85.6247 Z-4.0000 S1000
G1 F1000 X29.6592 Y85.6247 Z0.0000 S1000
; retracting back to z-safe
G0 Z10
; Operation 2: CNC: Vector (path outside)
; Endmill Diameter: 6

G0 Z10; move to z-safe height
G0 F1000 X36.0335 Y-3.0000

G0 Z0
G1 F100 Z-3.0000
G1 F1000 X23.2834 Y-3.0000 Z-3.0000 S1000
G1 F1000 X22.7334 Y-2.9491 Z-3.0000 S1000
G1 F1000 X22.0726 Y-2.7448 Z-3.0000 S1000
G1 F1000 X21.4762 Y-2.3946 Z-3.0000 S1000
G1 F1000 X20.9758 Y-1.9170 Z-3.0000 S1000
G1 F1000 X20.5981 Y-1.3376 Z-3.0000 S1000
G1 F1000 X20.3631 Y-0.6871 Z-3.0000 S1000
G1 F1000 X20.2834 Y0.0000 Z-3.0000 S1000
G1 F1000 X20.2834 Y92.0001 Z-3.0000 S1000
G1 F1000 X20.3343 Y92.5501 Z-3.0000 S1000
G1 F1000 X20.5386 Y93.2109 Z-3.0000 S1000
G1 F1000 X20.8888 Y93.8073 Z-3.0000 S1000
G1 F1000 X21.3664 Y94.3077 Z-3.0000 S1000
G1 F1000 X21.9458 Y94.6854 Z-3.0000 S1000
G1 F1000 X22.5963 Y94.9204 Z-3.0000 S1000
G1 F1000 X23.2834 Y95.0001 Z-3.0000 S1000
G1 F1000 X36.0335 Y95.0001 Z-3.0000 S1000
G1 F1000 X36.5835 Y94.9492 Z-3.0000 S1000
G1 F1000 X37.2443 Y94.7449 Z-3.0000 S1000
G1 F1000 X37.8407 Y94.3947 Z-3.0000 S1000
G1 F1000 X38.3411 Y93.9171 Z-3.0000 S1000
G1 F1000 X38.7188 Y93.3377 Z-3.0000 S1000
G1 F1000 X38.9538 Y92.6872 Z-3.0000 S1000
G1 F1000 X39.0335 Y92.0001 Z-3.0000 S1000
G1 F1000 X39.0335 Y85.9999 Z-3.0000 S1000
G1 F1000 X39.0237 Y85.8945 Z-3.0000 S1000
G1 F1000 X39.0297 Y85.7771 Z-3.0000 S1000
G1 F1000 X39.0242 Y85.3898 Z-3.0000 S1000
G1 F1000 X38.9457 Y84.3925 Z-3.0000 S1000
G1 F1000 X38.8721 Y83.9277 Z-3.0000 S1000
G1 F1000 X38.6386 Y82.9549 Z-3.0000 S1000
G1 F1000 X38.4932 Y82.5071 Z-3.0000 S1000
G1 F1000 X38.1104 Y81.5829 Z-3.0000 S1000
G1 F1000 X37.8966 Y81.1634 Z-3.0000 S1000
G1 F1000 X37.3739 Y80.3104 Z-3.0000 S1000
G1 F1000 X37.0973 Y79.9297 Z-3.0000 S1000
G1 F1000 X36.4476 Y79.1689 Z-3.0000 S1000
G1 F1000 X36.1145 Y78.8358 Z-3.0000 S1000
G1 F1000 X35.3537 Y78.1861 Z-3.0000 S1000
G1 F1000 X34.9730 Y77.9095 Z-3.0000 S1000
G1 F1000 X34.1200 Y77.3868 Z-3.0000 S1000
G1 F1000 X33.7005 Y77.1730 Z-3.0000 S1000
G1 F1000 X32.7763 Y76.7902 Z-3.0000 S1000
G1 F1000 X32.6582 Y76.7519 Z-3.0000 S1000
G1 F1000 X32.6582 Y15.2482 Z-3.0000 S1000
G1 F1000 X32.7763 Y15.2098 Z-3.0000 S1000
G1 F1000 X33.7005 Y14.8270 Z-3.0000 S1000
G1 F1000 X34.1200 Y14.6132 Z-3.0000 S1000
G1 F1000 X34.9730 Y14.0905 Z-3.0000 S1000
G1 F1000 X35.3537 Y13.8139 Z-3.0000 S1000
G1 F1000 X36.1145 Y13.1642 Z-3.0000 S1000
G1 F1000 X36.4475 Y12.8312 Z-3.0000 S1000
G1 F1000 X37.0972 Y12.0705 Z-3.0000 S1000
G1 F1000 X37.3739 Y11.6897 Z-3.0000 S1000
G1 F1000 X37.8966 Y10.8367 Z-3.0000 S1000
G1 F1000 X38.1104 Y10.4171 Z-3.0000 S1000
G1 F1000 X38.4932 Y9.4928 Z-3.0000 S1000
G1 F1000 X38.6386 Y9.0451 Z-3.0000 S1000
G1 F1000 X38.8721 Y8.0723 Z-3.0000 S1000
G1 F1000 X38.9457 Y7.6075 Z-3.0000 S1000
G1 F1000 X39.0242 Y6.6102 Z-3.0000 S1000
G1 F1000 X39.0204 Y6.1133 Z-3.0000 S1000
G1 F1000 X39.0335 Y6.0001 Z-3.0000 S1000
G1 F1000 X39.0335 Y0.0000 Z-3.0000 S1000
G1 F1000 X38.9826 Y-0.5500 Z-3.0000 S1000
G1 F1000 X38.7783 Y-1.2108 Z-3.0000 S1000
G1 F1000 X38.4281 Y-1.8072 Z-3.0000 S1000
G1 F1000 X37.9505 Y-2.3076 Z-3.0000 S1000
G1 F1000 X37.3711 Y-2.6853 Z-3.0000 S1000
G1 F1000 X36.7206 Y-2.9203 Z-3.0000 S1000
G1 F1000 X36.0335 Y-3.0000 Z-3.0000 S1000
G1 F100 Z-6.0000
G1 F1000 X23.2834 Y-3.0000 Z-6.0000 S1000
G1 F1000 X22.7334 Y-2.9491 Z-6.0000 S1000
G1 F1000 X22.0726 Y-2.7448 Z-6.0000 S1000
G1 F1000 X21.4762 Y-2.3946 Z-6.0000 S1000
G1 F1000 X20.9758 Y-1.9170 Z-6.0000 S1000
G1 F1000 X20.5981 Y-1.3376 Z-6.0000 S1000
G1 F1000 X20.3631 Y-0.6871 Z-6.0000 S1000
G1 F1000 X20.2834 Y0.0000 Z-6.0000 S1000
G1 F1000 X20.2834 Y92.0001 Z-6.0000 S1000
G1 F1000 X20.3343 Y92.5501 Z-6.0000 S1000
G1 F1000 X20.5386 Y93.2109 Z-6.0000 S1000
G1 F1000 X20.8888 Y93.8073 Z-6.0000 S1000
G1 F1000 X21.3664 Y94.3077 Z-6.0000 S1000
G1 F1000 X21.9458 Y94.6854 Z-6.0000 S1000
G1 F1000 X22.5963 Y94.9204 Z-6.0000 S1000
G1 F1000 X23.2834 Y95.0001 Z-6.0000 S1000
G1 F1000 X36.0335 Y95.0001 Z-6.0000 S1000
G1 F1000 X36.5835 Y94.9492 Z-6.0000 S1000
G1 F1000 X37.2443 Y94.7449 Z-6.0000 S1000
G1 F1000 X37.8407 Y94.3947 Z-6.0000 S1000
G1 F1000 X38.3411 Y93.9171 Z-6.0000 S1000
G1 F1000 X38.7188 Y93.3377 Z-6.0000 S1000
G1 F1000 X38.9538 Y92.6872 Z-6.0000 S1000
G1 F1000 X39.0335 Y92.0001 Z-6.0000 S1000
G1 F1000 X39.0335 Y85.9999 Z-6.0000 S1000
G1 F1000 X39.0237 Y85.8945 Z-6.0000 S1000
G1 F1000 X39.0297 Y85.7771 Z-6.0000 S1000
G1 F1000 X39.0242 Y85.3898 Z-6.0000 S1000
G1 F1000 X38.9457 Y84.3925 Z-6.0000 S1000
G1 F1000 X38.8721 Y83.9277 Z-6.0000 S1000
G1 F1000 X38.6386 Y82.9549 Z-6.0000 S1000
G1 F1000 X38.4932 Y82.5071 Z-6.0000 S1000
G1 F1000 X38.1104 Y81.5829 Z-6.0000 S1000
G1 F1000 X37.8966 Y81.1634 Z-6.0000 S1000
G1 F1000 X37.3739 Y80.3104 Z-6.0000 S1000
G1 F1000 X37.0973 Y79.9297 Z-6.0000 S1000
G1 F1000 X36.4476 Y79.1689 Z-6.0000 S1000
G1 F1000 X36.1145 Y78.8358 Z-6.0000 S1000
G1 F1000 X35.3537 Y78.1861 Z-6.0000 S1000
G1 F1000 X34.9730 Y77.9095 Z-6.0000 S1000
G1 F1000 X34.1200 Y77.3868 Z-6.0000 S1000
G1 F1000 X33.7005 Y77.1730 Z-6.0000 S1000
G1 F1000 X32.7763 Y76.7902 Z-6.0000 S1000
G1 F1000 X32.6582 Y76.7519 Z-6.0000 S1000
G1 F1000 X32.6582 Y15.2482 Z-6.0000 S1000
G1 F1000 X32.7763 Y15.2098 Z-6.0000 S1000
G1 F1000 X33.7005 Y14.8270 Z-6.0000 S1000
G1 F1000 X34.1200 Y14.6132 Z-6.0000 S1000
G1 F1000 X34.9730 Y14.0905 Z-6.0000 S1000
G1 F1000 X35.3537 Y13.8139 Z-6.0000 S1000
G1 F1000 X36.1145 Y13.1642 Z-6.0000 S1000
G1 F1000 X36.4475 Y12.8312 Z-6.0000 S1000
G1 F1000 X37.0972 Y12.0705 Z-6.0000 S1000
G1 F1000 X37.3739 Y11.6897 Z-6.0000 S1000
G1 F1000 X37.8966 Y10.8367 Z-6.0000 S1000
G1 F1000 X38.1104 Y10.4171 Z-6.0000 S1000
G1 F1000 X38.4932 Y9.4928 Z-6.0000 S1000
G1 F1000 X38.6386 Y9.0451 Z-6.0000 S1000
G1 F1000 X38.8721 Y8.0723 Z-6.0000 S1000
G1 F1000 X38.9457 Y7.6075 Z-6.0000 S1000
G1 F1000 X39.0242 Y6.6102 Z-6.0000 S1000
G1 F1000 X39.0204 Y6.1133 Z-6.0000 S1000
G1 F1000 X39.0335 Y6.0001 Z-6.0000 S1000
G1 F1000 X39.0335 Y0.0000 Z-6.0000 S1000
G1 F1000 X38.9826 Y-0.5500 Z-6.0000 S1000
G1 F1000 X38.7783 Y-1.2108 Z-6.0000 S1000
G1 F1000 X38.4281 Y-1.8072 Z-6.0000 S1000
G1 F1000 X37.9505 Y-2.3076 Z-6.0000 S1000
G1 F1000 X37.3711 Y-2.6853 Z-6.0000 S1000
G1 F1000 X36.7206 Y-2.9203 Z-6.0000 S1000
G1 F1000 X36.0335 Y-3.0000 Z-6.0000 S1000
G1 F100 Z-8.8000
G1 F1000 X23.2834 Y-3.0000 Z-8.8000 S1000
G1 F1000 X22.7334 Y-2.9491 Z-8.8000 S1000
G1 F1000 X22.0726 Y-2.7448 Z-8.8000 S1000
G1 F1000 X21.4762 Y-2.3946 Z-8.8000 S1000
G1 F1000 X20.9758 Y-1.9170 Z-8.8000 S1000
G1 F1000 X20.5981 Y-1.3376 Z-8.8000 S1000
G1 F1000 X20.3631 Y-0.6871 Z-8.8000 S1000
G1 F1000 X20.2834 Y0.0000 Z-8.8000 S1000
G1 F1000 X20.2834 Y92.0001 Z-8.8000 S1000
G1 F1000 X20.3343 Y92.5501 Z-8.8000 S1000
G1 F1000 X20.5386 Y93.2109 Z-8.8000 S1000
G1 F1000 X20.8888 Y93.8073 Z-8.8000 S1000
G1 F1000 X21.3664 Y94.3077 Z-8.8000 S1000
G1 F1000 X21.9458 Y94.6854 Z-8.8000 S1000
G1 F1000 X22.5963 Y94.9204 Z-8.8000 S1000
G1 F1000 X23.2834 Y95.0001 Z-8.8000 S1000
G1 F1000 X36.0335 Y95.0001 Z-8.8000 S1000
G1 F1000 X36.5835 Y94.9492 Z-8.8000 S1000
G1 F1000 X37.2443 Y94.7449 Z-8.8000 S1000
G1 F1000 X37.8407 Y94.3947 Z-8.8000 S1000
G1 F1000 X38.3411 Y93.9171 Z-8.8000 S1000
G1 F1000 X38.7188 Y93.3377 Z-8.8000 S1000
G1 F1000 X38.9538 Y92.6872 Z-8.8000 S1000
G1 F1000 X39.0335 Y92.0001 Z-8.8000 S1000
G1 F1000 X39.0335 Y85.9999 Z-8.8000 S1000
G1 F1000 X39.0237 Y85.8945 Z-8.8000 S1000
G1 F1000 X39.0297 Y85.7771 Z-8.8000 S1000
G1 F1000 X39.0242 Y85.3898 Z-8.8000 S1000
G1 F1000 X38.9457 Y84.3925 Z-8.8000 S1000
G1 F1000 X38.8721 Y83.9277 Z-8.8000 S1000
G1 F1000 X38.6386 Y82.9549 Z-8.8000 S1000
G1 F1000 X38.4932 Y82.5071 Z-8.8000 S1000
G1 F1000 X38.1104 Y81.5829 Z-8.8000 S1000
G1 F1000 X37.8966 Y81.1634 Z-8.8000 S1000
G1 F1000 X37.3739 Y80.3104 Z-8.8000 S1000
G1 F1000 X37.0973 Y79.9297 Z-8.8000 S1000
G1 F1000 X36.4476 Y79.1689 Z-8.8000 S1000
G1 F1000 X36.1145 Y78.8358 Z-8.8000 S1000
G1 F1000 X35.3537 Y78.1861 Z-8.8000 S1000
G1 F1000 X34.9730 Y77.9095 Z-8.8000 S1000
G1 F1000 X34.1200 Y77.3868 Z-8.8000 S1000
G1 F1000 X33.7005 Y77.1730 Z-8.8000 S1000
G1 F1000 X32.7763 Y76.7902 Z-8.8000 S1000
G1 F1000 X32.6582 Y76.7519 Z-8.8000 S1000
G1 F1000 X32.6582 Y66.8760 Z-8.8000 S1000
G1 F1000 X32.6582 Y66.8760 Z-6.3000 S1000
G1 F1000 X32.6582 Y55.8760 Z-6.3000 S1000
G1 F1000 X32.6582 Y55.8760 Z-8.8000 S1000
G1 F1000 X32.6582 Y46.0001 Z-8.8000 S1000
G1 F1000 X32.6582 Y36.1241 Z-8.8000 S1000
G1 F1000 X32.6582 Y36.1241 Z-6.3000 S1000
G1 F1000 X32.6582 Y25.1241 Z-6.3000 S1000
G1 F1000 X32.6582 Y25.1241 Z-8.8000 S1000
G1 F1000 X32.6582 Y15.2482 Z-8.8000 S1000
G1 F1000 X32.6582 Y15.2482 Z-8.8000 S1000
G1 F1000 X32.7763 Y15.2098 Z-8.8000 S1000
G1 F1000 X33.7005 Y14.8270 Z-8.8000 S1000
G1 F1000 X34.1200 Y14.6132 Z-8.8000 S1000
G1 F1000 X34.9730 Y14.0905 Z-8.8000 S1000
G1 F1000 X35.3537 Y13.8139 Z-8.8000 S1000
G1 F1000 X36.1145 Y13.1642 Z-8.8000 S1000
G1 F1000 X36.4475 Y12.8312 Z-8.8000 S1000
G1 F1000 X37.0972 Y12.0705 Z-8.8000 S1000
G1 F1000 X37.3739 Y11.6897 Z-8.8000 S1000
G1 F1000 X37.8966 Y10.8367 Z-8.8000 S1000
G1 F1000 X38.1104 Y10.4171 Z-8.8000 S1000
G1 F1000 X38.4932 Y9.4928 Z-8.8000 S1000
G1 F1000 X38.6386 Y9.0451 Z-8.8000 S1000
G1 F1000 X38.8721 Y8.0723 Z-8.8000 S1000
G1 F1000 X38.9457 Y7.6075 Z-8.8000 S1000
G1 F1000 X39.0242 Y6.6102 Z-8.8000 S1000
G1 F1000 X39.0204 Y6.1133 Z-8.8000 S1000
G1 F1000 X39.0335 Y6.0001 Z-8.8000 S1000
G1 F1000 X39.0335 Y0.0000 Z-8.8000 S1000
G1 F1000 X38.9826 Y-0.5500 Z-8.8000 S1000
G1 F1000 X38.7783 Y-1.2108 Z-8.8000 S1000
G1 F1000 X38.4281 Y-1.8072 Z-8.8000 S1000
G1 F1000 X37.9505 Y-2.3076 Z-8.8000 S1000
G1 F1000 X37.3711 Y-2.6853 Z-8.8000 S1000
G1 F1000 X36.7206 Y-2.9203 Z-8.8000 S1000
G1 F1000 X36.0335 Y-3.0000 Z-8.8000 S1000

G0 Z10; move to z-safe height
G0 X12.7501 Y-3.0000

G0 Z0
G1 F100 Z-3.0000
G1 F1000 X0.0000 Y-3.0000 Z-3.0000 S1000
G1 F1000 X-0.5500 Y-2.9491 Z-3.0000 S1000
G1 F1000 X-1.2108 Y-2.7448 Z-3.0000 S1000
G1 F1000 X-1.8072 Y-2.3946 Z-3.0000 S1000
G1 F1000 X-2.3076 Y-1.9170 Z-3.0000 S1000
G1 F1000 X-2.6853 Y-1.3376 Z-3.0000 S1000
G1 F1000 X-2.9203 Y-0.6871 Z-3.0000 S1000
G1 F1000 X-3.0000 Y0.0000 Z-3.0000 S1000
G1 F1000 X-3.0000 Y92.0001 Z-3.0000 S1000
G1 F1000 X-2.9491 Y92.5501 Z-3.0000 S1000
G1 F1000 X-2.7448 Y93.2109 Z-3.0000 S1000
G1 F1000 X-2.3946 Y93.8073 Z-3.0000 S1000
G1 F1000 X-1.9170 Y94.3077 Z-3.0000 S1000
G1 F1000 X-1.3376 Y94.6854 Z-3.0000 S1000
G1 F1000 X-0.6871 Y94.9204 Z-3.0000 S1000
G1 F1000 X0.0000 Y95.0001 Z-3.0000 S1000
G1 F1000 X12.7501 Y95.0001 Z-3.0000 S1000
G1 F1000 X13.3001 Y94.9492 Z-3.0000 S1000
G1 F1000 X13.9609 Y94.7449 Z-3.0000 S1000
G1 F1000 X14.5573 Y94.3947 Z-3.0000 S1000
G1 F1000 X15.0577 Y93.9171 Z-3.0000 S1000
G1 F1000 X15.4354 Y93.3377 Z-3.0000 S1000
G1 F1000 X15.6704 Y92.6872 Z-3.0000 S1000
G1 F1000 X15.7501 Y92.0001 Z-3.0000 S1000
G1 F1000 X15.7501 Y85.9999 Z-3.0000 S1000
G1 F1000 X15.7403 Y85.8945 Z-3.0000 S1000
G1 F1000 X15.7463 Y85.7771 Z-3.0000 S1000
G1 F1000 X15.7409 Y85.3901 Z-3.0000 S1000
G1 F1000 X15.6625 Y84.3928 Z-3.0000 S1000
G1 F1000 X15.5888 Y83.9274 Z-3.0000 S1000
G1 F1000 X15.3552 Y82.9546 Z-3.0000 S1000
G1 F1000 X15.2098 Y82.5071 Z-3.0000 S1000
G1 F1000 X14.8270 Y81.5829 Z-3.0000 S1000
G1 F1000 X14.6132 Y81.1634 Z-3.0000 S1000
G1 F1000 X14.0905 Y80.3104 Z-3.0000 S1000
G1 F1000 X13.8139 Y79.9297 Z-3.0000 S1000
G1 F1000 X13.1642 Y79.1689 Z-3.0000 S1000
G1 F1000 X12.8312 Y78.8359 Z-3.0000 S1000
G1 F1000 X12.0705 Y78.1862 Z-3.0000 S1000
G1 F1000 X11.6897 Y77.9095 Z-3.0000 S1000
G1 F1000 X10.8367 Y77.3868 Z-3.0000 S1000
G1 F1000 X10.4171 Y77.1730 Z-3.0000 S1000
G1 F1000 X9.4928 Y76.7902 Z-3.0000 S1000
G1 F1000 X9.3748 Y76.7519 Z-3.0000 S1000
G1 F1000 X9.3748 Y15.2481 Z-3.0000 S1000
G1 F1000 X9.4928 Y15.2098 Z-3.0000 S1000
G1 F1000 X10.4171 Y14.8270 Z-3.0000 S1000
G1 F1000 X10.8367 Y14.6132 Z-3.0000 S1000
G1 F1000 X11.6897 Y14.0905 Z-3.0000 S1000
G1 F1000 X12.0705 Y13.8138 Z-3.0000 S1000
G1 F1000 X12.8312 Y13.1641 Z-3.0000 S1000
G1 F1000 X13.1641 Y12.8312 Z-3.0000 S1000
G1 F1000 X13.8138 Y12.0705 Z-3.0000 S1000
G1 F1000 X14.0905 Y11.6897 Z-3.0000 S1000
G1 F1000 X14.6132 Y10.8367 Z-3.0000 S1000
G1 F1000 X14.8270 Y10.4171 Z-3.0000 S1000
G1 F1000 X15.2098 Y9.4928 Z-3.0000 S1000
G1 F1000 X15.3552 Y9.0454 Z-3.0000 S1000
G1 F1000 X15.5888 Y8.0726 Z-3.0000 S1000
G1 F1000 X15.6625 Y7.6072 Z-3.0000 S1000
G1 F1000 X15.7409 Y6.6099 Z-3.0000 S1000
G1 F1000 X15.7370 Y6.1130 Z-3.0000 S1000
G1 F1000 X15.7501 Y6.0001 Z-3.0000 S1000
G1 F1000 X15.7501 Y0.0000 Z-3.0000 S1000
G1 F1000 X15.6992 Y-0.5500 Z-3.0000 S1000
G1 F1000 X15.4949 Y-1.2108 Z-3.0000 S1000
G1 F1000 X15.1447 Y-1.8072 Z-3.0000 S1000
G1 F1000 X14.6671 Y-2.3076 Z-3.0000 S1000
G1 F1000 X14.0877 Y-2.6853 Z-3.0000 S1000
G1 F1000 X13.4372 Y-2.9203 Z-3.0000 S1000
G1 F1000 X12.7501 Y-3.0000 Z-3.0000 S1000
G1 F100 Z-6.0000
G1 F1000 X0.0000 Y-3.0000 Z-6.0000 S1000
G1 F1000 X-0.5500 Y-2.9491 Z-6.0000 S1000
G1 F1000 X-1.2108 Y-2.7448 Z-6.0000 S1000
G1 F1000 X-1.8072 Y-2.3946 Z-6.0000 S1000
G1 F1000 X-2.3076 Y-1.9170 Z-6.0000 S1000
G1 F1000 X-2.6853 Y-1.3376 Z-6.0000 S1000
G1 F1000 X-2.9203 Y-0.6871 Z-6.0000 S1000
G1 F1000 X-3.0000 Y0.0000 Z-6.0000 S1000
G1 F1000 X-3.0000 Y92.0001 Z-6.0000 S1000
G1 F1000 X-2.9491 Y92.5501 Z-6.0000 S1000
G1 F1000 X-2.7448 Y93.2109 Z-6.0000 S1000
G1 F1000 X-2.3946 Y93.8073 Z-6.0000 S1000
G1 F1000 X-1.9170 Y94.3077 Z-6.0000 S1000
G1 F1000 X-1.3376 Y94.6854 Z-6.0000 S1000
G1 F1000 X-0.6871 Y94.9204 Z-6.0000 S1000
G1 F1000 X0.0000 Y95.0001 Z-6.0000 S1000
G1 F1000 X12.7501 Y95.0001 Z-6.0000 S1000
G1 F1000 X13.3001 Y94.9492 Z-6.0000 S1000
G1 F1000 X13.9609 Y94.7449 Z-6.0000 S1000
G1 F1000 X14.5573 Y94.3947 Z-6.0000 S1000
G1 F1000 X15.0577 Y93.9171 Z-6.0000 S1000
G1 F1000 X15.4354 Y93.3377 Z-6.0000 S1000
G1 F1000 X15.6704 Y92.6872 Z-6.0000 S1000
G1 F1000 X15.7501 Y92.0001 Z-6.0000 S1000
G1 F1000 X15.7501 Y85.9999 Z-6.0000 S1000
G1 F1000 X15.7403 Y85.8945 Z-6.0000 S1000
G1 F1000 X15.7463 Y85.7771 Z-6.0000 S1000
G1 F1000 X15.7409 Y85.3901 Z-6.0000 S1000
G1 F1000 X15.6625 Y84.3928 Z-6.0000 S1000
G1 F1000 X15.5888 Y83.9274 Z-6.0000 S1000
G1 F1000 X15.3552 Y82.9546 Z-6.0000 S1000
G1 F1000 X15.2098 Y82.5071 Z-6.0000 S1000
G1 F1000 X14.8270 Y81.5829 Z-6.0000 S1000
G1 F1000 X14.6132 Y81.1634 Z-6.0000 S1000
G1 F1000 X14.0905 Y80.3104 Z-6.0000 S1000
G1 F1000 X13.8139 Y79.9297 Z-6.0000 S1000
G1 F1000 X13.1642 Y79.1689 Z-6.0000 S1000
G1 F1000 X12.8312 Y78.8359 Z-6.0000 S1000
G1 F1000 X12.0705 Y78.1862 Z-6.0000 S1000
G1 F1000 X11.6897 Y77.9095 Z-6.0000 S1000
G1 F1000 X10.8367 Y77.3868 Z-6.0000 S1000
G1 F1000 X10.4171 Y77.1730 Z-6.0000 S1000
G1 F1000 X9.4928 Y76.7902 Z-6.0000 S1000
G1 F1000 X9.3748 Y76.7519 Z-6.0000 S1000
G1 F1000 X9.3748 Y15.2481 Z-6.0000 S1000
G1 F1000 X9.4928 Y15.2098 Z-6.0000 S1000
G1 F1000 X10.4171 Y14.8270 Z-6.0000 S1000
G1 F1000 X10.8367 Y14.6132 Z-6.0000 S1000
G1 F1000 X11.6897 Y14.0905 Z-6.0000 S1000
G1 F1000 X12.0705 Y13.8138 Z-6.0000 S1000
G1 F1000 X12.8312 Y13.1641 Z-6.0000 S1000
G1 F1000 X13.1641 Y12.8312 Z-6.0000 S1000
G1 F1000 X13.8138 Y12.0705 Z-6.0000 S1000
G1 F1000 X14.0905 Y11.6897 Z-6.0000 S1000
G1 F1000 X14.6132 Y10.8367 Z-6.0000 S1000
G1 F1000 X14.8270 Y10.4171 Z-6.0000 S1000
G1 F1000 X15.2098 Y9.4928 Z-6.0000 S1000
G1 F1000 X15.3552 Y9.0454 Z-6.0000 S1000
G1 F1000 X15.5888 Y8.0726 Z-6.0000 S1000
G1 F1000 X15.6625 Y7.6072 Z-6.0000 S1000
G1 F1000 X15.7409 Y6.6099 Z-6.0000 S1000
G1 F1000 X15.7370 Y6.1130 Z-6.0000 S1000
G1 F1000 X15.7501 Y6.0001 Z-6.0000 S1000
G1 F1000 X15.7501 Y0.0000 Z-6.0000 S1000
G1 F1000 X15.6992 Y-0.5500 Z-6.0000 S1000
G1 F1000 X15.4949 Y-1.2108 Z-6.0000 S1000
G1 F1000 X15.1447 Y-1.8072 Z-6.0000 S1000
G1 F1000 X14.6671 Y-2.3076 Z-6.0000 S1000
G1 F1000 X14.0877 Y-2.6853 Z-6.0000 S1000
G1 F1000 X13.4372 Y-2.9203 Z-6.0000 S1000
G1 F1000 X12.7501 Y-3.0000 Z-6.0000 S1000
G1 F100 Z-8.8000
G1 F1000 X0.0000 Y-3.0000 Z-8.8000 S1000
G1 F1000 X-0.5500 Y-2.9491 Z-8.8000 S1000
G1 F1000 X-1.2108 Y-2.7448 Z-8.8000 S1000
G1 F1000 X-1.8072 Y-2.3946 Z-8.8000 S1000
G1 F1000 X-2.3076 Y-1.9170 Z-8.8000 S1000
G1 F1000 X-2.6853 Y-1.3376 Z-8.8000 S1000
G1 F1000 X-2.9203 Y-0.6871 Z-8.8000 S1000
G1 F1000 X-3.0000 Y0.0000 Z-8.8000 S1000
G1 F1000 X-3.0000 Y92.0001 Z-8.8000 S1000
G1 F1000 X-2.9491 Y92.5501 Z-8.8000 S1000
G1 F1000 X-2.7448 Y93.2109 Z-8.8000 S1000
G1 F1000 X-2.3946 Y93.8073 Z-8.8000 S1000
G1 F1000 X-1.9170 Y94.3077 Z-8.8000 S1000
G1 F1000 X-1.3376 Y94.6854 Z-8.8000 S1000
G1 F1000 X-0.6871 Y94.9204 Z-8.8000 S1000
G1 F1000 X0.0000 Y95.0001 Z-8.8000 S1000
G1 F1000 X12.7501 Y95.0001 Z-8.8000 S1000
G1 F1000 X13.3001 Y94.9492 Z-8.8000 S1000
G1 F1000 X13.9609 Y94.7449 Z-8.8000 S1000
G1 F1000 X14.5573 Y94.3947 Z-8.8000 S1000
G1 F1000 X15.0577 Y93.9171 Z-8.8000 S1000
G1 F1000 X15.4354 Y93.3377 Z-8.8000 S1000
G1 F1000 X15.6704 Y92.6872 Z-8.8000 S1000
G1 F1000 X15.7501 Y92.0001 Z-8.8000 S1000
G1 F1000 X15.7501 Y85.9999 Z-8.8000 S1000
G1 F1000 X15.7403 Y85.8945 Z-8.8000 S1000
G1 F1000 X15.7463 Y85.7771 Z-8.8000 S1000
G1 F1000 X15.7409 Y85.3901 Z-8.8000 S1000
G1 F1000 X15.6625 Y84.3928 Z-8.8000 S1000
G1 F1000 X15.5888 Y83.9274 Z-8.8000 S1000
G1 F1000 X15.3552 Y82.9546 Z-8.8000 S1000
G1 F1000 X15.2098 Y82.5071 Z-8.8000 S1000
G1 F1000 X14.8270 Y81.5829 Z-8.8000 S1000
G1 F1000 X14.6132 Y81.1634 Z-8.8000 S1000
G1 F1000 X14.0905 Y80.3104 Z-8.8000 S1000
G1 F1000 X13.8139 Y79.9297 Z-8.8000 S1000
G1 F1000 X13.1642 Y79.1689 Z-8.8000 S1000
G1 F1000 X12.8312 Y78.8359 Z-8.8000 S1000
G1 F1000 X12.0705 Y78.1862 Z-8.8000 S1000
G1 F1000 X11.6897 Y77.9095 Z-8.8000 S1000
G1 F1000 X10.8367 Y77.3868 Z-8.8000 S1000
G1 F1000 X10.4171 Y77.1730 Z-8.8000 S1000
G1 F1000 X9.4928 Y76.7902 Z-8.8000 S1000
G1 F1000 X9.3748 Y76.7519 Z-8.8000 S1000
G1 F1000 X9.3748 Y66.8760 Z-8.8000 S1000
G1 F1000 X9.3748 Y66.8760 Z-6.3000 S1000
G1 F1000 X9.3748 Y55.8760 Z-6.3000 S1000
G1 F1000 X9.3748 Y55.8760 Z-8.8000 S1000
G1 F1000 X9.3748 Y46.0000 Z-8.8000 S1000
G1 F1000 X9.3748 Y36.1240 Z-8.8000 S1000
G1 F1000 X9.3748 Y36.1240 Z-6.3000 S1000
G1 F1000 X9.3748 Y25.1240 Z-6.3000 S1000
G1 F1000 X9.3748 Y25.1240 Z-8.8000 S1000
G1 F1000 X9.3748 Y15.2481 Z-8.8000 S1000
G1 F1000 X9.3748 Y15.2481 Z-8.8000 S1000
G1 F1000 X9.4928 Y15.2098 Z-8.8000 S1000
G1 F1000 X10.4171 Y14.8270 Z-8.8000 S1000
G1 F1000 X10.8367 Y14.6132 Z-8.8000 S1000
G1 F1000 X11.6897 Y14.0905 Z-8.8000 S1000
G1 F1000 X12.0705 Y13.8138 Z-8.8000 S1000
G1 F1000 X12.8312 Y13.1641 Z-8.8000 S1000
G1 F1000 X13.1641 Y12.8312 Z-8.8000 S1000
G1 F1000 X13.8138 Y12.0705 Z-8.8000 S1000
G1 F1000 X14.0905 Y11.6897 Z-8.8000 S1000
G1 F1000 X14.6132 Y10.8367 Z-8.8000 S1000
G1 F1000 X14.8270 Y10.4171 Z-8.8000 S1000
G1 F1000 X15.2098 Y9.4928 Z-8.8000 S1000
G1 F1000 X15.3552 Y9.0454 Z-8.8000 S1000
G1 F1000 X15.5888 Y8.0726 Z-8.8000 S1000
G1 F1000 X15.6625 Y7.6072 Z-8.8000 S1000
G1 F1000 X15.7409 Y6.6099 Z-8.8000 S1000
G1 F1000 X15.7370 Y6.1130 Z-8.8000 S1000
G1 F1000 X15.7501 Y6.0001 Z-8.8000 S1000
G1 F1000 X15.7501 Y0.0000 Z-8.8000 S1000
G1 F1000 X15.6992 Y-0.5500 Z-8.8000 S1000
G1 F1000 X15.4949 Y-1.2108 Z-8.8000 S1000
G1 F1000 X15.1447 Y-1.8072 Z-8.8000 S1000
G1 F1000 X14.6671 Y-2.3076 Z-8.8000 S1000
G1 F1000 X14.0877 Y-2.6853 Z-8.8000 S1000
G1 F1000 X13.4372 Y-2.9203 Z-8.8000 S1000
G1 F1000 X12.7501 Y-3.0000 Z-8.8000 S1000
; retracting back to z-safe
G0 Z10

M5 S0; Spindle Off
