; GCODE Generated by cam.openbuilds.com on 2021-04-29 
G21 ; mm-mode
G54; Work Coordinates
G21; mm-mode
G90; Absolute Positioning
M3 S1000; Spindle On

; Operation 8: Drill: Continuous (Centered)
; Endmill Diameter: 6

G0 Z10; move to z-safe height
G0 F1000 X6.3757 Y6.3750

G0 Z0
G1 F300 Z0.0000
G1 F1000 X6.3757 Y6.3750 Z-4.0000 S1000
G1 F1000 X6.3757 Y6.3750 Z0.0000 S1000

G0 Z10; move to z-safe height
G0 X6.3757 Y85.6247

G0 Z0
G1 F300 Z0.0000
G1 F1000 X6.3757 Y85.6247 Z-4.0000 S1000
G1 F1000 X6.3757 Y85.6247 Z0.0000 S1000
; retracting back to z-safe
G0 Z10
; Operation 9: CNC: Vector (path outside)
; Endmill Diameter: 6

G0 Z10; move to z-safe height
G0 F1000 X12.7501 Y-3.0000

G0 Z0
G1 F300 Z-3.0000
G1 F1000 X0.0000 Y-3.0000 Z-3.0000 S1000
G1 F1000 X-0.5500 Y-2.9491 Z-3.0000 S1000
G1 F1000 X-1.2108 Y-2.7448 Z-3.0000 S1000
G1 F1000 X-1.8072 Y-2.3946 Z-3.0000 S1000
G1 F1000 X-2.3076 Y-1.9170 Z-3.0000 S1000
G1 F1000 X-2.6853 Y-1.3376 Z-3.0000 S1000
G1 F1000 X-2.9203 Y-0.6871 Z-3.0000 S1000
G1 F1000 X-3.0000 Y0.0000 Z-3.0000 S1000
G1 F1000 X-3.0000 Y92.0001 Z-3.0000 S1000
G1 F1000 X-2.9491 Y92.5501 Z-3.0000 S1000
G1 F1000 X-2.7448 Y93.2109 Z-3.0000 S1000
G1 F1000 X-2.3946 Y93.8073 Z-3.0000 S1000
G1 F1000 X-1.9170 Y94.3077 Z-3.0000 S1000
G1 F1000 X-1.3376 Y94.6854 Z-3.0000 S1000
G1 F1000 X-0.6871 Y94.9204 Z-3.0000 S1000
G1 F1000 X0.0000 Y95.0001 Z-3.0000 S1000
G1 F1000 X12.7501 Y95.0001 Z-3.0000 S1000
G1 F1000 X13.3001 Y94.9492 Z-3.0000 S1000
G1 F1000 X13.9609 Y94.7449 Z-3.0000 S1000
G1 F1000 X14.5573 Y94.3947 Z-3.0000 S1000
G1 F1000 X15.0577 Y93.9171 Z-3.0000 S1000
G1 F1000 X15.4354 Y93.3377 Z-3.0000 S1000
G1 F1000 X15.6704 Y92.6872 Z-3.0000 S1000
G1 F1000 X15.7501 Y92.0001 Z-3.0000 S1000
G1 F1000 X15.7501 Y85.9999 Z-3.0000 S1000
G1 F1000 X15.7404 Y85.8950 Z-3.0000 S1000
G1 F1000 X15.7464 Y85.7741 Z-3.0000 S1000
G1 F1000 X15.7441 Y85.3003 Z-3.0000 S1000
G1 F1000 X15.7227 Y84.9132 Z-3.0000 S1000
G1 F1000 X15.6852 Y84.5270 Z-3.0000 S1000
G1 F1000 X15.6319 Y84.1434 Z-3.0000 S1000
G1 F1000 X15.5628 Y83.7625 Z-3.0000 S1000
G1 F1000 X15.4779 Y83.3839 Z-3.0000 S1000
G1 F1000 X15.3778 Y83.0104 Z-3.0000 S1000
G1 F1000 X15.2617 Y82.6397 Z-3.0000 S1000
G1 F1000 X15.1309 Y82.2754 Z-3.0000 S1000
G1 F1000 X14.9845 Y81.9155 Z-3.0000 S1000
G1 F1000 X14.8243 Y81.5638 Z-3.0000 S1000
G1 F1000 X14.6492 Y81.2179 Z-3.0000 S1000
G1 F1000 X14.4598 Y80.8795 Z-3.0000 S1000
G1 F1000 X14.2574 Y80.5503 Z-3.0000 S1000
G1 F1000 X14.0403 Y80.2280 Z-3.0000 S1000
G1 F1000 X13.8108 Y79.9160 Z-3.0000 S1000
G1 F1000 X13.5689 Y79.6140 Z-3.0000 S1000
G1 F1000 X13.3141 Y79.3216 Z-3.0000 S1000
G1 F1000 X13.0476 Y79.0400 Z-3.0000 S1000
G1 F1000 X12.7698 Y78.7700 Z-3.0000 S1000
G1 F1000 X12.4810 Y78.5116 Z-3.0000 S1000
G1 F1000 X12.1822 Y78.2655 Z-3.0000 S1000
G1 F1000 X11.8723 Y78.0313 Z-3.0000 S1000
G1 F1000 X11.5536 Y77.8106 Z-3.0000 S1000
G1 F1000 X11.2276 Y77.6040 Z-3.0000 S1000
G1 F1000 X10.8915 Y77.4100 Z-3.0000 S1000
G1 F1000 X10.5479 Y77.2302 Z-3.0000 S1000
G1 F1000 X10.1972 Y77.0649 Z-3.0000 S1000
G1 F1000 X9.8398 Y76.9141 Z-3.0000 S1000
G1 F1000 X9.4775 Y76.7786 Z-3.0000 S1000
G1 F1000 X9.3748 Y76.7450 Z-3.0000 S1000
G1 F1000 X9.3748 Y15.2565 Z-3.0000 S1000
G1 F1000 X9.7249 Y15.1308 Z-3.0000 S1000
G1 F1000 X10.0842 Y14.9847 Z-3.0000 S1000
G1 F1000 X10.4363 Y14.8243 Z-3.0000 S1000
G1 F1000 X10.7822 Y14.6492 Z-3.0000 S1000
G1 F1000 X11.1206 Y14.4598 Z-3.0000 S1000
G1 F1000 X11.4503 Y14.2571 Z-3.0000 S1000
G1 F1000 X11.7712 Y14.0409 Z-3.0000 S1000
G1 F1000 X12.0843 Y13.8107 Z-3.0000 S1000
G1 F1000 X12.3861 Y13.5689 Z-3.0000 S1000
G1 F1000 X12.6785 Y13.3141 Z-3.0000 S1000
G1 F1000 X12.9605 Y13.0470 Z-3.0000 S1000
G1 F1000 X13.2295 Y12.7704 Z-3.0000 S1000
G1 F1000 X13.4885 Y12.4810 Z-3.0000 S1000
G1 F1000 X13.7350 Y12.1815 Z-3.0000 S1000
G1 F1000 X13.9687 Y11.8723 Z-3.0000 S1000
G1 F1000 X14.1890 Y11.5544 Z-3.0000 S1000
G1 F1000 X14.3966 Y11.2268 Z-3.0000 S1000
G1 F1000 X14.5900 Y10.8915 Z-3.0000 S1000
G1 F1000 X14.7698 Y10.5479 Z-3.0000 S1000
G1 F1000 X14.9351 Y10.1972 Z-3.0000 S1000
G1 F1000 X15.0856 Y9.8407 Z-3.0000 S1000
G1 F1000 X15.2215 Y9.4775 Z-3.0000 S1000
G1 F1000 X15.3422 Y9.1091 Z-3.0000 S1000
G1 F1000 X15.4476 Y8.7359 Z-3.0000 S1000
G1 F1000 X15.5373 Y8.3592 Z-3.0000 S1000
G1 F1000 X15.6115 Y7.9788 Z-3.0000 S1000
G1 F1000 X15.6699 Y7.5959 Z-3.0000 S1000
G1 F1000 X15.7124 Y7.2110 Z-3.0000 S1000
G1 F1000 X15.7390 Y6.8239 Z-3.0000 S1000
G1 F1000 X15.7495 Y6.4363 Z-3.0000 S1000
G1 F1000 X15.7400 Y6.0868 Z-3.0000 S1000
G1 F1000 X15.7501 Y6.0001 Z-3.0000 S1000
G1 F1000 X15.7501 Y0.0000 Z-3.0000 S1000
G1 F1000 X15.6992 Y-0.5500 Z-3.0000 S1000
G1 F1000 X15.4949 Y-1.2108 Z-3.0000 S1000
G1 F1000 X15.1447 Y-1.8072 Z-3.0000 S1000
G1 F1000 X14.6671 Y-2.3076 Z-3.0000 S1000
G1 F1000 X14.0877 Y-2.6853 Z-3.0000 S1000
G1 F1000 X13.4372 Y-2.9203 Z-3.0000 S1000
G1 F1000 X12.7501 Y-3.0000 Z-3.0000 S1000
G1 F300 Z-6.0000
G1 F1000 X0.0000 Y-3.0000 Z-6.0000 S1000
G1 F1000 X-0.5500 Y-2.9491 Z-6.0000 S1000
G1 F1000 X-1.2108 Y-2.7448 Z-6.0000 S1000
G1 F1000 X-1.8072 Y-2.3946 Z-6.0000 S1000
G1 F1000 X-2.3076 Y-1.9170 Z-6.0000 S1000
G1 F1000 X-2.6853 Y-1.3376 Z-6.0000 S1000
G1 F1000 X-2.9203 Y-0.6871 Z-6.0000 S1000
G1 F1000 X-3.0000 Y0.0000 Z-6.0000 S1000
G1 F1000 X-3.0000 Y92.0001 Z-6.0000 S1000
G1 F1000 X-2.9491 Y92.5501 Z-6.0000 S1000
G1 F1000 X-2.7448 Y93.2109 Z-6.0000 S1000
G1 F1000 X-2.3946 Y93.8073 Z-6.0000 S1000
G1 F1000 X-1.9170 Y94.3077 Z-6.0000 S1000
G1 F1000 X-1.3376 Y94.6854 Z-6.0000 S1000
G1 F1000 X-0.6871 Y94.9204 Z-6.0000 S1000
G1 F1000 X0.0000 Y95.0001 Z-6.0000 S1000
G1 F1000 X12.7501 Y95.0001 Z-6.0000 S1000
G1 F1000 X13.3001 Y94.9492 Z-6.0000 S1000
G1 F1000 X13.9609 Y94.7449 Z-6.0000 S1000
G1 F1000 X14.5573 Y94.3947 Z-6.0000 S1000
G1 F1000 X15.0577 Y93.9171 Z-6.0000 S1000
G1 F1000 X15.4354 Y93.3377 Z-6.0000 S1000
G1 F1000 X15.6704 Y92.6872 Z-6.0000 S1000
G1 F1000 X15.7501 Y92.0001 Z-6.0000 S1000
G1 F1000 X15.7501 Y85.9999 Z-6.0000 S1000
G1 F1000 X15.7404 Y85.8950 Z-6.0000 S1000
G1 F1000 X15.7464 Y85.7741 Z-6.0000 S1000
G1 F1000 X15.7441 Y85.3003 Z-6.0000 S1000
G1 F1000 X15.7227 Y84.9132 Z-6.0000 S1000
G1 F1000 X15.6852 Y84.5270 Z-6.0000 S1000
G1 F1000 X15.6319 Y84.1434 Z-6.0000 S1000
G1 F1000 X15.5628 Y83.7625 Z-6.0000 S1000
G1 F1000 X15.4779 Y83.3839 Z-6.0000 S1000
G1 F1000 X15.3778 Y83.0104 Z-6.0000 S1000
G1 F1000 X15.2617 Y82.6397 Z-6.0000 S1000
G1 F1000 X15.1309 Y82.2754 Z-6.0000 S1000
G1 F1000 X14.9845 Y81.9155 Z-6.0000 S1000
G1 F1000 X14.8243 Y81.5638 Z-6.0000 S1000
G1 F1000 X14.6492 Y81.2179 Z-6.0000 S1000
G1 F1000 X14.4598 Y80.8795 Z-6.0000 S1000
G1 F1000 X14.2574 Y80.5503 Z-6.0000 S1000
G1 F1000 X14.0403 Y80.2280 Z-6.0000 S1000
G1 F1000 X13.8108 Y79.9160 Z-6.0000 S1000
G1 F1000 X13.5689 Y79.6140 Z-6.0000 S1000
G1 F1000 X13.3141 Y79.3216 Z-6.0000 S1000
G1 F1000 X13.0476 Y79.0400 Z-6.0000 S1000
G1 F1000 X12.7698 Y78.7700 Z-6.0000 S1000
G1 F1000 X12.4810 Y78.5116 Z-6.0000 S1000
G1 F1000 X12.1822 Y78.2655 Z-6.0000 S1000
G1 F1000 X11.8723 Y78.0313 Z-6.0000 S1000
G1 F1000 X11.5536 Y77.8106 Z-6.0000 S1000
G1 F1000 X11.2276 Y77.6040 Z-6.0000 S1000
G1 F1000 X10.8915 Y77.4100 Z-6.0000 S1000
G1 F1000 X10.5479 Y77.2302 Z-6.0000 S1000
G1 F1000 X10.1972 Y77.0649 Z-6.0000 S1000
G1 F1000 X9.8398 Y76.9141 Z-6.0000 S1000
G1 F1000 X9.4775 Y76.7786 Z-6.0000 S1000
G1 F1000 X9.3748 Y76.7450 Z-6.0000 S1000
G1 F1000 X9.3748 Y66.8729 Z-6.0000 S1000
G1 F1000 X9.3748 Y66.8729 Z-5.6000 S1000
G1 F1000 X9.3748 Y55.8729 Z-5.6000 S1000
G1 F1000 X9.3748 Y55.8729 Z-6.0000 S1000
G1 F1000 X9.3748 Y46.0008 Z-6.0000 S1000
G1 F1000 X9.3748 Y36.1286 Z-6.0000 S1000
G1 F1000 X9.3748 Y36.1286 Z-5.6000 S1000
G1 F1000 X9.3748 Y25.1286 Z-5.6000 S1000
G1 F1000 X9.3748 Y25.1286 Z-6.0000 S1000
G1 F1000 X9.3748 Y15.2565 Z-6.0000 S1000
G1 F1000 X9.3748 Y15.2565 Z-6.0000 S1000
G1 F1000 X9.7249 Y15.1308 Z-6.0000 S1000
G1 F1000 X10.0842 Y14.9847 Z-6.0000 S1000
G1 F1000 X10.4363 Y14.8243 Z-6.0000 S1000
G1 F1000 X10.7822 Y14.6492 Z-6.0000 S1000
G1 F1000 X11.1206 Y14.4598 Z-6.0000 S1000
G1 F1000 X11.4503 Y14.2571 Z-6.0000 S1000
G1 F1000 X11.7712 Y14.0409 Z-6.0000 S1000
G1 F1000 X12.0843 Y13.8107 Z-6.0000 S1000
G1 F1000 X12.3861 Y13.5689 Z-6.0000 S1000
G1 F1000 X12.6785 Y13.3141 Z-6.0000 S1000
G1 F1000 X12.9605 Y13.0470 Z-6.0000 S1000
G1 F1000 X13.2295 Y12.7704 Z-6.0000 S1000
G1 F1000 X13.4885 Y12.4810 Z-6.0000 S1000
G1 F1000 X13.7350 Y12.1815 Z-6.0000 S1000
G1 F1000 X13.9687 Y11.8723 Z-6.0000 S1000
G1 F1000 X14.1890 Y11.5544 Z-6.0000 S1000
G1 F1000 X14.3966 Y11.2268 Z-6.0000 S1000
G1 F1000 X14.5900 Y10.8915 Z-6.0000 S1000
G1 F1000 X14.7698 Y10.5479 Z-6.0000 S1000
G1 F1000 X14.9351 Y10.1972 Z-6.0000 S1000
G1 F1000 X15.0856 Y9.8407 Z-6.0000 S1000
G1 F1000 X15.2215 Y9.4775 Z-6.0000 S1000
G1 F1000 X15.3422 Y9.1091 Z-6.0000 S1000
G1 F1000 X15.4476 Y8.7359 Z-6.0000 S1000
G1 F1000 X15.5373 Y8.3592 Z-6.0000 S1000
G1 F1000 X15.6115 Y7.9788 Z-6.0000 S1000
G1 F1000 X15.6699 Y7.5959 Z-6.0000 S1000
G1 F1000 X15.7124 Y7.2110 Z-6.0000 S1000
G1 F1000 X15.7390 Y6.8239 Z-6.0000 S1000
G1 F1000 X15.7495 Y6.4363 Z-6.0000 S1000
G1 F1000 X15.7400 Y6.0868 Z-6.0000 S1000
G1 F1000 X15.7501 Y6.0001 Z-6.0000 S1000
G1 F1000 X15.7501 Y0.0000 Z-6.0000 S1000
G1 F1000 X15.6992 Y-0.5500 Z-6.0000 S1000
G1 F1000 X15.4949 Y-1.2108 Z-6.0000 S1000
G1 F1000 X15.1447 Y-1.8072 Z-6.0000 S1000
G1 F1000 X14.6671 Y-2.3076 Z-6.0000 S1000
G1 F1000 X14.0877 Y-2.6853 Z-6.0000 S1000
G1 F1000 X13.4372 Y-2.9203 Z-6.0000 S1000
G1 F1000 X12.7501 Y-3.0000 Z-6.0000 S1000
G1 F300 Z-8.6000
G1 F1000 X0.0000 Y-3.0000 Z-8.6000 S1000
G1 F1000 X-0.5500 Y-2.9491 Z-8.6000 S1000
G1 F1000 X-1.2108 Y-2.7448 Z-8.6000 S1000
G1 F1000 X-1.8072 Y-2.3946 Z-8.6000 S1000
G1 F1000 X-2.3076 Y-1.9170 Z-8.6000 S1000
G1 F1000 X-2.6853 Y-1.3376 Z-8.6000 S1000
G1 F1000 X-2.9203 Y-0.6871 Z-8.6000 S1000
G1 F1000 X-3.0000 Y0.0000 Z-8.6000 S1000
G1 F1000 X-3.0000 Y92.0001 Z-8.6000 S1000
G1 F1000 X-2.9491 Y92.5501 Z-8.6000 S1000
G1 F1000 X-2.7448 Y93.2109 Z-8.6000 S1000
G1 F1000 X-2.3946 Y93.8073 Z-8.6000 S1000
G1 F1000 X-1.9170 Y94.3077 Z-8.6000 S1000
G1 F1000 X-1.3376 Y94.6854 Z-8.6000 S1000
G1 F1000 X-0.6871 Y94.9204 Z-8.6000 S1000
G1 F1000 X0.0000 Y95.0001 Z-8.6000 S1000
G1 F1000 X12.7501 Y95.0001 Z-8.6000 S1000
G1 F1000 X13.3001 Y94.9492 Z-8.6000 S1000
G1 F1000 X13.9609 Y94.7449 Z-8.6000 S1000
G1 F1000 X14.5573 Y94.3947 Z-8.6000 S1000
G1 F1000 X15.0577 Y93.9171 Z-8.6000 S1000
G1 F1000 X15.4354 Y93.3377 Z-8.6000 S1000
G1 F1000 X15.6704 Y92.6872 Z-8.6000 S1000
G1 F1000 X15.7501 Y92.0001 Z-8.6000 S1000
G1 F1000 X15.7501 Y85.9999 Z-8.6000 S1000
G1 F1000 X15.7404 Y85.8950 Z-8.6000 S1000
G1 F1000 X15.7464 Y85.7741 Z-8.6000 S1000
G1 F1000 X15.7441 Y85.3003 Z-8.6000 S1000
G1 F1000 X15.7227 Y84.9132 Z-8.6000 S1000
G1 F1000 X15.6852 Y84.5270 Z-8.6000 S1000
G1 F1000 X15.6319 Y84.1434 Z-8.6000 S1000
G1 F1000 X15.5628 Y83.7625 Z-8.6000 S1000
G1 F1000 X15.4779 Y83.3839 Z-8.6000 S1000
G1 F1000 X15.3778 Y83.0104 Z-8.6000 S1000
G1 F1000 X15.2617 Y82.6397 Z-8.6000 S1000
G1 F1000 X15.1309 Y82.2754 Z-8.6000 S1000
G1 F1000 X14.9845 Y81.9155 Z-8.6000 S1000
G1 F1000 X14.8243 Y81.5638 Z-8.6000 S1000
G1 F1000 X14.6492 Y81.2179 Z-8.6000 S1000
G1 F1000 X14.4598 Y80.8795 Z-8.6000 S1000
G1 F1000 X14.2574 Y80.5503 Z-8.6000 S1000
G1 F1000 X14.0403 Y80.2280 Z-8.6000 S1000
G1 F1000 X13.8108 Y79.9160 Z-8.6000 S1000
G1 F1000 X13.5689 Y79.6140 Z-8.6000 S1000
G1 F1000 X13.3141 Y79.3216 Z-8.6000 S1000
G1 F1000 X13.0476 Y79.0400 Z-8.6000 S1000
G1 F1000 X12.7698 Y78.7700 Z-8.6000 S1000
G1 F1000 X12.4810 Y78.5116 Z-8.6000 S1000
G1 F1000 X12.1822 Y78.2655 Z-8.6000 S1000
G1 F1000 X11.8723 Y78.0313 Z-8.6000 S1000
G1 F1000 X11.5536 Y77.8106 Z-8.6000 S1000
G1 F1000 X11.2276 Y77.6040 Z-8.6000 S1000
G1 F1000 X10.8915 Y77.4100 Z-8.6000 S1000
G1 F1000 X10.5479 Y77.2302 Z-8.6000 S1000
G1 F1000 X10.1972 Y77.0649 Z-8.6000 S1000
G1 F1000 X9.8398 Y76.9141 Z-8.6000 S1000
G1 F1000 X9.4775 Y76.7786 Z-8.6000 S1000
G1 F1000 X9.3748 Y76.7450 Z-8.6000 S1000
G1 F1000 X9.3748 Y66.8729 Z-8.6000 S1000
G1 F1000 X9.3748 Y66.8729 Z-5.6000 S1000
G1 F1000 X9.3748 Y55.8729 Z-5.6000 S1000
G1 F1000 X9.3748 Y55.8729 Z-8.6000 S1000
G1 F1000 X9.3748 Y46.0008 Z-8.6000 S1000
G1 F1000 X9.3748 Y36.1286 Z-8.6000 S1000
G1 F1000 X9.3748 Y36.1286 Z-5.6000 S1000
G1 F1000 X9.3748 Y25.1286 Z-5.6000 S1000
G1 F1000 X9.3748 Y25.1286 Z-8.6000 S1000
G1 F1000 X9.3748 Y15.2565 Z-8.6000 S1000
G1 F1000 X9.3748 Y15.2565 Z-8.6000 S1000
G1 F1000 X9.7249 Y15.1308 Z-8.6000 S1000
G1 F1000 X10.0842 Y14.9847 Z-8.6000 S1000
G1 F1000 X10.4363 Y14.8243 Z-8.6000 S1000
G1 F1000 X10.7822 Y14.6492 Z-8.6000 S1000
G1 F1000 X11.1206 Y14.4598 Z-8.6000 S1000
G1 F1000 X11.4503 Y14.2571 Z-8.6000 S1000
G1 F1000 X11.7712 Y14.0409 Z-8.6000 S1000
G1 F1000 X12.0843 Y13.8107 Z-8.6000 S1000
G1 F1000 X12.3861 Y13.5689 Z-8.6000 S1000
G1 F1000 X12.6785 Y13.3141 Z-8.6000 S1000
G1 F1000 X12.9605 Y13.0470 Z-8.6000 S1000
G1 F1000 X13.2295 Y12.7704 Z-8.6000 S1000
G1 F1000 X13.4885 Y12.4810 Z-8.6000 S1000
G1 F1000 X13.7350 Y12.1815 Z-8.6000 S1000
G1 F1000 X13.9687 Y11.8723 Z-8.6000 S1000
G1 F1000 X14.1890 Y11.5544 Z-8.6000 S1000
G1 F1000 X14.3966 Y11.2268 Z-8.6000 S1000
G1 F1000 X14.5900 Y10.8915 Z-8.6000 S1000
G1 F1000 X14.7698 Y10.5479 Z-8.6000 S1000
G1 F1000 X14.9351 Y10.1972 Z-8.6000 S1000
G1 F1000 X15.0856 Y9.8407 Z-8.6000 S1000
G1 F1000 X15.2215 Y9.4775 Z-8.6000 S1000
G1 F1000 X15.3422 Y9.1091 Z-8.6000 S1000
G1 F1000 X15.4476 Y8.7359 Z-8.6000 S1000
G1 F1000 X15.5373 Y8.3592 Z-8.6000 S1000
G1 F1000 X15.6115 Y7.9788 Z-8.6000 S1000
G1 F1000 X15.6699 Y7.5959 Z-8.6000 S1000
G1 F1000 X15.7124 Y7.2110 Z-8.6000 S1000
G1 F1000 X15.7390 Y6.8239 Z-8.6000 S1000
G1 F1000 X15.7495 Y6.4363 Z-8.6000 S1000
G1 F1000 X15.7400 Y6.0868 Z-8.6000 S1000
G1 F1000 X15.7501 Y6.0001 Z-8.6000 S1000
G1 F1000 X15.7501 Y0.0000 Z-8.6000 S1000
G1 F1000 X15.6992 Y-0.5500 Z-8.6000 S1000
G1 F1000 X15.4949 Y-1.2108 Z-8.6000 S1000
G1 F1000 X15.1447 Y-1.8072 Z-8.6000 S1000
G1 F1000 X14.6671 Y-2.3076 Z-8.6000 S1000
G1 F1000 X14.0877 Y-2.6853 Z-8.6000 S1000
G1 F1000 X13.4372 Y-2.9203 Z-8.6000 S1000
G1 F1000 X12.7501 Y-3.0000 Z-8.6000 S1000
; retracting back to z-safe
G0 Z10

M5 S0; Spindle Off
