; GCODE Generated by cam.openbuilds.com on 2021-04-29 
G21 ; mm-mode
G54; Work Coordinates
G21; mm-mode
G90; Absolute Positioning
M3 S1000; Spindle On

; Operation 0: Drill: Peck (Centered)
; Endmill Diameter: 3.17

G0 Z10; move to z-safe height
G0 F1000 X21.7956 Y42.7884

G0 Z0
G1 F100 Z0.0000
G1 F1000 X21.7956 Y42.7884 Z0.0000 S1000
G1 F1000 X21.7956 Y42.7884 Z0.0000 S1000
G1 F100 Z0.0000
G1 F1000 X21.7956 Y42.7884 Z-1.5000 S1000
G1 F1000 X21.7956 Y42.7884 Z0.0000 S1000
G1 F100 Z-1.5000
G1 F1000 X21.7956 Y42.7884 Z-3.0000 S1000
G1 F1000 X21.7956 Y42.7884 Z0.0000 S1000
G1 F100 Z-3.0000
G1 F1000 X21.7956 Y42.7884 Z-4.0000 S1000
G1 F1000 X21.7956 Y42.7884 Z0.0000 S1000

G0 Z10; move to z-safe height
G0 X167.5810 Y42.9206

G0 Z0
G1 F100 Z0.0000
G1 F1000 X167.5810 Y42.9206 Z0.0000 S1000
G1 F1000 X167.5810 Y42.9206 Z0.0000 S1000
G1 F100 Z0.0000
G1 F1000 X167.5810 Y42.9206 Z-1.5000 S1000
G1 F1000 X167.5810 Y42.9206 Z0.0000 S1000
G1 F100 Z-1.5000
G1 F1000 X167.5810 Y42.9206 Z-3.0000 S1000
G1 F1000 X167.5810 Y42.9206 Z0.0000 S1000
G1 F100 Z-3.0000
G1 F1000 X167.5810 Y42.9206 Z-4.0000 S1000
G1 F1000 X167.5810 Y42.9206 Z0.0000 S1000
; retracting back to z-safe
G0 Z10
; Operation 1: CNC: Vector (path outside)
; Endmill Diameter: 3.17

G0 Z10; move to z-safe height
G0 F1000 X180.5120 Y26.7254

G0 Z0
G1 F100 Z-1.5000
G1 F1000 X9.0124 Y26.7254 Z-1.5000 S1000
G1 F1000 X8.5462 Y26.7955 Z-1.5000 S1000
G1 F1000 X8.0958 Y27.0173 Z-1.5000 S1000
G1 F1000 X7.7374 Y27.3688 Z-1.5000 S1000
G1 F1000 X7.5069 Y27.8147 Z-1.5000 S1000
G1 F1000 X7.4274 Y28.3104 Z-1.5000 S1000
G1 F1000 X7.4274 Y42.5044 Z-1.5000 S1000
G1 F1000 X7.4975 Y42.9706 Z-1.5000 S1000
G1 F1000 X7.7193 Y43.4210 Z-1.5000 S1000
G1 F1000 X8.0708 Y43.7794 Z-1.5000 S1000
G1 F1000 X8.5167 Y44.0099 Z-1.5000 S1000
G1 F1000 X9.0124 Y44.0894 Z-1.5000 S1000
G1 F1000 X20.3274 Y44.0894 Z-1.5000 S1000
G1 F1000 X20.3274 Y50.6041 Z-1.5000 S1000
G1 F1000 X20.3975 Y51.0703 Z-1.5000 S1000
G1 F1000 X20.6193 Y51.5207 Z-1.5000 S1000
G1 F1000 X20.9708 Y51.8791 Z-1.5000 S1000
G1 F1000 X21.4167 Y52.1096 Z-1.5000 S1000
G1 F1000 X21.9124 Y52.1891 Z-1.5000 S1000
G1 F1000 X167.6120 Y52.1891 Z-1.5000 S1000
G1 F1000 X168.0782 Y52.1190 Z-1.5000 S1000
G1 F1000 X168.5286 Y51.8972 Z-1.5000 S1000
G1 F1000 X168.8870 Y51.5457 Z-1.5000 S1000
G1 F1000 X169.1175 Y51.0998 Z-1.5000 S1000
G1 F1000 X169.1970 Y50.6041 Z-1.5000 S1000
G1 F1000 X169.1970 Y44.0894 Z-1.5000 S1000
G1 F1000 X180.5120 Y44.0894 Z-1.5000 S1000
G1 F1000 X180.9782 Y44.0193 Z-1.5000 S1000
G1 F1000 X181.4286 Y43.7975 Z-1.5000 S1000
G1 F1000 X181.7870 Y43.4460 Z-1.5000 S1000
G1 F1000 X182.0175 Y43.0001 Z-1.5000 S1000
G1 F1000 X182.0970 Y42.5044 Z-1.5000 S1000
G1 F1000 X182.0970 Y28.3104 Z-1.5000 S1000
G1 F1000 X182.0269 Y27.8442 Z-1.5000 S1000
G1 F1000 X181.8051 Y27.3938 Z-1.5000 S1000
G1 F1000 X181.4536 Y27.0354 Z-1.5000 S1000
G1 F1000 X181.0077 Y26.8049 Z-1.5000 S1000
G1 F1000 X180.5120 Y26.7254 Z-1.5000 S1000
G1 F100 Z-3.0000
G1 F1000 X9.0124 Y26.7254 Z-3.0000 S1000
G1 F1000 X8.5462 Y26.7955 Z-3.0000 S1000
G1 F1000 X8.0958 Y27.0173 Z-3.0000 S1000
G1 F1000 X7.7374 Y27.3688 Z-3.0000 S1000
G1 F1000 X7.5069 Y27.8147 Z-3.0000 S1000
G1 F1000 X7.4274 Y28.3104 Z-3.0000 S1000
G1 F1000 X7.4274 Y42.5044 Z-3.0000 S1000
G1 F1000 X7.4975 Y42.9706 Z-3.0000 S1000
G1 F1000 X7.7193 Y43.4210 Z-3.0000 S1000
G1 F1000 X8.0708 Y43.7794 Z-3.0000 S1000
G1 F1000 X8.5167 Y44.0099 Z-3.0000 S1000
G1 F1000 X9.0124 Y44.0894 Z-3.0000 S1000
G1 F1000 X20.3274 Y44.0894 Z-3.0000 S1000
G1 F1000 X20.3274 Y50.6041 Z-3.0000 S1000
G1 F1000 X20.3975 Y51.0703 Z-3.0000 S1000
G1 F1000 X20.6193 Y51.5207 Z-3.0000 S1000
G1 F1000 X20.9708 Y51.8791 Z-3.0000 S1000
G1 F1000 X21.4167 Y52.1096 Z-3.0000 S1000
G1 F1000 X21.9124 Y52.1891 Z-3.0000 S1000
G1 F1000 X167.6120 Y52.1891 Z-3.0000 S1000
G1 F1000 X168.0782 Y52.1190 Z-3.0000 S1000
G1 F1000 X168.5286 Y51.8972 Z-3.0000 S1000
G1 F1000 X168.8870 Y51.5457 Z-3.0000 S1000
G1 F1000 X169.1175 Y51.0998 Z-3.0000 S1000
G1 F1000 X169.1970 Y50.6041 Z-3.0000 S1000
G1 F1000 X169.1970 Y44.0894 Z-3.0000 S1000
G1 F1000 X180.5120 Y44.0894 Z-3.0000 S1000
G1 F1000 X180.9782 Y44.0193 Z-3.0000 S1000
G1 F1000 X181.4286 Y43.7975 Z-3.0000 S1000
G1 F1000 X181.7870 Y43.4460 Z-3.0000 S1000
G1 F1000 X182.0175 Y43.0001 Z-3.0000 S1000
G1 F1000 X182.0970 Y42.5044 Z-3.0000 S1000
G1 F1000 X182.0970 Y28.3104 Z-3.0000 S1000
G1 F1000 X182.0269 Y27.8442 Z-3.0000 S1000
G1 F1000 X181.8051 Y27.3938 Z-3.0000 S1000
G1 F1000 X181.4536 Y27.0354 Z-3.0000 S1000
G1 F1000 X181.0077 Y26.8049 Z-3.0000 S1000
G1 F1000 X180.5120 Y26.7254 Z-3.0000 S1000
G1 F100 Z-4.0000
G1 F1000 X9.0124 Y26.7254 Z-4.0000 S1000
G1 F1000 X8.5462 Y26.7955 Z-4.0000 S1000
G1 F1000 X8.0958 Y27.0173 Z-4.0000 S1000
G1 F1000 X7.7374 Y27.3688 Z-4.0000 S1000
G1 F1000 X7.5069 Y27.8147 Z-4.0000 S1000
G1 F1000 X7.4274 Y28.3104 Z-4.0000 S1000
G1 F1000 X7.4274 Y42.5044 Z-4.0000 S1000
G1 F1000 X7.4975 Y42.9706 Z-4.0000 S1000
G1 F1000 X7.7193 Y43.4210 Z-4.0000 S1000
G1 F1000 X8.0708 Y43.7794 Z-4.0000 S1000
G1 F1000 X8.5167 Y44.0099 Z-4.0000 S1000
G1 F1000 X9.0124 Y44.0894 Z-4.0000 S1000
G1 F1000 X20.3274 Y44.0894 Z-4.0000 S1000
G1 F1000 X20.3274 Y50.6041 Z-4.0000 S1000
G1 F1000 X20.3975 Y51.0703 Z-4.0000 S1000
G1 F1000 X20.6193 Y51.5207 Z-4.0000 S1000
G1 F1000 X20.9708 Y51.8791 Z-4.0000 S1000
G1 F1000 X21.4167 Y52.1096 Z-4.0000 S1000
G1 F1000 X21.9124 Y52.1891 Z-4.0000 S1000
G1 F1000 X167.6120 Y52.1891 Z-4.0000 S1000
G1 F1000 X168.0782 Y52.1190 Z-4.0000 S1000
G1 F1000 X168.5286 Y51.8972 Z-4.0000 S1000
G1 F1000 X168.8870 Y51.5457 Z-4.0000 S1000
G1 F1000 X169.1175 Y51.0998 Z-4.0000 S1000
G1 F1000 X169.1970 Y50.6041 Z-4.0000 S1000
G1 F1000 X169.1970 Y44.0894 Z-4.0000 S1000
G1 F1000 X180.5120 Y44.0894 Z-4.0000 S1000
G1 F1000 X180.9782 Y44.0193 Z-4.0000 S1000
G1 F1000 X181.4286 Y43.7975 Z-4.0000 S1000
G1 F1000 X181.7870 Y43.4460 Z-4.0000 S1000
G1 F1000 X182.0175 Y43.0001 Z-4.0000 S1000
G1 F1000 X182.0970 Y42.5044 Z-4.0000 S1000
G1 F1000 X182.0970 Y28.3104 Z-4.0000 S1000
G1 F1000 X182.0269 Y27.8442 Z-4.0000 S1000
G1 F1000 X181.8051 Y27.3938 Z-4.0000 S1000
G1 F1000 X181.4536 Y27.0354 Z-4.0000 S1000
G1 F1000 X181.0077 Y26.8049 Z-4.0000 S1000
G1 F1000 X180.5120 Y26.7254 Z-4.0000 S1000
; retracting back to z-safe
G0 Z10
; Operation 2: CNC: Vector (path inside)
; Endmill Diameter: 3.17

G0 Z10; move to z-safe height
G0 F1000 X127.3433 Y33.2792

G0 Z0
G1 F100 Z-1.5000
G1 F1000 X116.0933 Y33.2792 Z-1.5000 S1000
G1 F1000 X116.0933 Y29.1292 Z-1.5000 S1000
G1 F1000 X127.3433 Y29.1292 Z-1.5000 S1000
G1 F1000 X127.3433 Y33.2792 Z-1.5000 S1000
G1 F100 Z-3.0000
G1 F1000 X116.0933 Y33.2792 Z-3.0000 S1000
G1 F1000 X116.0933 Y29.1292 Z-3.0000 S1000
G1 F1000 X127.3433 Y29.1292 Z-3.0000 S1000
G1 F1000 X127.3433 Y33.2792 Z-3.0000 S1000
G1 F100 Z-4.5000
G1 F1000 X116.0933 Y33.2792 Z-4.5000 S1000
G1 F1000 X116.0933 Y29.1292 Z-4.5000 S1000
G1 F1000 X127.3433 Y29.1292 Z-4.5000 S1000
G1 F1000 X127.3433 Y33.2792 Z-4.5000 S1000
G1 F100 Z-6.0000
G1 F1000 X116.0933 Y33.2792 Z-6.0000 S1000
G1 F1000 X116.0933 Y29.1292 Z-6.0000 S1000
G1 F1000 X127.3433 Y29.1292 Z-6.0000 S1000
G1 F1000 X127.3433 Y33.2792 Z-6.0000 S1000
G1 F100 Z-7.5000
G1 F1000 X116.0933 Y33.2792 Z-7.5000 S1000
G1 F1000 X116.0933 Y29.1292 Z-7.5000 S1000
G1 F1000 X127.3433 Y29.1292 Z-7.5000 S1000
G1 F1000 X127.3433 Y33.2792 Z-7.5000 S1000
G1 F100 Z-8.8000
G1 F1000 X116.0933 Y33.2792 Z-8.8000 S1000
G1 F1000 X116.0933 Y29.1292 Z-8.8000 S1000
G1 F1000 X127.3433 Y29.1292 Z-8.8000 S1000
G1 F1000 X127.3433 Y33.2792 Z-8.8000 S1000

G0 Z10; move to z-safe height
G0 X145.3147 Y33.2792

G0 Z0
G1 F100 Z-1.5000
G1 F1000 X134.0647 Y33.2792 Z-1.5000 S1000
G1 F1000 X134.0647 Y29.1292 Z-1.5000 S1000
G1 F1000 X145.3147 Y29.1292 Z-1.5000 S1000
G1 F1000 X145.3147 Y33.2792 Z-1.5000 S1000
G1 F100 Z-3.0000
G1 F1000 X134.0647 Y33.2792 Z-3.0000 S1000
G1 F1000 X134.0647 Y29.1292 Z-3.0000 S1000
G1 F1000 X145.3147 Y29.1292 Z-3.0000 S1000
G1 F1000 X145.3147 Y33.2792 Z-3.0000 S1000
G1 F100 Z-4.5000
G1 F1000 X134.0647 Y33.2792 Z-4.5000 S1000
G1 F1000 X134.0647 Y29.1292 Z-4.5000 S1000
G1 F1000 X145.3147 Y29.1292 Z-4.5000 S1000
G1 F1000 X145.3147 Y33.2792 Z-4.5000 S1000
G1 F100 Z-6.0000
G1 F1000 X134.0647 Y33.2792 Z-6.0000 S1000
G1 F1000 X134.0647 Y29.1292 Z-6.0000 S1000
G1 F1000 X145.3147 Y29.1292 Z-6.0000 S1000
G1 F1000 X145.3147 Y33.2792 Z-6.0000 S1000
G1 F100 Z-7.5000
G1 F1000 X134.0647 Y33.2792 Z-7.5000 S1000
G1 F1000 X134.0647 Y29.1292 Z-7.5000 S1000
G1 F1000 X145.3147 Y29.1292 Z-7.5000 S1000
G1 F1000 X145.3147 Y33.2792 Z-7.5000 S1000
G1 F100 Z-8.8000
G1 F1000 X134.0647 Y33.2792 Z-8.8000 S1000
G1 F1000 X134.0647 Y29.1292 Z-8.8000 S1000
G1 F1000 X145.3147 Y29.1292 Z-8.8000 S1000
G1 F1000 X145.3147 Y33.2792 Z-8.8000 S1000

G0 Z10; move to z-safe height
G0 X163.2864 Y33.2792

G0 Z0
G1 F100 Z-1.5000
G1 F1000 X152.0364 Y33.2792 Z-1.5000 S1000
G1 F1000 X152.0364 Y29.1292 Z-1.5000 S1000
G1 F1000 X163.2864 Y29.1292 Z-1.5000 S1000
G1 F1000 X163.2864 Y33.2792 Z-1.5000 S1000
G1 F100 Z-3.0000
G1 F1000 X152.0364 Y33.2792 Z-3.0000 S1000
G1 F1000 X152.0364 Y29.1292 Z-3.0000 S1000
G1 F1000 X163.2864 Y29.1292 Z-3.0000 S1000
G1 F1000 X163.2864 Y33.2792 Z-3.0000 S1000
G1 F100 Z-4.5000
G1 F1000 X152.0364 Y33.2792 Z-4.5000 S1000
G1 F1000 X152.0364 Y29.1292 Z-4.5000 S1000
G1 F1000 X163.2864 Y29.1292 Z-4.5000 S1000
G1 F1000 X163.2864 Y33.2792 Z-4.5000 S1000
G1 F100 Z-6.0000
G1 F1000 X152.0364 Y33.2792 Z-6.0000 S1000
G1 F1000 X152.0364 Y29.1292 Z-6.0000 S1000
G1 F1000 X163.2864 Y29.1292 Z-6.0000 S1000
G1 F1000 X163.2864 Y33.2792 Z-6.0000 S1000
G1 F100 Z-7.5000
G1 F1000 X152.0364 Y33.2792 Z-7.5000 S1000
G1 F1000 X152.0364 Y29.1292 Z-7.5000 S1000
G1 F1000 X163.2864 Y29.1292 Z-7.5000 S1000
G1 F1000 X163.2864 Y33.2792 Z-7.5000 S1000
G1 F100 Z-8.8000
G1 F1000 X152.0364 Y33.2792 Z-8.8000 S1000
G1 F1000 X152.0364 Y29.1292 Z-8.8000 S1000
G1 F1000 X163.2864 Y29.1292 Z-8.8000 S1000
G1 F1000 X163.2864 Y33.2792 Z-8.8000 S1000

G0 Z10; move to z-safe height
G0 X37.4864 Y33.2792

G0 Z0
G1 F100 Z-1.5000
G1 F1000 X26.2364 Y33.2792 Z-1.5000 S1000
G1 F1000 X26.2364 Y29.1292 Z-1.5000 S1000
G1 F1000 X37.4864 Y29.1292 Z-1.5000 S1000
G1 F1000 X37.4864 Y33.2792 Z-1.5000 S1000
G1 F100 Z-3.0000
G1 F1000 X26.2364 Y33.2792 Z-3.0000 S1000
G1 F1000 X26.2364 Y29.1292 Z-3.0000 S1000
G1 F1000 X37.4864 Y29.1292 Z-3.0000 S1000
G1 F1000 X37.4864 Y33.2792 Z-3.0000 S1000
G1 F100 Z-4.5000
G1 F1000 X26.2364 Y33.2792 Z-4.5000 S1000
G1 F1000 X26.2364 Y29.1292 Z-4.5000 S1000
G1 F1000 X37.4864 Y29.1292 Z-4.5000 S1000
G1 F1000 X37.4864 Y33.2792 Z-4.5000 S1000
G1 F100 Z-6.0000
G1 F1000 X26.2364 Y33.2792 Z-6.0000 S1000
G1 F1000 X26.2364 Y29.1292 Z-6.0000 S1000
G1 F1000 X37.4864 Y29.1292 Z-6.0000 S1000
G1 F1000 X37.4864 Y33.2792 Z-6.0000 S1000
G1 F100 Z-7.5000
G1 F1000 X26.2364 Y33.2792 Z-7.5000 S1000
G1 F1000 X26.2364 Y29.1292 Z-7.5000 S1000
G1 F1000 X37.4864 Y29.1292 Z-7.5000 S1000
G1 F1000 X37.4864 Y33.2792 Z-7.5000 S1000
G1 F100 Z-8.8000
G1 F1000 X26.2364 Y33.2792 Z-8.8000 S1000
G1 F1000 X26.2364 Y29.1292 Z-8.8000 S1000
G1 F1000 X37.4864 Y29.1292 Z-8.8000 S1000
G1 F1000 X37.4864 Y33.2792 Z-8.8000 S1000

G0 Z10; move to z-safe height
G0 X109.3711 Y33.2792

G0 Z0
G1 F100 Z-1.5000
G1 F1000 X98.1211 Y33.2792 Z-1.5000 S1000
G1 F1000 X98.1211 Y29.1292 Z-1.5000 S1000
G1 F1000 X109.3711 Y29.1292 Z-1.5000 S1000
G1 F1000 X109.3711 Y33.2792 Z-1.5000 S1000
G1 F100 Z-3.0000
G1 F1000 X98.1211 Y33.2792 Z-3.0000 S1000
G1 F1000 X98.1211 Y29.1292 Z-3.0000 S1000
G1 F1000 X109.3711 Y29.1292 Z-3.0000 S1000
G1 F1000 X109.3711 Y33.2792 Z-3.0000 S1000
G1 F100 Z-4.5000
G1 F1000 X98.1211 Y33.2792 Z-4.5000 S1000
G1 F1000 X98.1211 Y29.1292 Z-4.5000 S1000
G1 F1000 X109.3711 Y29.1292 Z-4.5000 S1000
G1 F1000 X109.3711 Y33.2792 Z-4.5000 S1000
G1 F100 Z-6.0000
G1 F1000 X98.1211 Y33.2792 Z-6.0000 S1000
G1 F1000 X98.1211 Y29.1292 Z-6.0000 S1000
G1 F1000 X109.3711 Y29.1292 Z-6.0000 S1000
G1 F1000 X109.3711 Y33.2792 Z-6.0000 S1000
G1 F100 Z-7.5000
G1 F1000 X98.1211 Y33.2792 Z-7.5000 S1000
G1 F1000 X98.1211 Y29.1292 Z-7.5000 S1000
G1 F1000 X109.3711 Y29.1292 Z-7.5000 S1000
G1 F1000 X109.3711 Y33.2792 Z-7.5000 S1000
G1 F100 Z-8.8000
G1 F1000 X98.1211 Y33.2792 Z-8.8000 S1000
G1 F1000 X98.1211 Y29.1292 Z-8.8000 S1000
G1 F1000 X109.3711 Y29.1292 Z-8.8000 S1000
G1 F1000 X109.3711 Y33.2792 Z-8.8000 S1000

G0 Z10; move to z-safe height
G0 X73.4282 Y33.2792

G0 Z0
G1 F100 Z-1.5000
G1 F1000 X62.1782 Y33.2792 Z-1.5000 S1000
G1 F1000 X62.1782 Y29.1292 Z-1.5000 S1000
G1 F1000 X73.4282 Y29.1292 Z-1.5000 S1000
G1 F1000 X73.4282 Y33.2792 Z-1.5000 S1000
G1 F100 Z-3.0000
G1 F1000 X62.1782 Y33.2792 Z-3.0000 S1000
G1 F1000 X62.1782 Y29.1292 Z-3.0000 S1000
G1 F1000 X73.4282 Y29.1292 Z-3.0000 S1000
G1 F1000 X73.4282 Y33.2792 Z-3.0000 S1000
G1 F100 Z-4.5000
G1 F1000 X62.1782 Y33.2792 Z-4.5000 S1000
G1 F1000 X62.1782 Y29.1292 Z-4.5000 S1000
G1 F1000 X73.4282 Y29.1292 Z-4.5000 S1000
G1 F1000 X73.4282 Y33.2792 Z-4.5000 S1000
G1 F100 Z-6.0000
G1 F1000 X62.1782 Y33.2792 Z-6.0000 S1000
G1 F1000 X62.1782 Y29.1292 Z-6.0000 S1000
G1 F1000 X73.4282 Y29.1292 Z-6.0000 S1000
G1 F1000 X73.4282 Y33.2792 Z-6.0000 S1000
G1 F100 Z-7.5000
G1 F1000 X62.1782 Y33.2792 Z-7.5000 S1000
G1 F1000 X62.1782 Y29.1292 Z-7.5000 S1000
G1 F1000 X73.4282 Y29.1292 Z-7.5000 S1000
G1 F1000 X73.4282 Y33.2792 Z-7.5000 S1000
G1 F100 Z-8.8000
G1 F1000 X62.1782 Y33.2792 Z-8.8000 S1000
G1 F1000 X62.1782 Y29.1292 Z-8.8000 S1000
G1 F1000 X73.4282 Y29.1292 Z-8.8000 S1000
G1 F1000 X73.4282 Y33.2792 Z-8.8000 S1000

G0 Z10; move to z-safe height
G0 X55.4573 Y33.2792

G0 Z0
G1 F100 Z-1.5000
G1 F1000 X44.2073 Y33.2792 Z-1.5000 S1000
G1 F1000 X44.2073 Y29.1292 Z-1.5000 S1000
G1 F1000 X55.4573 Y29.1292 Z-1.5000 S1000
G1 F1000 X55.4573 Y33.2792 Z-1.5000 S1000
G1 F100 Z-3.0000
G1 F1000 X44.2073 Y33.2792 Z-3.0000 S1000
G1 F1000 X44.2073 Y29.1292 Z-3.0000 S1000
G1 F1000 X55.4573 Y29.1292 Z-3.0000 S1000
G1 F1000 X55.4573 Y33.2792 Z-3.0000 S1000
G1 F100 Z-4.5000
G1 F1000 X44.2073 Y33.2792 Z-4.5000 S1000
G1 F1000 X44.2073 Y29.1292 Z-4.5000 S1000
G1 F1000 X55.4573 Y29.1292 Z-4.5000 S1000
G1 F1000 X55.4573 Y33.2792 Z-4.5000 S1000
G1 F100 Z-6.0000
G1 F1000 X44.2073 Y33.2792 Z-6.0000 S1000
G1 F1000 X44.2073 Y29.1292 Z-6.0000 S1000
G1 F1000 X55.4573 Y29.1292 Z-6.0000 S1000
G1 F1000 X55.4573 Y33.2792 Z-6.0000 S1000
G1 F100 Z-7.5000
G1 F1000 X44.2073 Y33.2792 Z-7.5000 S1000
G1 F1000 X44.2073 Y29.1292 Z-7.5000 S1000
G1 F1000 X55.4573 Y29.1292 Z-7.5000 S1000
G1 F1000 X55.4573 Y33.2792 Z-7.5000 S1000
G1 F100 Z-8.8000
G1 F1000 X44.2073 Y33.2792 Z-8.8000 S1000
G1 F1000 X44.2073 Y29.1292 Z-8.8000 S1000
G1 F1000 X55.4573 Y29.1292 Z-8.8000 S1000
G1 F1000 X55.4573 Y33.2792 Z-8.8000 S1000

G0 Z10; move to z-safe height
G0 X91.4002 Y33.2792

G0 Z0
G1 F100 Z-1.5000
G1 F1000 X80.1502 Y33.2792 Z-1.5000 S1000
G1 F1000 X80.1502 Y29.1292 Z-1.5000 S1000
G1 F1000 X91.4002 Y29.1292 Z-1.5000 S1000
G1 F1000 X91.4002 Y33.2792 Z-1.5000 S1000
G1 F100 Z-3.0000
G1 F1000 X80.1502 Y33.2792 Z-3.0000 S1000
G1 F1000 X80.1502 Y29.1292 Z-3.0000 S1000
G1 F1000 X91.4002 Y29.1292 Z-3.0000 S1000
G1 F1000 X91.4002 Y33.2792 Z-3.0000 S1000
G1 F100 Z-4.5000
G1 F1000 X80.1502 Y33.2792 Z-4.5000 S1000
G1 F1000 X80.1502 Y29.1292 Z-4.5000 S1000
G1 F1000 X91.4002 Y29.1292 Z-4.5000 S1000
G1 F1000 X91.4002 Y33.2792 Z-4.5000 S1000
G1 F100 Z-6.0000
G1 F1000 X80.1502 Y33.2792 Z-6.0000 S1000
G1 F1000 X80.1502 Y29.1292 Z-6.0000 S1000
G1 F1000 X91.4002 Y29.1292 Z-6.0000 S1000
G1 F1000 X91.4002 Y33.2792 Z-6.0000 S1000
G1 F100 Z-7.5000
G1 F1000 X80.1502 Y33.2792 Z-7.5000 S1000
G1 F1000 X80.1502 Y29.1292 Z-7.5000 S1000
G1 F1000 X91.4002 Y29.1292 Z-7.5000 S1000
G1 F1000 X91.4002 Y33.2792 Z-7.5000 S1000
G1 F100 Z-8.8000
G1 F1000 X80.1502 Y33.2792 Z-8.8000 S1000
G1 F1000 X80.1502 Y29.1292 Z-8.8000 S1000
G1 F1000 X91.4002 Y29.1292 Z-8.8000 S1000
G1 F1000 X91.4002 Y33.2792 Z-8.8000 S1000
; retracting back to z-safe
G0 Z10

M5 S0; Spindle Off
