; GCODE Generated by cam.openbuilds.com on 2021-04-29 
G21 ; mm-mode
G54; Work Coordinates
G21; mm-mode
G90; Absolute Positioning
M3 S1000; Spindle On

; Operation 0: Drill: Peck (Centered)
; Endmill Diameter: 6

G0 Z10; move to z-safe height
G0 F1000 X100.8572 Y12.0352

G0 Z0
G1 F100 Z0.0000
G1 F1000 X100.8572 Y12.0352 Z0.0000 S1000
G1 F1000 X100.8572 Y12.0352 Z0.0000 S1000
G1 F100 Z0.0000
G1 F1000 X100.8572 Y12.0352 Z-1.5000 S1000
G1 F1000 X100.8572 Y12.0352 Z0.0000 S1000
G1 F100 Z-1.5000
G1 F1000 X100.8572 Y12.0352 Z-3.0000 S1000
G1 F1000 X100.8572 Y12.0352 Z0.0000 S1000
G1 F100 Z-3.0000
G1 F1000 X100.8572 Y12.0352 Z-4.5000 S1000
G1 F1000 X100.8572 Y12.0352 Z0.0000 S1000
G1 F100 Z-4.5000
G1 F1000 X100.8572 Y12.0352 Z-6.0000 S1000
G1 F1000 X100.8572 Y12.0352 Z0.0000 S1000
G1 F100 Z-6.0000
G1 F1000 X100.8572 Y12.0352 Z-7.5000 S1000
G1 F1000 X100.8572 Y12.0352 Z0.0000 S1000
G1 F100 Z-7.5000
G1 F1000 X100.8572 Y12.0352 Z-9.0000 S1000
G1 F1000 X100.8572 Y12.0352 Z0.0000 S1000

G0 Z10; move to z-safe height
G0 X82.8850 Y12.0352

G0 Z0
G1 F100 Z0.0000
G1 F1000 X82.8850 Y12.0352 Z0.0000 S1000
G1 F1000 X82.8850 Y12.0352 Z0.0000 S1000
G1 F100 Z0.0000
G1 F1000 X82.8850 Y12.0352 Z-1.5000 S1000
G1 F1000 X82.8850 Y12.0352 Z0.0000 S1000
G1 F100 Z-1.5000
G1 F1000 X82.8850 Y12.0352 Z-3.0000 S1000
G1 F1000 X82.8850 Y12.0352 Z0.0000 S1000
G1 F100 Z-3.0000
G1 F1000 X82.8850 Y12.0352 Z-4.5000 S1000
G1 F1000 X82.8850 Y12.0352 Z0.0000 S1000
G1 F100 Z-4.5000
G1 F1000 X82.8850 Y12.0352 Z-6.0000 S1000
G1 F1000 X82.8850 Y12.0352 Z0.0000 S1000
G1 F100 Z-6.0000
G1 F1000 X82.8850 Y12.0352 Z-7.5000 S1000
G1 F1000 X82.8850 Y12.0352 Z0.0000 S1000
G1 F100 Z-7.5000
G1 F1000 X82.8850 Y12.0352 Z-9.0000 S1000
G1 F1000 X82.8850 Y12.0352 Z0.0000 S1000

G0 Z10; move to z-safe height
G0 X28.9709 Y12.0352

G0 Z0
G1 F100 Z0.0000
G1 F1000 X28.9709 Y12.0352 Z0.0000 S1000
G1 F1000 X28.9709 Y12.0352 Z0.0000 S1000
G1 F100 Z0.0000
G1 F1000 X28.9709 Y12.0352 Z-1.5000 S1000
G1 F1000 X28.9709 Y12.0352 Z0.0000 S1000
G1 F100 Z-1.5000
G1 F1000 X28.9709 Y12.0352 Z-3.0000 S1000
G1 F1000 X28.9709 Y12.0352 Z0.0000 S1000
G1 F100 Z-3.0000
G1 F1000 X28.9709 Y12.0352 Z-4.5000 S1000
G1 F1000 X28.9709 Y12.0352 Z0.0000 S1000
G1 F100 Z-4.5000
G1 F1000 X28.9709 Y12.0352 Z-6.0000 S1000
G1 F1000 X28.9709 Y12.0352 Z0.0000 S1000
G1 F100 Z-6.0000
G1 F1000 X28.9709 Y12.0352 Z-7.5000 S1000
G1 F1000 X28.9709 Y12.0352 Z0.0000 S1000
G1 F100 Z-7.5000
G1 F1000 X28.9709 Y12.0352 Z-9.0000 S1000
G1 F1000 X28.9709 Y12.0352 Z0.0000 S1000

G0 Z10; move to z-safe height
G0 X23.1999 Y12.0352

G0 Z0
G1 F100 Z0.0000
G1 F1000 X23.1999 Y12.0352 Z0.0000 S1000
G1 F1000 X23.1999 Y12.0352 Z0.0000 S1000
G1 F100 Z0.0000
G1 F1000 X23.1999 Y12.0352 Z-1.5000 S1000
G1 F1000 X23.1999 Y12.0352 Z0.0000 S1000
G1 F100 Z-1.5000
G1 F1000 X23.1999 Y12.0352 Z-3.0000 S1000
G1 F1000 X23.1999 Y12.0352 Z0.0000 S1000
G1 F100 Z-3.0000
G1 F1000 X23.1999 Y12.0352 Z-4.5000 S1000
G1 F1000 X23.1999 Y12.0352 Z0.0000 S1000
G1 F100 Z-4.5000
G1 F1000 X23.1999 Y12.0352 Z-6.0000 S1000
G1 F1000 X23.1999 Y12.0352 Z0.0000 S1000
G1 F100 Z-6.0000
G1 F1000 X23.1999 Y12.0352 Z-7.5000 S1000
G1 F1000 X23.1999 Y12.0352 Z0.0000 S1000
G1 F100 Z-7.5000
G1 F1000 X23.1999 Y12.0352 Z-9.0000 S1000
G1 F1000 X23.1999 Y12.0352 Z0.0000 S1000

G0 Z10; move to z-safe height
G0 X59.1418 Y12.0352

G0 Z0
G1 F100 Z0.0000
G1 F1000 X59.1418 Y12.0352 Z0.0000 S1000
G1 F1000 X59.1418 Y12.0352 Z0.0000 S1000
G1 F100 Z0.0000
G1 F1000 X59.1418 Y12.0352 Z-1.5000 S1000
G1 F1000 X59.1418 Y12.0352 Z0.0000 S1000
G1 F100 Z-1.5000
G1 F1000 X59.1418 Y12.0352 Z-3.0000 S1000
G1 F1000 X59.1418 Y12.0352 Z0.0000 S1000
G1 F100 Z-3.0000
G1 F1000 X59.1418 Y12.0352 Z-4.5000 S1000
G1 F1000 X59.1418 Y12.0352 Z0.0000 S1000
G1 F100 Z-4.5000
G1 F1000 X59.1418 Y12.0352 Z-6.0000 S1000
G1 F1000 X59.1418 Y12.0352 Z0.0000 S1000
G1 F100 Z-6.0000
G1 F1000 X59.1418 Y12.0352 Z-7.5000 S1000
G1 F1000 X59.1418 Y12.0352 Z0.0000 S1000
G1 F100 Z-7.5000
G1 F1000 X59.1418 Y12.0352 Z-9.0000 S1000
G1 F1000 X59.1418 Y12.0352 Z0.0000 S1000

G0 Z10; move to z-safe height
G0 X64.9138 Y12.0352

G0 Z0
G1 F100 Z0.0000
G1 F1000 X64.9138 Y12.0352 Z0.0000 S1000
G1 F1000 X64.9138 Y12.0352 Z0.0000 S1000
G1 F100 Z0.0000
G1 F1000 X64.9138 Y12.0352 Z-1.5000 S1000
G1 F1000 X64.9138 Y12.0352 Z0.0000 S1000
G1 F100 Z-1.5000
G1 F1000 X64.9138 Y12.0352 Z-3.0000 S1000
G1 F1000 X64.9138 Y12.0352 Z0.0000 S1000
G1 F100 Z-3.0000
G1 F1000 X64.9138 Y12.0352 Z-4.5000 S1000
G1 F1000 X64.9138 Y12.0352 Z0.0000 S1000
G1 F100 Z-4.5000
G1 F1000 X64.9138 Y12.0352 Z-6.0000 S1000
G1 F1000 X64.9138 Y12.0352 Z0.0000 S1000
G1 F100 Z-6.0000
G1 F1000 X64.9138 Y12.0352 Z-7.5000 S1000
G1 F1000 X64.9138 Y12.0352 Z0.0000 S1000
G1 F100 Z-7.5000
G1 F1000 X64.9138 Y12.0352 Z-9.0000 S1000
G1 F1000 X64.9138 Y12.0352 Z0.0000 S1000

G0 Z10; move to z-safe height
G0 X136.8000 Y12.0352

G0 Z0
G1 F100 Z0.0000
G1 F1000 X136.8000 Y12.0352 Z0.0000 S1000
G1 F1000 X136.8000 Y12.0352 Z0.0000 S1000
G1 F100 Z0.0000
G1 F1000 X136.8000 Y12.0352 Z-1.5000 S1000
G1 F1000 X136.8000 Y12.0352 Z0.0000 S1000
G1 F100 Z-1.5000
G1 F1000 X136.8000 Y12.0352 Z-3.0000 S1000
G1 F1000 X136.8000 Y12.0352 Z0.0000 S1000
G1 F100 Z-3.0000
G1 F1000 X136.8000 Y12.0352 Z-4.5000 S1000
G1 F1000 X136.8000 Y12.0352 Z0.0000 S1000
G1 F100 Z-4.5000
G1 F1000 X136.8000 Y12.0352 Z-6.0000 S1000
G1 F1000 X136.8000 Y12.0352 Z0.0000 S1000
G1 F100 Z-6.0000
G1 F1000 X136.8000 Y12.0352 Z-7.5000 S1000
G1 F1000 X136.8000 Y12.0352 Z0.0000 S1000
G1 F100 Z-7.5000
G1 F1000 X136.8000 Y12.0352 Z-9.0000 S1000
G1 F1000 X136.8000 Y12.0352 Z0.0000 S1000

G0 Z10; move to z-safe height
G0 X155.6247 Y21.1480

G0 Z0
G1 F100 Z0.0000
G1 F1000 X155.6247 Y21.1480 Z0.0000 S1000
G1 F1000 X155.6247 Y21.1480 Z0.0000 S1000
G1 F100 Z0.0000
G1 F1000 X155.6247 Y21.1480 Z-1.5000 S1000
G1 F1000 X155.6247 Y21.1480 Z0.0000 S1000
G1 F100 Z-1.5000
G1 F1000 X155.6247 Y21.1480 Z-3.0000 S1000
G1 F1000 X155.6247 Y21.1480 Z0.0000 S1000
G1 F100 Z-3.0000
G1 F1000 X155.6247 Y21.1480 Z-4.5000 S1000
G1 F1000 X155.6247 Y21.1480 Z0.0000 S1000
G1 F100 Z-4.5000
G1 F1000 X155.6247 Y21.1480 Z-6.0000 S1000
G1 F1000 X155.6247 Y21.1480 Z0.0000 S1000
G1 F100 Z-6.0000
G1 F1000 X155.6247 Y21.1480 Z-7.5000 S1000
G1 F1000 X155.6247 Y21.1480 Z0.0000 S1000
G1 F100 Z-7.5000
G1 F1000 X155.6247 Y21.1480 Z-9.0000 S1000
G1 F1000 X155.6247 Y21.1480 Z0.0000 S1000

G0 Z10; move to z-safe height
G0 X118.8284 Y12.0352

G0 Z0
G1 F100 Z0.0000
G1 F1000 X118.8284 Y12.0352 Z0.0000 S1000
G1 F1000 X118.8284 Y12.0352 Z0.0000 S1000
G1 F100 Z0.0000
G1 F1000 X118.8284 Y12.0352 Z-1.5000 S1000
G1 F1000 X118.8284 Y12.0352 Z0.0000 S1000
G1 F100 Z-1.5000
G1 F1000 X118.8284 Y12.0352 Z-3.0000 S1000
G1 F1000 X118.8284 Y12.0352 Z0.0000 S1000
G1 F100 Z-3.0000
G1 F1000 X118.8284 Y12.0352 Z-4.5000 S1000
G1 F1000 X118.8284 Y12.0352 Z0.0000 S1000
G1 F100 Z-4.5000
G1 F1000 X118.8284 Y12.0352 Z-6.0000 S1000
G1 F1000 X118.8284 Y12.0352 Z0.0000 S1000
G1 F100 Z-6.0000
G1 F1000 X118.8284 Y12.0352 Z-7.5000 S1000
G1 F1000 X118.8284 Y12.0352 Z0.0000 S1000
G1 F100 Z-7.5000
G1 F1000 X118.8284 Y12.0352 Z-9.0000 S1000
G1 F1000 X118.8284 Y12.0352 Z0.0000 S1000

G0 Z10; move to z-safe height
G0 X155.6247 Y4.8520

G0 Z0
G1 F100 Z0.0000
G1 F1000 X155.6247 Y4.8520 Z0.0000 S1000
G1 F1000 X155.6247 Y4.8520 Z0.0000 S1000
G1 F100 Z0.0000
G1 F1000 X155.6247 Y4.8520 Z-1.5000 S1000
G1 F1000 X155.6247 Y4.8520 Z0.0000 S1000
G1 F100 Z-1.5000
G1 F1000 X155.6247 Y4.8520 Z-3.0000 S1000
G1 F1000 X155.6247 Y4.8520 Z0.0000 S1000
G1 F100 Z-3.0000
G1 F1000 X155.6247 Y4.8520 Z-4.5000 S1000
G1 F1000 X155.6247 Y4.8520 Z0.0000 S1000
G1 F100 Z-4.5000
G1 F1000 X155.6247 Y4.8520 Z-6.0000 S1000
G1 F1000 X155.6247 Y4.8520 Z0.0000 S1000
G1 F100 Z-6.0000
G1 F1000 X155.6247 Y4.8520 Z-7.5000 S1000
G1 F1000 X155.6247 Y4.8520 Z0.0000 S1000
G1 F100 Z-7.5000
G1 F1000 X155.6247 Y4.8520 Z-9.0000 S1000
G1 F1000 X155.6247 Y4.8520 Z0.0000 S1000

G0 Z10; move to z-safe height
G0 X41.1709 Y12.0352

G0 Z0
G1 F100 Z0.0000
G1 F1000 X41.1709 Y12.0352 Z0.0000 S1000
G1 F1000 X41.1709 Y12.0352 Z0.0000 S1000
G1 F100 Z0.0000
G1 F1000 X41.1709 Y12.0352 Z-1.5000 S1000
G1 F1000 X41.1709 Y12.0352 Z0.0000 S1000
G1 F100 Z-1.5000
G1 F1000 X41.1709 Y12.0352 Z-3.0000 S1000
G1 F1000 X41.1709 Y12.0352 Z0.0000 S1000
G1 F100 Z-3.0000
G1 F1000 X41.1709 Y12.0352 Z-4.5000 S1000
G1 F1000 X41.1709 Y12.0352 Z0.0000 S1000
G1 F100 Z-4.5000
G1 F1000 X41.1709 Y12.0352 Z-6.0000 S1000
G1 F1000 X41.1709 Y12.0352 Z0.0000 S1000
G1 F100 Z-6.0000
G1 F1000 X41.1709 Y12.0352 Z-7.5000 S1000
G1 F1000 X41.1709 Y12.0352 Z0.0000 S1000
G1 F100 Z-7.5000
G1 F1000 X41.1709 Y12.0352 Z-9.0000 S1000
G1 F1000 X41.1709 Y12.0352 Z0.0000 S1000

G0 Z10; move to z-safe height
G0 X4.3750 Y21.1480

G0 Z0
G1 F100 Z0.0000
G1 F1000 X4.3750 Y21.1480 Z0.0000 S1000
G1 F1000 X4.3750 Y21.1480 Z0.0000 S1000
G1 F100 Z0.0000
G1 F1000 X4.3750 Y21.1480 Z-1.5000 S1000
G1 F1000 X4.3750 Y21.1480 Z0.0000 S1000
G1 F100 Z-1.5000
G1 F1000 X4.3750 Y21.1480 Z-3.0000 S1000
G1 F1000 X4.3750 Y21.1480 Z0.0000 S1000
G1 F100 Z-3.0000
G1 F1000 X4.3750 Y21.1480 Z-4.5000 S1000
G1 F1000 X4.3750 Y21.1480 Z0.0000 S1000
G1 F100 Z-4.5000
G1 F1000 X4.3750 Y21.1480 Z-6.0000 S1000
G1 F1000 X4.3750 Y21.1480 Z0.0000 S1000
G1 F100 Z-6.0000
G1 F1000 X4.3750 Y21.1480 Z-7.5000 S1000
G1 F1000 X4.3750 Y21.1480 Z0.0000 S1000
G1 F100 Z-7.5000
G1 F1000 X4.3750 Y21.1480 Z-9.0000 S1000
G1 F1000 X4.3750 Y21.1480 Z0.0000 S1000

G0 Z10; move to z-safe height
G0 X4.3750 Y4.8520

G0 Z0
G1 F100 Z0.0000
G1 F1000 X4.3750 Y4.8520 Z0.0000 S1000
G1 F1000 X4.3750 Y4.8520 Z0.0000 S1000
G1 F100 Z0.0000
G1 F1000 X4.3750 Y4.8520 Z-1.5000 S1000
G1 F1000 X4.3750 Y4.8520 Z0.0000 S1000
G1 F100 Z-1.5000
G1 F1000 X4.3750 Y4.8520 Z-3.0000 S1000
G1 F1000 X4.3750 Y4.8520 Z0.0000 S1000
G1 F100 Z-3.0000
G1 F1000 X4.3750 Y4.8520 Z-4.5000 S1000
G1 F1000 X4.3750 Y4.8520 Z0.0000 S1000
G1 F100 Z-4.5000
G1 F1000 X4.3750 Y4.8520 Z-6.0000 S1000
G1 F1000 X4.3750 Y4.8520 Z0.0000 S1000
G1 F100 Z-6.0000
G1 F1000 X4.3750 Y4.8520 Z-7.5000 S1000
G1 F1000 X4.3750 Y4.8520 Z0.0000 S1000
G1 F100 Z-7.5000
G1 F1000 X4.3750 Y4.8520 Z-9.0000 S1000
G1 F1000 X4.3750 Y4.8520 Z0.0000 S1000

G0 Z10; move to z-safe height
G0 X11.0000 Y12.0352

G0 Z0
G1 F100 Z0.0000
G1 F1000 X11.0000 Y12.0352 Z0.0000 S1000
G1 F1000 X11.0000 Y12.0352 Z0.0000 S1000
G1 F100 Z0.0000
G1 F1000 X11.0000 Y12.0352 Z-1.5000 S1000
G1 F1000 X11.0000 Y12.0352 Z0.0000 S1000
G1 F100 Z-1.5000
G1 F1000 X11.0000 Y12.0352 Z-3.0000 S1000
G1 F1000 X11.0000 Y12.0352 Z0.0000 S1000
G1 F100 Z-3.0000
G1 F1000 X11.0000 Y12.0352 Z-4.5000 S1000
G1 F1000 X11.0000 Y12.0352 Z0.0000 S1000
G1 F100 Z-4.5000
G1 F1000 X11.0000 Y12.0352 Z-6.0000 S1000
G1 F1000 X11.0000 Y12.0352 Z0.0000 S1000
G1 F100 Z-6.0000
G1 F1000 X11.0000 Y12.0352 Z-7.5000 S1000
G1 F1000 X11.0000 Y12.0352 Z0.0000 S1000
G1 F100 Z-7.5000
G1 F1000 X11.0000 Y12.0352 Z-9.0000 S1000
G1 F1000 X11.0000 Y12.0352 Z0.0000 S1000

G0 Z10; move to z-safe height
G0 X131.0283 Y12.0352

G0 Z0
G1 F100 Z0.0000
G1 F1000 X131.0283 Y12.0352 Z0.0000 S1000
G1 F1000 X131.0283 Y12.0352 Z0.0000 S1000
G1 F100 Z0.0000
G1 F1000 X131.0283 Y12.0352 Z-1.5000 S1000
G1 F1000 X131.0283 Y12.0352 Z0.0000 S1000
G1 F100 Z-1.5000
G1 F1000 X131.0283 Y12.0352 Z-3.0000 S1000
G1 F1000 X131.0283 Y12.0352 Z0.0000 S1000
G1 F100 Z-3.0000
G1 F1000 X131.0283 Y12.0352 Z-4.5000 S1000
G1 F1000 X131.0283 Y12.0352 Z0.0000 S1000
G1 F100 Z-4.5000
G1 F1000 X131.0283 Y12.0352 Z-6.0000 S1000
G1 F1000 X131.0283 Y12.0352 Z0.0000 S1000
G1 F100 Z-6.0000
G1 F1000 X131.0283 Y12.0352 Z-7.5000 S1000
G1 F1000 X131.0283 Y12.0352 Z0.0000 S1000
G1 F100 Z-7.5000
G1 F1000 X131.0283 Y12.0352 Z-9.0000 S1000
G1 F1000 X131.0283 Y12.0352 Z0.0000 S1000

G0 Z10; move to z-safe height
G0 X95.0849 Y12.0352

G0 Z0
G1 F100 Z0.0000
G1 F1000 X95.0849 Y12.0352 Z0.0000 S1000
G1 F1000 X95.0849 Y12.0352 Z0.0000 S1000
G1 F100 Z0.0000
G1 F1000 X95.0849 Y12.0352 Z-1.5000 S1000
G1 F1000 X95.0849 Y12.0352 Z0.0000 S1000
G1 F100 Z-1.5000
G1 F1000 X95.0849 Y12.0352 Z-3.0000 S1000
G1 F1000 X95.0849 Y12.0352 Z0.0000 S1000
G1 F100 Z-3.0000
G1 F1000 X95.0849 Y12.0352 Z-4.5000 S1000
G1 F1000 X95.0849 Y12.0352 Z0.0000 S1000
G1 F100 Z-4.5000
G1 F1000 X95.0849 Y12.0352 Z-6.0000 S1000
G1 F1000 X95.0849 Y12.0352 Z0.0000 S1000
G1 F100 Z-6.0000
G1 F1000 X95.0849 Y12.0352 Z-7.5000 S1000
G1 F1000 X95.0849 Y12.0352 Z0.0000 S1000
G1 F100 Z-7.5000
G1 F1000 X95.0849 Y12.0352 Z-9.0000 S1000
G1 F1000 X95.0849 Y12.0352 Z0.0000 S1000

G0 Z10; move to z-safe height
G0 X46.9419 Y12.0352

G0 Z0
G1 F100 Z0.0000
G1 F1000 X46.9419 Y12.0352 Z0.0000 S1000
G1 F1000 X46.9419 Y12.0352 Z0.0000 S1000
G1 F100 Z0.0000
G1 F1000 X46.9419 Y12.0352 Z-1.5000 S1000
G1 F1000 X46.9419 Y12.0352 Z0.0000 S1000
G1 F100 Z-1.5000
G1 F1000 X46.9419 Y12.0352 Z-3.0000 S1000
G1 F1000 X46.9419 Y12.0352 Z0.0000 S1000
G1 F100 Z-3.0000
G1 F1000 X46.9419 Y12.0352 Z-4.5000 S1000
G1 F1000 X46.9419 Y12.0352 Z0.0000 S1000
G1 F100 Z-4.5000
G1 F1000 X46.9419 Y12.0352 Z-6.0000 S1000
G1 F1000 X46.9419 Y12.0352 Z0.0000 S1000
G1 F100 Z-6.0000
G1 F1000 X46.9419 Y12.0352 Z-7.5000 S1000
G1 F1000 X46.9419 Y12.0352 Z0.0000 S1000
G1 F100 Z-7.5000
G1 F1000 X46.9419 Y12.0352 Z-9.0000 S1000
G1 F1000 X46.9419 Y12.0352 Z0.0000 S1000

G0 Z10; move to z-safe height
G0 X77.1138 Y12.0352

G0 Z0
G1 F100 Z0.0000
G1 F1000 X77.1138 Y12.0352 Z0.0000 S1000
G1 F1000 X77.1138 Y12.0352 Z0.0000 S1000
G1 F100 Z0.0000
G1 F1000 X77.1138 Y12.0352 Z-1.5000 S1000
G1 F1000 X77.1138 Y12.0352 Z0.0000 S1000
G1 F100 Z-1.5000
G1 F1000 X77.1138 Y12.0352 Z-3.0000 S1000
G1 F1000 X77.1138 Y12.0352 Z0.0000 S1000
G1 F100 Z-3.0000
G1 F1000 X77.1138 Y12.0352 Z-4.5000 S1000
G1 F1000 X77.1138 Y12.0352 Z0.0000 S1000
G1 F100 Z-4.5000
G1 F1000 X77.1138 Y12.0352 Z-6.0000 S1000
G1 F1000 X77.1138 Y12.0352 Z0.0000 S1000
G1 F100 Z-6.0000
G1 F1000 X77.1138 Y12.0352 Z-7.5000 S1000
G1 F1000 X77.1138 Y12.0352 Z0.0000 S1000
G1 F100 Z-7.5000
G1 F1000 X77.1138 Y12.0352 Z-9.0000 S1000
G1 F1000 X77.1138 Y12.0352 Z0.0000 S1000

G0 Z10; move to z-safe height
G0 X149.0000 Y12.0352

G0 Z0
G1 F100 Z0.0000
G1 F1000 X149.0000 Y12.0352 Z0.0000 S1000
G1 F1000 X149.0000 Y12.0352 Z0.0000 S1000
G1 F100 Z0.0000
G1 F1000 X149.0000 Y12.0352 Z-1.5000 S1000
G1 F1000 X149.0000 Y12.0352 Z0.0000 S1000
G1 F100 Z-1.5000
G1 F1000 X149.0000 Y12.0352 Z-3.0000 S1000
G1 F1000 X149.0000 Y12.0352 Z0.0000 S1000
G1 F100 Z-3.0000
G1 F1000 X149.0000 Y12.0352 Z-4.5000 S1000
G1 F1000 X149.0000 Y12.0352 Z0.0000 S1000
G1 F100 Z-4.5000
G1 F1000 X149.0000 Y12.0352 Z-6.0000 S1000
G1 F1000 X149.0000 Y12.0352 Z0.0000 S1000
G1 F100 Z-6.0000
G1 F1000 X149.0000 Y12.0352 Z-7.5000 S1000
G1 F1000 X149.0000 Y12.0352 Z0.0000 S1000
G1 F100 Z-7.5000
G1 F1000 X149.0000 Y12.0352 Z-9.0000 S1000
G1 F1000 X149.0000 Y12.0352 Z0.0000 S1000

G0 Z10; move to z-safe height
G0 X113.0571 Y12.0352

G0 Z0
G1 F100 Z0.0000
G1 F1000 X113.0571 Y12.0352 Z0.0000 S1000
G1 F1000 X113.0571 Y12.0352 Z0.0000 S1000
G1 F100 Z0.0000
G1 F1000 X113.0571 Y12.0352 Z-1.5000 S1000
G1 F1000 X113.0571 Y12.0352 Z0.0000 S1000
G1 F100 Z-1.5000
G1 F1000 X113.0571 Y12.0352 Z-3.0000 S1000
G1 F1000 X113.0571 Y12.0352 Z0.0000 S1000
G1 F100 Z-3.0000
G1 F1000 X113.0571 Y12.0352 Z-4.5000 S1000
G1 F1000 X113.0571 Y12.0352 Z0.0000 S1000
G1 F100 Z-4.5000
G1 F1000 X113.0571 Y12.0352 Z-6.0000 S1000
G1 F1000 X113.0571 Y12.0352 Z0.0000 S1000
G1 F100 Z-6.0000
G1 F1000 X113.0571 Y12.0352 Z-7.5000 S1000
G1 F1000 X113.0571 Y12.0352 Z0.0000 S1000
G1 F100 Z-7.5000
G1 F1000 X113.0571 Y12.0352 Z-9.0000 S1000
G1 F1000 X113.0571 Y12.0352 Z0.0000 S1000
; retracting back to z-safe
G0 Z10

M5 S0; Spindle Off
