; GCODE Generated by cam.openbuilds.com on 2021-04-29 
G21 ; mm-mode
G54; Work Coordinates
G21; mm-mode
G90; Absolute Positioning
M3 S1000; Spindle On

; Operation 4: CNC: Pocket
; Endmill Diameter: 6

G0 Z10; move to z-safe height
G0 F1000 X90.8000 Y47.8000

G0 Z0
G1 F300 Z-2.0000
G1 F1000 X7.2000 Y47.8000 Z-2.0000 S1000
G1 F1000 X7.2000 Y45.9480 Z-2.0000 S1000
G1 F1000 X7.2500 Y45.9500 Z-2.0000 S1000
G1 F1000 X90.7500 Y45.9500 Z-2.0000 S1000
G1 F1000 X90.8000 Y45.9463 Z-2.0000 S1000
G1 F1000 X90.8000 Y47.8000 Z-2.0000 S1000
G1 F300 Z-4.0000
G1 F1000 X7.2000 Y47.8000 Z-4.0000 S1000
G1 F1000 X7.2000 Y45.9480 Z-4.0000 S1000
G1 F1000 X7.2500 Y45.9500 Z-4.0000 S1000
G1 F1000 X90.7500 Y45.9500 Z-4.0000 S1000
G1 F1000 X90.8000 Y45.9463 Z-4.0000 S1000
G1 F1000 X90.8000 Y47.8000 Z-4.0000 S1000

G0 Z10; move to z-safe height
G0 X5.0549 Y43.0187

G0 Z0
G1 F300 Z-2.0000
G1 F1000 X5.8667 Y43.3464 Z-2.0000 S1000
G1 F1000 X6.7245 Y43.5211 Z-2.0000 S1000
G1 F1000 X7.2500 Y43.5500 Z-2.0000 S1000
G1 F1000 X90.7500 Y43.5500 Z-2.0000 S1000
G1 F1000 X91.6218 Y43.4702 Z-2.0000 S1000
G1 F1000 X92.4646 Y43.2333 Z-2.0000 S1000
G1 F1000 X93.2000 Y42.8721 Z-2.0000 S1000
G1 F1000 X93.2000 Y50.2000 Z-2.0000 S1000
G1 F1000 X4.8000 Y50.2000 Z-2.0000 S1000
G1 F1000 X4.8000 Y42.8566 Z-2.0000 S1000
G1 F1000 X5.0549 Y43.0187 Z-2.0000 S1000
G1 F300 Z-4.0000
G1 F1000 X5.8667 Y43.3464 Z-4.0000 S1000
G1 F1000 X6.7245 Y43.5211 Z-4.0000 S1000
G1 F1000 X7.2500 Y43.5500 Z-4.0000 S1000
G1 F1000 X90.7500 Y43.5500 Z-4.0000 S1000
G1 F1000 X91.6218 Y43.4702 Z-4.0000 S1000
G1 F1000 X92.4646 Y43.2333 Z-4.0000 S1000
G1 F1000 X93.2000 Y42.8721 Z-4.0000 S1000
G1 F1000 X93.2000 Y50.2000 Z-4.0000 S1000
G1 F1000 X4.8000 Y50.2000 Z-4.0000 S1000
G1 F1000 X4.8000 Y42.8566 Z-4.0000 S1000
G1 F1000 X5.0549 Y43.0187 Z-4.0000 S1000

G0 Z10; move to z-safe height
G0 X95.0000 Y52.0000

G0 Z0
G1 F300 Z-2.0000
G1 F1000 X3.0000 Y52.0000 Z-2.0000 S1000
G1 F1000 X3.0000 Y3.0000 Z-2.0000 S1000
G1 F1000 X95.0000 Y3.0000 Z-2.0000 S1000
G1 F1000 X95.0000 Y52.0000 Z-2.0000 S1000

G0 Z10; move to z-safe height
G0 X7.2500 Y5.2500

G0 Z0
G1 F300 Z-2.0000
G1 F1000 X6.5629 Y5.3297 Z-2.0000 S1000
G1 F1000 X5.9124 Y5.5647 Z-2.0000 S1000
G1 F1000 X5.3330 Y5.9424 Z-2.0000 S1000
G1 F1000 X4.8554 Y6.4428 Z-2.0000 S1000
G1 F1000 X4.5052 Y7.0392 Z-2.0000 S1000
G1 F1000 X4.3009 Y7.7000 Z-2.0000 S1000
G1 F1000 X4.2500 Y8.2500 Z-2.0000 S1000
G1 F1000 X4.2500 Y38.7500 Z-2.0000 S1000
G1 F1000 X4.3297 Y39.4371 Z-2.0000 S1000
G1 F1000 X4.5647 Y40.0876 Z-2.0000 S1000
G1 F1000 X4.9424 Y40.6670 Z-2.0000 S1000
G1 F1000 X5.4428 Y41.1446 Z-2.0000 S1000
G1 F1000 X6.0392 Y41.4948 Z-2.0000 S1000
G1 F1000 X6.7000 Y41.6991 Z-2.0000 S1000
G1 F1000 X7.2500 Y41.7500 Z-2.0000 S1000
G1 F1000 X90.7500 Y41.7500 Z-2.0000 S1000
G1 F1000 X91.4371 Y41.6703 Z-2.0000 S1000
G1 F1000 X92.0876 Y41.4353 Z-2.0000 S1000
G1 F1000 X92.6670 Y41.0576 Z-2.0000 S1000
G1 F1000 X93.1446 Y40.5572 Z-2.0000 S1000
G1 F1000 X93.4948 Y39.9608 Z-2.0000 S1000
G1 F1000 X93.6991 Y39.3000 Z-2.0000 S1000
G1 F1000 X93.7500 Y38.7500 Z-2.0000 S1000
G1 F1000 X93.7500 Y8.2500 Z-2.0000 S1000
G1 F1000 X93.6703 Y7.5629 Z-2.0000 S1000
G1 F1000 X93.4353 Y6.9124 Z-2.0000 S1000
G1 F1000 X93.0576 Y6.3330 Z-2.0000 S1000
G1 F1000 X92.5572 Y5.8554 Z-2.0000 S1000
G1 F1000 X91.9608 Y5.5052 Z-2.0000 S1000
G1 F1000 X91.3000 Y5.3009 Z-2.0000 S1000
G1 F1000 X90.7500 Y5.2500 Z-2.0000 S1000
G1 F1000 X7.2500 Y5.2500 Z-2.0000 S1000

G0 Z10; move to z-safe height
G0 X95.0000 Y52.0000

G0 Z0
G1 F300 Z-4.0000
G1 F1000 X3.0000 Y52.0000 Z-4.0000 S1000
G1 F1000 X3.0000 Y3.0000 Z-4.0000 S1000
G1 F1000 X95.0000 Y3.0000 Z-4.0000 S1000
G1 F1000 X95.0000 Y52.0000 Z-4.0000 S1000

G0 Z10; move to z-safe height
G0 X7.2500 Y5.2500

G0 Z0
G1 F300 Z-4.0000
G1 F1000 X6.5629 Y5.3297 Z-4.0000 S1000
G1 F1000 X5.9124 Y5.5647 Z-4.0000 S1000
G1 F1000 X5.3330 Y5.9424 Z-4.0000 S1000
G1 F1000 X4.8554 Y6.4428 Z-4.0000 S1000
G1 F1000 X4.5052 Y7.0392 Z-4.0000 S1000
G1 F1000 X4.3009 Y7.7000 Z-4.0000 S1000
G1 F1000 X4.2500 Y8.2500 Z-4.0000 S1000
G1 F1000 X4.2500 Y38.7500 Z-4.0000 S1000
G1 F1000 X4.3297 Y39.4371 Z-4.0000 S1000
G1 F1000 X4.5647 Y40.0876 Z-4.0000 S1000
G1 F1000 X4.9424 Y40.6670 Z-4.0000 S1000
G1 F1000 X5.4428 Y41.1446 Z-4.0000 S1000
G1 F1000 X6.0392 Y41.4948 Z-4.0000 S1000
G1 F1000 X6.7000 Y41.6991 Z-4.0000 S1000
G1 F1000 X7.2500 Y41.7500 Z-4.0000 S1000
G1 F1000 X90.7500 Y41.7500 Z-4.0000 S1000
G1 F1000 X91.4371 Y41.6703 Z-4.0000 S1000
G1 F1000 X92.0876 Y41.4353 Z-4.0000 S1000
G1 F1000 X92.6670 Y41.0576 Z-4.0000 S1000
G1 F1000 X93.1446 Y40.5572 Z-4.0000 S1000
G1 F1000 X93.4948 Y39.9608 Z-4.0000 S1000
G1 F1000 X93.6991 Y39.3000 Z-4.0000 S1000
G1 F1000 X93.7500 Y38.7500 Z-4.0000 S1000
G1 F1000 X93.7500 Y8.2500 Z-4.0000 S1000
G1 F1000 X93.6703 Y7.5629 Z-4.0000 S1000
G1 F1000 X93.4353 Y6.9124 Z-4.0000 S1000
G1 F1000 X93.0576 Y6.3330 Z-4.0000 S1000
G1 F1000 X92.5572 Y5.8554 Z-4.0000 S1000
G1 F1000 X91.9608 Y5.5052 Z-4.0000 S1000
G1 F1000 X91.3000 Y5.3009 Z-4.0000 S1000
G1 F1000 X90.7500 Y5.2500 Z-4.0000 S1000
G1 F1000 X7.2500 Y5.2500 Z-4.0000 S1000
; retracting back to z-safe
G0 Z10
; Operation 5: CNC: Vector (path outside)
; Endmill Diameter: 6

G0 Z10; move to z-safe height
G0 F1000 X95.0000 Y-3.0000

G0 Z0
G1 F300 Z-3.0000
G1 F1000 X3.0000 Y-3.0000 Z-3.0000 S1000
G1 F1000 X2.4500 Y-2.9491 Z-3.0000 S1000
G1 F1000 X1.7892 Y-2.7448 Z-3.0000 S1000
G1 F1000 X1.1928 Y-2.3946 Z-3.0000 S1000
G1 F1000 X0.6924 Y-1.9170 Z-3.0000 S1000
G1 F1000 X0.3147 Y-1.3376 Z-3.0000 S1000
G1 F1000 X0.0797 Y-0.6871 Z-3.0000 S1000
G1 F1000 X0.0000 Y0.0000 Z-3.0000 S1000
G1 F1000 X0.0000 Y55.0000 Z-3.0000 S1000
G1 F1000 X0.0509 Y55.5500 Z-3.0000 S1000
G1 F1000 X0.2552 Y56.2108 Z-3.0000 S1000
G1 F1000 X0.6054 Y56.8072 Z-3.0000 S1000
G1 F1000 X1.0830 Y57.3076 Z-3.0000 S1000
G1 F1000 X1.6624 Y57.6853 Z-3.0000 S1000
G1 F1000 X2.3129 Y57.9203 Z-3.0000 S1000
G1 F1000 X3.0000 Y58.0000 Z-3.0000 S1000
G1 F1000 X95.0000 Y58.0000 Z-3.0000 S1000
G1 F1000 X95.5500 Y57.9491 Z-3.0000 S1000
G1 F1000 X96.2108 Y57.7448 Z-3.0000 S1000
G1 F1000 X96.8072 Y57.3946 Z-3.0000 S1000
G1 F1000 X97.3076 Y56.9170 Z-3.0000 S1000
G1 F1000 X97.6853 Y56.3376 Z-3.0000 S1000
G1 F1000 X97.9203 Y55.6871 Z-3.0000 S1000
G1 F1000 X98.0000 Y55.0000 Z-3.0000 S1000
G1 F1000 X98.0000 Y0.0000 Z-3.0000 S1000
G1 F1000 X97.9491 Y-0.5500 Z-3.0000 S1000
G1 F1000 X97.7448 Y-1.2108 Z-3.0000 S1000
G1 F1000 X97.3946 Y-1.8072 Z-3.0000 S1000
G1 F1000 X96.9170 Y-2.3076 Z-3.0000 S1000
G1 F1000 X96.3376 Y-2.6853 Z-3.0000 S1000
G1 F1000 X95.6871 Y-2.9203 Z-3.0000 S1000
G1 F1000 X95.0000 Y-3.0000 Z-3.0000 S1000
G1 F300 Z-6.0000
G1 F1000 X54.5000 Y-3.0000 Z-6.0000 S1000
G1 F1000 X54.5000 Y-3.0000 Z-5.6000 S1000
G1 F1000 X43.5000 Y-3.0000 Z-5.6000 S1000
G1 F1000 X43.5000 Y-3.0000 Z-6.0000 S1000
G1 F1000 X3.0000 Y-3.0000 Z-6.0000 S1000
G1 F1000 X3.0000 Y-3.0000 Z-6.0000 S1000
G1 F1000 X2.4500 Y-2.9491 Z-6.0000 S1000
G1 F1000 X1.7892 Y-2.7448 Z-6.0000 S1000
G1 F1000 X1.1928 Y-2.3946 Z-6.0000 S1000
G1 F1000 X0.6924 Y-1.9170 Z-6.0000 S1000
G1 F1000 X0.3147 Y-1.3376 Z-6.0000 S1000
G1 F1000 X0.0797 Y-0.6871 Z-6.0000 S1000
G1 F1000 X0.0000 Y0.0000 Z-6.0000 S1000
G1 F1000 X0.0000 Y55.0000 Z-6.0000 S1000
G1 F1000 X0.0509 Y55.5500 Z-6.0000 S1000
G1 F1000 X0.2552 Y56.2108 Z-6.0000 S1000
G1 F1000 X0.6054 Y56.8072 Z-6.0000 S1000
G1 F1000 X1.0830 Y57.3076 Z-6.0000 S1000
G1 F1000 X1.6624 Y57.6853 Z-6.0000 S1000
G1 F1000 X2.3129 Y57.9203 Z-6.0000 S1000
G1 F1000 X3.0000 Y58.0000 Z-6.0000 S1000
G1 F1000 X43.5000 Y58.0000 Z-6.0000 S1000
G1 F1000 X43.5000 Y58.0000 Z-5.6000 S1000
G1 F1000 X54.5000 Y58.0000 Z-5.6000 S1000
G1 F1000 X54.5000 Y58.0000 Z-6.0000 S1000
G1 F1000 X95.0000 Y58.0000 Z-6.0000 S1000
G1 F1000 X95.0000 Y58.0000 Z-6.0000 S1000
G1 F1000 X95.5500 Y57.9491 Z-6.0000 S1000
G1 F1000 X96.2108 Y57.7448 Z-6.0000 S1000
G1 F1000 X96.8072 Y57.3946 Z-6.0000 S1000
G1 F1000 X97.3076 Y56.9170 Z-6.0000 S1000
G1 F1000 X97.6853 Y56.3376 Z-6.0000 S1000
G1 F1000 X97.9203 Y55.6871 Z-6.0000 S1000
G1 F1000 X98.0000 Y55.0000 Z-6.0000 S1000
G1 F1000 X98.0000 Y0.0000 Z-6.0000 S1000
G1 F1000 X97.9491 Y-0.5500 Z-6.0000 S1000
G1 F1000 X97.7448 Y-1.2108 Z-6.0000 S1000
G1 F1000 X97.3946 Y-1.8072 Z-6.0000 S1000
G1 F1000 X96.9170 Y-2.3076 Z-6.0000 S1000
G1 F1000 X96.3376 Y-2.6853 Z-6.0000 S1000
G1 F1000 X95.6871 Y-2.9203 Z-6.0000 S1000
G1 F1000 X95.0000 Y-3.0000 Z-6.0000 S1000
G1 F300 Z-8.6000
G1 F1000 X54.5000 Y-3.0000 Z-8.6000 S1000
G1 F1000 X54.5000 Y-3.0000 Z-5.6000 S1000
G1 F1000 X43.5000 Y-3.0000 Z-5.6000 S1000
G1 F1000 X43.5000 Y-3.0000 Z-8.6000 S1000
G1 F1000 X3.0000 Y-3.0000 Z-8.6000 S1000
G1 F1000 X3.0000 Y-3.0000 Z-8.6000 S1000
G1 F1000 X2.4500 Y-2.9491 Z-8.6000 S1000
G1 F1000 X1.7892 Y-2.7448 Z-8.6000 S1000
G1 F1000 X1.1928 Y-2.3946 Z-8.6000 S1000
G1 F1000 X0.6924 Y-1.9170 Z-8.6000 S1000
G1 F1000 X0.3147 Y-1.3376 Z-8.6000 S1000
G1 F1000 X0.0797 Y-0.6871 Z-8.6000 S1000
G1 F1000 X0.0000 Y0.0000 Z-8.6000 S1000
G1 F1000 X0.0000 Y55.0000 Z-8.6000 S1000
G1 F1000 X0.0509 Y55.5500 Z-8.6000 S1000
G1 F1000 X0.2552 Y56.2108 Z-8.6000 S1000
G1 F1000 X0.6054 Y56.8072 Z-8.6000 S1000
G1 F1000 X1.0830 Y57.3076 Z-8.6000 S1000
G1 F1000 X1.6624 Y57.6853 Z-8.6000 S1000
G1 F1000 X2.3129 Y57.9203 Z-8.6000 S1000
G1 F1000 X3.0000 Y58.0000 Z-8.6000 S1000
G1 F1000 X43.5000 Y58.0000 Z-8.6000 S1000
G1 F1000 X43.5000 Y58.0000 Z-5.6000 S1000
G1 F1000 X54.5000 Y58.0000 Z-5.6000 S1000
G1 F1000 X54.5000 Y58.0000 Z-8.6000 S1000
G1 F1000 X95.0000 Y58.0000 Z-8.6000 S1000
G1 F1000 X95.0000 Y58.0000 Z-8.6000 S1000
G1 F1000 X95.5500 Y57.9491 Z-8.6000 S1000
G1 F1000 X96.2108 Y57.7448 Z-8.6000 S1000
G1 F1000 X96.8072 Y57.3946 Z-8.6000 S1000
G1 F1000 X97.3076 Y56.9170 Z-8.6000 S1000
G1 F1000 X97.6853 Y56.3376 Z-8.6000 S1000
G1 F1000 X97.9203 Y55.6871 Z-8.6000 S1000
G1 F1000 X98.0000 Y55.0000 Z-8.6000 S1000
G1 F1000 X98.0000 Y0.0000 Z-8.6000 S1000
G1 F1000 X97.9491 Y-0.5500 Z-8.6000 S1000
G1 F1000 X97.7448 Y-1.2108 Z-8.6000 S1000
G1 F1000 X97.3946 Y-1.8072 Z-8.6000 S1000
G1 F1000 X96.9170 Y-2.3076 Z-8.6000 S1000
G1 F1000 X96.3376 Y-2.6853 Z-8.6000 S1000
G1 F1000 X95.6871 Y-2.9203 Z-8.6000 S1000
G1 F1000 X95.0000 Y-3.0000 Z-8.6000 S1000
; retracting back to z-safe
G0 Z10

M5 S0; Spindle Off
