; GCODE Generated by cam.openbuilds.com on 2021-04-29 
G21 ; mm-mode
G54; Work Coordinates
G21; mm-mode
G90; Absolute Positioning
M3 S1000; Spindle On

; Operation 2: CNC: Pocket
; Endmill Diameter: 6

G0 Z10; move to z-safe height
G0 F1000 X173.2910 Y12.6062

G0 Z0
G1 F300 Z-4.0000
G1 F1000 X12.0000 Y12.6062 Z-4.0000 S1000
G1 F1000 X12.0000 Y12.0000 Z-4.0000 S1000
G1 F1000 X173.2910 Y12.0000 Z-4.0000 S1000
G1 F1000 X173.2910 Y12.6062 Z-4.0000 S1000

G0 Z10; move to z-safe height
G0 X175.6910 Y15.0062

G0 Z0
G1 F300 Z-4.0000
G1 F1000 X9.6000 Y15.0062 Z-4.0000 S1000
G1 F1000 X9.6000 Y9.6000 Z-4.0000 S1000
G1 F1000 X175.6910 Y9.6000 Z-4.0000 S1000
G1 F1000 X175.6910 Y15.0062 Z-4.0000 S1000

G0 Z10; move to z-safe height
G0 X12.5957 Y46.9000

G0 Z0
G1 F300 Z-4.0000
G1 F1000 X12.6756 Y47.9696 Z-4.0000 S1000
G1 F1000 X12.9135 Y49.0154 Z-4.0000 S1000
G1 F1000 X13.3041 Y50.0143 Z-4.0000 S1000
G1 F1000 X13.5524 Y50.4461 Z-4.0000 S1000
G1 F1000 X7.2000 Y50.4461 Z-4.0000 S1000
G1 F1000 X7.2000 Y46.0002 Z-4.0000 S1000
G1 F1000 X12.5957 Y46.0002 Z-4.0000 S1000
G1 F1000 X12.5957 Y46.9000 Z-4.0000 S1000

G0 Z10; move to z-safe height
G0 X178.0910 Y50.4461

G0 Z0
G1 F300 Z-4.0000
G1 F1000 X171.7550 Y50.4461 Z-4.0000 S1000
G1 F1000 X172.1872 Y49.5569 Z-4.0000 S1000
G1 F1000 X172.5077 Y48.5333 Z-4.0000 S1000
G1 F1000 X172.6725 Y47.4735 Z-4.0000 S1000
G1 F1000 X172.6954 Y46.9000 Z-4.0000 S1000
G1 F1000 X172.6954 Y46.0002 Z-4.0000 S1000
G1 F1000 X178.0910 Y46.0002 Z-4.0000 S1000
G1 F1000 X178.0910 Y50.4461 Z-4.0000 S1000

G0 Z10; move to z-safe height
G0 X178.0910 Y17.4062

G0 Z0
G1 F300 Z-4.0000
G1 F1000 X7.2000 Y17.4062 Z-4.0000 S1000
G1 F1000 X7.2000 Y7.2000 Z-4.0000 S1000
G1 F1000 X178.0910 Y7.2000 Z-4.0000 S1000
G1 F1000 X178.0910 Y17.4062 Z-4.0000 S1000

G0 Z10; move to z-safe height
G0 X180.4910 Y52.8461

G0 Z0
G1 F300 Z-4.0000
G1 F1000 X4.8000 Y52.8461 Z-4.0000 S1000
G1 F1000 X4.8000 Y43.1090 Z-4.0000 S1000
G1 F1000 X5.5124 Y43.3966 Z-4.0000 S1000
G1 F1000 X6.3702 Y43.5713 Z-4.0000 S1000
G1 F1000 X6.8957 Y43.6002 Z-4.0000 S1000
G1 F1000 X14.9957 Y43.6002 Z-4.0000 S1000
G1 F1000 X14.9957 Y46.9000 Z-4.0000 S1000
G1 F1000 X15.0755 Y47.7718 Z-4.0000 S1000
G1 F1000 X15.3124 Y48.6146 Z-4.0000 S1000
G1 F1000 X15.6984 Y49.4004 Z-4.0000 S1000
G1 F1000 X16.2206 Y50.1029 Z-4.0000 S1000
G1 F1000 X16.8618 Y50.6990 Z-4.0000 S1000
G1 F1000 X17.6006 Y51.1687 Z-4.0000 S1000
G1 F1000 X18.4124 Y51.4964 Z-4.0000 S1000
G1 F1000 X19.2702 Y51.6711 Z-4.0000 S1000
G1 F1000 X19.7957 Y51.7000 Z-4.0000 S1000
G1 F1000 X165.4954 Y51.7000 Z-4.0000 S1000
G1 F1000 X166.3672 Y51.6202 Z-4.0000 S1000
G1 F1000 X167.2100 Y51.3833 Z-4.0000 S1000
G1 F1000 X167.9958 Y50.9973 Z-4.0000 S1000
G1 F1000 X168.6983 Y50.4751 Z-4.0000 S1000
G1 F1000 X169.2944 Y49.8339 Z-4.0000 S1000
G1 F1000 X169.7641 Y49.0951 Z-4.0000 S1000
G1 F1000 X170.0918 Y48.2833 Z-4.0000 S1000
G1 F1000 X170.2665 Y47.4255 Z-4.0000 S1000
G1 F1000 X170.2954 Y46.9000 Z-4.0000 S1000
G1 F1000 X170.2954 Y43.6002 Z-4.0000 S1000
G1 F1000 X178.3953 Y43.6002 Z-4.0000 S1000
G1 F1000 X179.2671 Y43.5204 Z-4.0000 S1000
G1 F1000 X180.1099 Y43.2835 Z-4.0000 S1000
G1 F1000 X180.4910 Y43.0963 Z-4.0000 S1000
G1 F1000 X180.4910 Y52.8461 Z-4.0000 S1000

G0 Z10; move to z-safe height
G0 X180.4910 Y20.2974

G0 Z0
G1 F300 Z-4.0000
G1 F1000 X179.7786 Y20.0098 Z-4.0000 S1000
G1 F1000 X178.9208 Y19.8351 Z-4.0000 S1000
G1 F1000 X178.3953 Y19.8062 Z-4.0000 S1000
G1 F1000 X6.8957 Y19.8062 Z-4.0000 S1000
G1 F1000 X6.0239 Y19.8860 Z-4.0000 S1000
G1 F1000 X5.1811 Y20.1229 Z-4.0000 S1000
G1 F1000 X4.8000 Y20.3101 Z-4.0000 S1000
G1 F1000 X4.8000 Y4.8000 Z-4.0000 S1000
G1 F1000 X180.4910 Y4.8000 Z-4.0000 S1000
G1 F1000 X180.4910 Y20.2974 Z-4.0000 S1000

G0 Z10; move to z-safe height
G0 X182.2910 Y54.6461

G0 Z0
G1 F300 Z-4.0000
G1 F1000 X3.0000 Y54.6461 Z-4.0000 S1000
G1 F1000 X3.0000 Y3.0000 Z-4.0000 S1000
G1 F1000 X182.2910 Y3.0000 Z-4.0000 S1000
G1 F1000 X182.2910 Y54.6461 Z-4.0000 S1000

G0 Z10; move to z-safe height
G0 X6.8957 Y21.6062

G0 Z0
G1 F300 Z-4.0000
G1 F1000 X6.2086 Y21.6859 Z-4.0000 S1000
G1 F1000 X5.5581 Y21.9209 Z-4.0000 S1000
G1 F1000 X4.9787 Y22.2986 Z-4.0000 S1000
G1 F1000 X4.5011 Y22.7990 Z-4.0000 S1000
G1 F1000 X4.1509 Y23.3954 Z-4.0000 S1000
G1 F1000 X3.9466 Y24.0562 Z-4.0000 S1000
G1 F1000 X3.8957 Y24.6062 Z-4.0000 S1000
G1 F1000 X3.8957 Y38.8002 Z-4.0000 S1000
G1 F1000 X3.9754 Y39.4873 Z-4.0000 S1000
G1 F1000 X4.2104 Y40.1378 Z-4.0000 S1000
G1 F1000 X4.5881 Y40.7172 Z-4.0000 S1000
G1 F1000 X5.0885 Y41.1948 Z-4.0000 S1000
G1 F1000 X5.6849 Y41.5450 Z-4.0000 S1000
G1 F1000 X6.3457 Y41.7493 Z-4.0000 S1000
G1 F1000 X6.8957 Y41.8002 Z-4.0000 S1000
G1 F1000 X16.7957 Y41.8002 Z-4.0000 S1000
G1 F1000 X16.7957 Y46.9000 Z-4.0000 S1000
G1 F1000 X16.8754 Y47.5871 Z-4.0000 S1000
G1 F1000 X17.1104 Y48.2376 Z-4.0000 S1000
G1 F1000 X17.4881 Y48.8170 Z-4.0000 S1000
G1 F1000 X17.9885 Y49.2946 Z-4.0000 S1000
G1 F1000 X18.5849 Y49.6448 Z-4.0000 S1000
G1 F1000 X19.2457 Y49.8491 Z-4.0000 S1000
G1 F1000 X19.7957 Y49.9000 Z-4.0000 S1000
G1 F1000 X165.4954 Y49.9000 Z-4.0000 S1000
G1 F1000 X166.1825 Y49.8203 Z-4.0000 S1000
G1 F1000 X166.8330 Y49.5853 Z-4.0000 S1000
G1 F1000 X167.4124 Y49.2076 Z-4.0000 S1000
G1 F1000 X167.8900 Y48.7072 Z-4.0000 S1000
G1 F1000 X168.2402 Y48.1108 Z-4.0000 S1000
G1 F1000 X168.4445 Y47.4500 Z-4.0000 S1000
G1 F1000 X168.4954 Y46.9000 Z-4.0000 S1000
G1 F1000 X168.4954 Y41.8002 Z-4.0000 S1000
G1 F1000 X178.3953 Y41.8002 Z-4.0000 S1000
G1 F1000 X179.0824 Y41.7205 Z-4.0000 S1000
G1 F1000 X179.7329 Y41.4855 Z-4.0000 S1000
G1 F1000 X180.3123 Y41.1078 Z-4.0000 S1000
G1 F1000 X180.7899 Y40.6074 Z-4.0000 S1000
G1 F1000 X181.1401 Y40.0110 Z-4.0000 S1000
G1 F1000 X181.3444 Y39.3502 Z-4.0000 S1000
G1 F1000 X181.3953 Y38.8002 Z-4.0000 S1000
G1 F1000 X181.3953 Y24.6062 Z-4.0000 S1000
G1 F1000 X181.3156 Y23.9191 Z-4.0000 S1000
G1 F1000 X181.0806 Y23.2686 Z-4.0000 S1000
G1 F1000 X180.7029 Y22.6892 Z-4.0000 S1000
G1 F1000 X180.2025 Y22.2116 Z-4.0000 S1000
G1 F1000 X179.6061 Y21.8614 Z-4.0000 S1000
G1 F1000 X178.9453 Y21.6571 Z-4.0000 S1000
G1 F1000 X178.3953 Y21.6062 Z-4.0000 S1000
G1 F1000 X6.8957 Y21.6062 Z-4.0000 S1000
; retracting back to z-safe
G0 Z10

M5 S0; Spindle Off
