; GCODE Generated by cam.openbuilds.com on 2021-04-29 
G21 ; mm-mode
G54; Work Coordinates
G21; mm-mode
G90; Absolute Positioning
M3 S1000; Spindle On

; Operation 1: Drill: Continuous (Centered)
; Endmill Diameter: 6

G0 Z10; move to z-safe height
G0 F1000 X165.6243 Y6.3750

G0 Z0
G1 F100 Z0.0000
G1 F1000 X165.6243 Y6.3750 Z-4.0000 S1000
G1 F1000 X165.6243 Y6.3750 Z0.0000 S1000

G0 Z10; move to z-safe height
G0 X165.6243 Y85.6247

G0 Z0
G1 F100 Z0.0000
G1 F1000 X165.6243 Y85.6247 Z-4.0000 S1000
G1 F1000 X165.6243 Y85.6247 Z0.0000 S1000

G0 Z10; move to z-safe height
G0 X6.3757 Y6.3750

G0 Z0
G1 F100 Z0.0000
G1 F1000 X6.3757 Y6.3750 Z-4.0000 S1000
G1 F1000 X6.3757 Y6.3750 Z0.0000 S1000

G0 Z10; move to z-safe height
G0 X6.3757 Y85.6247

G0 Z0
G1 F100 Z0.0000
G1 F1000 X6.3757 Y85.6247 Z-4.0000 S1000
G1 F1000 X6.3757 Y85.6247 Z0.0000 S1000
; retracting back to z-safe
G0 Z10
; Operation 2: CNC: Vector (path outside)
; Endmill Diameter: 6

G0 Z10; move to z-safe height
G0 F1000 X172.0000 Y-3.0000

G0 Z0
G1 F100 Z-3.0000
G1 F1000 X0.0000 Y-3.0000 Z-3.0000 S1000
G1 F1000 X-0.5500 Y-2.9491 Z-3.0000 S1000
G1 F1000 X-1.2108 Y-2.7448 Z-3.0000 S1000
G1 F1000 X-1.8072 Y-2.3946 Z-3.0000 S1000
G1 F1000 X-2.3076 Y-1.9170 Z-3.0000 S1000
G1 F1000 X-2.6853 Y-1.3376 Z-3.0000 S1000
G1 F1000 X-2.9203 Y-0.6871 Z-3.0000 S1000
G1 F1000 X-3.0000 Y0.0000 Z-3.0000 S1000
G1 F1000 X-3.0000 Y92.0000 Z-3.0000 S1000
G1 F1000 X-2.9491 Y92.5500 Z-3.0000 S1000
G1 F1000 X-2.7448 Y93.2108 Z-3.0000 S1000
G1 F1000 X-2.3946 Y93.8072 Z-3.0000 S1000
G1 F1000 X-1.9170 Y94.3076 Z-3.0000 S1000
G1 F1000 X-1.3376 Y94.6853 Z-3.0000 S1000
G1 F1000 X-0.6871 Y94.9203 Z-3.0000 S1000
G1 F1000 X0.0000 Y95.0000 Z-3.0000 S1000
G1 F1000 X172.0000 Y95.0000 Z-3.0000 S1000
G1 F1000 X172.5500 Y94.9491 Z-3.0000 S1000
G1 F1000 X173.2108 Y94.7448 Z-3.0000 S1000
G1 F1000 X173.8072 Y94.3946 Z-3.0000 S1000
G1 F1000 X174.3076 Y93.9170 Z-3.0000 S1000
G1 F1000 X174.6853 Y93.3376 Z-3.0000 S1000
G1 F1000 X174.9203 Y92.6871 Z-3.0000 S1000
G1 F1000 X175.0000 Y92.0000 Z-3.0000 S1000
G1 F1000 X175.0000 Y0.0000 Z-3.0000 S1000
G1 F1000 X174.9491 Y-0.5500 Z-3.0000 S1000
G1 F1000 X174.7448 Y-1.2108 Z-3.0000 S1000
G1 F1000 X174.3946 Y-1.8072 Z-3.0000 S1000
G1 F1000 X173.9170 Y-2.3076 Z-3.0000 S1000
G1 F1000 X173.3376 Y-2.6853 Z-3.0000 S1000
G1 F1000 X172.6871 Y-2.9203 Z-3.0000 S1000
G1 F1000 X172.0000 Y-3.0000 Z-3.0000 S1000
G1 F100 Z-6.0000
G1 F1000 X91.5000 Y-3.0000 Z-6.0000 S1000
G1 F1000 X91.5000 Y-3.0000 Z-5.6000 S1000
G1 F1000 X80.5000 Y-3.0000 Z-5.6000 S1000
G1 F1000 X80.5000 Y-3.0000 Z-6.0000 S1000
G1 F1000 X0.0000 Y-3.0000 Z-6.0000 S1000
G1 F1000 X0.0000 Y-3.0000 Z-6.0000 S1000
G1 F1000 X-0.5500 Y-2.9491 Z-6.0000 S1000
G1 F1000 X-1.2108 Y-2.7448 Z-6.0000 S1000
G1 F1000 X-1.8072 Y-2.3946 Z-6.0000 S1000
G1 F1000 X-2.3076 Y-1.9170 Z-6.0000 S1000
G1 F1000 X-2.6853 Y-1.3376 Z-6.0000 S1000
G1 F1000 X-2.9203 Y-0.6871 Z-6.0000 S1000
G1 F1000 X-3.0000 Y0.0000 Z-6.0000 S1000
G1 F1000 X-3.0000 Y40.5000 Z-6.0000 S1000
G1 F1000 X-3.0000 Y40.5000 Z-5.6000 S1000
G1 F1000 X-3.0000 Y51.5000 Z-5.6000 S1000
G1 F1000 X-3.0000 Y51.5000 Z-6.0000 S1000
G1 F1000 X-3.0000 Y92.0000 Z-6.0000 S1000
G1 F1000 X-3.0000 Y92.0000 Z-6.0000 S1000
G1 F1000 X-2.9491 Y92.5500 Z-6.0000 S1000
G1 F1000 X-2.7448 Y93.2108 Z-6.0000 S1000
G1 F1000 X-2.3946 Y93.8072 Z-6.0000 S1000
G1 F1000 X-1.9170 Y94.3076 Z-6.0000 S1000
G1 F1000 X-1.3376 Y94.6853 Z-6.0000 S1000
G1 F1000 X-0.6871 Y94.9203 Z-6.0000 S1000
G1 F1000 X0.0000 Y95.0000 Z-6.0000 S1000
G1 F1000 X172.0000 Y95.0000 Z-6.0000 S1000
G1 F1000 X172.5500 Y94.9491 Z-6.0000 S1000
G1 F1000 X173.2108 Y94.7448 Z-6.0000 S1000
G1 F1000 X173.8072 Y94.3946 Z-6.0000 S1000
G1 F1000 X174.3076 Y93.9170 Z-6.0000 S1000
G1 F1000 X174.6853 Y93.3376 Z-6.0000 S1000
G1 F1000 X174.9203 Y92.6871 Z-6.0000 S1000
G1 F1000 X175.0000 Y92.0000 Z-6.0000 S1000
G1 F1000 X175.0000 Y51.5000 Z-6.0000 S1000
G1 F1000 X175.0000 Y51.5000 Z-5.6000 S1000
G1 F1000 X175.0000 Y40.5000 Z-5.6000 S1000
G1 F1000 X175.0000 Y40.5000 Z-6.0000 S1000
G1 F1000 X175.0000 Y0.0000 Z-6.0000 S1000
G1 F1000 X175.0000 Y0.0000 Z-6.0000 S1000
G1 F1000 X174.9491 Y-0.5500 Z-6.0000 S1000
G1 F1000 X174.7448 Y-1.2108 Z-6.0000 S1000
G1 F1000 X174.3946 Y-1.8072 Z-6.0000 S1000
G1 F1000 X173.9170 Y-2.3076 Z-6.0000 S1000
G1 F1000 X173.3376 Y-2.6853 Z-6.0000 S1000
G1 F1000 X172.6871 Y-2.9203 Z-6.0000 S1000
G1 F1000 X172.0000 Y-3.0000 Z-6.0000 S1000
G1 F100 Z-8.6000
G1 F1000 X91.5000 Y-3.0000 Z-8.6000 S1000
G1 F1000 X91.5000 Y-3.0000 Z-5.6000 S1000
G1 F1000 X80.5000 Y-3.0000 Z-5.6000 S1000
G1 F1000 X80.5000 Y-3.0000 Z-8.6000 S1000
G1 F1000 X0.0000 Y-3.0000 Z-8.6000 S1000
G1 F1000 X0.0000 Y-3.0000 Z-8.6000 S1000
G1 F1000 X-0.5500 Y-2.9491 Z-8.6000 S1000
G1 F1000 X-1.2108 Y-2.7448 Z-8.6000 S1000
G1 F1000 X-1.8072 Y-2.3946 Z-8.6000 S1000
G1 F1000 X-2.3076 Y-1.9170 Z-8.6000 S1000
G1 F1000 X-2.6853 Y-1.3376 Z-8.6000 S1000
G1 F1000 X-2.9203 Y-0.6871 Z-8.6000 S1000
G1 F1000 X-3.0000 Y0.0000 Z-8.6000 S1000
G1 F1000 X-3.0000 Y40.5000 Z-8.6000 S1000
G1 F1000 X-3.0000 Y40.5000 Z-5.6000 S1000
G1 F1000 X-3.0000 Y51.5000 Z-5.6000 S1000
G1 F1000 X-3.0000 Y51.5000 Z-8.6000 S1000
G1 F1000 X-3.0000 Y92.0000 Z-8.6000 S1000
G1 F1000 X-3.0000 Y92.0000 Z-8.6000 S1000
G1 F1000 X-2.9491 Y92.5500 Z-8.6000 S1000
G1 F1000 X-2.7448 Y93.2108 Z-8.6000 S1000
G1 F1000 X-2.3946 Y93.8072 Z-8.6000 S1000
G1 F1000 X-1.9170 Y94.3076 Z-8.6000 S1000
G1 F1000 X-1.3376 Y94.6853 Z-8.6000 S1000
G1 F1000 X-0.6871 Y94.9203 Z-8.6000 S1000
G1 F1000 X0.0000 Y95.0000 Z-8.6000 S1000
G1 F1000 X172.0000 Y95.0000 Z-8.6000 S1000
G1 F1000 X172.5500 Y94.9491 Z-8.6000 S1000
G1 F1000 X173.2108 Y94.7448 Z-8.6000 S1000
G1 F1000 X173.8072 Y94.3946 Z-8.6000 S1000
G1 F1000 X174.3076 Y93.9170 Z-8.6000 S1000
G1 F1000 X174.6853 Y93.3376 Z-8.6000 S1000
G1 F1000 X174.9203 Y92.6871 Z-8.6000 S1000
G1 F1000 X175.0000 Y92.0000 Z-8.6000 S1000
G1 F1000 X175.0000 Y51.5000 Z-8.6000 S1000
G1 F1000 X175.0000 Y51.5000 Z-5.6000 S1000
G1 F1000 X175.0000 Y40.5000 Z-5.6000 S1000
G1 F1000 X175.0000 Y40.5000 Z-8.6000 S1000
G1 F1000 X175.0000 Y0.0000 Z-8.6000 S1000
G1 F1000 X175.0000 Y0.0000 Z-8.6000 S1000
G1 F1000 X174.9491 Y-0.5500 Z-8.6000 S1000
G1 F1000 X174.7448 Y-1.2108 Z-8.6000 S1000
G1 F1000 X174.3946 Y-1.8072 Z-8.6000 S1000
G1 F1000 X173.9170 Y-2.3076 Z-8.6000 S1000
G1 F1000 X173.3376 Y-2.6853 Z-8.6000 S1000
G1 F1000 X172.6871 Y-2.9203 Z-8.6000 S1000
G1 F1000 X172.0000 Y-3.0000 Z-8.6000 S1000
; retracting back to z-safe
G0 Z10

M5 S0; Spindle Off
