; GCODE Generated by cam.openbuilds.com on 2021-04-29 
G21 ; mm-mode
G54; Work Coordinates
G21; mm-mode
G90; Absolute Positioning
M3 S1000; Spindle On

; Operation 1: Drill: Continuous (Centered)
; Endmill Diameter: 6

G0 Z10; move to z-safe height
G0 F1000 X100.8572 Y12.0352

G0 Z0
G1 F100 Z0.0000
G1 F1000 X100.8572 Y12.0352 Z-3.5000 S1000
G1 F1000 X100.8572 Y12.0352 Z0.0000 S1000

G0 Z10; move to z-safe height
G0 X82.8850 Y12.0352

G0 Z0
G1 F100 Z0.0000
G1 F1000 X82.8850 Y12.0352 Z-3.5000 S1000
G1 F1000 X82.8850 Y12.0352 Z0.0000 S1000

G0 Z10; move to z-safe height
G0 X28.9709 Y12.0352

G0 Z0
G1 F100 Z0.0000
G1 F1000 X28.9709 Y12.0352 Z-3.5000 S1000
G1 F1000 X28.9709 Y12.0352 Z0.0000 S1000

G0 Z10; move to z-safe height
G0 X23.1999 Y12.0352

G0 Z0
G1 F100 Z0.0000
G1 F1000 X23.1999 Y12.0352 Z-3.5000 S1000
G1 F1000 X23.1999 Y12.0352 Z0.0000 S1000

G0 Z10; move to z-safe height
G0 X59.1418 Y12.0352

G0 Z0
G1 F100 Z0.0000
G1 F1000 X59.1418 Y12.0352 Z-3.5000 S1000
G1 F1000 X59.1418 Y12.0352 Z0.0000 S1000

G0 Z10; move to z-safe height
G0 X64.9138 Y12.0352

G0 Z0
G1 F100 Z0.0000
G1 F1000 X64.9138 Y12.0352 Z-3.5000 S1000
G1 F1000 X64.9138 Y12.0352 Z0.0000 S1000

G0 Z10; move to z-safe height
G0 X136.8000 Y12.0352

G0 Z0
G1 F100 Z0.0000
G1 F1000 X136.8000 Y12.0352 Z-3.5000 S1000
G1 F1000 X136.8000 Y12.0352 Z0.0000 S1000

G0 Z10; move to z-safe height
G0 X118.8284 Y12.0352

G0 Z0
G1 F100 Z0.0000
G1 F1000 X118.8284 Y12.0352 Z-3.5000 S1000
G1 F1000 X118.8284 Y12.0352 Z0.0000 S1000

G0 Z10; move to z-safe height
G0 X41.1709 Y12.0352

G0 Z0
G1 F100 Z0.0000
G1 F1000 X41.1709 Y12.0352 Z-3.5000 S1000
G1 F1000 X41.1709 Y12.0352 Z0.0000 S1000

G0 Z10; move to z-safe height
G0 X11.0000 Y12.0352

G0 Z0
G1 F100 Z0.0000
G1 F1000 X11.0000 Y12.0352 Z-3.5000 S1000
G1 F1000 X11.0000 Y12.0352 Z0.0000 S1000

G0 Z10; move to z-safe height
G0 X131.0283 Y12.0352

G0 Z0
G1 F100 Z0.0000
G1 F1000 X131.0283 Y12.0352 Z-3.5000 S1000
G1 F1000 X131.0283 Y12.0352 Z0.0000 S1000

G0 Z10; move to z-safe height
G0 X95.0849 Y12.0352

G0 Z0
G1 F100 Z0.0000
G1 F1000 X95.0849 Y12.0352 Z-3.5000 S1000
G1 F1000 X95.0849 Y12.0352 Z0.0000 S1000

G0 Z10; move to z-safe height
G0 X46.9419 Y12.0352

G0 Z0
G1 F100 Z0.0000
G1 F1000 X46.9419 Y12.0352 Z-3.5000 S1000
G1 F1000 X46.9419 Y12.0352 Z0.0000 S1000

G0 Z10; move to z-safe height
G0 X77.1138 Y12.0352

G0 Z0
G1 F100 Z0.0000
G1 F1000 X77.1138 Y12.0352 Z-3.5000 S1000
G1 F1000 X77.1138 Y12.0352 Z0.0000 S1000

G0 Z10; move to z-safe height
G0 X149.0000 Y12.0352

G0 Z0
G1 F100 Z0.0000
G1 F1000 X149.0000 Y12.0352 Z-3.5000 S1000
G1 F1000 X149.0000 Y12.0352 Z0.0000 S1000

G0 Z10; move to z-safe height
G0 X113.0571 Y12.0352

G0 Z0
G1 F100 Z0.0000
G1 F1000 X113.0571 Y12.0352 Z-3.5000 S1000
G1 F1000 X113.0571 Y12.0352 Z0.0000 S1000
; retracting back to z-safe
G0 Z10
; Operation 2: CNC: Vector (path outside)
; Endmill Diameter: 6

G0 Z10; move to z-safe height
G0 F1000 X160.0000 Y-3.0000

G0 Z0
G1 F100 Z-3.0000
G1 F1000 X0.0000 Y-3.0000 Z-3.0000 S1000
G1 F1000 X-0.5500 Y-2.9491 Z-3.0000 S1000
G1 F1000 X-1.2108 Y-2.7448 Z-3.0000 S1000
G1 F1000 X-1.8072 Y-2.3946 Z-3.0000 S1000
G1 F1000 X-2.3076 Y-1.9170 Z-3.0000 S1000
G1 F1000 X-2.6853 Y-1.3376 Z-3.0000 S1000
G1 F1000 X-2.9203 Y-0.6871 Z-3.0000 S1000
G1 F1000 X-3.0000 Y0.0000 Z-3.0000 S1000
G1 F1000 X-3.0000 Y26.0000 Z-3.0000 S1000
G1 F1000 X-2.9491 Y26.5500 Z-3.0000 S1000
G1 F1000 X-2.7448 Y27.2108 Z-3.0000 S1000
G1 F1000 X-2.3946 Y27.8072 Z-3.0000 S1000
G1 F1000 X-1.9170 Y28.3076 Z-3.0000 S1000
G1 F1000 X-1.3376 Y28.6853 Z-3.0000 S1000
G1 F1000 X-0.6871 Y28.9203 Z-3.0000 S1000
G1 F1000 X0.0000 Y29.0000 Z-3.0000 S1000
G1 F1000 X160.0000 Y29.0000 Z-3.0000 S1000
G1 F1000 X160.5500 Y28.9491 Z-3.0000 S1000
G1 F1000 X161.2108 Y28.7448 Z-3.0000 S1000
G1 F1000 X161.8072 Y28.3946 Z-3.0000 S1000
G1 F1000 X162.3076 Y27.9170 Z-3.0000 S1000
G1 F1000 X162.6853 Y27.3376 Z-3.0000 S1000
G1 F1000 X162.9203 Y26.6871 Z-3.0000 S1000
G1 F1000 X163.0000 Y26.0000 Z-3.0000 S1000
G1 F1000 X163.0000 Y0.0000 Z-3.0000 S1000
G1 F1000 X162.9491 Y-0.5500 Z-3.0000 S1000
G1 F1000 X162.7448 Y-1.2108 Z-3.0000 S1000
G1 F1000 X162.3946 Y-1.8072 Z-3.0000 S1000
G1 F1000 X161.9170 Y-2.3076 Z-3.0000 S1000
G1 F1000 X161.3376 Y-2.6853 Z-3.0000 S1000
G1 F1000 X160.6871 Y-2.9203 Z-3.0000 S1000
G1 F1000 X160.0000 Y-3.0000 Z-3.0000 S1000
G1 F100 Z-6.0000
G1 F1000 X125.5000 Y-3.0000 Z-6.0000 S1000
G1 F1000 X125.5000 Y-3.0000 Z-5.6000 S1000
G1 F1000 X114.5000 Y-3.0000 Z-5.6000 S1000
G1 F1000 X114.5000 Y-3.0000 Z-6.0000 S1000
G1 F1000 X80.0000 Y-3.0000 Z-6.0000 S1000
G1 F1000 X45.5000 Y-3.0000 Z-6.0000 S1000
G1 F1000 X45.5000 Y-3.0000 Z-5.6000 S1000
G1 F1000 X34.5000 Y-3.0000 Z-5.6000 S1000
G1 F1000 X34.5000 Y-3.0000 Z-6.0000 S1000
G1 F1000 X0.0000 Y-3.0000 Z-6.0000 S1000
G1 F1000 X0.0000 Y-3.0000 Z-6.0000 S1000
G1 F1000 X-0.5500 Y-2.9491 Z-6.0000 S1000
G1 F1000 X-1.2108 Y-2.7448 Z-6.0000 S1000
G1 F1000 X-1.8072 Y-2.3946 Z-6.0000 S1000
G1 F1000 X-2.3076 Y-1.9170 Z-6.0000 S1000
G1 F1000 X-2.6853 Y-1.3376 Z-6.0000 S1000
G1 F1000 X-2.9203 Y-0.6871 Z-6.0000 S1000
G1 F1000 X-3.0000 Y0.0000 Z-6.0000 S1000
G1 F1000 X-3.0000 Y26.0000 Z-6.0000 S1000
G1 F1000 X-2.9491 Y26.5500 Z-6.0000 S1000
G1 F1000 X-2.7448 Y27.2108 Z-6.0000 S1000
G1 F1000 X-2.3946 Y27.8072 Z-6.0000 S1000
G1 F1000 X-1.9170 Y28.3076 Z-6.0000 S1000
G1 F1000 X-1.3376 Y28.6853 Z-6.0000 S1000
G1 F1000 X-0.6871 Y28.9203 Z-6.0000 S1000
G1 F1000 X0.0000 Y29.0000 Z-6.0000 S1000
G1 F1000 X160.0000 Y29.0000 Z-6.0000 S1000
G1 F1000 X160.5500 Y28.9491 Z-6.0000 S1000
G1 F1000 X161.2108 Y28.7448 Z-6.0000 S1000
G1 F1000 X161.8072 Y28.3946 Z-6.0000 S1000
G1 F1000 X162.3076 Y27.9170 Z-6.0000 S1000
G1 F1000 X162.6853 Y27.3376 Z-6.0000 S1000
G1 F1000 X162.9203 Y26.6871 Z-6.0000 S1000
G1 F1000 X163.0000 Y26.0000 Z-6.0000 S1000
G1 F1000 X163.0000 Y0.0000 Z-6.0000 S1000
G1 F1000 X162.9491 Y-0.5500 Z-6.0000 S1000
G1 F1000 X162.7448 Y-1.2108 Z-6.0000 S1000
G1 F1000 X162.3946 Y-1.8072 Z-6.0000 S1000
G1 F1000 X161.9170 Y-2.3076 Z-6.0000 S1000
G1 F1000 X161.3376 Y-2.6853 Z-6.0000 S1000
G1 F1000 X160.6871 Y-2.9203 Z-6.0000 S1000
G1 F1000 X160.0000 Y-3.0000 Z-6.0000 S1000
G1 F100 Z-8.6000
G1 F1000 X125.5000 Y-3.0000 Z-8.6000 S1000
G1 F1000 X125.5000 Y-3.0000 Z-5.6000 S1000
G1 F1000 X114.5000 Y-3.0000 Z-5.6000 S1000
G1 F1000 X114.5000 Y-3.0000 Z-8.6000 S1000
G1 F1000 X80.0000 Y-3.0000 Z-8.6000 S1000
G1 F1000 X45.5000 Y-3.0000 Z-8.6000 S1000
G1 F1000 X45.5000 Y-3.0000 Z-5.6000 S1000
G1 F1000 X34.5000 Y-3.0000 Z-5.6000 S1000
G1 F1000 X34.5000 Y-3.0000 Z-8.6000 S1000
G1 F1000 X0.0000 Y-3.0000 Z-8.6000 S1000
G1 F1000 X0.0000 Y-3.0000 Z-8.6000 S1000
G1 F1000 X-0.5500 Y-2.9491 Z-8.6000 S1000
G1 F1000 X-1.2108 Y-2.7448 Z-8.6000 S1000
G1 F1000 X-1.8072 Y-2.3946 Z-8.6000 S1000
G1 F1000 X-2.3076 Y-1.9170 Z-8.6000 S1000
G1 F1000 X-2.6853 Y-1.3376 Z-8.6000 S1000
G1 F1000 X-2.9203 Y-0.6871 Z-8.6000 S1000
G1 F1000 X-3.0000 Y0.0000 Z-8.6000 S1000
G1 F1000 X-3.0000 Y26.0000 Z-8.6000 S1000
G1 F1000 X-2.9491 Y26.5500 Z-8.6000 S1000
G1 F1000 X-2.7448 Y27.2108 Z-8.6000 S1000
G1 F1000 X-2.3946 Y27.8072 Z-8.6000 S1000
G1 F1000 X-1.9170 Y28.3076 Z-8.6000 S1000
G1 F1000 X-1.3376 Y28.6853 Z-8.6000 S1000
G1 F1000 X-0.6871 Y28.9203 Z-8.6000 S1000
G1 F1000 X0.0000 Y29.0000 Z-8.6000 S1000
G1 F1000 X160.0000 Y29.0000 Z-8.6000 S1000
G1 F1000 X160.5500 Y28.9491 Z-8.6000 S1000
G1 F1000 X161.2108 Y28.7448 Z-8.6000 S1000
G1 F1000 X161.8072 Y28.3946 Z-8.6000 S1000
G1 F1000 X162.3076 Y27.9170 Z-8.6000 S1000
G1 F1000 X162.6853 Y27.3376 Z-8.6000 S1000
G1 F1000 X162.9203 Y26.6871 Z-8.6000 S1000
G1 F1000 X163.0000 Y26.0000 Z-8.6000 S1000
G1 F1000 X163.0000 Y0.0000 Z-8.6000 S1000
G1 F1000 X162.9491 Y-0.5500 Z-8.6000 S1000
G1 F1000 X162.7448 Y-1.2108 Z-8.6000 S1000
G1 F1000 X162.3946 Y-1.8072 Z-8.6000 S1000
G1 F1000 X161.9170 Y-2.3076 Z-8.6000 S1000
G1 F1000 X161.3376 Y-2.6853 Z-8.6000 S1000
G1 F1000 X160.6871 Y-2.9203 Z-8.6000 S1000
G1 F1000 X160.0000 Y-3.0000 Z-8.6000 S1000
; retracting back to z-safe
G0 Z10

M5 S0; Spindle Off
