; GCODE Generated by cam.openbuilds.com on 2021-04-29 
G21 ; mm-mode
G54; Work Coordinates
G21; mm-mode
G90; Absolute Positioning
M3 S1000; Spindle On

; Operation 0: Drill: Peck (Centered)
; Endmill Diameter: 3.17

G0 Z10; move to z-safe height
G0 F1000 X83.2500 Y53.2500

G0 Z0
G1 F100 Z0.0000
G1 F1000 X83.2500 Y53.2500 Z0.0000 S1000
G1 F1000 X83.2500 Y53.2500 Z0.0000 S1000
G1 F100 Z0.0000
G1 F1000 X83.2500 Y53.2500 Z-1.5000 S1000
G1 F1000 X83.2500 Y53.2500 Z0.0000 S1000
G1 F100 Z-1.5000
G1 F1000 X83.2500 Y53.2500 Z-3.0000 S1000
G1 F1000 X83.2500 Y53.2500 Z0.0000 S1000
G1 F100 Z-3.0000
G1 F1000 X83.2500 Y53.2500 Z-4.5000 S1000
G1 F1000 X83.2500 Y53.2500 Z0.0000 S1000
G1 F100 Z-4.5000
G1 F1000 X83.2500 Y53.2500 Z-6.0000 S1000
G1 F1000 X83.2500 Y53.2500 Z0.0000 S1000
G1 F100 Z-6.0000
G1 F1000 X83.2500 Y53.2500 Z-7.5000 S1000
G1 F1000 X83.2500 Y53.2500 Z0.0000 S1000
G1 F100 Z-7.5000
G1 F1000 X83.2500 Y53.2500 Z-8.6000 S1000
G1 F1000 X83.2500 Y53.2500 Z0.0000 S1000

G0 Z10; move to z-safe height
G0 X3.2500 Y3.2500

G0 Z0
G1 F100 Z0.0000
G1 F1000 X3.2500 Y3.2500 Z0.0000 S1000
G1 F1000 X3.2500 Y3.2500 Z0.0000 S1000
G1 F100 Z0.0000
G1 F1000 X3.2500 Y3.2500 Z-1.5000 S1000
G1 F1000 X3.2500 Y3.2500 Z0.0000 S1000
G1 F100 Z-1.5000
G1 F1000 X3.2500 Y3.2500 Z-3.0000 S1000
G1 F1000 X3.2500 Y3.2500 Z0.0000 S1000
G1 F100 Z-3.0000
G1 F1000 X3.2500 Y3.2500 Z-4.5000 S1000
G1 F1000 X3.2500 Y3.2500 Z0.0000 S1000
G1 F100 Z-4.5000
G1 F1000 X3.2500 Y3.2500 Z-6.0000 S1000
G1 F1000 X3.2500 Y3.2500 Z0.0000 S1000
G1 F100 Z-6.0000
G1 F1000 X3.2500 Y3.2500 Z-7.5000 S1000
G1 F1000 X3.2500 Y3.2500 Z0.0000 S1000
G1 F100 Z-7.5000
G1 F1000 X3.2500 Y3.2500 Z-8.6000 S1000
G1 F1000 X3.2500 Y3.2500 Z0.0000 S1000

G0 Z10; move to z-safe height
G0 X3.2500 Y53.2500

G0 Z0
G1 F100 Z0.0000
G1 F1000 X3.2500 Y53.2500 Z0.0000 S1000
G1 F1000 X3.2500 Y53.2500 Z0.0000 S1000
G1 F100 Z0.0000
G1 F1000 X3.2500 Y53.2500 Z-1.5000 S1000
G1 F1000 X3.2500 Y53.2500 Z0.0000 S1000
G1 F100 Z-1.5000
G1 F1000 X3.2500 Y53.2500 Z-3.0000 S1000
G1 F1000 X3.2500 Y53.2500 Z0.0000 S1000
G1 F100 Z-3.0000
G1 F1000 X3.2500 Y53.2500 Z-4.5000 S1000
G1 F1000 X3.2500 Y53.2500 Z0.0000 S1000
G1 F100 Z-4.5000
G1 F1000 X3.2500 Y53.2500 Z-6.0000 S1000
G1 F1000 X3.2500 Y53.2500 Z0.0000 S1000
G1 F100 Z-6.0000
G1 F1000 X3.2500 Y53.2500 Z-7.5000 S1000
G1 F1000 X3.2500 Y53.2500 Z0.0000 S1000
G1 F100 Z-7.5000
G1 F1000 X3.2500 Y53.2500 Z-8.6000 S1000
G1 F1000 X3.2500 Y53.2500 Z0.0000 S1000

G0 Z10; move to z-safe height
G0 X83.2500 Y3.2500

G0 Z0
G1 F100 Z0.0000
G1 F1000 X83.2500 Y3.2500 Z0.0000 S1000
G1 F1000 X83.2500 Y3.2500 Z0.0000 S1000
G1 F100 Z0.0000
G1 F1000 X83.2500 Y3.2500 Z-1.5000 S1000
G1 F1000 X83.2500 Y3.2500 Z0.0000 S1000
G1 F100 Z-1.5000
G1 F1000 X83.2500 Y3.2500 Z-3.0000 S1000
G1 F1000 X83.2500 Y3.2500 Z0.0000 S1000
G1 F100 Z-3.0000
G1 F1000 X83.2500 Y3.2500 Z-4.5000 S1000
G1 F1000 X83.2500 Y3.2500 Z0.0000 S1000
G1 F100 Z-4.5000
G1 F1000 X83.2500 Y3.2500 Z-6.0000 S1000
G1 F1000 X83.2500 Y3.2500 Z0.0000 S1000
G1 F100 Z-6.0000
G1 F1000 X83.2500 Y3.2500 Z-7.5000 S1000
G1 F1000 X83.2500 Y3.2500 Z0.0000 S1000
G1 F100 Z-7.5000
G1 F1000 X83.2500 Y3.2500 Z-8.6000 S1000
G1 F1000 X83.2500 Y3.2500 Z0.0000 S1000
; retracting back to z-safe
G0 Z10
; Operation 1: CNC: Vector (path inside)
; Endmill Diameter: 3.17

G0 Z10; move to z-safe height
G0 F1000 X63.7269 Y52.1211

G0 Z0
G1 F100 Z-1.5000
G1 F1000 X63.8435 Y52.2379 Z-1.5000 S1000
G1 F1000 X63.8864 Y52.3982 Z-1.5000 S1000
G1 F1000 X63.8435 Y52.5586 Z-1.5000 S1000
G1 F1000 X63.7269 Y52.6754 Z-1.5000 S1000
G1 F1000 X63.5681 Y52.7180 Z-1.5000 S1000
G1 F1000 X63.4093 Y52.6754 Z-1.5000 S1000
G1 F1000 X63.2927 Y52.5586 Z-1.5000 S1000
G1 F1000 X63.2498 Y52.3982 Z-1.5000 S1000
G1 F1000 X63.2927 Y52.2379 Z-1.5000 S1000
G1 F1000 X63.4093 Y52.1211 Z-1.5000 S1000
G1 F1000 X63.5681 Y52.0785 Z-1.5000 S1000
G1 F1000 X63.7269 Y52.1211 Z-1.5000 S1000
G1 F100 Z-3.0000
G1 F1000 X63.8435 Y52.2379 Z-3.0000 S1000
G1 F1000 X63.8864 Y52.3982 Z-3.0000 S1000
G1 F1000 X63.8435 Y52.5586 Z-3.0000 S1000
G1 F1000 X63.7269 Y52.6754 Z-3.0000 S1000
G1 F1000 X63.5681 Y52.7180 Z-3.0000 S1000
G1 F1000 X63.4093 Y52.6754 Z-3.0000 S1000
G1 F1000 X63.2927 Y52.5586 Z-3.0000 S1000
G1 F1000 X63.2498 Y52.3982 Z-3.0000 S1000
G1 F1000 X63.2927 Y52.2379 Z-3.0000 S1000
G1 F1000 X63.4093 Y52.1211 Z-3.0000 S1000
G1 F1000 X63.5681 Y52.0785 Z-3.0000 S1000
G1 F1000 X63.7269 Y52.1211 Z-3.0000 S1000
G1 F100 Z-4.5000
G1 F1000 X63.8435 Y52.2379 Z-4.5000 S1000
G1 F1000 X63.8864 Y52.3982 Z-4.5000 S1000
G1 F1000 X63.8435 Y52.5586 Z-4.5000 S1000
G1 F1000 X63.7269 Y52.6754 Z-4.5000 S1000
G1 F1000 X63.5681 Y52.7180 Z-4.5000 S1000
G1 F1000 X63.4093 Y52.6754 Z-4.5000 S1000
G1 F1000 X63.2927 Y52.5586 Z-4.5000 S1000
G1 F1000 X63.2498 Y52.3982 Z-4.5000 S1000
G1 F1000 X63.2927 Y52.2379 Z-4.5000 S1000
G1 F1000 X63.4093 Y52.1211 Z-4.5000 S1000
G1 F1000 X63.5681 Y52.0785 Z-4.5000 S1000
G1 F1000 X63.7269 Y52.1211 Z-4.5000 S1000
G1 F100 Z-6.0000
G1 F1000 X63.8435 Y52.2379 Z-6.0000 S1000
G1 F1000 X63.8864 Y52.3982 Z-6.0000 S1000
G1 F1000 X63.8435 Y52.5586 Z-6.0000 S1000
G1 F1000 X63.7269 Y52.6754 Z-6.0000 S1000
G1 F1000 X63.5681 Y52.7180 Z-6.0000 S1000
G1 F1000 X63.4093 Y52.6754 Z-6.0000 S1000
G1 F1000 X63.2927 Y52.5586 Z-6.0000 S1000
G1 F1000 X63.2498 Y52.3982 Z-6.0000 S1000
G1 F1000 X63.2927 Y52.2379 Z-6.0000 S1000
G1 F1000 X63.4093 Y52.1211 Z-6.0000 S1000
G1 F1000 X63.5681 Y52.0785 Z-6.0000 S1000
G1 F1000 X63.7269 Y52.1211 Z-6.0000 S1000
G1 F100 Z-7.5000
G1 F1000 X63.8435 Y52.2379 Z-7.5000 S1000
G1 F1000 X63.8864 Y52.3982 Z-7.5000 S1000
G1 F1000 X63.8435 Y52.5586 Z-7.5000 S1000
G1 F1000 X63.7269 Y52.6754 Z-7.5000 S1000
G1 F1000 X63.5681 Y52.7180 Z-7.5000 S1000
G1 F1000 X63.4093 Y52.6754 Z-7.5000 S1000
G1 F1000 X63.2927 Y52.5586 Z-7.5000 S1000
G1 F1000 X63.2498 Y52.3982 Z-7.5000 S1000
G1 F1000 X63.2927 Y52.2379 Z-7.5000 S1000
G1 F1000 X63.4093 Y52.1211 Z-7.5000 S1000
G1 F1000 X63.5681 Y52.0785 Z-7.5000 S1000
G1 F1000 X63.7269 Y52.1211 Z-7.5000 S1000
G1 F100 Z-8.6000
G1 F1000 X63.8435 Y52.2379 Z-8.6000 S1000
G1 F1000 X63.8864 Y52.3982 Z-8.6000 S1000
G1 F1000 X63.8435 Y52.5586 Z-8.6000 S1000
G1 F1000 X63.7269 Y52.6754 Z-8.6000 S1000
G1 F1000 X63.5681 Y52.7180 Z-8.6000 S1000
G1 F1000 X63.4093 Y52.6754 Z-8.6000 S1000
G1 F1000 X63.2927 Y52.5586 Z-8.6000 S1000
G1 F1000 X63.2498 Y52.3982 Z-8.6000 S1000
G1 F1000 X63.2927 Y52.2379 Z-8.6000 S1000
G1 F1000 X63.4093 Y52.1211 Z-8.6000 S1000
G1 F1000 X63.5681 Y52.0785 Z-8.6000 S1000
G1 F1000 X63.7269 Y52.1211 Z-8.6000 S1000

G0 Z10; move to z-safe height
G0 X62.4569 Y3.8246

G0 Z0
G1 F100 Z-1.5000
G1 F1000 X62.5735 Y3.9414 Z-1.5000 S1000
G1 F1000 X62.6164 Y4.1017 Z-1.5000 S1000
G1 F1000 X62.5735 Y4.2621 Z-1.5000 S1000
G1 F1000 X62.4569 Y4.3789 Z-1.5000 S1000
G1 F1000 X62.2981 Y4.4215 Z-1.5000 S1000
G1 F1000 X62.1393 Y4.3789 Z-1.5000 S1000
G1 F1000 X62.0227 Y4.2621 Z-1.5000 S1000
G1 F1000 X61.9798 Y4.1017 Z-1.5000 S1000
G1 F1000 X62.0227 Y3.9414 Z-1.5000 S1000
G1 F1000 X62.1393 Y3.8246 Z-1.5000 S1000
G1 F1000 X62.2981 Y3.7820 Z-1.5000 S1000
G1 F1000 X62.4569 Y3.8246 Z-1.5000 S1000
G1 F100 Z-3.0000
G1 F1000 X62.5735 Y3.9414 Z-3.0000 S1000
G1 F1000 X62.6164 Y4.1017 Z-3.0000 S1000
G1 F1000 X62.5735 Y4.2621 Z-3.0000 S1000
G1 F1000 X62.4569 Y4.3789 Z-3.0000 S1000
G1 F1000 X62.2981 Y4.4215 Z-3.0000 S1000
G1 F1000 X62.1393 Y4.3789 Z-3.0000 S1000
G1 F1000 X62.0227 Y4.2621 Z-3.0000 S1000
G1 F1000 X61.9798 Y4.1017 Z-3.0000 S1000
G1 F1000 X62.0227 Y3.9414 Z-3.0000 S1000
G1 F1000 X62.1393 Y3.8246 Z-3.0000 S1000
G1 F1000 X62.2981 Y3.7820 Z-3.0000 S1000
G1 F1000 X62.4569 Y3.8246 Z-3.0000 S1000
G1 F100 Z-4.5000
G1 F1000 X62.5735 Y3.9414 Z-4.5000 S1000
G1 F1000 X62.6164 Y4.1017 Z-4.5000 S1000
G1 F1000 X62.5735 Y4.2621 Z-4.5000 S1000
G1 F1000 X62.4569 Y4.3789 Z-4.5000 S1000
G1 F1000 X62.2981 Y4.4215 Z-4.5000 S1000
G1 F1000 X62.1393 Y4.3789 Z-4.5000 S1000
G1 F1000 X62.0227 Y4.2621 Z-4.5000 S1000
G1 F1000 X61.9798 Y4.1017 Z-4.5000 S1000
G1 F1000 X62.0227 Y3.9414 Z-4.5000 S1000
G1 F1000 X62.1393 Y3.8246 Z-4.5000 S1000
G1 F1000 X62.2981 Y3.7820 Z-4.5000 S1000
G1 F1000 X62.4569 Y3.8246 Z-4.5000 S1000
G1 F100 Z-6.0000
G1 F1000 X62.5735 Y3.9414 Z-6.0000 S1000
G1 F1000 X62.6164 Y4.1017 Z-6.0000 S1000
G1 F1000 X62.5735 Y4.2621 Z-6.0000 S1000
G1 F1000 X62.4569 Y4.3789 Z-6.0000 S1000
G1 F1000 X62.2981 Y4.4215 Z-6.0000 S1000
G1 F1000 X62.1393 Y4.3789 Z-6.0000 S1000
G1 F1000 X62.0227 Y4.2621 Z-6.0000 S1000
G1 F1000 X61.9798 Y4.1017 Z-6.0000 S1000
G1 F1000 X62.0227 Y3.9414 Z-6.0000 S1000
G1 F1000 X62.1393 Y3.8246 Z-6.0000 S1000
G1 F1000 X62.2981 Y3.7820 Z-6.0000 S1000
G1 F1000 X62.4569 Y3.8246 Z-6.0000 S1000
G1 F100 Z-7.5000
G1 F1000 X62.5735 Y3.9414 Z-7.5000 S1000
G1 F1000 X62.6164 Y4.1017 Z-7.5000 S1000
G1 F1000 X62.5735 Y4.2621 Z-7.5000 S1000
G1 F1000 X62.4569 Y4.3789 Z-7.5000 S1000
G1 F1000 X62.2981 Y4.4215 Z-7.5000 S1000
G1 F1000 X62.1393 Y4.3789 Z-7.5000 S1000
G1 F1000 X62.0227 Y4.2621 Z-7.5000 S1000
G1 F1000 X61.9798 Y4.1017 Z-7.5000 S1000
G1 F1000 X62.0227 Y3.9414 Z-7.5000 S1000
G1 F1000 X62.1393 Y3.8246 Z-7.5000 S1000
G1 F1000 X62.2981 Y3.7820 Z-7.5000 S1000
G1 F1000 X62.4569 Y3.8246 Z-7.5000 S1000
G1 F100 Z-8.6000
G1 F1000 X62.5735 Y3.9414 Z-8.6000 S1000
G1 F1000 X62.6164 Y4.1017 Z-8.6000 S1000
G1 F1000 X62.5735 Y4.2621 Z-8.6000 S1000
G1 F1000 X62.4569 Y4.3789 Z-8.6000 S1000
G1 F1000 X62.2981 Y4.4215 Z-8.6000 S1000
G1 F1000 X62.1393 Y4.3789 Z-8.6000 S1000
G1 F1000 X62.0227 Y4.2621 Z-8.6000 S1000
G1 F1000 X61.9798 Y4.1017 Z-8.6000 S1000
G1 F1000 X62.0227 Y3.9414 Z-8.6000 S1000
G1 F1000 X62.1393 Y3.8246 Z-8.6000 S1000
G1 F1000 X62.2981 Y3.7820 Z-8.6000 S1000
G1 F1000 X62.4569 Y3.8246 Z-8.6000 S1000

G0 Z10; move to z-safe height
G0 X11.6620 Y47.0373

G0 Z0
G1 F100 Z-1.5000
G1 F1000 X11.7786 Y47.1541 Z-1.5000 S1000
G1 F1000 X11.8215 Y47.3144 Z-1.5000 S1000
G1 F1000 X11.7786 Y47.4748 Z-1.5000 S1000
G1 F1000 X11.6620 Y47.5916 Z-1.5000 S1000
G1 F1000 X11.5032 Y47.6342 Z-1.5000 S1000
G1 F1000 X11.3444 Y47.5916 Z-1.5000 S1000
G1 F1000 X11.2278 Y47.4748 Z-1.5000 S1000
G1 F1000 X11.1849 Y47.3144 Z-1.5000 S1000
G1 F1000 X11.2278 Y47.1541 Z-1.5000 S1000
G1 F1000 X11.3444 Y47.0373 Z-1.5000 S1000
G1 F1000 X11.5032 Y46.9947 Z-1.5000 S1000
G1 F1000 X11.6620 Y47.0373 Z-1.5000 S1000
G1 F100 Z-3.0000
G1 F1000 X11.7786 Y47.1541 Z-3.0000 S1000
G1 F1000 X11.8215 Y47.3144 Z-3.0000 S1000
G1 F1000 X11.7786 Y47.4748 Z-3.0000 S1000
G1 F1000 X11.6620 Y47.5916 Z-3.0000 S1000
G1 F1000 X11.5032 Y47.6342 Z-3.0000 S1000
G1 F1000 X11.3444 Y47.5916 Z-3.0000 S1000
G1 F1000 X11.2278 Y47.4748 Z-3.0000 S1000
G1 F1000 X11.1849 Y47.3144 Z-3.0000 S1000
G1 F1000 X11.2278 Y47.1541 Z-3.0000 S1000
G1 F1000 X11.3444 Y47.0373 Z-3.0000 S1000
G1 F1000 X11.5032 Y46.9947 Z-3.0000 S1000
G1 F1000 X11.6620 Y47.0373 Z-3.0000 S1000
G1 F100 Z-4.5000
G1 F1000 X11.7786 Y47.1541 Z-4.5000 S1000
G1 F1000 X11.8215 Y47.3144 Z-4.5000 S1000
G1 F1000 X11.7786 Y47.4748 Z-4.5000 S1000
G1 F1000 X11.6620 Y47.5916 Z-4.5000 S1000
G1 F1000 X11.5032 Y47.6342 Z-4.5000 S1000
G1 F1000 X11.3444 Y47.5916 Z-4.5000 S1000
G1 F1000 X11.2278 Y47.4748 Z-4.5000 S1000
G1 F1000 X11.1849 Y47.3144 Z-4.5000 S1000
G1 F1000 X11.2278 Y47.1541 Z-4.5000 S1000
G1 F1000 X11.3444 Y47.0373 Z-4.5000 S1000
G1 F1000 X11.5032 Y46.9947 Z-4.5000 S1000
G1 F1000 X11.6620 Y47.0373 Z-4.5000 S1000
G1 F100 Z-6.0000
G1 F1000 X11.7786 Y47.1541 Z-6.0000 S1000
G1 F1000 X11.8215 Y47.3144 Z-6.0000 S1000
G1 F1000 X11.7786 Y47.4748 Z-6.0000 S1000
G1 F1000 X11.6620 Y47.5916 Z-6.0000 S1000
G1 F1000 X11.5032 Y47.6342 Z-6.0000 S1000
G1 F1000 X11.3444 Y47.5916 Z-6.0000 S1000
G1 F1000 X11.2278 Y47.4748 Z-6.0000 S1000
G1 F1000 X11.1849 Y47.3144 Z-6.0000 S1000
G1 F1000 X11.2278 Y47.1541 Z-6.0000 S1000
G1 F1000 X11.3444 Y47.0373 Z-6.0000 S1000
G1 F1000 X11.5032 Y46.9947 Z-6.0000 S1000
G1 F1000 X11.6620 Y47.0373 Z-6.0000 S1000
G1 F100 Z-7.5000
G1 F1000 X11.7786 Y47.1541 Z-7.5000 S1000
G1 F1000 X11.8215 Y47.3144 Z-7.5000 S1000
G1 F1000 X11.7786 Y47.4748 Z-7.5000 S1000
G1 F1000 X11.6620 Y47.5916 Z-7.5000 S1000
G1 F1000 X11.5032 Y47.6342 Z-7.5000 S1000
G1 F1000 X11.3444 Y47.5916 Z-7.5000 S1000
G1 F1000 X11.2278 Y47.4748 Z-7.5000 S1000
G1 F1000 X11.1849 Y47.3144 Z-7.5000 S1000
G1 F1000 X11.2278 Y47.1541 Z-7.5000 S1000
G1 F1000 X11.3444 Y47.0373 Z-7.5000 S1000
G1 F1000 X11.5032 Y46.9947 Z-7.5000 S1000
G1 F1000 X11.6620 Y47.0373 Z-7.5000 S1000
G1 F100 Z-8.6000
G1 F1000 X11.7786 Y47.1541 Z-8.6000 S1000
G1 F1000 X11.8215 Y47.3144 Z-8.6000 S1000
G1 F1000 X11.7786 Y47.4748 Z-8.6000 S1000
G1 F1000 X11.6620 Y47.5916 Z-8.6000 S1000
G1 F1000 X11.5032 Y47.6342 Z-8.6000 S1000
G1 F1000 X11.3444 Y47.5916 Z-8.6000 S1000
G1 F1000 X11.2278 Y47.4748 Z-8.6000 S1000
G1 F1000 X11.1849 Y47.3144 Z-8.6000 S1000
G1 F1000 X11.2278 Y47.1541 Z-8.6000 S1000
G1 F1000 X11.3444 Y47.0373 Z-8.6000 S1000
G1 F1000 X11.5032 Y46.9947 Z-8.6000 S1000
G1 F1000 X11.6620 Y47.0373 Z-8.6000 S1000

G0 Z10; move to z-safe height
G0 X11.6619 Y19.0762

G0 Z0
G1 F100 Z-1.5000
G1 F1000 X11.7786 Y19.1931 Z-1.5000 S1000
G1 F1000 X11.8215 Y19.3533 Z-1.5000 S1000
G1 F1000 X11.7786 Y19.5135 Z-1.5000 S1000
G1 F1000 X11.6619 Y19.6304 Z-1.5000 S1000
G1 F1000 X11.5032 Y19.6730 Z-1.5000 S1000
G1 F1000 X11.3445 Y19.6304 Z-1.5000 S1000
G1 F1000 X11.2278 Y19.5135 Z-1.5000 S1000
G1 F1000 X11.1849 Y19.3533 Z-1.5000 S1000
G1 F1000 X11.2278 Y19.1931 Z-1.5000 S1000
G1 F1000 X11.3445 Y19.0762 Z-1.5000 S1000
G1 F1000 X11.5032 Y19.0336 Z-1.5000 S1000
G1 F1000 X11.6619 Y19.0762 Z-1.5000 S1000
G1 F100 Z-3.0000
G1 F1000 X11.7786 Y19.1931 Z-3.0000 S1000
G1 F1000 X11.8215 Y19.3533 Z-3.0000 S1000
G1 F1000 X11.7786 Y19.5135 Z-3.0000 S1000
G1 F1000 X11.6619 Y19.6304 Z-3.0000 S1000
G1 F1000 X11.5032 Y19.6730 Z-3.0000 S1000
G1 F1000 X11.3445 Y19.6304 Z-3.0000 S1000
G1 F1000 X11.2278 Y19.5135 Z-3.0000 S1000
G1 F1000 X11.1849 Y19.3533 Z-3.0000 S1000
G1 F1000 X11.2278 Y19.1931 Z-3.0000 S1000
G1 F1000 X11.3445 Y19.0762 Z-3.0000 S1000
G1 F1000 X11.5032 Y19.0336 Z-3.0000 S1000
G1 F1000 X11.6619 Y19.0762 Z-3.0000 S1000
G1 F100 Z-4.5000
G1 F1000 X11.7786 Y19.1931 Z-4.5000 S1000
G1 F1000 X11.8215 Y19.3533 Z-4.5000 S1000
G1 F1000 X11.7786 Y19.5135 Z-4.5000 S1000
G1 F1000 X11.6619 Y19.6304 Z-4.5000 S1000
G1 F1000 X11.5032 Y19.6730 Z-4.5000 S1000
G1 F1000 X11.3445 Y19.6304 Z-4.5000 S1000
G1 F1000 X11.2278 Y19.5135 Z-4.5000 S1000
G1 F1000 X11.1849 Y19.3533 Z-4.5000 S1000
G1 F1000 X11.2278 Y19.1931 Z-4.5000 S1000
G1 F1000 X11.3445 Y19.0762 Z-4.5000 S1000
G1 F1000 X11.5032 Y19.0336 Z-4.5000 S1000
G1 F1000 X11.6619 Y19.0762 Z-4.5000 S1000
G1 F100 Z-6.0000
G1 F1000 X11.7786 Y19.1931 Z-6.0000 S1000
G1 F1000 X11.8215 Y19.3533 Z-6.0000 S1000
G1 F1000 X11.7786 Y19.5135 Z-6.0000 S1000
G1 F1000 X11.6619 Y19.6304 Z-6.0000 S1000
G1 F1000 X11.5032 Y19.6730 Z-6.0000 S1000
G1 F1000 X11.3445 Y19.6304 Z-6.0000 S1000
G1 F1000 X11.2278 Y19.5135 Z-6.0000 S1000
G1 F1000 X11.1849 Y19.3533 Z-6.0000 S1000
G1 F1000 X11.2278 Y19.1931 Z-6.0000 S1000
G1 F1000 X11.3445 Y19.0762 Z-6.0000 S1000
G1 F1000 X11.5032 Y19.0336 Z-6.0000 S1000
G1 F1000 X11.6619 Y19.0762 Z-6.0000 S1000
G1 F100 Z-7.5000
G1 F1000 X11.7786 Y19.1931 Z-7.5000 S1000
G1 F1000 X11.8215 Y19.3533 Z-7.5000 S1000
G1 F1000 X11.7786 Y19.5135 Z-7.5000 S1000
G1 F1000 X11.6619 Y19.6304 Z-7.5000 S1000
G1 F1000 X11.5032 Y19.6730 Z-7.5000 S1000
G1 F1000 X11.3445 Y19.6304 Z-7.5000 S1000
G1 F1000 X11.2278 Y19.5135 Z-7.5000 S1000
G1 F1000 X11.1849 Y19.3533 Z-7.5000 S1000
G1 F1000 X11.2278 Y19.1931 Z-7.5000 S1000
G1 F1000 X11.3445 Y19.0762 Z-7.5000 S1000
G1 F1000 X11.5032 Y19.0336 Z-7.5000 S1000
G1 F1000 X11.6619 Y19.0762 Z-7.5000 S1000
G1 F100 Z-8.6000
G1 F1000 X11.7786 Y19.1931 Z-8.6000 S1000
G1 F1000 X11.8215 Y19.3533 Z-8.6000 S1000
G1 F1000 X11.7786 Y19.5135 Z-8.6000 S1000
G1 F1000 X11.6619 Y19.6304 Z-8.6000 S1000
G1 F1000 X11.5032 Y19.6730 Z-8.6000 S1000
G1 F1000 X11.3445 Y19.6304 Z-8.6000 S1000
G1 F1000 X11.2278 Y19.5135 Z-8.6000 S1000
G1 F1000 X11.1849 Y19.3533 Z-8.6000 S1000
G1 F1000 X11.2278 Y19.1931 Z-8.6000 S1000
G1 F1000 X11.3445 Y19.0762 Z-8.6000 S1000
G1 F1000 X11.5032 Y19.0336 Z-8.6000 S1000
G1 F1000 X11.6619 Y19.0762 Z-8.6000 S1000
; retracting back to z-safe
G0 Z10
; Operation 2: CNC: Vector (path inside)
; Endmill Diameter: 3.17

G0 Z10; move to z-safe height
G0 F1000 X84.9150 Y54.9150

G0 Z0
G1 F100 Z-1.5000
G1 F1000 X1.5850 Y54.9150 Z-1.5000 S1000
G1 F1000 X1.5850 Y1.5850 Z-1.5000 S1000
G1 F1000 X84.9150 Y1.5850 Z-1.5000 S1000
G1 F1000 X84.9150 Y54.9150 Z-1.5000 S1000
G1 F100 Z-3.0000
G1 F1000 X1.5850 Y54.9150 Z-3.0000 S1000
G1 F1000 X1.5850 Y1.5850 Z-3.0000 S1000
G1 F1000 X84.9150 Y1.5850 Z-3.0000 S1000
G1 F1000 X84.9150 Y54.9150 Z-3.0000 S1000
; retracting back to z-safe
G0 Z10

M5 S0; Spindle Off
