; GCODE Generated by cam.openbuilds.com on 2021-04-29 
G21 ; mm-mode
G54; Work Coordinates
G21; mm-mode
G90; Absolute Positioning
M3 S1000; Spindle On

; Operation 3: CNC: Pocket
; Endmill Diameter: 6

G0 Z10; move to z-safe height
G0 F1000 X177.5244 Y16.3104

G0 Z0
G1 F100 Z-2.0000
G1 F1000 X12.0000 Y16.3104 Z-2.0000 S1000
G1 F1000 X12.0000 Y12.0000 Z-2.0000 S1000
G1 F1000 X177.5244 Y12.0000 Z-2.0000 S1000
G1 F1000 X177.5244 Y16.3104 Z-2.0000 S1000
G1 F100 Z-4.0000
G1 F1000 X12.0000 Y16.3104 Z-4.0000 S1000
G1 F1000 X12.0000 Y12.0000 Z-4.0000 S1000
G1 F1000 X177.5244 Y12.0000 Z-4.0000 S1000
G1 F1000 X177.5244 Y16.3104 Z-4.0000 S1000

G0 Z10; move to z-safe height
G0 X9.0124 Y51.5044

G0 Z0
G1 F100 Z-2.0000
G1 F1000 X12.9725 Y51.5044 Z-2.0000 S1000
G1 F1000 X12.9923 Y51.8008 Z-2.0000 S1000
G1 F1000 X13.2306 Y52.9762 Z-2.0000 S1000
G1 F1000 X13.6231 Y54.1095 Z-2.0000 S1000
G1 F1000 X13.8032 Y54.4669 Z-2.0000 S1000
G1 F1000 X9.0000 Y54.4669 Z-2.0000 S1000
G1 F1000 X9.0000 Y51.5038 Z-2.0000 S1000
G1 F1000 X9.0124 Y51.5044 Z-2.0000 S1000

G0 Z10; move to z-safe height
G0 X180.5244 Y54.4669

G0 Z0
G1 F100 Z-2.0000
G1 F1000 X175.7190 Y54.4669 Z-2.0000 S1000
G1 F1000 X176.0011 Y53.8635 Z-2.0000 S1000
G1 F1000 X176.3600 Y52.7191 Z-2.0000 S1000
G1 F1000 X176.5635 Y51.5371 Z-2.0000 S1000
G1 F1000 X176.5652 Y51.5044 Z-2.0000 S1000
G1 F1000 X180.5120 Y51.5044 Z-2.0000 S1000
G1 F1000 X180.5244 Y51.5036 Z-2.0000 S1000
G1 F1000 X180.5244 Y54.4669 Z-2.0000 S1000

G0 Z10; move to z-safe height
G0 X180.5244 Y19.3110

G0 Z0
G1 F100 Z-2.0000
G1 F1000 X180.5120 Y19.3104 Z-2.0000 S1000
G1 F1000 X9.0124 Y19.3104 Z-2.0000 S1000
G1 F1000 X9.0000 Y19.3112 Z-2.0000 S1000
G1 F1000 X9.0000 Y9.0000 Z-2.0000 S1000
G1 F1000 X180.5244 Y9.0000 Z-2.0000 S1000
G1 F1000 X180.5244 Y19.3110 Z-2.0000 S1000

G0 Z10; move to z-safe height
G0 X9.0124 Y51.5044

G0 Z0
G1 F100 Z-4.0000
G1 F1000 X12.9725 Y51.5044 Z-4.0000 S1000
G1 F1000 X12.9923 Y51.8008 Z-4.0000 S1000
G1 F1000 X13.2306 Y52.9762 Z-4.0000 S1000
G1 F1000 X13.6231 Y54.1095 Z-4.0000 S1000
G1 F1000 X13.8032 Y54.4669 Z-4.0000 S1000
G1 F1000 X9.0000 Y54.4669 Z-4.0000 S1000
G1 F1000 X9.0000 Y51.5038 Z-4.0000 S1000
G1 F1000 X9.0124 Y51.5044 Z-4.0000 S1000

G0 Z10; move to z-safe height
G0 X180.5244 Y54.4669

G0 Z0
G1 F100 Z-4.0000
G1 F1000 X175.7190 Y54.4669 Z-4.0000 S1000
G1 F1000 X176.0011 Y53.8635 Z-4.0000 S1000
G1 F1000 X176.3600 Y52.7191 Z-4.0000 S1000
G1 F1000 X176.5635 Y51.5371 Z-4.0000 S1000
G1 F1000 X176.5652 Y51.5044 Z-4.0000 S1000
G1 F1000 X180.5120 Y51.5044 Z-4.0000 S1000
G1 F1000 X180.5244 Y51.5036 Z-4.0000 S1000
G1 F1000 X180.5244 Y54.4669 Z-4.0000 S1000

G0 Z10; move to z-safe height
G0 X180.5244 Y19.3110

G0 Z0
G1 F100 Z-4.0000
G1 F1000 X180.5120 Y19.3104 Z-4.0000 S1000
G1 F1000 X9.0124 Y19.3104 Z-4.0000 S1000
G1 F1000 X9.0000 Y19.3112 Z-4.0000 S1000
G1 F1000 X9.0000 Y9.0000 Z-4.0000 S1000
G1 F1000 X180.5244 Y9.0000 Z-4.0000 S1000
G1 F1000 X180.5244 Y19.3110 Z-4.0000 S1000

G0 Z10; move to z-safe height
G0 X6.5255 Y47.9647

G0 Z0
G1 F100 Z-2.0000
G1 F1000 X7.4465 Y48.2965 Z-2.0000 S1000
G1 F1000 X8.4093 Y48.4740 Z-2.0000 S1000
G1 F1000 X9.0124 Y48.5044 Z-2.0000 S1000
G1 F1000 X15.9124 Y48.5044 Z-2.0000 S1000
G1 F1000 X15.9124 Y50.6041 Z-2.0000 S1000
G1 F1000 X15.9923 Y51.5798 Z-2.0000 S1000
G1 F1000 X16.2297 Y52.5296 Z-2.0000 S1000
G1 F1000 X16.6185 Y53.4280 Z-2.0000 S1000
G1 F1000 X17.1482 Y54.2513 Z-2.0000 S1000
G1 F1000 X17.8047 Y54.9775 Z-2.0000 S1000
G1 F1000 X18.5706 Y55.5873 Z-2.0000 S1000
G1 F1000 X19.4255 Y56.0644 Z-2.0000 S1000
G1 F1000 X20.3465 Y56.3962 Z-2.0000 S1000
G1 F1000 X21.3093 Y56.5737 Z-2.0000 S1000
G1 F1000 X21.9124 Y56.6041 Z-2.0000 S1000
G1 F1000 X167.6120 Y56.6041 Z-2.0000 S1000
G1 F1000 X168.5877 Y56.5242 Z-2.0000 S1000
G1 F1000 X169.5375 Y56.2868 Z-2.0000 S1000
G1 F1000 X170.4359 Y55.8980 Z-2.0000 S1000
G1 F1000 X171.2592 Y55.3683 Z-2.0000 S1000
G1 F1000 X171.9854 Y54.7118 Z-2.0000 S1000
G1 F1000 X172.5952 Y53.9459 Z-2.0000 S1000
G1 F1000 X173.0723 Y53.0910 Z-2.0000 S1000
G1 F1000 X173.4041 Y52.1700 Z-2.0000 S1000
G1 F1000 X173.5816 Y51.2072 Z-2.0000 S1000
G1 F1000 X173.6120 Y50.6041 Z-2.0000 S1000
G1 F1000 X173.6120 Y48.5044 Z-2.0000 S1000
G1 F1000 X180.5120 Y48.5044 Z-2.0000 S1000
G1 F1000 X181.4877 Y48.4245 Z-2.0000 S1000
G1 F1000 X182.4375 Y48.1871 Z-2.0000 S1000
G1 F1000 X183.3359 Y47.7983 Z-2.0000 S1000
G1 F1000 X183.5244 Y47.6770 Z-2.0000 S1000
G1 F1000 X183.5244 Y57.4669 Z-2.0000 S1000
G1 F1000 X6.0000 Y57.4669 Z-2.0000 S1000
G1 F1000 X6.0000 Y47.6714 Z-2.0000 S1000
G1 F1000 X6.5255 Y47.9647 Z-2.0000 S1000

G0 Z10; move to z-safe height
G0 X183.5244 Y23.1434

G0 Z0
G1 F100 Z-2.0000
G1 F1000 X182.9989 Y22.8501 Z-2.0000 S1000
G1 F1000 X182.0779 Y22.5183 Z-2.0000 S1000
G1 F1000 X181.1151 Y22.3408 Z-2.0000 S1000
G1 F1000 X180.5120 Y22.3104 Z-2.0000 S1000
G1 F1000 X9.0124 Y22.3104 Z-2.0000 S1000
G1 F1000 X8.0367 Y22.3903 Z-2.0000 S1000
G1 F1000 X7.0869 Y22.6277 Z-2.0000 S1000
G1 F1000 X6.1885 Y23.0165 Z-2.0000 S1000
G1 F1000 X6.0000 Y23.1378 Z-2.0000 S1000
G1 F1000 X6.0000 Y6.0000 Z-2.0000 S1000
G1 F1000 X183.5244 Y6.0000 Z-2.0000 S1000
G1 F1000 X183.5244 Y23.1434 Z-2.0000 S1000

G0 Z10; move to z-safe height
G0 X6.5255 Y47.9647

G0 Z0
G1 F100 Z-4.0000
G1 F1000 X7.4465 Y48.2965 Z-4.0000 S1000
G1 F1000 X8.4093 Y48.4740 Z-4.0000 S1000
G1 F1000 X9.0124 Y48.5044 Z-4.0000 S1000
G1 F1000 X15.9124 Y48.5044 Z-4.0000 S1000
G1 F1000 X15.9124 Y50.6041 Z-4.0000 S1000
G1 F1000 X15.9923 Y51.5798 Z-4.0000 S1000
G1 F1000 X16.2297 Y52.5296 Z-4.0000 S1000
G1 F1000 X16.6185 Y53.4280 Z-4.0000 S1000
G1 F1000 X17.1482 Y54.2513 Z-4.0000 S1000
G1 F1000 X17.8047 Y54.9775 Z-4.0000 S1000
G1 F1000 X18.5706 Y55.5873 Z-4.0000 S1000
G1 F1000 X19.4255 Y56.0644 Z-4.0000 S1000
G1 F1000 X20.3465 Y56.3962 Z-4.0000 S1000
G1 F1000 X21.3093 Y56.5737 Z-4.0000 S1000
G1 F1000 X21.9124 Y56.6041 Z-4.0000 S1000
G1 F1000 X167.6120 Y56.6041 Z-4.0000 S1000
G1 F1000 X168.5877 Y56.5242 Z-4.0000 S1000
G1 F1000 X169.5375 Y56.2868 Z-4.0000 S1000
G1 F1000 X170.4359 Y55.8980 Z-4.0000 S1000
G1 F1000 X171.2592 Y55.3683 Z-4.0000 S1000
G1 F1000 X171.9854 Y54.7118 Z-4.0000 S1000
G1 F1000 X172.5952 Y53.9459 Z-4.0000 S1000
G1 F1000 X173.0723 Y53.0910 Z-4.0000 S1000
G1 F1000 X173.4041 Y52.1700 Z-4.0000 S1000
G1 F1000 X173.5816 Y51.2072 Z-4.0000 S1000
G1 F1000 X173.6120 Y50.6041 Z-4.0000 S1000
G1 F1000 X173.6120 Y48.5044 Z-4.0000 S1000
G1 F1000 X180.5120 Y48.5044 Z-4.0000 S1000
G1 F1000 X181.4877 Y48.4245 Z-4.0000 S1000
G1 F1000 X182.4375 Y48.1871 Z-4.0000 S1000
G1 F1000 X183.3359 Y47.7983 Z-4.0000 S1000
G1 F1000 X183.5244 Y47.6770 Z-4.0000 S1000
G1 F1000 X183.5244 Y57.4669 Z-4.0000 S1000
G1 F1000 X6.0000 Y57.4669 Z-4.0000 S1000
G1 F1000 X6.0000 Y47.6714 Z-4.0000 S1000
G1 F1000 X6.5255 Y47.9647 Z-4.0000 S1000

G0 Z10; move to z-safe height
G0 X183.5244 Y23.1434

G0 Z0
G1 F100 Z-4.0000
G1 F1000 X182.9989 Y22.8501 Z-4.0000 S1000
G1 F1000 X182.0779 Y22.5183 Z-4.0000 S1000
G1 F1000 X181.1151 Y22.3408 Z-4.0000 S1000
G1 F1000 X180.5120 Y22.3104 Z-4.0000 S1000
G1 F1000 X9.0124 Y22.3104 Z-4.0000 S1000
G1 F1000 X8.0367 Y22.3903 Z-4.0000 S1000
G1 F1000 X7.0869 Y22.6277 Z-4.0000 S1000
G1 F1000 X6.1885 Y23.0165 Z-4.0000 S1000
G1 F1000 X6.0000 Y23.1378 Z-4.0000 S1000
G1 F1000 X6.0000 Y6.0000 Z-4.0000 S1000
G1 F1000 X183.5244 Y6.0000 Z-4.0000 S1000
G1 F1000 X183.5244 Y23.1434 Z-4.0000 S1000

G0 Z10; move to z-safe height
G0 X186.5244 Y60.4669

G0 Z0
G1 F100 Z-2.0000
G1 F1000 X3.0000 Y60.4669 Z-2.0000 S1000
G1 F1000 X3.0000 Y3.0000 Z-2.0000 S1000
G1 F1000 X186.5244 Y3.0000 Z-2.0000 S1000
G1 F1000 X186.5244 Y60.4669 Z-2.0000 S1000

G0 Z10; move to z-safe height
G0 X9.0124 Y25.3104

G0 Z0
G1 F100 Z-2.0000
G1 F1000 X8.3253 Y25.3901 Z-2.0000 S1000
G1 F1000 X7.6748 Y25.6251 Z-2.0000 S1000
G1 F1000 X7.0954 Y26.0028 Z-2.0000 S1000
G1 F1000 X6.6178 Y26.5032 Z-2.0000 S1000
G1 F1000 X6.2676 Y27.0996 Z-2.0000 S1000
G1 F1000 X6.0633 Y27.7604 Z-2.0000 S1000
G1 F1000 X6.0124 Y28.3104 Z-2.0000 S1000
G1 F1000 X6.0124 Y42.5044 Z-2.0000 S1000
G1 F1000 X6.0921 Y43.1915 Z-2.0000 S1000
G1 F1000 X6.3271 Y43.8420 Z-2.0000 S1000
G1 F1000 X6.7048 Y44.4214 Z-2.0000 S1000
G1 F1000 X7.2052 Y44.8990 Z-2.0000 S1000
G1 F1000 X7.8016 Y45.2492 Z-2.0000 S1000
G1 F1000 X8.4624 Y45.4535 Z-2.0000 S1000
G1 F1000 X9.0124 Y45.5044 Z-2.0000 S1000
G1 F1000 X18.9124 Y45.5044 Z-2.0000 S1000
G1 F1000 X18.9124 Y50.6041 Z-2.0000 S1000
G1 F1000 X18.9921 Y51.2912 Z-2.0000 S1000
G1 F1000 X19.2271 Y51.9417 Z-2.0000 S1000
G1 F1000 X19.6048 Y52.5211 Z-2.0000 S1000
G1 F1000 X20.1052 Y52.9987 Z-2.0000 S1000
G1 F1000 X20.7016 Y53.3489 Z-2.0000 S1000
G1 F1000 X21.3624 Y53.5532 Z-2.0000 S1000
G1 F1000 X21.9124 Y53.6041 Z-2.0000 S1000
G1 F1000 X167.6120 Y53.6041 Z-2.0000 S1000
G1 F1000 X168.2991 Y53.5244 Z-2.0000 S1000
G1 F1000 X168.9496 Y53.2894 Z-2.0000 S1000
G1 F1000 X169.5290 Y52.9117 Z-2.0000 S1000
G1 F1000 X170.0066 Y52.4113 Z-2.0000 S1000
G1 F1000 X170.3568 Y51.8149 Z-2.0000 S1000
G1 F1000 X170.5611 Y51.1541 Z-2.0000 S1000
G1 F1000 X170.6120 Y50.6041 Z-2.0000 S1000
G1 F1000 X170.6120 Y45.5044 Z-2.0000 S1000
G1 F1000 X180.5120 Y45.5044 Z-2.0000 S1000
G1 F1000 X181.1991 Y45.4247 Z-2.0000 S1000
G1 F1000 X181.8496 Y45.1897 Z-2.0000 S1000
G1 F1000 X182.4290 Y44.8120 Z-2.0000 S1000
G1 F1000 X182.9066 Y44.3116 Z-2.0000 S1000
G1 F1000 X183.2568 Y43.7152 Z-2.0000 S1000
G1 F1000 X183.4611 Y43.0544 Z-2.0000 S1000
G1 F1000 X183.5120 Y42.5044 Z-2.0000 S1000
G1 F1000 X183.5120 Y28.3104 Z-2.0000 S1000
G1 F1000 X183.4323 Y27.6233 Z-2.0000 S1000
G1 F1000 X183.1973 Y26.9728 Z-2.0000 S1000
G1 F1000 X182.8196 Y26.3934 Z-2.0000 S1000
G1 F1000 X182.3192 Y25.9158 Z-2.0000 S1000
G1 F1000 X181.7228 Y25.5656 Z-2.0000 S1000
G1 F1000 X181.0620 Y25.3613 Z-2.0000 S1000
G1 F1000 X180.5120 Y25.3104 Z-2.0000 S1000
G1 F1000 X9.0124 Y25.3104 Z-2.0000 S1000

G0 Z10; move to z-safe height
G0 X186.5244 Y60.4669

G0 Z0
G1 F100 Z-4.0000
G1 F1000 X3.0000 Y60.4669 Z-4.0000 S1000
G1 F1000 X3.0000 Y3.0000 Z-4.0000 S1000
G1 F1000 X186.5244 Y3.0000 Z-4.0000 S1000
G1 F1000 X186.5244 Y60.4669 Z-4.0000 S1000

G0 Z10; move to z-safe height
G0 X9.0124 Y25.3104

G0 Z0
G1 F100 Z-4.0000
G1 F1000 X8.3253 Y25.3901 Z-4.0000 S1000
G1 F1000 X7.6748 Y25.6251 Z-4.0000 S1000
G1 F1000 X7.0954 Y26.0028 Z-4.0000 S1000
G1 F1000 X6.6178 Y26.5032 Z-4.0000 S1000
G1 F1000 X6.2676 Y27.0996 Z-4.0000 S1000
G1 F1000 X6.0633 Y27.7604 Z-4.0000 S1000
G1 F1000 X6.0124 Y28.3104 Z-4.0000 S1000
G1 F1000 X6.0124 Y42.5044 Z-4.0000 S1000
G1 F1000 X6.0921 Y43.1915 Z-4.0000 S1000
G1 F1000 X6.3271 Y43.8420 Z-4.0000 S1000
G1 F1000 X6.7048 Y44.4214 Z-4.0000 S1000
G1 F1000 X7.2052 Y44.8990 Z-4.0000 S1000
G1 F1000 X7.8016 Y45.2492 Z-4.0000 S1000
G1 F1000 X8.4624 Y45.4535 Z-4.0000 S1000
G1 F1000 X9.0124 Y45.5044 Z-4.0000 S1000
G1 F1000 X18.9124 Y45.5044 Z-4.0000 S1000
G1 F1000 X18.9124 Y50.6041 Z-4.0000 S1000
G1 F1000 X18.9921 Y51.2912 Z-4.0000 S1000
G1 F1000 X19.2271 Y51.9417 Z-4.0000 S1000
G1 F1000 X19.6048 Y52.5211 Z-4.0000 S1000
G1 F1000 X20.1052 Y52.9987 Z-4.0000 S1000
G1 F1000 X20.7016 Y53.3489 Z-4.0000 S1000
G1 F1000 X21.3624 Y53.5532 Z-4.0000 S1000
G1 F1000 X21.9124 Y53.6041 Z-4.0000 S1000
G1 F1000 X167.6120 Y53.6041 Z-4.0000 S1000
G1 F1000 X168.2991 Y53.5244 Z-4.0000 S1000
G1 F1000 X168.9496 Y53.2894 Z-4.0000 S1000
G1 F1000 X169.5290 Y52.9117 Z-4.0000 S1000
G1 F1000 X170.0066 Y52.4113 Z-4.0000 S1000
G1 F1000 X170.3568 Y51.8149 Z-4.0000 S1000
G1 F1000 X170.5611 Y51.1541 Z-4.0000 S1000
G1 F1000 X170.6120 Y50.6041 Z-4.0000 S1000
G1 F1000 X170.6120 Y45.5044 Z-4.0000 S1000
G1 F1000 X180.5120 Y45.5044 Z-4.0000 S1000
G1 F1000 X181.1991 Y45.4247 Z-4.0000 S1000
G1 F1000 X181.8496 Y45.1897 Z-4.0000 S1000
G1 F1000 X182.4290 Y44.8120 Z-4.0000 S1000
G1 F1000 X182.9066 Y44.3116 Z-4.0000 S1000
G1 F1000 X183.2568 Y43.7152 Z-4.0000 S1000
G1 F1000 X183.4611 Y43.0544 Z-4.0000 S1000
G1 F1000 X183.5120 Y42.5044 Z-4.0000 S1000
G1 F1000 X183.5120 Y28.3104 Z-4.0000 S1000
G1 F1000 X183.4323 Y27.6233 Z-4.0000 S1000
G1 F1000 X183.1973 Y26.9728 Z-4.0000 S1000
G1 F1000 X182.8196 Y26.3934 Z-4.0000 S1000
G1 F1000 X182.3192 Y25.9158 Z-4.0000 S1000
G1 F1000 X181.7228 Y25.5656 Z-4.0000 S1000
G1 F1000 X181.0620 Y25.3613 Z-4.0000 S1000
G1 F1000 X180.5120 Y25.3104 Z-4.0000 S1000
G1 F1000 X9.0124 Y25.3104 Z-4.0000 S1000
; retracting back to z-safe
G0 Z10
; Operation 4: CNC: Vector (path outside)
; Endmill Diameter: 6

G0 Z10; move to z-safe height
G0 F1000 X184.7644 Y0.7041

G0 Z0
G1 F100 Z-3.0000
G1 F1000 X4.7644 Y0.7041 Z-3.0000 S1000
G1 F1000 X4.2144 Y0.7550 Z-3.0000 S1000
G1 F1000 X3.5536 Y0.9593 Z-3.0000 S1000
G1 F1000 X2.9572 Y1.3095 Z-3.0000 S1000
G1 F1000 X2.4568 Y1.7871 Z-3.0000 S1000
G1 F1000 X2.0791 Y2.3665 Z-3.0000 S1000
G1 F1000 X1.8441 Y3.0170 Z-3.0000 S1000
G1 F1000 X1.7644 Y3.7041 Z-3.0000 S1000
G1 F1000 X1.7644 Y58.7041 Z-3.0000 S1000
G1 F1000 X1.8153 Y59.2541 Z-3.0000 S1000
G1 F1000 X2.0196 Y59.9149 Z-3.0000 S1000
G1 F1000 X2.3698 Y60.5113 Z-3.0000 S1000
G1 F1000 X2.8474 Y61.0117 Z-3.0000 S1000
G1 F1000 X3.4268 Y61.3894 Z-3.0000 S1000
G1 F1000 X4.0773 Y61.6244 Z-3.0000 S1000
G1 F1000 X4.7644 Y61.7041 Z-3.0000 S1000
G1 F1000 X184.7644 Y61.7041 Z-3.0000 S1000
G1 F1000 X185.3144 Y61.6532 Z-3.0000 S1000
G1 F1000 X185.9752 Y61.4489 Z-3.0000 S1000
G1 F1000 X186.5716 Y61.0987 Z-3.0000 S1000
G1 F1000 X187.0720 Y60.6211 Z-3.0000 S1000
G1 F1000 X187.4497 Y60.0417 Z-3.0000 S1000
G1 F1000 X187.6847 Y59.3912 Z-3.0000 S1000
G1 F1000 X187.7644 Y58.7041 Z-3.0000 S1000
G1 F1000 X187.7644 Y3.7041 Z-3.0000 S1000
G1 F1000 X187.7135 Y3.1541 Z-3.0000 S1000
G1 F1000 X187.5092 Y2.4933 Z-3.0000 S1000
G1 F1000 X187.1590 Y1.8969 Z-3.0000 S1000
G1 F1000 X186.6814 Y1.3965 Z-3.0000 S1000
G1 F1000 X186.1020 Y1.0188 Z-3.0000 S1000
G1 F1000 X185.4515 Y0.7838 Z-3.0000 S1000
G1 F1000 X184.7644 Y0.7041 Z-3.0000 S1000
G1 F100 Z-6.0000
G1 F1000 X100.2644 Y0.7041 Z-6.0000 S1000
G1 F1000 X100.2644 Y0.7041 Z-5.6000 S1000
G1 F1000 X89.2644 Y0.7041 Z-5.6000 S1000
G1 F1000 X89.2644 Y0.7041 Z-6.0000 S1000
G1 F1000 X4.7644 Y0.7041 Z-6.0000 S1000
G1 F1000 X4.7644 Y0.7041 Z-6.0000 S1000
G1 F1000 X4.2144 Y0.7550 Z-6.0000 S1000
G1 F1000 X3.5536 Y0.9593 Z-6.0000 S1000
G1 F1000 X2.9572 Y1.3095 Z-6.0000 S1000
G1 F1000 X2.4568 Y1.7871 Z-6.0000 S1000
G1 F1000 X2.0791 Y2.3665 Z-6.0000 S1000
G1 F1000 X1.8441 Y3.0170 Z-6.0000 S1000
G1 F1000 X1.7644 Y3.7041 Z-6.0000 S1000
G1 F1000 X1.7644 Y58.7041 Z-6.0000 S1000
G1 F1000 X1.8153 Y59.2541 Z-6.0000 S1000
G1 F1000 X2.0196 Y59.9149 Z-6.0000 S1000
G1 F1000 X2.3698 Y60.5113 Z-6.0000 S1000
G1 F1000 X2.8474 Y61.0117 Z-6.0000 S1000
G1 F1000 X3.4268 Y61.3894 Z-6.0000 S1000
G1 F1000 X4.0773 Y61.6244 Z-6.0000 S1000
G1 F1000 X4.7644 Y61.7041 Z-6.0000 S1000
G1 F1000 X184.7644 Y61.7041 Z-6.0000 S1000
G1 F1000 X185.3144 Y61.6532 Z-6.0000 S1000
G1 F1000 X185.9752 Y61.4489 Z-6.0000 S1000
G1 F1000 X186.5716 Y61.0987 Z-6.0000 S1000
G1 F1000 X187.0720 Y60.6211 Z-6.0000 S1000
G1 F1000 X187.4497 Y60.0417 Z-6.0000 S1000
G1 F1000 X187.6847 Y59.3912 Z-6.0000 S1000
G1 F1000 X187.7644 Y58.7041 Z-6.0000 S1000
G1 F1000 X187.7644 Y3.7041 Z-6.0000 S1000
G1 F1000 X187.7135 Y3.1541 Z-6.0000 S1000
G1 F1000 X187.5092 Y2.4933 Z-6.0000 S1000
G1 F1000 X187.1590 Y1.8969 Z-6.0000 S1000
G1 F1000 X186.6814 Y1.3965 Z-6.0000 S1000
G1 F1000 X186.1020 Y1.0188 Z-6.0000 S1000
G1 F1000 X185.4515 Y0.7838 Z-6.0000 S1000
G1 F1000 X184.7644 Y0.7041 Z-6.0000 S1000
G1 F100 Z-8.6000
G1 F1000 X100.2644 Y0.7041 Z-8.6000 S1000
G1 F1000 X100.2644 Y0.7041 Z-5.6000 S1000
G1 F1000 X89.2644 Y0.7041 Z-5.6000 S1000
G1 F1000 X89.2644 Y0.7041 Z-8.6000 S1000
G1 F1000 X4.7644 Y0.7041 Z-8.6000 S1000
G1 F1000 X4.7644 Y0.7041 Z-8.6000 S1000
G1 F1000 X4.2144 Y0.7550 Z-8.6000 S1000
G1 F1000 X3.5536 Y0.9593 Z-8.6000 S1000
G1 F1000 X2.9572 Y1.3095 Z-8.6000 S1000
G1 F1000 X2.4568 Y1.7871 Z-8.6000 S1000
G1 F1000 X2.0791 Y2.3665 Z-8.6000 S1000
G1 F1000 X1.8441 Y3.0170 Z-8.6000 S1000
G1 F1000 X1.7644 Y3.7041 Z-8.6000 S1000
G1 F1000 X1.7644 Y58.7041 Z-8.6000 S1000
G1 F1000 X1.8153 Y59.2541 Z-8.6000 S1000
G1 F1000 X2.0196 Y59.9149 Z-8.6000 S1000
G1 F1000 X2.3698 Y60.5113 Z-8.6000 S1000
G1 F1000 X2.8474 Y61.0117 Z-8.6000 S1000
G1 F1000 X3.4268 Y61.3894 Z-8.6000 S1000
G1 F1000 X4.0773 Y61.6244 Z-8.6000 S1000
G1 F1000 X4.7644 Y61.7041 Z-8.6000 S1000
G1 F1000 X184.7644 Y61.7041 Z-8.6000 S1000
G1 F1000 X185.3144 Y61.6532 Z-8.6000 S1000
G1 F1000 X185.9752 Y61.4489 Z-8.6000 S1000
G1 F1000 X186.5716 Y61.0987 Z-8.6000 S1000
G1 F1000 X187.0720 Y60.6211 Z-8.6000 S1000
G1 F1000 X187.4497 Y60.0417 Z-8.6000 S1000
G1 F1000 X187.6847 Y59.3912 Z-8.6000 S1000
G1 F1000 X187.7644 Y58.7041 Z-8.6000 S1000
G1 F1000 X187.7644 Y3.7041 Z-8.6000 S1000
G1 F1000 X187.7135 Y3.1541 Z-8.6000 S1000
G1 F1000 X187.5092 Y2.4933 Z-8.6000 S1000
G1 F1000 X187.1590 Y1.8969 Z-8.6000 S1000
G1 F1000 X186.6814 Y1.3965 Z-8.6000 S1000
G1 F1000 X186.1020 Y1.0188 Z-8.6000 S1000
G1 F1000 X185.4515 Y0.7838 Z-8.6000 S1000
G1 F1000 X184.7644 Y0.7041 Z-8.6000 S1000
; retracting back to z-safe
G0 Z10

M5 S0; Spindle Off
