; GCODE Generated by cam.openbuilds.com on 2021-04-29 
G21 ; mm-mode
G54; Work Coordinates
G21; mm-mode
G90; Absolute Positioning
M3 S1000; Spindle On

; Operation 10: CNC: Vector (path outside)
; Endmill Diameter: 6

G0 Z10; move to z-safe height
G0 F1000 X92.4804 Y6.7041

G0 Z0
G1 F300 Z-2.0000
G1 F1000 X8.9804 Y6.7041 Z-2.0000 S1000
G1 F1000 X8.4304 Y6.7550 Z-2.0000 S1000
G1 F1000 X7.7696 Y6.9593 Z-2.0000 S1000
G1 F1000 X7.1732 Y7.3095 Z-2.0000 S1000
G1 F1000 X6.6728 Y7.7871 Z-2.0000 S1000
G1 F1000 X6.2951 Y8.3665 Z-2.0000 S1000
G1 F1000 X6.0601 Y9.0170 Z-2.0000 S1000
G1 F1000 X5.9804 Y9.7041 Z-2.0000 S1000
G1 F1000 X5.9804 Y40.2041 Z-2.0000 S1000
G1 F1000 X6.0313 Y40.7541 Z-2.0000 S1000
G1 F1000 X6.2356 Y41.4149 Z-2.0000 S1000
G1 F1000 X6.5858 Y42.0113 Z-2.0000 S1000
G1 F1000 X7.0634 Y42.5117 Z-2.0000 S1000
G1 F1000 X7.6428 Y42.8894 Z-2.0000 S1000
G1 F1000 X8.2933 Y43.1244 Z-2.0000 S1000
G1 F1000 X8.9804 Y43.2041 Z-2.0000 S1000
G1 F1000 X92.4804 Y43.2041 Z-2.0000 S1000
G1 F1000 X93.0304 Y43.1532 Z-2.0000 S1000
G1 F1000 X93.6912 Y42.9489 Z-2.0000 S1000
G1 F1000 X94.2876 Y42.5987 Z-2.0000 S1000
G1 F1000 X94.7880 Y42.1211 Z-2.0000 S1000
G1 F1000 X95.1657 Y41.5417 Z-2.0000 S1000
G1 F1000 X95.4007 Y40.8912 Z-2.0000 S1000
G1 F1000 X95.4804 Y40.2041 Z-2.0000 S1000
G1 F1000 X95.4804 Y9.7041 Z-2.0000 S1000
G1 F1000 X95.4295 Y9.1541 Z-2.0000 S1000
G1 F1000 X95.2252 Y8.4933 Z-2.0000 S1000
G1 F1000 X94.8750 Y7.8969 Z-2.0000 S1000
G1 F1000 X94.3974 Y7.3965 Z-2.0000 S1000
G1 F1000 X93.8180 Y7.0188 Z-2.0000 S1000
G1 F1000 X93.1675 Y6.7838 Z-2.0000 S1000
G1 F1000 X92.4804 Y6.7041 Z-2.0000 S1000
G1 F300 Z-4.0000
G1 F1000 X8.9804 Y6.7041 Z-4.0000 S1000
G1 F1000 X8.4304 Y6.7550 Z-4.0000 S1000
G1 F1000 X7.7696 Y6.9593 Z-4.0000 S1000
G1 F1000 X7.1732 Y7.3095 Z-4.0000 S1000
G1 F1000 X6.6728 Y7.7871 Z-4.0000 S1000
G1 F1000 X6.2951 Y8.3665 Z-4.0000 S1000
G1 F1000 X6.0601 Y9.0170 Z-4.0000 S1000
G1 F1000 X5.9804 Y9.7041 Z-4.0000 S1000
G1 F1000 X5.9804 Y40.2041 Z-4.0000 S1000
G1 F1000 X6.0313 Y40.7541 Z-4.0000 S1000
G1 F1000 X6.2356 Y41.4149 Z-4.0000 S1000
G1 F1000 X6.5858 Y42.0113 Z-4.0000 S1000
G1 F1000 X7.0634 Y42.5117 Z-4.0000 S1000
G1 F1000 X7.6428 Y42.8894 Z-4.0000 S1000
G1 F1000 X8.2933 Y43.1244 Z-4.0000 S1000
G1 F1000 X8.9804 Y43.2041 Z-4.0000 S1000
G1 F1000 X92.4804 Y43.2041 Z-4.0000 S1000
G1 F1000 X93.0304 Y43.1532 Z-4.0000 S1000
G1 F1000 X93.6912 Y42.9489 Z-4.0000 S1000
G1 F1000 X94.2876 Y42.5987 Z-4.0000 S1000
G1 F1000 X94.7880 Y42.1211 Z-4.0000 S1000
G1 F1000 X95.1657 Y41.5417 Z-4.0000 S1000
G1 F1000 X95.4007 Y40.8912 Z-4.0000 S1000
G1 F1000 X95.4804 Y40.2041 Z-4.0000 S1000
G1 F1000 X95.4804 Y9.7041 Z-4.0000 S1000
G1 F1000 X95.4295 Y9.1541 Z-4.0000 S1000
G1 F1000 X95.2252 Y8.4933 Z-4.0000 S1000
G1 F1000 X94.8750 Y7.8969 Z-4.0000 S1000
G1 F1000 X94.3974 Y7.3965 Z-4.0000 S1000
G1 F1000 X93.8180 Y7.0188 Z-4.0000 S1000
G1 F1000 X93.1675 Y6.7838 Z-4.0000 S1000
G1 F1000 X92.4804 Y6.7041 Z-4.0000 S1000
; retracting back to z-safe
G0 Z10
; Operation 11: CNC: Pocket
; Endmill Diameter: 6

G0 Z10; move to z-safe height
G0 F1000 X94.4476 Y51.7169

G0 Z0
G1 F300 Z-2.0000
G1 F1000 X7.2000 Y51.7169 Z-2.0000 S1000
G1 F1000 X7.2000 Y51.3591 Z-2.0000 S1000
G1 F1000 X94.4476 Y51.3591 Z-2.0000 S1000
G1 F1000 X94.4476 Y51.7169 Z-2.0000 S1000
G1 F300 Z-4.0000
G1 F1000 X7.2000 Y51.7169 Z-4.0000 S1000
G1 F1000 X7.2000 Y51.3591 Z-4.0000 S1000
G1 F1000 X94.4476 Y51.3591 Z-4.0000 S1000
G1 F1000 X94.4476 Y51.7169 Z-4.0000 S1000

G0 Z10; move to z-safe height
G0 X96.8476 Y54.1169

G0 Z0
G1 F300 Z-2.0000
G1 F1000 X4.8000 Y54.1169 Z-2.0000 S1000
G1 F1000 X4.8000 Y48.9591 Z-2.0000 S1000
G1 F1000 X96.8476 Y48.9591 Z-2.0000 S1000
G1 F1000 X96.8476 Y54.1169 Z-2.0000 S1000
G1 F300 Z-4.0000
G1 F1000 X4.8000 Y54.1169 Z-4.0000 S1000
G1 F1000 X4.8000 Y48.9591 Z-4.0000 S1000
G1 F1000 X96.8476 Y48.9591 Z-4.0000 S1000
G1 F1000 X96.8476 Y54.1169 Z-4.0000 S1000

G0 Z10; move to z-safe height
G0 X98.6476 Y55.9169

G0 Z0
G1 F300 Z-2.0000
G1 F1000 X3.0000 Y55.9169 Z-2.0000 S1000
G1 F1000 X3.0000 Y47.1591 Z-2.0000 S1000
G1 F1000 X98.6476 Y47.1591 Z-2.0000 S1000
G1 F1000 X98.6476 Y55.9169 Z-2.0000 S1000

G0 Z10; move to z-safe height
G0 X98.6476 Y3.2000

G0 Z0
G1 F300 Z-2.0000
G1 F1000 X3.0000 Y3.2000 Z-2.0000 S1000
G1 F1000 X3.0000 Y3.0000 Z-2.0000 S1000
G1 F1000 X98.6476 Y3.0000 Z-2.0000 S1000
G1 F1000 X98.6476 Y3.2000 Z-2.0000 S1000

G0 Z10; move to z-safe height
G0 X98.6476 Y55.9169

G0 Z0
G1 F300 Z-4.0000
G1 F1000 X3.0000 Y55.9169 Z-4.0000 S1000
G1 F1000 X3.0000 Y47.1591 Z-4.0000 S1000
G1 F1000 X98.6476 Y47.1591 Z-4.0000 S1000
G1 F1000 X98.6476 Y55.9169 Z-4.0000 S1000

G0 Z10; move to z-safe height
G0 X98.6476 Y3.2000

G0 Z0
G1 F300 Z-4.0000
G1 F1000 X3.0000 Y3.2000 Z-4.0000 S1000
G1 F1000 X3.0000 Y3.0000 Z-4.0000 S1000
G1 F1000 X98.6476 Y3.0000 Z-4.0000 S1000
G1 F1000 X98.6476 Y3.2000 Z-4.0000 S1000
; retracting back to z-safe
G0 Z10
; Operation 12: CNC: Vector (path outside)
; Endmill Diameter: 6

G0 Z10; move to z-safe height
G0 F1000 X96.7304 Y-1.5459

G0 Z0
G1 F300 Z-3.0000
G1 F1000 X4.7304 Y-1.5459 Z-3.0000 S1000
G1 F1000 X4.1804 Y-1.4950 Z-3.0000 S1000
G1 F1000 X3.5196 Y-1.2907 Z-3.0000 S1000
G1 F1000 X2.9232 Y-0.9405 Z-3.0000 S1000
G1 F1000 X2.4228 Y-0.4629 Z-3.0000 S1000
G1 F1000 X2.0451 Y0.1165 Z-3.0000 S1000
G1 F1000 X1.8101 Y0.7670 Z-3.0000 S1000
G1 F1000 X1.7304 Y1.4541 Z-3.0000 S1000
G1 F1000 X1.7304 Y56.4541 Z-3.0000 S1000
G1 F1000 X1.7813 Y57.0041 Z-3.0000 S1000
G1 F1000 X1.9856 Y57.6649 Z-3.0000 S1000
G1 F1000 X2.3358 Y58.2613 Z-3.0000 S1000
G1 F1000 X2.8134 Y58.7617 Z-3.0000 S1000
G1 F1000 X3.3928 Y59.1394 Z-3.0000 S1000
G1 F1000 X4.0433 Y59.3744 Z-3.0000 S1000
G1 F1000 X4.7304 Y59.4541 Z-3.0000 S1000
G1 F1000 X96.7304 Y59.4541 Z-3.0000 S1000
G1 F1000 X97.2804 Y59.4032 Z-3.0000 S1000
G1 F1000 X97.9412 Y59.1989 Z-3.0000 S1000
G1 F1000 X98.5376 Y58.8487 Z-3.0000 S1000
G1 F1000 X99.0380 Y58.3711 Z-3.0000 S1000
G1 F1000 X99.4157 Y57.7917 Z-3.0000 S1000
G1 F1000 X99.6507 Y57.1412 Z-3.0000 S1000
G1 F1000 X99.7304 Y56.4541 Z-3.0000 S1000
G1 F1000 X99.7304 Y1.4541 Z-3.0000 S1000
G1 F1000 X99.6795 Y0.9041 Z-3.0000 S1000
G1 F1000 X99.4752 Y0.2433 Z-3.0000 S1000
G1 F1000 X99.1250 Y-0.3531 Z-3.0000 S1000
G1 F1000 X98.6474 Y-0.8535 Z-3.0000 S1000
G1 F1000 X98.0680 Y-1.2312 Z-3.0000 S1000
G1 F1000 X97.4175 Y-1.4662 Z-3.0000 S1000
G1 F1000 X96.7304 Y-1.5459 Z-3.0000 S1000
G1 F300 Z-6.0000
G1 F1000 X56.2304 Y-1.5459 Z-6.0000 S1000
G1 F1000 X56.2304 Y-1.5459 Z-5.6000 S1000
G1 F1000 X45.2304 Y-1.5459 Z-5.6000 S1000
G1 F1000 X45.2304 Y-1.5459 Z-6.0000 S1000
G1 F1000 X4.7304 Y-1.5459 Z-6.0000 S1000
G1 F1000 X4.7304 Y-1.5459 Z-6.0000 S1000
G1 F1000 X4.1804 Y-1.4950 Z-6.0000 S1000
G1 F1000 X3.5196 Y-1.2907 Z-6.0000 S1000
G1 F1000 X2.9232 Y-0.9405 Z-6.0000 S1000
G1 F1000 X2.4228 Y-0.4629 Z-6.0000 S1000
G1 F1000 X2.0451 Y0.1165 Z-6.0000 S1000
G1 F1000 X1.8101 Y0.7670 Z-6.0000 S1000
G1 F1000 X1.7304 Y1.4541 Z-6.0000 S1000
G1 F1000 X1.7304 Y56.4541 Z-6.0000 S1000
G1 F1000 X1.7813 Y57.0041 Z-6.0000 S1000
G1 F1000 X1.9856 Y57.6649 Z-6.0000 S1000
G1 F1000 X2.3358 Y58.2613 Z-6.0000 S1000
G1 F1000 X2.8134 Y58.7617 Z-6.0000 S1000
G1 F1000 X3.3928 Y59.1394 Z-6.0000 S1000
G1 F1000 X4.0433 Y59.3744 Z-6.0000 S1000
G1 F1000 X4.7304 Y59.4541 Z-6.0000 S1000
G1 F1000 X45.2304 Y59.4541 Z-6.0000 S1000
G1 F1000 X45.2304 Y59.4541 Z-5.6000 S1000
G1 F1000 X56.2304 Y59.4541 Z-5.6000 S1000
G1 F1000 X56.2304 Y59.4541 Z-6.0000 S1000
G1 F1000 X96.7304 Y59.4541 Z-6.0000 S1000
G1 F1000 X96.7304 Y59.4541 Z-6.0000 S1000
G1 F1000 X97.2804 Y59.4032 Z-6.0000 S1000
G1 F1000 X97.9412 Y59.1989 Z-6.0000 S1000
G1 F1000 X98.5376 Y58.8487 Z-6.0000 S1000
G1 F1000 X99.0380 Y58.3711 Z-6.0000 S1000
G1 F1000 X99.4157 Y57.7917 Z-6.0000 S1000
G1 F1000 X99.6507 Y57.1412 Z-6.0000 S1000
G1 F1000 X99.7304 Y56.4541 Z-6.0000 S1000
G1 F1000 X99.7304 Y1.4541 Z-6.0000 S1000
G1 F1000 X99.6795 Y0.9041 Z-6.0000 S1000
G1 F1000 X99.4752 Y0.2433 Z-6.0000 S1000
G1 F1000 X99.1250 Y-0.3531 Z-6.0000 S1000
G1 F1000 X98.6474 Y-0.8535 Z-6.0000 S1000
G1 F1000 X98.0680 Y-1.2312 Z-6.0000 S1000
G1 F1000 X97.4175 Y-1.4662 Z-6.0000 S1000
G1 F1000 X96.7304 Y-1.5459 Z-6.0000 S1000
G1 F300 Z-8.6000
G1 F1000 X56.2304 Y-1.5459 Z-8.6000 S1000
G1 F1000 X56.2304 Y-1.5459 Z-5.6000 S1000
G1 F1000 X45.2304 Y-1.5459 Z-5.6000 S1000
G1 F1000 X45.2304 Y-1.5459 Z-8.6000 S1000
G1 F1000 X4.7304 Y-1.5459 Z-8.6000 S1000
G1 F1000 X4.7304 Y-1.5459 Z-8.6000 S1000
G1 F1000 X4.1804 Y-1.4950 Z-8.6000 S1000
G1 F1000 X3.5196 Y-1.2907 Z-8.6000 S1000
G1 F1000 X2.9232 Y-0.9405 Z-8.6000 S1000
G1 F1000 X2.4228 Y-0.4629 Z-8.6000 S1000
G1 F1000 X2.0451 Y0.1165 Z-8.6000 S1000
G1 F1000 X1.8101 Y0.7670 Z-8.6000 S1000
G1 F1000 X1.7304 Y1.4541 Z-8.6000 S1000
G1 F1000 X1.7304 Y56.4541 Z-8.6000 S1000
G1 F1000 X1.7813 Y57.0041 Z-8.6000 S1000
G1 F1000 X1.9856 Y57.6649 Z-8.6000 S1000
G1 F1000 X2.3358 Y58.2613 Z-8.6000 S1000
G1 F1000 X2.8134 Y58.7617 Z-8.6000 S1000
G1 F1000 X3.3928 Y59.1394 Z-8.6000 S1000
G1 F1000 X4.0433 Y59.3744 Z-8.6000 S1000
G1 F1000 X4.7304 Y59.4541 Z-8.6000 S1000
G1 F1000 X45.2304 Y59.4541 Z-8.6000 S1000
G1 F1000 X45.2304 Y59.4541 Z-5.6000 S1000
G1 F1000 X56.2304 Y59.4541 Z-5.6000 S1000
G1 F1000 X56.2304 Y59.4541 Z-8.6000 S1000
G1 F1000 X96.7304 Y59.4541 Z-8.6000 S1000
G1 F1000 X96.7304 Y59.4541 Z-8.6000 S1000
G1 F1000 X97.2804 Y59.4032 Z-8.6000 S1000
G1 F1000 X97.9412 Y59.1989 Z-8.6000 S1000
G1 F1000 X98.5376 Y58.8487 Z-8.6000 S1000
G1 F1000 X99.0380 Y58.3711 Z-8.6000 S1000
G1 F1000 X99.4157 Y57.7917 Z-8.6000 S1000
G1 F1000 X99.6507 Y57.1412 Z-8.6000 S1000
G1 F1000 X99.7304 Y56.4541 Z-8.6000 S1000
G1 F1000 X99.7304 Y1.4541 Z-8.6000 S1000
G1 F1000 X99.6795 Y0.9041 Z-8.6000 S1000
G1 F1000 X99.4752 Y0.2433 Z-8.6000 S1000
G1 F1000 X99.1250 Y-0.3531 Z-8.6000 S1000
G1 F1000 X98.6474 Y-0.8535 Z-8.6000 S1000
G1 F1000 X98.0680 Y-1.2312 Z-8.6000 S1000
G1 F1000 X97.4175 Y-1.4662 Z-8.6000 S1000
G1 F1000 X96.7304 Y-1.5459 Z-8.6000 S1000
; retracting back to z-safe
G0 Z10

M5 S0; Spindle Off
