; GCODE Generated by cam.openbuilds.com on 2021-04-29 
G21 ; mm-mode
G54; Work Coordinates
G21; mm-mode
G90; Absolute Positioning
M3 S1000; Spindle On

; Operation 0: Drill: Peck (Centered)
; Endmill Diameter: 6

G0 Z10; move to z-safe height
G0 F1000 X165.6243 Y6.3750

G0 Z0
G1 F100 Z0.0000
G1 F1000 X165.6243 Y6.3750 Z0.0000 S1000
G1 F1000 X165.6243 Y6.3750 Z0.0000 S1000
G1 F100 Z0.0000
G1 F1000 X165.6243 Y6.3750 Z-1.5000 S1000
G1 F1000 X165.6243 Y6.3750 Z0.0000 S1000
G1 F100 Z-1.5000
G1 F1000 X165.6243 Y6.3750 Z-3.0000 S1000
G1 F1000 X165.6243 Y6.3750 Z0.0000 S1000
G1 F100 Z-3.0000
G1 F1000 X165.6243 Y6.3750 Z-4.5000 S1000
G1 F1000 X165.6243 Y6.3750 Z0.0000 S1000
G1 F100 Z-4.5000
G1 F1000 X165.6243 Y6.3750 Z-6.0000 S1000
G1 F1000 X165.6243 Y6.3750 Z0.0000 S1000
G1 F100 Z-6.0000
G1 F1000 X165.6243 Y6.3750 Z-7.5000 S1000
G1 F1000 X165.6243 Y6.3750 Z0.0000 S1000
G1 F100 Z-7.5000
G1 F1000 X165.6243 Y6.3750 Z-8.6000 S1000
G1 F1000 X165.6243 Y6.3750 Z0.0000 S1000

G0 Z10; move to z-safe height
G0 X165.6243 Y85.6247

G0 Z0
G1 F100 Z0.0000
G1 F1000 X165.6243 Y85.6247 Z0.0000 S1000
G1 F1000 X165.6243 Y85.6247 Z0.0000 S1000
G1 F100 Z0.0000
G1 F1000 X165.6243 Y85.6247 Z-1.5000 S1000
G1 F1000 X165.6243 Y85.6247 Z0.0000 S1000
G1 F100 Z-1.5000
G1 F1000 X165.6243 Y85.6247 Z-3.0000 S1000
G1 F1000 X165.6243 Y85.6247 Z0.0000 S1000
G1 F100 Z-3.0000
G1 F1000 X165.6243 Y85.6247 Z-4.5000 S1000
G1 F1000 X165.6243 Y85.6247 Z0.0000 S1000
G1 F100 Z-4.5000
G1 F1000 X165.6243 Y85.6247 Z-6.0000 S1000
G1 F1000 X165.6243 Y85.6247 Z0.0000 S1000
G1 F100 Z-6.0000
G1 F1000 X165.6243 Y85.6247 Z-7.5000 S1000
G1 F1000 X165.6243 Y85.6247 Z0.0000 S1000
G1 F100 Z-7.5000
G1 F1000 X165.6243 Y85.6247 Z-8.6000 S1000
G1 F1000 X165.6243 Y85.6247 Z0.0000 S1000

G0 Z10; move to z-safe height
G0 X6.3757 Y6.3750

G0 Z0
G1 F100 Z0.0000
G1 F1000 X6.3757 Y6.3750 Z0.0000 S1000
G1 F1000 X6.3757 Y6.3750 Z0.0000 S1000
G1 F100 Z0.0000
G1 F1000 X6.3757 Y6.3750 Z-1.5000 S1000
G1 F1000 X6.3757 Y6.3750 Z0.0000 S1000
G1 F100 Z-1.5000
G1 F1000 X6.3757 Y6.3750 Z-3.0000 S1000
G1 F1000 X6.3757 Y6.3750 Z0.0000 S1000
G1 F100 Z-3.0000
G1 F1000 X6.3757 Y6.3750 Z-4.5000 S1000
G1 F1000 X6.3757 Y6.3750 Z0.0000 S1000
G1 F100 Z-4.5000
G1 F1000 X6.3757 Y6.3750 Z-6.0000 S1000
G1 F1000 X6.3757 Y6.3750 Z0.0000 S1000
G1 F100 Z-6.0000
G1 F1000 X6.3757 Y6.3750 Z-7.5000 S1000
G1 F1000 X6.3757 Y6.3750 Z0.0000 S1000
G1 F100 Z-7.5000
G1 F1000 X6.3757 Y6.3750 Z-8.6000 S1000
G1 F1000 X6.3757 Y6.3750 Z0.0000 S1000

G0 Z10; move to z-safe height
G0 X6.3757 Y85.6247

G0 Z0
G1 F100 Z0.0000
G1 F1000 X6.3757 Y85.6247 Z0.0000 S1000
G1 F1000 X6.3757 Y85.6247 Z0.0000 S1000
G1 F100 Z0.0000
G1 F1000 X6.3757 Y85.6247 Z-1.5000 S1000
G1 F1000 X6.3757 Y85.6247 Z0.0000 S1000
G1 F100 Z-1.5000
G1 F1000 X6.3757 Y85.6247 Z-3.0000 S1000
G1 F1000 X6.3757 Y85.6247 Z0.0000 S1000
G1 F100 Z-3.0000
G1 F1000 X6.3757 Y85.6247 Z-4.5000 S1000
G1 F1000 X6.3757 Y85.6247 Z0.0000 S1000
G1 F100 Z-4.5000
G1 F1000 X6.3757 Y85.6247 Z-6.0000 S1000
G1 F1000 X6.3757 Y85.6247 Z0.0000 S1000
G1 F100 Z-6.0000
G1 F1000 X6.3757 Y85.6247 Z-7.5000 S1000
G1 F1000 X6.3757 Y85.6247 Z0.0000 S1000
G1 F100 Z-7.5000
G1 F1000 X6.3757 Y85.6247 Z-8.6000 S1000
G1 F1000 X6.3757 Y85.6247 Z0.0000 S1000
; retracting back to z-safe
G0 Z10

M5 S0; Spindle Off
