; GCODE Generated by cam.openbuilds.com on 2021-04-29 
G21 ; mm-mode
G54; Work Coordinates
G21; mm-mode
G90; Absolute Positioning
M3 S1000; Spindle On

; Operation 0: CNC: Pocket
; Endmill Diameter: 6

G0 Z10; move to z-safe height
G0 F1000 X61.0000 Y31.0000

G0 Z0
G1 F100 Z-3.0000
G1 F1000 X26.4000 Y31.0000 Z-3.0000 S1000
G1 F1000 X26.4000 Y26.4000 Z-3.0000 S1000
G1 F1000 X61.0000 Y26.4000 Z-3.0000 S1000
G1 F1000 X61.0000 Y31.0000 Z-3.0000 S1000

G0 Z10; move to z-safe height
G0 X63.4000 Y33.4000

G0 Z0
G1 F100 Z-3.0000
G1 F1000 X24.0000 Y33.4000 Z-3.0000 S1000
G1 F1000 X24.0000 Y24.0000 Z-3.0000 S1000
G1 F1000 X63.4000 Y24.0000 Z-3.0000 S1000
G1 F1000 X63.4000 Y33.4000 Z-3.0000 S1000

G0 Z10; move to z-safe height
G0 X65.8000 Y35.8000

G0 Z0
G1 F100 Z-3.0000
G1 F1000 X21.6000 Y35.8000 Z-3.0000 S1000
G1 F1000 X21.6000 Y21.6000 Z-3.0000 S1000
G1 F1000 X65.8000 Y21.6000 Z-3.0000 S1000
G1 F1000 X65.8000 Y35.8000 Z-3.0000 S1000

G0 Z10; move to z-safe height
G0 X68.2000 Y38.2000

G0 Z0
G1 F100 Z-3.0000
G1 F1000 X19.2000 Y38.2000 Z-3.0000 S1000
G1 F1000 X19.2000 Y19.2000 Z-3.0000 S1000
G1 F1000 X68.2000 Y19.2000 Z-3.0000 S1000
G1 F1000 X68.2000 Y38.2000 Z-3.0000 S1000

G0 Z10; move to z-safe height
G0 X70.6000 Y40.6000

G0 Z0
G1 F100 Z-3.0000
G1 F1000 X16.8000 Y40.6000 Z-3.0000 S1000
G1 F1000 X16.8000 Y16.8000 Z-3.0000 S1000
G1 F1000 X70.6000 Y16.8000 Z-3.0000 S1000
G1 F1000 X70.6000 Y40.6000 Z-3.0000 S1000

G0 Z10; move to z-safe height
G0 X73.0000 Y43.0000

G0 Z0
G1 F100 Z-3.0000
G1 F1000 X14.4000 Y43.0000 Z-3.0000 S1000
G1 F1000 X14.4000 Y14.4000 Z-3.0000 S1000
G1 F1000 X73.0000 Y14.4000 Z-3.0000 S1000
G1 F1000 X73.0000 Y43.0000 Z-3.0000 S1000

G0 Z10; move to z-safe height
G0 X75.4000 Y45.4000

G0 Z0
G1 F100 Z-3.0000
G1 F1000 X12.0000 Y45.4000 Z-3.0000 S1000
G1 F1000 X12.0000 Y12.0000 Z-3.0000 S1000
G1 F1000 X75.4000 Y12.0000 Z-3.0000 S1000
G1 F1000 X75.4000 Y45.4000 Z-3.0000 S1000

G0 Z10; move to z-safe height
G0 X77.8000 Y47.8000

G0 Z0
G1 F100 Z-3.0000
G1 F1000 X9.6000 Y47.8000 Z-3.0000 S1000
G1 F1000 X9.6000 Y9.6000 Z-3.0000 S1000
G1 F1000 X77.8000 Y9.6000 Z-3.0000 S1000
G1 F1000 X77.8000 Y47.8000 Z-3.0000 S1000

G0 Z10; move to z-safe height
G0 X80.2000 Y50.2000

G0 Z0
G1 F100 Z-3.0000
G1 F1000 X7.2000 Y50.2000 Z-3.0000 S1000
G1 F1000 X7.2000 Y7.2000 Z-3.0000 S1000
G1 F1000 X80.2000 Y7.2000 Z-3.0000 S1000
G1 F1000 X80.2000 Y50.2000 Z-3.0000 S1000

G0 Z10; move to z-safe height
G0 X82.6000 Y52.6000

G0 Z0
G1 F100 Z-3.0000
G1 F1000 X4.8000 Y52.6000 Z-3.0000 S1000
G1 F1000 X4.8000 Y4.8000 Z-3.0000 S1000
G1 F1000 X82.6000 Y4.8000 Z-3.0000 S1000
G1 F1000 X82.6000 Y52.6000 Z-3.0000 S1000

G0 Z10; move to z-safe height
G0 X84.4000 Y54.4000

G0 Z0
G1 F100 Z-3.0000
G1 F1000 X3.0000 Y54.4000 Z-3.0000 S1000
G1 F1000 X3.0000 Y3.0000 Z-3.0000 S1000
G1 F1000 X84.4000 Y3.0000 Z-3.0000 S1000
G1 F1000 X84.4000 Y54.4000 Z-3.0000 S1000
; retracting back to z-safe
G0 Z10
; Operation 1: CNC: Vector (path outside)
; Endmill Diameter: 6

G0 Z10; move to z-safe height
G0 F1000 X87.4000 Y-3.0000

G0 Z0
G1 F100 Z-3.0000
G1 F1000 X0.0000 Y-3.0000 Z-3.0000 S1000
G1 F1000 X-0.5500 Y-2.9491 Z-3.0000 S1000
G1 F1000 X-1.2108 Y-2.7448 Z-3.0000 S1000
G1 F1000 X-1.8072 Y-2.3946 Z-3.0000 S1000
G1 F1000 X-2.3076 Y-1.9170 Z-3.0000 S1000
G1 F1000 X-2.6853 Y-1.3376 Z-3.0000 S1000
G1 F1000 X-2.9203 Y-0.6871 Z-3.0000 S1000
G1 F1000 X-3.0000 Y0.0000 Z-3.0000 S1000
G1 F1000 X-3.0000 Y57.4000 Z-3.0000 S1000
G1 F1000 X-2.9491 Y57.9500 Z-3.0000 S1000
G1 F1000 X-2.7448 Y58.6108 Z-3.0000 S1000
G1 F1000 X-2.3946 Y59.2072 Z-3.0000 S1000
G1 F1000 X-1.9170 Y59.7076 Z-3.0000 S1000
G1 F1000 X-1.3376 Y60.0853 Z-3.0000 S1000
G1 F1000 X-0.6871 Y60.3203 Z-3.0000 S1000
G1 F1000 X0.0000 Y60.4000 Z-3.0000 S1000
G1 F1000 X87.4000 Y60.4000 Z-3.0000 S1000
G1 F1000 X87.9500 Y60.3491 Z-3.0000 S1000
G1 F1000 X88.6108 Y60.1448 Z-3.0000 S1000
G1 F1000 X89.2072 Y59.7946 Z-3.0000 S1000
G1 F1000 X89.7076 Y59.3170 Z-3.0000 S1000
G1 F1000 X90.0853 Y58.7376 Z-3.0000 S1000
G1 F1000 X90.3203 Y58.0871 Z-3.0000 S1000
G1 F1000 X90.4000 Y57.4000 Z-3.0000 S1000
G1 F1000 X90.4000 Y0.0000 Z-3.0000 S1000
G1 F1000 X90.3491 Y-0.5500 Z-3.0000 S1000
G1 F1000 X90.1448 Y-1.2108 Z-3.0000 S1000
G1 F1000 X89.7946 Y-1.8072 Z-3.0000 S1000
G1 F1000 X89.3170 Y-2.3076 Z-3.0000 S1000
G1 F1000 X88.7376 Y-2.6853 Z-3.0000 S1000
G1 F1000 X88.0871 Y-2.9203 Z-3.0000 S1000
G1 F1000 X87.4000 Y-3.0000 Z-3.0000 S1000
G1 F100 Z-6.0000
G1 F1000 X49.2000 Y-3.0000 Z-6.0000 S1000
G1 F1000 X49.2000 Y-3.0000 Z-5.6000 S1000
G1 F1000 X38.2000 Y-3.0000 Z-5.6000 S1000
G1 F1000 X38.2000 Y-3.0000 Z-6.0000 S1000
G1 F1000 X0.0000 Y-3.0000 Z-6.0000 S1000
G1 F1000 X0.0000 Y-3.0000 Z-6.0000 S1000
G1 F1000 X-0.5500 Y-2.9491 Z-6.0000 S1000
G1 F1000 X-1.2108 Y-2.7448 Z-6.0000 S1000
G1 F1000 X-1.8072 Y-2.3946 Z-6.0000 S1000
G1 F1000 X-2.3076 Y-1.9170 Z-6.0000 S1000
G1 F1000 X-2.6853 Y-1.3376 Z-6.0000 S1000
G1 F1000 X-2.9203 Y-0.6871 Z-6.0000 S1000
G1 F1000 X-3.0000 Y0.0000 Z-6.0000 S1000
G1 F1000 X-3.0000 Y57.4000 Z-6.0000 S1000
G1 F1000 X-2.9491 Y57.9500 Z-6.0000 S1000
G1 F1000 X-2.7448 Y58.6108 Z-6.0000 S1000
G1 F1000 X-2.3946 Y59.2072 Z-6.0000 S1000
G1 F1000 X-1.9170 Y59.7076 Z-6.0000 S1000
G1 F1000 X-1.3376 Y60.0853 Z-6.0000 S1000
G1 F1000 X-0.6871 Y60.3203 Z-6.0000 S1000
G1 F1000 X0.0000 Y60.4000 Z-6.0000 S1000
G1 F1000 X38.2000 Y60.4000 Z-6.0000 S1000
G1 F1000 X38.2000 Y60.4000 Z-5.6000 S1000
G1 F1000 X49.2000 Y60.4000 Z-5.6000 S1000
G1 F1000 X49.2000 Y60.4000 Z-6.0000 S1000
G1 F1000 X87.4000 Y60.4000 Z-6.0000 S1000
G1 F1000 X87.4000 Y60.4000 Z-6.0000 S1000
G1 F1000 X87.9500 Y60.3491 Z-6.0000 S1000
G1 F1000 X88.6108 Y60.1448 Z-6.0000 S1000
G1 F1000 X89.2072 Y59.7946 Z-6.0000 S1000
G1 F1000 X89.7076 Y59.3170 Z-6.0000 S1000
G1 F1000 X90.0853 Y58.7376 Z-6.0000 S1000
G1 F1000 X90.3203 Y58.0871 Z-6.0000 S1000
G1 F1000 X90.4000 Y57.4000 Z-6.0000 S1000
G1 F1000 X90.4000 Y0.0000 Z-6.0000 S1000
G1 F1000 X90.3491 Y-0.5500 Z-6.0000 S1000
G1 F1000 X90.1448 Y-1.2108 Z-6.0000 S1000
G1 F1000 X89.7946 Y-1.8072 Z-6.0000 S1000
G1 F1000 X89.3170 Y-2.3076 Z-6.0000 S1000
G1 F1000 X88.7376 Y-2.6853 Z-6.0000 S1000
G1 F1000 X88.0871 Y-2.9203 Z-6.0000 S1000
G1 F1000 X87.4000 Y-3.0000 Z-6.0000 S1000
G1 F100 Z-8.6000
G1 F1000 X49.2000 Y-3.0000 Z-8.6000 S1000
G1 F1000 X49.2000 Y-3.0000 Z-5.6000 S1000
G1 F1000 X38.2000 Y-3.0000 Z-5.6000 S1000
G1 F1000 X38.2000 Y-3.0000 Z-8.6000 S1000
G1 F1000 X0.0000 Y-3.0000 Z-8.6000 S1000
G1 F1000 X0.0000 Y-3.0000 Z-8.6000 S1000
G1 F1000 X-0.5500 Y-2.9491 Z-8.6000 S1000
G1 F1000 X-1.2108 Y-2.7448 Z-8.6000 S1000
G1 F1000 X-1.8072 Y-2.3946 Z-8.6000 S1000
G1 F1000 X-2.3076 Y-1.9170 Z-8.6000 S1000
G1 F1000 X-2.6853 Y-1.3376 Z-8.6000 S1000
G1 F1000 X-2.9203 Y-0.6871 Z-8.6000 S1000
G1 F1000 X-3.0000 Y0.0000 Z-8.6000 S1000
G1 F1000 X-3.0000 Y57.4000 Z-8.6000 S1000
G1 F1000 X-2.9491 Y57.9500 Z-8.6000 S1000
G1 F1000 X-2.7448 Y58.6108 Z-8.6000 S1000
G1 F1000 X-2.3946 Y59.2072 Z-8.6000 S1000
G1 F1000 X-1.9170 Y59.7076 Z-8.6000 S1000
G1 F1000 X-1.3376 Y60.0853 Z-8.6000 S1000
G1 F1000 X-0.6871 Y60.3203 Z-8.6000 S1000
G1 F1000 X0.0000 Y60.4000 Z-8.6000 S1000
G1 F1000 X38.2000 Y60.4000 Z-8.6000 S1000
G1 F1000 X38.2000 Y60.4000 Z-5.6000 S1000
G1 F1000 X49.2000 Y60.4000 Z-5.6000 S1000
G1 F1000 X49.2000 Y60.4000 Z-8.6000 S1000
G1 F1000 X87.4000 Y60.4000 Z-8.6000 S1000
G1 F1000 X87.4000 Y60.4000 Z-8.6000 S1000
G1 F1000 X87.9500 Y60.3491 Z-8.6000 S1000
G1 F1000 X88.6108 Y60.1448 Z-8.6000 S1000
G1 F1000 X89.2072 Y59.7946 Z-8.6000 S1000
G1 F1000 X89.7076 Y59.3170 Z-8.6000 S1000
G1 F1000 X90.0853 Y58.7376 Z-8.6000 S1000
G1 F1000 X90.3203 Y58.0871 Z-8.6000 S1000
G1 F1000 X90.4000 Y57.4000 Z-8.6000 S1000
G1 F1000 X90.4000 Y0.0000 Z-8.6000 S1000
G1 F1000 X90.3491 Y-0.5500 Z-8.6000 S1000
G1 F1000 X90.1448 Y-1.2108 Z-8.6000 S1000
G1 F1000 X89.7946 Y-1.8072 Z-8.6000 S1000
G1 F1000 X89.3170 Y-2.3076 Z-8.6000 S1000
G1 F1000 X88.7376 Y-2.6853 Z-8.6000 S1000
G1 F1000 X88.0871 Y-2.9203 Z-8.6000 S1000
G1 F1000 X87.4000 Y-3.0000 Z-8.6000 S1000
; retracting back to z-safe
G0 Z10

M5 S0; Spindle Off
