; GCODE Generated by cam.openbuilds.com on 2021-04-29 
G21 ; mm-mode
G54; Work Coordinates
G21; mm-mode
G90; Absolute Positioning
M3 S1000; Spindle On

; Operation 0: Drill: Peck (Centered)
; Endmill Diameter: 6

G0 Z10; move to z-safe height
G0 F1000 X161.6247 Y21.1481

G0 Z0
G1 F100 Z0.0000
G1 F1000 X161.6247 Y21.1481 Z0.0000 S1000
G1 F1000 X161.6247 Y21.1481 Z0.0000 S1000
G1 F100 Z0.0000
G1 F1000 X161.6247 Y21.1481 Z-1.5000 S1000
G1 F1000 X161.6247 Y21.1481 Z0.0000 S1000
G1 F100 Z-1.5000
G1 F1000 X161.6247 Y21.1481 Z-3.0000 S1000
G1 F1000 X161.6247 Y21.1481 Z0.0000 S1000
G1 F100 Z-3.0000
G1 F1000 X161.6247 Y21.1481 Z-4.5000 S1000
G1 F1000 X161.6247 Y21.1481 Z0.0000 S1000
G1 F100 Z-4.5000
G1 F1000 X161.6247 Y21.1481 Z-6.0000 S1000
G1 F1000 X161.6247 Y21.1481 Z0.0000 S1000
G1 F100 Z-6.0000
G1 F1000 X161.6247 Y21.1481 Z-7.5000 S1000
G1 F1000 X161.6247 Y21.1481 Z0.0000 S1000
G1 F100 Z-7.5000
G1 F1000 X161.6247 Y21.1481 Z-8.6000 S1000
G1 F1000 X161.6247 Y21.1481 Z0.0000 S1000

G0 Z10; move to z-safe height
G0 X161.6247 Y4.8521

G0 Z0
G1 F100 Z0.0000
G1 F1000 X161.6247 Y4.8521 Z0.0000 S1000
G1 F1000 X161.6247 Y4.8521 Z0.0000 S1000
G1 F100 Z0.0000
G1 F1000 X161.6247 Y4.8521 Z-1.5000 S1000
G1 F1000 X161.6247 Y4.8521 Z0.0000 S1000
G1 F100 Z-1.5000
G1 F1000 X161.6247 Y4.8521 Z-3.0000 S1000
G1 F1000 X161.6247 Y4.8521 Z0.0000 S1000
G1 F100 Z-3.0000
G1 F1000 X161.6247 Y4.8521 Z-4.5000 S1000
G1 F1000 X161.6247 Y4.8521 Z0.0000 S1000
G1 F100 Z-4.5000
G1 F1000 X161.6247 Y4.8521 Z-6.0000 S1000
G1 F1000 X161.6247 Y4.8521 Z0.0000 S1000
G1 F100 Z-6.0000
G1 F1000 X161.6247 Y4.8521 Z-7.5000 S1000
G1 F1000 X161.6247 Y4.8521 Z0.0000 S1000
G1 F100 Z-7.5000
G1 F1000 X161.6247 Y4.8521 Z-8.6000 S1000
G1 F1000 X161.6247 Y4.8521 Z0.0000 S1000

G0 Z10; move to z-safe height
G0 X10.3750 Y21.1481

G0 Z0
G1 F100 Z0.0000
G1 F1000 X10.3750 Y21.1481 Z0.0000 S1000
G1 F1000 X10.3750 Y21.1481 Z0.0000 S1000
G1 F100 Z0.0000
G1 F1000 X10.3750 Y21.1481 Z-1.5000 S1000
G1 F1000 X10.3750 Y21.1481 Z0.0000 S1000
G1 F100 Z-1.5000
G1 F1000 X10.3750 Y21.1481 Z-3.0000 S1000
G1 F1000 X10.3750 Y21.1481 Z0.0000 S1000
G1 F100 Z-3.0000
G1 F1000 X10.3750 Y21.1481 Z-4.5000 S1000
G1 F1000 X10.3750 Y21.1481 Z0.0000 S1000
G1 F100 Z-4.5000
G1 F1000 X10.3750 Y21.1481 Z-6.0000 S1000
G1 F1000 X10.3750 Y21.1481 Z0.0000 S1000
G1 F100 Z-6.0000
G1 F1000 X10.3750 Y21.1481 Z-7.5000 S1000
G1 F1000 X10.3750 Y21.1481 Z0.0000 S1000
G1 F100 Z-7.5000
G1 F1000 X10.3750 Y21.1481 Z-8.6000 S1000
G1 F1000 X10.3750 Y21.1481 Z0.0000 S1000

G0 Z10; move to z-safe height
G0 X10.3750 Y4.8521

G0 Z0
G1 F100 Z0.0000
G1 F1000 X10.3750 Y4.8521 Z0.0000 S1000
G1 F1000 X10.3750 Y4.8521 Z0.0000 S1000
G1 F100 Z0.0000
G1 F1000 X10.3750 Y4.8521 Z-1.5000 S1000
G1 F1000 X10.3750 Y4.8521 Z0.0000 S1000
G1 F100 Z-1.5000
G1 F1000 X10.3750 Y4.8521 Z-3.0000 S1000
G1 F1000 X10.3750 Y4.8521 Z0.0000 S1000
G1 F100 Z-3.0000
G1 F1000 X10.3750 Y4.8521 Z-4.5000 S1000
G1 F1000 X10.3750 Y4.8521 Z0.0000 S1000
G1 F100 Z-4.5000
G1 F1000 X10.3750 Y4.8521 Z-6.0000 S1000
G1 F1000 X10.3750 Y4.8521 Z0.0000 S1000
G1 F100 Z-6.0000
G1 F1000 X10.3750 Y4.8521 Z-7.5000 S1000
G1 F1000 X10.3750 Y4.8521 Z0.0000 S1000
G1 F100 Z-7.5000
G1 F1000 X10.3750 Y4.8521 Z-8.6000 S1000
G1 F1000 X10.3750 Y4.8521 Z0.0000 S1000
; retracting back to z-safe
G0 Z10
; Operation 1: Drill: Peck (Centered)
; Endmill Diameter: 6

G0 Z10; move to z-safe height
G0 F1000 X6.3999 Y85.6000

G0 Z0
G1 F100 Z0.0000
G1 F1000 X6.3999 Y85.6000 Z0.0000 S1000
G1 F1000 X6.3999 Y85.6000 Z0.0000 S1000
G1 F100 Z0.0000
G1 F1000 X6.3999 Y85.6000 Z-1.5000 S1000
G1 F1000 X6.3999 Y85.6000 Z0.0000 S1000
G1 F100 Z-1.5000
G1 F1000 X6.3999 Y85.6000 Z-3.0000 S1000
G1 F1000 X6.3999 Y85.6000 Z0.0000 S1000

G0 Z10; move to z-safe height
G0 X6.3999 Y29.8082

G0 Z0
G1 F100 Z0.0000
G1 F1000 X6.3999 Y29.8082 Z0.0000 S1000
G1 F1000 X6.3999 Y29.8082 Z0.0000 S1000
G1 F100 Z0.0000
G1 F1000 X6.3999 Y29.8082 Z-1.5000 S1000
G1 F1000 X6.3999 Y29.8082 Z0.0000 S1000
G1 F100 Z-1.5000
G1 F1000 X6.3999 Y29.8082 Z-3.0000 S1000
G1 F1000 X6.3999 Y29.8082 Z0.0000 S1000

G0 Z10; move to z-safe height
G0 X92.6550 Y85.6000

G0 Z0
G1 F100 Z0.0000
G1 F1000 X92.6550 Y85.6000 Z0.0000 S1000
G1 F1000 X92.6550 Y85.6000 Z0.0000 S1000
G1 F100 Z0.0000
G1 F1000 X92.6550 Y85.6000 Z-1.5000 S1000
G1 F1000 X92.6550 Y85.6000 Z0.0000 S1000
G1 F100 Z-1.5000
G1 F1000 X92.6550 Y85.6000 Z-3.0000 S1000
G1 F1000 X92.6550 Y85.6000 Z0.0000 S1000

G0 Z10; move to z-safe height
G0 X92.6550 Y29.8082

G0 Z0
G1 F100 Z0.0000
G1 F1000 X92.6550 Y29.8082 Z0.0000 S1000
G1 F1000 X92.6550 Y29.8082 Z0.0000 S1000
G1 F100 Z0.0000
G1 F1000 X92.6550 Y29.8082 Z-1.5000 S1000
G1 F1000 X92.6550 Y29.8082 Z0.0000 S1000
G1 F100 Z-1.5000
G1 F1000 X92.6550 Y29.8082 Z-3.0000 S1000
G1 F1000 X92.6550 Y29.8082 Z0.0000 S1000
; retracting back to z-safe
G0 Z10
; Operation 2: CNC: Vector (path inside)
; Endmill Diameter: 3.17

G0 Z10; move to z-safe height
G0 F1000 X91.9426 Y85.1191

G0 Z0
G1 F100 Z-1.5000
G1 F1000 X7.1126 Y85.1191 Z-1.5000 S1000
G1 F1000 X7.1126 Y30.2891 Z-1.5000 S1000
G1 F1000 X91.9426 Y30.2891 Z-1.5000 S1000
G1 F1000 X91.9426 Y85.1191 Z-1.5000 S1000
G1 F100 Z-3.0000
G1 F1000 X7.1126 Y85.1191 Z-3.0000 S1000
G1 F1000 X7.1126 Y30.2891 Z-3.0000 S1000
G1 F1000 X91.9426 Y30.2891 Z-3.0000 S1000
G1 F1000 X91.9426 Y85.1191 Z-3.0000 S1000
; retracting back to z-safe
G0 Z10
; Operation 3: CNC: Vector (path inside)
; Endmill Diameter: 3.17

G0 Z10; move to z-safe height
G0 F1000 X89.1821 Y81.7999

G0 Z0
G1 F100 Z-1.5000
G1 F1000 X89.3318 Y81.9495 Z-1.5000 S1000
G1 F1000 X89.3866 Y82.1541 Z-1.5000 S1000
G1 F1000 X89.3318 Y82.3586 Z-1.5000 S1000
G1 F1000 X89.1820 Y82.5084 Z-1.5000 S1000
G1 F1000 X88.9775 Y82.5632 Z-1.5000 S1000
G1 F1000 X88.7730 Y82.5084 Z-1.5000 S1000
G1 F1000 X88.6232 Y82.3586 Z-1.5000 S1000
G1 F1000 X88.5684 Y82.1541 Z-1.5000 S1000
G1 F1000 X88.6232 Y81.9495 Z-1.5000 S1000
G1 F1000 X88.7729 Y81.7999 Z-1.5000 S1000
G1 F1000 X88.9775 Y81.7451 Z-1.5000 S1000
G1 F1000 X89.1821 Y81.7999 Z-1.5000 S1000
G1 F100 Z-3.0000
G1 F1000 X89.3318 Y81.9495 Z-3.0000 S1000
G1 F1000 X89.3866 Y82.1541 Z-3.0000 S1000
G1 F1000 X89.3318 Y82.3586 Z-3.0000 S1000
G1 F1000 X89.1820 Y82.5084 Z-3.0000 S1000
G1 F1000 X88.9775 Y82.5632 Z-3.0000 S1000
G1 F1000 X88.7730 Y82.5084 Z-3.0000 S1000
G1 F1000 X88.6232 Y82.3586 Z-3.0000 S1000
G1 F1000 X88.5684 Y82.1541 Z-3.0000 S1000
G1 F1000 X88.6232 Y81.9495 Z-3.0000 S1000
G1 F1000 X88.7729 Y81.7999 Z-3.0000 S1000
G1 F1000 X88.9775 Y81.7451 Z-3.0000 S1000
G1 F1000 X89.1821 Y81.7999 Z-3.0000 S1000
G1 F100 Z-4.5000
G1 F1000 X89.3318 Y81.9495 Z-4.5000 S1000
G1 F1000 X89.3866 Y82.1541 Z-4.5000 S1000
G1 F1000 X89.3318 Y82.3586 Z-4.5000 S1000
G1 F1000 X89.1820 Y82.5084 Z-4.5000 S1000
G1 F1000 X88.9775 Y82.5632 Z-4.5000 S1000
G1 F1000 X88.7730 Y82.5084 Z-4.5000 S1000
G1 F1000 X88.6232 Y82.3586 Z-4.5000 S1000
G1 F1000 X88.5684 Y82.1541 Z-4.5000 S1000
G1 F1000 X88.6232 Y81.9495 Z-4.5000 S1000
G1 F1000 X88.7729 Y81.7999 Z-4.5000 S1000
G1 F1000 X88.9775 Y81.7451 Z-4.5000 S1000
G1 F1000 X89.1821 Y81.7999 Z-4.5000 S1000
G1 F100 Z-6.0000
G1 F1000 X89.3318 Y81.9495 Z-6.0000 S1000
G1 F1000 X89.3866 Y82.1541 Z-6.0000 S1000
G1 F1000 X89.3318 Y82.3586 Z-6.0000 S1000
G1 F1000 X89.1820 Y82.5084 Z-6.0000 S1000
G1 F1000 X88.9775 Y82.5632 Z-6.0000 S1000
G1 F1000 X88.7730 Y82.5084 Z-6.0000 S1000
G1 F1000 X88.6232 Y82.3586 Z-6.0000 S1000
G1 F1000 X88.5684 Y82.1541 Z-6.0000 S1000
G1 F1000 X88.6232 Y81.9495 Z-6.0000 S1000
G1 F1000 X88.7729 Y81.7999 Z-6.0000 S1000
G1 F1000 X88.9775 Y81.7451 Z-6.0000 S1000
G1 F1000 X89.1821 Y81.7999 Z-6.0000 S1000
G1 F100 Z-7.0000
G1 F1000 X89.3318 Y81.9495 Z-7.0000 S1000
G1 F1000 X89.3866 Y82.1541 Z-7.0000 S1000
G1 F1000 X89.3318 Y82.3586 Z-7.0000 S1000
G1 F1000 X89.1820 Y82.5084 Z-7.0000 S1000
G1 F1000 X88.9775 Y82.5632 Z-7.0000 S1000
G1 F1000 X88.7730 Y82.5084 Z-7.0000 S1000
G1 F1000 X88.6232 Y82.3586 Z-7.0000 S1000
G1 F1000 X88.5684 Y82.1541 Z-7.0000 S1000
G1 F1000 X88.6232 Y81.9495 Z-7.0000 S1000
G1 F1000 X88.7729 Y81.7999 Z-7.0000 S1000
G1 F1000 X88.9775 Y81.7451 Z-7.0000 S1000
G1 F1000 X89.1821 Y81.7999 Z-7.0000 S1000

G0 Z10; move to z-safe height
G0 X10.2822 Y81.7999

G0 Z0
G1 F100 Z-1.5000
G1 F1000 X10.4319 Y81.9495 Z-1.5000 S1000
G1 F1000 X10.4867 Y82.1541 Z-1.5000 S1000
G1 F1000 X10.4319 Y82.3586 Z-1.5000 S1000
G1 F1000 X10.2821 Y82.5084 Z-1.5000 S1000
G1 F1000 X10.0776 Y82.5632 Z-1.5000 S1000
G1 F1000 X9.8731 Y82.5084 Z-1.5000 S1000
G1 F1000 X9.7233 Y82.3586 Z-1.5000 S1000
G1 F1000 X9.6685 Y82.1541 Z-1.5000 S1000
G1 F1000 X9.7233 Y81.9495 Z-1.5000 S1000
G1 F1000 X9.8730 Y81.7999 Z-1.5000 S1000
G1 F1000 X10.0776 Y81.7451 Z-1.5000 S1000
G1 F1000 X10.2822 Y81.7999 Z-1.5000 S1000
G1 F100 Z-3.0000
G1 F1000 X10.4319 Y81.9495 Z-3.0000 S1000
G1 F1000 X10.4867 Y82.1541 Z-3.0000 S1000
G1 F1000 X10.4319 Y82.3586 Z-3.0000 S1000
G1 F1000 X10.2821 Y82.5084 Z-3.0000 S1000
G1 F1000 X10.0776 Y82.5632 Z-3.0000 S1000
G1 F1000 X9.8731 Y82.5084 Z-3.0000 S1000
G1 F1000 X9.7233 Y82.3586 Z-3.0000 S1000
G1 F1000 X9.6685 Y82.1541 Z-3.0000 S1000
G1 F1000 X9.7233 Y81.9495 Z-3.0000 S1000
G1 F1000 X9.8730 Y81.7999 Z-3.0000 S1000
G1 F1000 X10.0776 Y81.7451 Z-3.0000 S1000
G1 F1000 X10.2822 Y81.7999 Z-3.0000 S1000
G1 F100 Z-4.5000
G1 F1000 X10.4319 Y81.9495 Z-4.5000 S1000
G1 F1000 X10.4867 Y82.1541 Z-4.5000 S1000
G1 F1000 X10.4319 Y82.3586 Z-4.5000 S1000
G1 F1000 X10.2821 Y82.5084 Z-4.5000 S1000
G1 F1000 X10.0776 Y82.5632 Z-4.5000 S1000
G1 F1000 X9.8731 Y82.5084 Z-4.5000 S1000
G1 F1000 X9.7233 Y82.3586 Z-4.5000 S1000
G1 F1000 X9.6685 Y82.1541 Z-4.5000 S1000
G1 F1000 X9.7233 Y81.9495 Z-4.5000 S1000
G1 F1000 X9.8730 Y81.7999 Z-4.5000 S1000
G1 F1000 X10.0776 Y81.7451 Z-4.5000 S1000
G1 F1000 X10.2822 Y81.7999 Z-4.5000 S1000
G1 F100 Z-6.0000
G1 F1000 X10.4319 Y81.9495 Z-6.0000 S1000
G1 F1000 X10.4867 Y82.1541 Z-6.0000 S1000
G1 F1000 X10.4319 Y82.3586 Z-6.0000 S1000
G1 F1000 X10.2821 Y82.5084 Z-6.0000 S1000
G1 F1000 X10.0776 Y82.5632 Z-6.0000 S1000
G1 F1000 X9.8731 Y82.5084 Z-6.0000 S1000
G1 F1000 X9.7233 Y82.3586 Z-6.0000 S1000
G1 F1000 X9.6685 Y82.1541 Z-6.0000 S1000
G1 F1000 X9.7233 Y81.9495 Z-6.0000 S1000
G1 F1000 X9.8730 Y81.7999 Z-6.0000 S1000
G1 F1000 X10.0776 Y81.7451 Z-6.0000 S1000
G1 F1000 X10.2822 Y81.7999 Z-6.0000 S1000
G1 F100 Z-7.0000
G1 F1000 X10.4319 Y81.9495 Z-7.0000 S1000
G1 F1000 X10.4867 Y82.1541 Z-7.0000 S1000
G1 F1000 X10.4319 Y82.3586 Z-7.0000 S1000
G1 F1000 X10.2821 Y82.5084 Z-7.0000 S1000
G1 F1000 X10.0776 Y82.5632 Z-7.0000 S1000
G1 F1000 X9.8731 Y82.5084 Z-7.0000 S1000
G1 F1000 X9.7233 Y82.3586 Z-7.0000 S1000
G1 F1000 X9.6685 Y82.1541 Z-7.0000 S1000
G1 F1000 X9.7233 Y81.9495 Z-7.0000 S1000
G1 F1000 X9.8730 Y81.7999 Z-7.0000 S1000
G1 F1000 X10.0776 Y81.7451 Z-7.0000 S1000
G1 F1000 X10.2822 Y81.7999 Z-7.0000 S1000

G0 Z10; move to z-safe height
G0 X10.2821 Y32.8998

G0 Z0
G1 F100 Z-1.5000
G1 F1000 X10.4319 Y33.0496 Z-1.5000 S1000
G1 F1000 X10.4867 Y33.2541 Z-1.5000 S1000
G1 F1000 X10.4319 Y33.4587 Z-1.5000 S1000
G1 F1000 X10.2822 Y33.6083 Z-1.5000 S1000
G1 F1000 X10.0776 Y33.6631 Z-1.5000 S1000
G1 F1000 X9.8730 Y33.6083 Z-1.5000 S1000
G1 F1000 X9.7233 Y33.4587 Z-1.5000 S1000
G1 F1000 X9.6685 Y33.2541 Z-1.5000 S1000
G1 F1000 X9.7233 Y33.0496 Z-1.5000 S1000
G1 F1000 X9.8731 Y32.8998 Z-1.5000 S1000
G1 F1000 X10.0776 Y32.8450 Z-1.5000 S1000
G1 F1000 X10.2821 Y32.8998 Z-1.5000 S1000
G1 F100 Z-3.0000
G1 F1000 X10.4319 Y33.0496 Z-3.0000 S1000
G1 F1000 X10.4867 Y33.2541 Z-3.0000 S1000
G1 F1000 X10.4319 Y33.4587 Z-3.0000 S1000
G1 F1000 X10.2822 Y33.6083 Z-3.0000 S1000
G1 F1000 X10.0776 Y33.6631 Z-3.0000 S1000
G1 F1000 X9.8730 Y33.6083 Z-3.0000 S1000
G1 F1000 X9.7233 Y33.4587 Z-3.0000 S1000
G1 F1000 X9.6685 Y33.2541 Z-3.0000 S1000
G1 F1000 X9.7233 Y33.0496 Z-3.0000 S1000
G1 F1000 X9.8731 Y32.8998 Z-3.0000 S1000
G1 F1000 X10.0776 Y32.8450 Z-3.0000 S1000
G1 F1000 X10.2821 Y32.8998 Z-3.0000 S1000
G1 F100 Z-4.5000
G1 F1000 X10.4319 Y33.0496 Z-4.5000 S1000
G1 F1000 X10.4867 Y33.2541 Z-4.5000 S1000
G1 F1000 X10.4319 Y33.4587 Z-4.5000 S1000
G1 F1000 X10.2822 Y33.6083 Z-4.5000 S1000
G1 F1000 X10.0776 Y33.6631 Z-4.5000 S1000
G1 F1000 X9.8730 Y33.6083 Z-4.5000 S1000
G1 F1000 X9.7233 Y33.4587 Z-4.5000 S1000
G1 F1000 X9.6685 Y33.2541 Z-4.5000 S1000
G1 F1000 X9.7233 Y33.0496 Z-4.5000 S1000
G1 F1000 X9.8731 Y32.8998 Z-4.5000 S1000
G1 F1000 X10.0776 Y32.8450 Z-4.5000 S1000
G1 F1000 X10.2821 Y32.8998 Z-4.5000 S1000
G1 F100 Z-6.0000
G1 F1000 X10.4319 Y33.0496 Z-6.0000 S1000
G1 F1000 X10.4867 Y33.2541 Z-6.0000 S1000
G1 F1000 X10.4319 Y33.4587 Z-6.0000 S1000
G1 F1000 X10.2822 Y33.6083 Z-6.0000 S1000
G1 F1000 X10.0776 Y33.6631 Z-6.0000 S1000
G1 F1000 X9.8730 Y33.6083 Z-6.0000 S1000
G1 F1000 X9.7233 Y33.4587 Z-6.0000 S1000
G1 F1000 X9.6685 Y33.2541 Z-6.0000 S1000
G1 F1000 X9.7233 Y33.0496 Z-6.0000 S1000
G1 F1000 X9.8731 Y32.8998 Z-6.0000 S1000
G1 F1000 X10.0776 Y32.8450 Z-6.0000 S1000
G1 F1000 X10.2821 Y32.8998 Z-6.0000 S1000
G1 F100 Z-7.0000
G1 F1000 X10.4319 Y33.0496 Z-7.0000 S1000
G1 F1000 X10.4867 Y33.2541 Z-7.0000 S1000
G1 F1000 X10.4319 Y33.4587 Z-7.0000 S1000
G1 F1000 X10.2822 Y33.6083 Z-7.0000 S1000
G1 F1000 X10.0776 Y33.6631 Z-7.0000 S1000
G1 F1000 X9.8730 Y33.6083 Z-7.0000 S1000
G1 F1000 X9.7233 Y33.4587 Z-7.0000 S1000
G1 F1000 X9.6685 Y33.2541 Z-7.0000 S1000
G1 F1000 X9.7233 Y33.0496 Z-7.0000 S1000
G1 F1000 X9.8731 Y32.8998 Z-7.0000 S1000
G1 F1000 X10.0776 Y32.8450 Z-7.0000 S1000
G1 F1000 X10.2821 Y32.8998 Z-7.0000 S1000

G0 Z10; move to z-safe height
G0 X89.1820 Y32.8998

G0 Z0
G1 F100 Z-1.5000
G1 F1000 X89.3318 Y33.0496 Z-1.5000 S1000
G1 F1000 X89.3866 Y33.2541 Z-1.5000 S1000
G1 F1000 X89.3318 Y33.4587 Z-1.5000 S1000
G1 F1000 X89.1821 Y33.6083 Z-1.5000 S1000
G1 F1000 X88.9775 Y33.6631 Z-1.5000 S1000
G1 F1000 X88.7729 Y33.6083 Z-1.5000 S1000
G1 F1000 X88.6232 Y33.4587 Z-1.5000 S1000
G1 F1000 X88.5684 Y33.2541 Z-1.5000 S1000
G1 F1000 X88.6232 Y33.0496 Z-1.5000 S1000
G1 F1000 X88.7730 Y32.8998 Z-1.5000 S1000
G1 F1000 X88.9775 Y32.8450 Z-1.5000 S1000
G1 F1000 X89.1820 Y32.8998 Z-1.5000 S1000
G1 F100 Z-3.0000
G1 F1000 X89.3318 Y33.0496 Z-3.0000 S1000
G1 F1000 X89.3866 Y33.2541 Z-3.0000 S1000
G1 F1000 X89.3318 Y33.4587 Z-3.0000 S1000
G1 F1000 X89.1821 Y33.6083 Z-3.0000 S1000
G1 F1000 X88.9775 Y33.6631 Z-3.0000 S1000
G1 F1000 X88.7729 Y33.6083 Z-3.0000 S1000
G1 F1000 X88.6232 Y33.4587 Z-3.0000 S1000
G1 F1000 X88.5684 Y33.2541 Z-3.0000 S1000
G1 F1000 X88.6232 Y33.0496 Z-3.0000 S1000
G1 F1000 X88.7730 Y32.8998 Z-3.0000 S1000
G1 F1000 X88.9775 Y32.8450 Z-3.0000 S1000
G1 F1000 X89.1820 Y32.8998 Z-3.0000 S1000
G1 F100 Z-4.5000
G1 F1000 X89.3318 Y33.0496 Z-4.5000 S1000
G1 F1000 X89.3866 Y33.2541 Z-4.5000 S1000
G1 F1000 X89.3318 Y33.4587 Z-4.5000 S1000
G1 F1000 X89.1821 Y33.6083 Z-4.5000 S1000
G1 F1000 X88.9775 Y33.6631 Z-4.5000 S1000
G1 F1000 X88.7729 Y33.6083 Z-4.5000 S1000
G1 F1000 X88.6232 Y33.4587 Z-4.5000 S1000
G1 F1000 X88.5684 Y33.2541 Z-4.5000 S1000
G1 F1000 X88.6232 Y33.0496 Z-4.5000 S1000
G1 F1000 X88.7730 Y32.8998 Z-4.5000 S1000
G1 F1000 X88.9775 Y32.8450 Z-4.5000 S1000
G1 F1000 X89.1820 Y32.8998 Z-4.5000 S1000
G1 F100 Z-6.0000
G1 F1000 X89.3318 Y33.0496 Z-6.0000 S1000
G1 F1000 X89.3866 Y33.2541 Z-6.0000 S1000
G1 F1000 X89.3318 Y33.4587 Z-6.0000 S1000
G1 F1000 X89.1821 Y33.6083 Z-6.0000 S1000
G1 F1000 X88.9775 Y33.6631 Z-6.0000 S1000
G1 F1000 X88.7729 Y33.6083 Z-6.0000 S1000
G1 F1000 X88.6232 Y33.4587 Z-6.0000 S1000
G1 F1000 X88.5684 Y33.2541 Z-6.0000 S1000
G1 F1000 X88.6232 Y33.0496 Z-6.0000 S1000
G1 F1000 X88.7730 Y32.8998 Z-6.0000 S1000
G1 F1000 X88.9775 Y32.8450 Z-6.0000 S1000
G1 F1000 X89.1820 Y32.8998 Z-6.0000 S1000
G1 F100 Z-7.0000
G1 F1000 X89.3318 Y33.0496 Z-7.0000 S1000
G1 F1000 X89.3866 Y33.2541 Z-7.0000 S1000
G1 F1000 X89.3318 Y33.4587 Z-7.0000 S1000
G1 F1000 X89.1821 Y33.6083 Z-7.0000 S1000
G1 F1000 X88.9775 Y33.6631 Z-7.0000 S1000
G1 F1000 X88.7729 Y33.6083 Z-7.0000 S1000
G1 F1000 X88.6232 Y33.4587 Z-7.0000 S1000
G1 F1000 X88.5684 Y33.2541 Z-7.0000 S1000
G1 F1000 X88.6232 Y33.0496 Z-7.0000 S1000
G1 F1000 X88.7730 Y32.8998 Z-7.0000 S1000
G1 F1000 X88.9775 Y32.8450 Z-7.0000 S1000
G1 F1000 X89.1820 Y32.8998 Z-7.0000 S1000
; retracting back to z-safe
G0 Z10

M5 S0; Spindle Off
