; GCODE Generated by cam.openbuilds.com on 2021-04-29 
G21 ; mm-mode
G54; Work Coordinates
G21; mm-mode
G90; Absolute Positioning
M3 S1000; Spindle On

; Operation 0: Drill: Peck (Centered)
; Endmill Diameter: 6

G0 Z10; move to z-safe height
G0 F1000 X141.1643 Y20.8039

G0 Z0
G1 F100 Z0.0000
G1 F1000 X141.1643 Y20.8039 Z0.0000 S1000
G1 F1000 X141.1643 Y20.8039 Z0.0000 S1000
G1 F100 Z0.0000
G1 F1000 X141.1643 Y20.8039 Z-1.5000 S1000
G1 F1000 X141.1643 Y20.8039 Z0.0000 S1000
G1 F100 Z-1.5000
G1 F1000 X141.1643 Y20.8039 Z-3.0000 S1000
G1 F1000 X141.1643 Y20.8039 Z0.0000 S1000
G1 F100 Z-3.0000
G1 F1000 X141.1643 Y20.8039 Z-4.0000 S1000
G1 F1000 X141.1643 Y20.8039 Z0.0000 S1000

G0 Z10; move to z-safe height
G0 X170.1643 Y20.8039

G0 Z0
G1 F100 Z0.0000
G1 F1000 X170.1643 Y20.8039 Z0.0000 S1000
G1 F1000 X170.1643 Y20.8039 Z0.0000 S1000
G1 F100 Z0.0000
G1 F1000 X170.1643 Y20.8039 Z-1.5000 S1000
G1 F1000 X170.1643 Y20.8039 Z0.0000 S1000
G1 F100 Z-1.5000
G1 F1000 X170.1643 Y20.8039 Z-3.0000 S1000
G1 F1000 X170.1643 Y20.8039 Z0.0000 S1000
G1 F100 Z-3.0000
G1 F1000 X170.1643 Y20.8039 Z-4.0000 S1000
G1 F1000 X170.1643 Y20.8039 Z0.0000 S1000

G0 Z10; move to z-safe height
G0 X21.7956 Y42.7882

G0 Z0
G1 F100 Z0.0000
G1 F1000 X21.7956 Y42.7882 Z0.0000 S1000
G1 F1000 X21.7956 Y42.7882 Z0.0000 S1000
G1 F100 Z0.0000
G1 F1000 X21.7956 Y42.7882 Z-1.5000 S1000
G1 F1000 X21.7956 Y42.7882 Z0.0000 S1000
G1 F100 Z-1.5000
G1 F1000 X21.7956 Y42.7882 Z-3.0000 S1000
G1 F1000 X21.7956 Y42.7882 Z0.0000 S1000
G1 F100 Z-3.0000
G1 F1000 X21.7956 Y42.7882 Z-4.0000 S1000
G1 F1000 X21.7956 Y42.7882 Z0.0000 S1000

G0 Z10; move to z-safe height
G0 X167.5810 Y42.9205

G0 Z0
G1 F100 Z0.0000
G1 F1000 X167.5810 Y42.9205 Z0.0000 S1000
G1 F1000 X167.5810 Y42.9205 Z0.0000 S1000
G1 F100 Z0.0000
G1 F1000 X167.5810 Y42.9205 Z-1.5000 S1000
G1 F1000 X167.5810 Y42.9205 Z0.0000 S1000
G1 F100 Z-1.5000
G1 F1000 X167.5810 Y42.9205 Z-3.0000 S1000
G1 F1000 X167.5810 Y42.9205 Z0.0000 S1000
G1 F100 Z-3.0000
G1 F1000 X167.5810 Y42.9205 Z-4.0000 S1000
G1 F1000 X167.5810 Y42.9205 Z0.0000 S1000
; retracting back to z-safe
G0 Z10
; Operation 1: CNC: Vector (path inside)
; Endmill Diameter: 3.17

G0 Z10; move to z-safe height
G0 F1000 X160.8792 Y25.3189

G0 Z0
G1 F100 Z-1.5000
G1 F1000 X150.4492 Y25.3189 Z-1.5000 S1000
G1 F1000 X150.4492 Y16.2889 Z-1.5000 S1000
G1 F1000 X160.8792 Y16.2889 Z-1.5000 S1000
G1 F1000 X160.8792 Y25.3189 Z-1.5000 S1000
G1 F100 Z-3.0000
G1 F1000 X150.4492 Y25.3189 Z-3.0000 S1000
G1 F1000 X150.4492 Y16.2889 Z-3.0000 S1000
G1 F1000 X160.8792 Y16.2889 Z-3.0000 S1000
G1 F1000 X160.8792 Y25.3189 Z-3.0000 S1000
G1 F100 Z-4.5000
G1 F1000 X150.4492 Y25.3189 Z-4.5000 S1000
G1 F1000 X150.4492 Y16.2889 Z-4.5000 S1000
G1 F1000 X160.8792 Y16.2889 Z-4.5000 S1000
G1 F1000 X160.8792 Y25.3189 Z-4.5000 S1000
G1 F100 Z-6.0000
G1 F1000 X150.4492 Y25.3189 Z-6.0000 S1000
G1 F1000 X150.4492 Y16.2889 Z-6.0000 S1000
G1 F1000 X160.8792 Y16.2889 Z-6.0000 S1000
G1 F1000 X160.8792 Y25.3189 Z-6.0000 S1000
G1 F100 Z-7.5000
G1 F1000 X150.4492 Y25.3189 Z-7.5000 S1000
G1 F1000 X150.4492 Y16.2889 Z-7.5000 S1000
G1 F1000 X160.8792 Y16.2889 Z-7.5000 S1000
G1 F1000 X160.8792 Y25.3189 Z-7.5000 S1000
G1 F100 Z-8.8000
G1 F1000 X150.4492 Y25.3189 Z-8.8000 S1000
G1 F1000 X150.4492 Y16.2889 Z-8.8000 S1000
G1 F1000 X160.8792 Y16.2889 Z-8.8000 S1000
G1 F1000 X160.8792 Y25.3189 Z-8.8000 S1000
; retracting back to z-safe
G0 Z10
; Operation 2: CNC: Vector (path outside)
; Endmill Diameter: 3.17

G0 Z10; move to z-safe height
G0 F1000 X134.6630 Y10.3967

G0 Z0
G1 F100 Z-1.5000
G1 F1000 X9.0111 Y10.5008 Z-1.5000 S1000
G1 F1000 X8.5462 Y10.5709 Z-1.5000 S1000
G1 F1000 X8.0958 Y10.7927 Z-1.5000 S1000
G1 F1000 X7.7374 Y11.1442 Z-1.5000 S1000
G1 F1000 X7.5069 Y11.5901 Z-1.5000 S1000
G1 F1000 X7.4274 Y12.0858 Z-1.5000 S1000
G1 F1000 X7.4274 Y42.1580 Z-1.5000 S1000
G1 F1000 X7.4975 Y42.6242 Z-1.5000 S1000
G1 F1000 X7.7193 Y43.0746 Z-1.5000 S1000
G1 F1000 X8.0708 Y43.4330 Z-1.5000 S1000
G1 F1000 X8.5167 Y43.6635 Z-1.5000 S1000
G1 F1000 X9.0124 Y43.7430 Z-1.5000 S1000
G1 F1000 X20.3274 Y43.7430 Z-1.5000 S1000
G1 F1000 X20.3274 Y50.3987 Z-1.5000 S1000
G1 F1000 X20.3975 Y50.8649 Z-1.5000 S1000
G1 F1000 X20.6193 Y51.3153 Z-1.5000 S1000
G1 F1000 X20.9708 Y51.6737 Z-1.5000 S1000
G1 F1000 X21.4167 Y51.9042 Z-1.5000 S1000
G1 F1000 X21.9124 Y51.9837 Z-1.5000 S1000
G1 F1000 X167.6120 Y51.9837 Z-1.5000 S1000
G1 F1000 X168.0782 Y51.9136 Z-1.5000 S1000
G1 F1000 X168.5286 Y51.6918 Z-1.5000 S1000
G1 F1000 X168.8870 Y51.3403 Z-1.5000 S1000
G1 F1000 X169.1175 Y50.8944 Z-1.5000 S1000
G1 F1000 X169.1970 Y50.3987 Z-1.5000 S1000
G1 F1000 X169.1970 Y43.7430 Z-1.5000 S1000
G1 F1000 X180.5120 Y43.7430 Z-1.5000 S1000
G1 F1000 X180.9782 Y43.6729 Z-1.5000 S1000
G1 F1000 X181.4286 Y43.4511 Z-1.5000 S1000
G1 F1000 X181.7870 Y43.0996 Z-1.5000 S1000
G1 F1000 X182.0175 Y42.6537 Z-1.5000 S1000
G1 F1000 X182.0970 Y42.1580 Z-1.5000 S1000
G1 F1000 X182.0970 Y29.0630 Z-1.5000 S1000
G1 F1000 X182.0251 Y28.5910 Z-1.5000 S1000
G1 F1000 X181.8016 Y28.1415 Z-1.5000 S1000
G1 F1000 X181.4488 Y27.7845 Z-1.5000 S1000
G1 F1000 X181.0020 Y27.5556 Z-1.5000 S1000
G1 F1000 X180.5060 Y27.4780 Z-1.5000 S1000
G1 F1000 X136.2493 Y27.6456 Z-1.5000 S1000
G1 F1000 X136.2493 Y11.9817 Z-1.5000 S1000
G1 F1000 X136.1788 Y11.5142 Z-1.5000 S1000
G1 F1000 X135.9566 Y11.0640 Z-1.5000 S1000
G1 F1000 X135.6048 Y10.7059 Z-1.5000 S1000
G1 F1000 X135.1587 Y10.4758 Z-1.5000 S1000
G1 F1000 X134.6630 Y10.3967 Z-1.5000 S1000
G1 F100 Z-3.0000
G1 F1000 X9.0111 Y10.5008 Z-3.0000 S1000
G1 F1000 X8.5462 Y10.5709 Z-3.0000 S1000
G1 F1000 X8.0958 Y10.7927 Z-3.0000 S1000
G1 F1000 X7.7374 Y11.1442 Z-3.0000 S1000
G1 F1000 X7.5069 Y11.5901 Z-3.0000 S1000
G1 F1000 X7.4274 Y12.0858 Z-3.0000 S1000
G1 F1000 X7.4274 Y42.1580 Z-3.0000 S1000
G1 F1000 X7.4975 Y42.6242 Z-3.0000 S1000
G1 F1000 X7.7193 Y43.0746 Z-3.0000 S1000
G1 F1000 X8.0708 Y43.4330 Z-3.0000 S1000
G1 F1000 X8.5167 Y43.6635 Z-3.0000 S1000
G1 F1000 X9.0124 Y43.7430 Z-3.0000 S1000
G1 F1000 X20.3274 Y43.7430 Z-3.0000 S1000
G1 F1000 X20.3274 Y50.3987 Z-3.0000 S1000
G1 F1000 X20.3975 Y50.8649 Z-3.0000 S1000
G1 F1000 X20.6193 Y51.3153 Z-3.0000 S1000
G1 F1000 X20.9708 Y51.6737 Z-3.0000 S1000
G1 F1000 X21.4167 Y51.9042 Z-3.0000 S1000
G1 F1000 X21.9124 Y51.9837 Z-3.0000 S1000
G1 F1000 X167.6120 Y51.9837 Z-3.0000 S1000
G1 F1000 X168.0782 Y51.9136 Z-3.0000 S1000
G1 F1000 X168.5286 Y51.6918 Z-3.0000 S1000
G1 F1000 X168.8870 Y51.3403 Z-3.0000 S1000
G1 F1000 X169.1175 Y50.8944 Z-3.0000 S1000
G1 F1000 X169.1970 Y50.3987 Z-3.0000 S1000
G1 F1000 X169.1970 Y43.7430 Z-3.0000 S1000
G1 F1000 X180.5120 Y43.7430 Z-3.0000 S1000
G1 F1000 X180.9782 Y43.6729 Z-3.0000 S1000
G1 F1000 X181.4286 Y43.4511 Z-3.0000 S1000
G1 F1000 X181.7870 Y43.0996 Z-3.0000 S1000
G1 F1000 X182.0175 Y42.6537 Z-3.0000 S1000
G1 F1000 X182.0970 Y42.1580 Z-3.0000 S1000
G1 F1000 X182.0970 Y29.0630 Z-3.0000 S1000
G1 F1000 X182.0251 Y28.5910 Z-3.0000 S1000
G1 F1000 X181.8016 Y28.1415 Z-3.0000 S1000
G1 F1000 X181.4488 Y27.7845 Z-3.0000 S1000
G1 F1000 X181.0020 Y27.5556 Z-3.0000 S1000
G1 F1000 X180.5060 Y27.4780 Z-3.0000 S1000
G1 F1000 X136.2493 Y27.6456 Z-3.0000 S1000
G1 F1000 X136.2493 Y11.9817 Z-3.0000 S1000
G1 F1000 X136.1788 Y11.5142 Z-3.0000 S1000
G1 F1000 X135.9566 Y11.0640 Z-3.0000 S1000
G1 F1000 X135.6048 Y10.7059 Z-3.0000 S1000
G1 F1000 X135.1587 Y10.4758 Z-3.0000 S1000
G1 F1000 X134.6630 Y10.3967 Z-3.0000 S1000
G1 F100 Z-4.0000
G1 F1000 X9.0111 Y10.5008 Z-4.0000 S1000
G1 F1000 X8.5462 Y10.5709 Z-4.0000 S1000
G1 F1000 X8.0958 Y10.7927 Z-4.0000 S1000
G1 F1000 X7.7374 Y11.1442 Z-4.0000 S1000
G1 F1000 X7.5069 Y11.5901 Z-4.0000 S1000
G1 F1000 X7.4274 Y12.0858 Z-4.0000 S1000
G1 F1000 X7.4274 Y42.1580 Z-4.0000 S1000
G1 F1000 X7.4975 Y42.6242 Z-4.0000 S1000
G1 F1000 X7.7193 Y43.0746 Z-4.0000 S1000
G1 F1000 X8.0708 Y43.4330 Z-4.0000 S1000
G1 F1000 X8.5167 Y43.6635 Z-4.0000 S1000
G1 F1000 X9.0124 Y43.7430 Z-4.0000 S1000
G1 F1000 X20.3274 Y43.7430 Z-4.0000 S1000
G1 F1000 X20.3274 Y50.3987 Z-4.0000 S1000
G1 F1000 X20.3975 Y50.8649 Z-4.0000 S1000
G1 F1000 X20.6193 Y51.3153 Z-4.0000 S1000
G1 F1000 X20.9708 Y51.6737 Z-4.0000 S1000
G1 F1000 X21.4167 Y51.9042 Z-4.0000 S1000
G1 F1000 X21.9124 Y51.9837 Z-4.0000 S1000
G1 F1000 X167.6120 Y51.9837 Z-4.0000 S1000
G1 F1000 X168.0782 Y51.9136 Z-4.0000 S1000
G1 F1000 X168.5286 Y51.6918 Z-4.0000 S1000
G1 F1000 X168.8870 Y51.3403 Z-4.0000 S1000
G1 F1000 X169.1175 Y50.8944 Z-4.0000 S1000
G1 F1000 X169.1970 Y50.3987 Z-4.0000 S1000
G1 F1000 X169.1970 Y43.7430 Z-4.0000 S1000
G1 F1000 X180.5120 Y43.7430 Z-4.0000 S1000
G1 F1000 X180.9782 Y43.6729 Z-4.0000 S1000
G1 F1000 X181.4286 Y43.4511 Z-4.0000 S1000
G1 F1000 X181.7870 Y43.0996 Z-4.0000 S1000
G1 F1000 X182.0175 Y42.6537 Z-4.0000 S1000
G1 F1000 X182.0970 Y42.1580 Z-4.0000 S1000
G1 F1000 X182.0970 Y29.0630 Z-4.0000 S1000
G1 F1000 X182.0251 Y28.5910 Z-4.0000 S1000
G1 F1000 X181.8016 Y28.1415 Z-4.0000 S1000
G1 F1000 X181.4488 Y27.7845 Z-4.0000 S1000
G1 F1000 X181.0020 Y27.5556 Z-4.0000 S1000
G1 F1000 X180.5060 Y27.4780 Z-4.0000 S1000
G1 F1000 X136.2493 Y27.6456 Z-4.0000 S1000
G1 F1000 X136.2493 Y11.9817 Z-4.0000 S1000
G1 F1000 X136.1788 Y11.5142 Z-4.0000 S1000
G1 F1000 X135.9566 Y11.0640 Z-4.0000 S1000
G1 F1000 X135.6048 Y10.7059 Z-4.0000 S1000
G1 F1000 X135.1587 Y10.4758 Z-4.0000 S1000
G1 F1000 X134.6630 Y10.3967 Z-4.0000 S1000
; retracting back to z-safe
G0 Z10

M5 S0; Spindle Off
