; GCODE Generated by cam.openbuilds.com on 2021-04-29 
G21 ; mm-mode
G54; Work Coordinates
G21; mm-mode
G90; Absolute Positioning
M3 S1000; Spindle On

; Operation 3: CNC: Pocket
; Endmill Diameter: 6

G0 Z10; move to z-safe height
G0 F1000 X60.1000 Y30.1000

G0 Z0
G1 F100 Z-3.0000
G1 F1000 X26.4000 Y30.1000 Z-3.0000 S1000
G1 F1000 X26.4000 Y26.4000 Z-3.0000 S1000
G1 F1000 X60.1000 Y26.4000 Z-3.0000 S1000
G1 F1000 X60.1000 Y30.1000 Z-3.0000 S1000

G0 Z10; move to z-safe height
G0 X62.5000 Y32.5000

G0 Z0
G1 F100 Z-3.0000
G1 F1000 X24.0000 Y32.5000 Z-3.0000 S1000
G1 F1000 X24.0000 Y24.0000 Z-3.0000 S1000
G1 F1000 X62.5000 Y24.0000 Z-3.0000 S1000
G1 F1000 X62.5000 Y32.5000 Z-3.0000 S1000

G0 Z10; move to z-safe height
G0 X64.9000 Y34.9000

G0 Z0
G1 F100 Z-3.0000
G1 F1000 X21.6000 Y34.9000 Z-3.0000 S1000
G1 F1000 X21.6000 Y21.6000 Z-3.0000 S1000
G1 F1000 X64.9000 Y21.6000 Z-3.0000 S1000
G1 F1000 X64.9000 Y34.9000 Z-3.0000 S1000

G0 Z10; move to z-safe height
G0 X67.3000 Y37.3000

G0 Z0
G1 F100 Z-3.0000
G1 F1000 X19.2000 Y37.3000 Z-3.0000 S1000
G1 F1000 X19.2000 Y19.2000 Z-3.0000 S1000
G1 F1000 X67.3000 Y19.2000 Z-3.0000 S1000
G1 F1000 X67.3000 Y37.3000 Z-3.0000 S1000

G0 Z10; move to z-safe height
G0 X69.7000 Y39.7000

G0 Z0
G1 F100 Z-3.0000
G1 F1000 X16.8000 Y39.7000 Z-3.0000 S1000
G1 F1000 X16.8000 Y16.8000 Z-3.0000 S1000
G1 F1000 X69.7000 Y16.8000 Z-3.0000 S1000
G1 F1000 X69.7000 Y39.7000 Z-3.0000 S1000

G0 Z10; move to z-safe height
G0 X72.1000 Y42.1000

G0 Z0
G1 F100 Z-3.0000
G1 F1000 X14.4000 Y42.1000 Z-3.0000 S1000
G1 F1000 X14.4000 Y14.4000 Z-3.0000 S1000
G1 F1000 X72.1000 Y14.4000 Z-3.0000 S1000
G1 F1000 X72.1000 Y42.1000 Z-3.0000 S1000

G0 Z10; move to z-safe height
G0 X74.5000 Y44.5000

G0 Z0
G1 F100 Z-3.0000
G1 F1000 X12.0000 Y44.5000 Z-3.0000 S1000
G1 F1000 X12.0000 Y12.0000 Z-3.0000 S1000
G1 F1000 X74.5000 Y12.0000 Z-3.0000 S1000
G1 F1000 X74.5000 Y44.5000 Z-3.0000 S1000

G0 Z10; move to z-safe height
G0 X76.9000 Y46.9000

G0 Z0
G1 F100 Z-3.0000
G1 F1000 X9.6000 Y46.9000 Z-3.0000 S1000
G1 F1000 X9.6000 Y9.6000 Z-3.0000 S1000
G1 F1000 X76.9000 Y9.6000 Z-3.0000 S1000
G1 F1000 X76.9000 Y46.9000 Z-3.0000 S1000

G0 Z10; move to z-safe height
G0 X79.3000 Y49.3000

G0 Z0
G1 F100 Z-3.0000
G1 F1000 X7.2000 Y49.3000 Z-3.0000 S1000
G1 F1000 X7.2000 Y7.2000 Z-3.0000 S1000
G1 F1000 X79.3000 Y7.2000 Z-3.0000 S1000
G1 F1000 X79.3000 Y49.3000 Z-3.0000 S1000

G0 Z10; move to z-safe height
G0 X81.7000 Y51.7000

G0 Z0
G1 F100 Z-3.0000
G1 F1000 X4.8000 Y51.7000 Z-3.0000 S1000
G1 F1000 X4.8000 Y4.8000 Z-3.0000 S1000
G1 F1000 X81.7000 Y4.8000 Z-3.0000 S1000
G1 F1000 X81.7000 Y51.7000 Z-3.0000 S1000

G0 Z10; move to z-safe height
G0 X83.5000 Y53.5000

G0 Z0
G1 F100 Z-3.0000
G1 F1000 X3.0000 Y53.5000 Z-3.0000 S1000
G1 F1000 X3.0000 Y3.0000 Z-3.0000 S1000
G1 F1000 X83.5000 Y3.0000 Z-3.0000 S1000
G1 F1000 X83.5000 Y53.5000 Z-3.0000 S1000
; retracting back to z-safe
G0 Z10
; Operation 4: CNC: Vector (path outside)
; Endmill Diameter: 6

G0 Z10; move to z-safe height
G0 F1000 X86.5000 Y-3.0000

G0 Z0
G1 F100 Z-3.0000
G1 F1000 X0.0000 Y-3.0000 Z-3.0000 S1000
G1 F1000 X-0.5500 Y-2.9491 Z-3.0000 S1000
G1 F1000 X-1.2108 Y-2.7448 Z-3.0000 S1000
G1 F1000 X-1.8072 Y-2.3946 Z-3.0000 S1000
G1 F1000 X-2.3076 Y-1.9170 Z-3.0000 S1000
G1 F1000 X-2.6853 Y-1.3376 Z-3.0000 S1000
G1 F1000 X-2.9203 Y-0.6871 Z-3.0000 S1000
G1 F1000 X-3.0000 Y0.0000 Z-3.0000 S1000
G1 F1000 X-3.0000 Y56.5000 Z-3.0000 S1000
G1 F1000 X-2.9491 Y57.0500 Z-3.0000 S1000
G1 F1000 X-2.7448 Y57.7108 Z-3.0000 S1000
G1 F1000 X-2.3946 Y58.3072 Z-3.0000 S1000
G1 F1000 X-1.9170 Y58.8076 Z-3.0000 S1000
G1 F1000 X-1.3376 Y59.1853 Z-3.0000 S1000
G1 F1000 X-0.6871 Y59.4203 Z-3.0000 S1000
G1 F1000 X0.0000 Y59.5000 Z-3.0000 S1000
G1 F1000 X86.5000 Y59.5000 Z-3.0000 S1000
G1 F1000 X87.0500 Y59.4491 Z-3.0000 S1000
G1 F1000 X87.7108 Y59.2448 Z-3.0000 S1000
G1 F1000 X88.3072 Y58.8946 Z-3.0000 S1000
G1 F1000 X88.8076 Y58.4170 Z-3.0000 S1000
G1 F1000 X89.1853 Y57.8376 Z-3.0000 S1000
G1 F1000 X89.4203 Y57.1871 Z-3.0000 S1000
G1 F1000 X89.5000 Y56.5000 Z-3.0000 S1000
G1 F1000 X89.5000 Y0.0000 Z-3.0000 S1000
G1 F1000 X89.4491 Y-0.5500 Z-3.0000 S1000
G1 F1000 X89.2448 Y-1.2108 Z-3.0000 S1000
G1 F1000 X88.8946 Y-1.8072 Z-3.0000 S1000
G1 F1000 X88.4170 Y-2.3076 Z-3.0000 S1000
G1 F1000 X87.8376 Y-2.6853 Z-3.0000 S1000
G1 F1000 X87.1871 Y-2.9203 Z-3.0000 S1000
G1 F1000 X86.5000 Y-3.0000 Z-3.0000 S1000
G1 F100 Z-6.0000
G1 F1000 X48.7500 Y-3.0000 Z-6.0000 S1000
G1 F1000 X48.7500 Y-3.0000 Z-5.6000 S1000
G1 F1000 X37.7500 Y-3.0000 Z-5.6000 S1000
G1 F1000 X37.7500 Y-3.0000 Z-6.0000 S1000
G1 F1000 X0.0000 Y-3.0000 Z-6.0000 S1000
G1 F1000 X0.0000 Y-3.0000 Z-6.0000 S1000
G1 F1000 X-0.5500 Y-2.9491 Z-6.0000 S1000
G1 F1000 X-1.2108 Y-2.7448 Z-6.0000 S1000
G1 F1000 X-1.8072 Y-2.3946 Z-6.0000 S1000
G1 F1000 X-2.3076 Y-1.9170 Z-6.0000 S1000
G1 F1000 X-2.6853 Y-1.3376 Z-6.0000 S1000
G1 F1000 X-2.9203 Y-0.6871 Z-6.0000 S1000
G1 F1000 X-3.0000 Y0.0000 Z-6.0000 S1000
G1 F1000 X-3.0000 Y56.5000 Z-6.0000 S1000
G1 F1000 X-2.9491 Y57.0500 Z-6.0000 S1000
G1 F1000 X-2.7448 Y57.7108 Z-6.0000 S1000
G1 F1000 X-2.3946 Y58.3072 Z-6.0000 S1000
G1 F1000 X-1.9170 Y58.8076 Z-6.0000 S1000
G1 F1000 X-1.3376 Y59.1853 Z-6.0000 S1000
G1 F1000 X-0.6871 Y59.4203 Z-6.0000 S1000
G1 F1000 X0.0000 Y59.5000 Z-6.0000 S1000
G1 F1000 X37.7500 Y59.5000 Z-6.0000 S1000
G1 F1000 X37.7500 Y59.5000 Z-5.6000 S1000
G1 F1000 X48.7500 Y59.5000 Z-5.6000 S1000
G1 F1000 X48.7500 Y59.5000 Z-6.0000 S1000
G1 F1000 X86.5000 Y59.5000 Z-6.0000 S1000
G1 F1000 X86.5000 Y59.5000 Z-6.0000 S1000
G1 F1000 X87.0500 Y59.4491 Z-6.0000 S1000
G1 F1000 X87.7108 Y59.2448 Z-6.0000 S1000
G1 F1000 X88.3072 Y58.8946 Z-6.0000 S1000
G1 F1000 X88.8076 Y58.4170 Z-6.0000 S1000
G1 F1000 X89.1853 Y57.8376 Z-6.0000 S1000
G1 F1000 X89.4203 Y57.1871 Z-6.0000 S1000
G1 F1000 X89.5000 Y56.5000 Z-6.0000 S1000
G1 F1000 X89.5000 Y0.0000 Z-6.0000 S1000
G1 F1000 X89.4491 Y-0.5500 Z-6.0000 S1000
G1 F1000 X89.2448 Y-1.2108 Z-6.0000 S1000
G1 F1000 X88.8946 Y-1.8072 Z-6.0000 S1000
G1 F1000 X88.4170 Y-2.3076 Z-6.0000 S1000
G1 F1000 X87.8376 Y-2.6853 Z-6.0000 S1000
G1 F1000 X87.1871 Y-2.9203 Z-6.0000 S1000
G1 F1000 X86.5000 Y-3.0000 Z-6.0000 S1000
G1 F100 Z-8.6000
G1 F1000 X48.7500 Y-3.0000 Z-8.6000 S1000
G1 F1000 X48.7500 Y-3.0000 Z-5.6000 S1000
G1 F1000 X37.7500 Y-3.0000 Z-5.6000 S1000
G1 F1000 X37.7500 Y-3.0000 Z-8.6000 S1000
G1 F1000 X0.0000 Y-3.0000 Z-8.6000 S1000
G1 F1000 X0.0000 Y-3.0000 Z-8.6000 S1000
G1 F1000 X-0.5500 Y-2.9491 Z-8.6000 S1000
G1 F1000 X-1.2108 Y-2.7448 Z-8.6000 S1000
G1 F1000 X-1.8072 Y-2.3946 Z-8.6000 S1000
G1 F1000 X-2.3076 Y-1.9170 Z-8.6000 S1000
G1 F1000 X-2.6853 Y-1.3376 Z-8.6000 S1000
G1 F1000 X-2.9203 Y-0.6871 Z-8.6000 S1000
G1 F1000 X-3.0000 Y0.0000 Z-8.6000 S1000
G1 F1000 X-3.0000 Y56.5000 Z-8.6000 S1000
G1 F1000 X-2.9491 Y57.0500 Z-8.6000 S1000
G1 F1000 X-2.7448 Y57.7108 Z-8.6000 S1000
G1 F1000 X-2.3946 Y58.3072 Z-8.6000 S1000
G1 F1000 X-1.9170 Y58.8076 Z-8.6000 S1000
G1 F1000 X-1.3376 Y59.1853 Z-8.6000 S1000
G1 F1000 X-0.6871 Y59.4203 Z-8.6000 S1000
G1 F1000 X0.0000 Y59.5000 Z-8.6000 S1000
G1 F1000 X37.7500 Y59.5000 Z-8.6000 S1000
G1 F1000 X37.7500 Y59.5000 Z-5.6000 S1000
G1 F1000 X48.7500 Y59.5000 Z-5.6000 S1000
G1 F1000 X48.7500 Y59.5000 Z-8.6000 S1000
G1 F1000 X86.5000 Y59.5000 Z-8.6000 S1000
G1 F1000 X86.5000 Y59.5000 Z-8.6000 S1000
G1 F1000 X87.0500 Y59.4491 Z-8.6000 S1000
G1 F1000 X87.7108 Y59.2448 Z-8.6000 S1000
G1 F1000 X88.3072 Y58.8946 Z-8.6000 S1000
G1 F1000 X88.8076 Y58.4170 Z-8.6000 S1000
G1 F1000 X89.1853 Y57.8376 Z-8.6000 S1000
G1 F1000 X89.4203 Y57.1871 Z-8.6000 S1000
G1 F1000 X89.5000 Y56.5000 Z-8.6000 S1000
G1 F1000 X89.5000 Y0.0000 Z-8.6000 S1000
G1 F1000 X89.4491 Y-0.5500 Z-8.6000 S1000
G1 F1000 X89.2448 Y-1.2108 Z-8.6000 S1000
G1 F1000 X88.8946 Y-1.8072 Z-8.6000 S1000
G1 F1000 X88.4170 Y-2.3076 Z-8.6000 S1000
G1 F1000 X87.8376 Y-2.6853 Z-8.6000 S1000
G1 F1000 X87.1871 Y-2.9203 Z-8.6000 S1000
G1 F1000 X86.5000 Y-3.0000 Z-8.6000 S1000
; retracting back to z-safe
G0 Z10

M5 S0; Spindle Off
