; GCODE Generated by cam.openbuilds.com on 2021-04-29 
G21 ; mm-mode
G54; Work Coordinates
G21; mm-mode
G90; Absolute Positioning
M3 S1000; Spindle On

; Operation 0: Drill: Peck (Centered)
; Endmill Diameter: 6

G0 Z10; move to z-safe height
G0 F1000 X83.6999 Y53.7000

G0 Z0
G1 F300 Z0.0000
G1 F1000 X83.6999 Y53.7000 Z0.0000 S1000
G1 F1000 X83.6999 Y53.7000 Z0.0000 S1000
G1 F300 Z0.0000
G1 F1000 X83.6999 Y53.7000 Z-1.5000 S1000
G1 F1000 X83.6999 Y53.7000 Z0.0000 S1000
G1 F300 Z-1.5000
G1 F1000 X83.6999 Y53.7000 Z-3.0000 S1000
G1 F1000 X83.6999 Y53.7000 Z0.0000 S1000
G1 F300 Z-3.0000
G1 F1000 X83.6999 Y53.7000 Z-4.5000 S1000
G1 F1000 X83.6999 Y53.7000 Z0.0000 S1000
G1 F300 Z-4.5000
G1 F1000 X83.6999 Y53.7000 Z-6.0000 S1000
G1 F1000 X83.6999 Y53.7000 Z0.0000 S1000
G1 F300 Z-6.0000
G1 F1000 X83.6999 Y53.7000 Z-7.5000 S1000
G1 F1000 X83.6999 Y53.7000 Z0.0000 S1000
G1 F300 Z-7.5000
G1 F1000 X83.6999 Y53.7000 Z-8.6000 S1000
G1 F1000 X83.6999 Y53.7000 Z0.0000 S1000

G0 Z10; move to z-safe height
G0 X15.6999 Y10.7000

G0 Z0
G1 F300 Z0.0000
G1 F1000 X15.6999 Y10.7000 Z0.0000 S1000
G1 F1000 X15.6999 Y10.7000 Z0.0000 S1000
G1 F300 Z0.0000
G1 F1000 X15.6999 Y10.7000 Z-1.5000 S1000
G1 F1000 X15.6999 Y10.7000 Z0.0000 S1000
G1 F300 Z-1.5000
G1 F1000 X15.6999 Y10.7000 Z-3.0000 S1000
G1 F1000 X15.6999 Y10.7000 Z0.0000 S1000
G1 F300 Z-3.0000
G1 F1000 X15.6999 Y10.7000 Z-4.5000 S1000
G1 F1000 X15.6999 Y10.7000 Z0.0000 S1000
G1 F300 Z-4.5000
G1 F1000 X15.6999 Y10.7000 Z-6.0000 S1000
G1 F1000 X15.6999 Y10.7000 Z0.0000 S1000
G1 F300 Z-6.0000
G1 F1000 X15.6999 Y10.7000 Z-7.5000 S1000
G1 F1000 X15.6999 Y10.7000 Z0.0000 S1000
G1 F300 Z-7.5000
G1 F1000 X15.6999 Y10.7000 Z-8.6000 S1000
G1 F1000 X15.6999 Y10.7000 Z0.0000 S1000

G0 Z10; move to z-safe height
G0 X71.6999 Y10.7000

G0 Z0
G1 F300 Z0.0000
G1 F1000 X71.6999 Y10.7000 Z0.0000 S1000
G1 F1000 X71.6999 Y10.7000 Z0.0000 S1000
G1 F300 Z0.0000
G1 F1000 X71.6999 Y10.7000 Z-1.5000 S1000
G1 F1000 X71.6999 Y10.7000 Z0.0000 S1000
G1 F300 Z-1.5000
G1 F1000 X71.6999 Y10.7000 Z-3.0000 S1000
G1 F1000 X71.6999 Y10.7000 Z0.0000 S1000
G1 F300 Z-3.0000
G1 F1000 X71.6999 Y10.7000 Z-4.5000 S1000
G1 F1000 X71.6999 Y10.7000 Z0.0000 S1000
G1 F300 Z-4.5000
G1 F1000 X71.6999 Y10.7000 Z-6.0000 S1000
G1 F1000 X71.6999 Y10.7000 Z0.0000 S1000
G1 F300 Z-6.0000
G1 F1000 X71.6999 Y10.7000 Z-7.5000 S1000
G1 F1000 X71.6999 Y10.7000 Z0.0000 S1000
G1 F300 Z-7.5000
G1 F1000 X71.6999 Y10.7000 Z-8.6000 S1000
G1 F1000 X71.6999 Y10.7000 Z0.0000 S1000

G0 Z10; move to z-safe height
G0 X71.6999 Y46.7000

G0 Z0
G1 F300 Z0.0000
G1 F1000 X71.6999 Y46.7000 Z0.0000 S1000
G1 F1000 X71.6999 Y46.7000 Z0.0000 S1000
G1 F300 Z0.0000
G1 F1000 X71.6999 Y46.7000 Z-1.5000 S1000
G1 F1000 X71.6999 Y46.7000 Z0.0000 S1000
G1 F300 Z-1.5000
G1 F1000 X71.6999 Y46.7000 Z-3.0000 S1000
G1 F1000 X71.6999 Y46.7000 Z0.0000 S1000
G1 F300 Z-3.0000
G1 F1000 X71.6999 Y46.7000 Z-4.5000 S1000
G1 F1000 X71.6999 Y46.7000 Z0.0000 S1000
G1 F300 Z-4.5000
G1 F1000 X71.6999 Y46.7000 Z-6.0000 S1000
G1 F1000 X71.6999 Y46.7000 Z0.0000 S1000
G1 F300 Z-6.0000
G1 F1000 X71.6999 Y46.7000 Z-7.5000 S1000
G1 F1000 X71.6999 Y46.7000 Z0.0000 S1000
G1 F300 Z-7.5000
G1 F1000 X71.6999 Y46.7000 Z-8.6000 S1000
G1 F1000 X71.6999 Y46.7000 Z0.0000 S1000

G0 Z10; move to z-safe height
G0 X83.6999 Y3.7000

G0 Z0
G1 F300 Z0.0000
G1 F1000 X83.6999 Y3.7000 Z0.0000 S1000
G1 F1000 X83.6999 Y3.7000 Z0.0000 S1000
G1 F300 Z0.0000
G1 F1000 X83.6999 Y3.7000 Z-1.5000 S1000
G1 F1000 X83.6999 Y3.7000 Z0.0000 S1000
G1 F300 Z-1.5000
G1 F1000 X83.6999 Y3.7000 Z-3.0000 S1000
G1 F1000 X83.6999 Y3.7000 Z0.0000 S1000
G1 F300 Z-3.0000
G1 F1000 X83.6999 Y3.7000 Z-4.5000 S1000
G1 F1000 X83.6999 Y3.7000 Z0.0000 S1000
G1 F300 Z-4.5000
G1 F1000 X83.6999 Y3.7000 Z-6.0000 S1000
G1 F1000 X83.6999 Y3.7000 Z0.0000 S1000
G1 F300 Z-6.0000
G1 F1000 X83.6999 Y3.7000 Z-7.5000 S1000
G1 F1000 X83.6999 Y3.7000 Z0.0000 S1000
G1 F300 Z-7.5000
G1 F1000 X83.6999 Y3.7000 Z-8.6000 S1000
G1 F1000 X83.6999 Y3.7000 Z0.0000 S1000

G0 Z10; move to z-safe height
G0 X3.6999 Y3.7000

G0 Z0
G1 F300 Z0.0000
G1 F1000 X3.6999 Y3.7000 Z0.0000 S1000
G1 F1000 X3.6999 Y3.7000 Z0.0000 S1000
G1 F300 Z0.0000
G1 F1000 X3.6999 Y3.7000 Z-1.5000 S1000
G1 F1000 X3.6999 Y3.7000 Z0.0000 S1000
G1 F300 Z-1.5000
G1 F1000 X3.6999 Y3.7000 Z-3.0000 S1000
G1 F1000 X3.6999 Y3.7000 Z0.0000 S1000
G1 F300 Z-3.0000
G1 F1000 X3.6999 Y3.7000 Z-4.5000 S1000
G1 F1000 X3.6999 Y3.7000 Z0.0000 S1000
G1 F300 Z-4.5000
G1 F1000 X3.6999 Y3.7000 Z-6.0000 S1000
G1 F1000 X3.6999 Y3.7000 Z0.0000 S1000
G1 F300 Z-6.0000
G1 F1000 X3.6999 Y3.7000 Z-7.5000 S1000
G1 F1000 X3.6999 Y3.7000 Z0.0000 S1000
G1 F300 Z-7.5000
G1 F1000 X3.6999 Y3.7000 Z-8.6000 S1000
G1 F1000 X3.6999 Y3.7000 Z0.0000 S1000

G0 Z10; move to z-safe height
G0 X3.6999 Y53.7000

G0 Z0
G1 F300 Z0.0000
G1 F1000 X3.6999 Y53.7000 Z0.0000 S1000
G1 F1000 X3.6999 Y53.7000 Z0.0000 S1000
G1 F300 Z0.0000
G1 F1000 X3.6999 Y53.7000 Z-1.5000 S1000
G1 F1000 X3.6999 Y53.7000 Z0.0000 S1000
G1 F300 Z-1.5000
G1 F1000 X3.6999 Y53.7000 Z-3.0000 S1000
G1 F1000 X3.6999 Y53.7000 Z0.0000 S1000
G1 F300 Z-3.0000
G1 F1000 X3.6999 Y53.7000 Z-4.5000 S1000
G1 F1000 X3.6999 Y53.7000 Z0.0000 S1000
G1 F300 Z-4.5000
G1 F1000 X3.6999 Y53.7000 Z-6.0000 S1000
G1 F1000 X3.6999 Y53.7000 Z0.0000 S1000
G1 F300 Z-6.0000
G1 F1000 X3.6999 Y53.7000 Z-7.5000 S1000
G1 F1000 X3.6999 Y53.7000 Z0.0000 S1000
G1 F300 Z-7.5000
G1 F1000 X3.6999 Y53.7000 Z-8.6000 S1000
G1 F1000 X3.6999 Y53.7000 Z0.0000 S1000

G0 Z10; move to z-safe height
G0 X15.6999 Y46.7000

G0 Z0
G1 F300 Z0.0000
G1 F1000 X15.6999 Y46.7000 Z0.0000 S1000
G1 F1000 X15.6999 Y46.7000 Z0.0000 S1000
G1 F300 Z0.0000
G1 F1000 X15.6999 Y46.7000 Z-1.5000 S1000
G1 F1000 X15.6999 Y46.7000 Z0.0000 S1000
G1 F300 Z-1.5000
G1 F1000 X15.6999 Y46.7000 Z-3.0000 S1000
G1 F1000 X15.6999 Y46.7000 Z0.0000 S1000
G1 F300 Z-3.0000
G1 F1000 X15.6999 Y46.7000 Z-4.5000 S1000
G1 F1000 X15.6999 Y46.7000 Z0.0000 S1000
G1 F300 Z-4.5000
G1 F1000 X15.6999 Y46.7000 Z-6.0000 S1000
G1 F1000 X15.6999 Y46.7000 Z0.0000 S1000
G1 F300 Z-6.0000
G1 F1000 X15.6999 Y46.7000 Z-7.5000 S1000
G1 F1000 X15.6999 Y46.7000 Z0.0000 S1000
G1 F300 Z-7.5000
G1 F1000 X15.6999 Y46.7000 Z-8.6000 S1000
G1 F1000 X15.6999 Y46.7000 Z0.0000 S1000
; retracting back to z-safe
G0 Z10
; Operation 1: CNC: Vector (path inside)
; Endmill Diameter: 3.17

G0 Z10; move to z-safe height
G0 F1000 X85.8150 Y55.8150

G0 Z0
G1 F300 Z-1.5000
G1 F1000 X1.5850 Y55.8150 Z-1.5000 S1000
G1 F1000 X1.5850 Y1.5850 Z-1.5000 S1000
G1 F1000 X85.8150 Y1.5850 Z-1.5000 S1000
G1 F1000 X85.8150 Y55.8150 Z-1.5000 S1000
G1 F300 Z-3.0000
G1 F1000 X1.5850 Y55.8150 Z-3.0000 S1000
G1 F1000 X1.5850 Y1.5850 Z-3.0000 S1000
G1 F1000 X85.8150 Y1.5850 Z-3.0000 S1000
G1 F1000 X85.8150 Y55.8150 Z-3.0000 S1000
; retracting back to z-safe
G0 Z10

M5 S0; Spindle Off
