; GCODE Generated by cam.openbuilds.com on 2021-04-29 
G21 ; mm-mode
G54; Work Coordinates
G21; mm-mode
G90; Absolute Positioning
M3 S1000; Spindle On

; Operation 4: CNC: Pocket
; Endmill Diameter: 6

G0 Z10; move to z-safe height
G0 F1000 X64.7276 Y57.9041

G0 Z0
G1 F100 Z-1.5000
G1 F1000 X34.3276 Y57.9041 Z-1.5000 S1000
G1 F1000 X34.3276 Y57.5041 Z-1.5000 S1000
G1 F1000 X64.7276 Y57.5041 Z-1.5000 S1000
G1 F1000 X64.7276 Y57.9041 Z-1.5000 S1000
G1 F100 Z-3.0000
G1 F1000 X34.3276 Y57.9041 Z-3.0000 S1000
G1 F1000 X34.3276 Y57.5041 Z-3.0000 S1000
G1 F1000 X64.7276 Y57.5041 Z-3.0000 S1000
G1 F1000 X64.7276 Y57.9041 Z-3.0000 S1000

G0 Z10; move to z-safe height
G0 X66.5276 Y59.7041

G0 Z0
G1 F100 Z-1.5000
G1 F1000 X32.5276 Y59.7041 Z-1.5000 S1000
G1 F1000 X32.5276 Y55.7041 Z-1.5000 S1000
G1 F1000 X66.5276 Y55.7041 Z-1.5000 S1000
G1 F1000 X66.5276 Y59.7041 Z-1.5000 S1000
G1 F100 Z-3.0000
G1 F1000 X32.5276 Y59.7041 Z-3.0000 S1000
G1 F1000 X32.5276 Y55.7041 Z-3.0000 S1000
G1 F1000 X66.5276 Y55.7041 Z-3.0000 S1000
G1 F1000 X66.5276 Y59.7041 Z-3.0000 S1000

G0 Z10; move to z-safe height
G0 X68.3276 Y61.5041

G0 Z0
G1 F100 Z-1.5000
G1 F1000 X30.7276 Y61.5041 Z-1.5000 S1000
G1 F1000 X30.7276 Y53.9041 Z-1.5000 S1000
G1 F1000 X68.3276 Y53.9041 Z-1.5000 S1000
G1 F1000 X68.3276 Y61.5041 Z-1.5000 S1000
G1 F100 Z-3.0000
G1 F1000 X30.7276 Y61.5041 Z-3.0000 S1000
G1 F1000 X30.7276 Y53.9041 Z-3.0000 S1000
G1 F1000 X68.3276 Y53.9041 Z-3.0000 S1000
G1 F1000 X68.3276 Y61.5041 Z-3.0000 S1000

G0 Z10; move to z-safe height
G0 X70.1276 Y63.3041

G0 Z0
G1 F100 Z-1.5000
G1 F1000 X28.9276 Y63.3041 Z-1.5000 S1000
G1 F1000 X28.9276 Y52.1041 Z-1.5000 S1000
G1 F1000 X70.1276 Y52.1041 Z-1.5000 S1000
G1 F1000 X70.1276 Y63.3041 Z-1.5000 S1000
G1 F100 Z-3.0000
G1 F1000 X28.9276 Y63.3041 Z-3.0000 S1000
G1 F1000 X28.9276 Y52.1041 Z-3.0000 S1000
G1 F1000 X70.1276 Y52.1041 Z-3.0000 S1000
G1 F1000 X70.1276 Y63.3041 Z-3.0000 S1000

G0 Z10; move to z-safe height
G0 X71.9276 Y65.1041

G0 Z0
G1 F100 Z-1.5000
G1 F1000 X27.1276 Y65.1041 Z-1.5000 S1000
G1 F1000 X27.1276 Y50.3041 Z-1.5000 S1000
G1 F1000 X71.9276 Y50.3041 Z-1.5000 S1000
G1 F1000 X71.9276 Y65.1041 Z-1.5000 S1000
G1 F100 Z-3.0000
G1 F1000 X27.1276 Y65.1041 Z-3.0000 S1000
G1 F1000 X27.1276 Y50.3041 Z-3.0000 S1000
G1 F1000 X71.9276 Y50.3041 Z-3.0000 S1000
G1 F1000 X71.9276 Y65.1041 Z-3.0000 S1000

G0 Z10; move to z-safe height
G0 X73.7276 Y66.9041

G0 Z0
G1 F100 Z-1.5000
G1 F1000 X25.3276 Y66.9041 Z-1.5000 S1000
G1 F1000 X25.3276 Y48.5041 Z-1.5000 S1000
G1 F1000 X73.7276 Y48.5041 Z-1.5000 S1000
G1 F1000 X73.7276 Y66.9041 Z-1.5000 S1000
G1 F100 Z-3.0000
G1 F1000 X25.3276 Y66.9041 Z-3.0000 S1000
G1 F1000 X25.3276 Y48.5041 Z-3.0000 S1000
G1 F1000 X73.7276 Y48.5041 Z-3.0000 S1000
G1 F1000 X73.7276 Y66.9041 Z-3.0000 S1000

G0 Z10; move to z-safe height
G0 X75.5276 Y68.7041

G0 Z0
G1 F100 Z-1.5000
G1 F1000 X23.5276 Y68.7041 Z-1.5000 S1000
G1 F1000 X23.5276 Y46.7041 Z-1.5000 S1000
G1 F1000 X75.5276 Y46.7041 Z-1.5000 S1000
G1 F1000 X75.5276 Y68.7041 Z-1.5000 S1000
G1 F100 Z-3.0000
G1 F1000 X23.5276 Y68.7041 Z-3.0000 S1000
G1 F1000 X23.5276 Y46.7041 Z-3.0000 S1000
G1 F1000 X75.5276 Y46.7041 Z-3.0000 S1000
G1 F1000 X75.5276 Y68.7041 Z-3.0000 S1000

G0 Z10; move to z-safe height
G0 X77.3276 Y70.5041

G0 Z0
G1 F100 Z-1.5000
G1 F1000 X21.7276 Y70.5041 Z-1.5000 S1000
G1 F1000 X21.7276 Y44.9041 Z-1.5000 S1000
G1 F1000 X77.3276 Y44.9041 Z-1.5000 S1000
G1 F1000 X77.3276 Y70.5041 Z-1.5000 S1000
G1 F100 Z-3.0000
G1 F1000 X21.7276 Y70.5041 Z-3.0000 S1000
G1 F1000 X21.7276 Y44.9041 Z-3.0000 S1000
G1 F1000 X77.3276 Y44.9041 Z-3.0000 S1000
G1 F1000 X77.3276 Y70.5041 Z-3.0000 S1000

G0 Z10; move to z-safe height
G0 X79.1276 Y72.3041

G0 Z0
G1 F100 Z-1.5000
G1 F1000 X19.9276 Y72.3041 Z-1.5000 S1000
G1 F1000 X19.9276 Y43.1041 Z-1.5000 S1000
G1 F1000 X79.1276 Y43.1041 Z-1.5000 S1000
G1 F1000 X79.1276 Y72.3041 Z-1.5000 S1000
G1 F100 Z-3.0000
G1 F1000 X19.9276 Y72.3041 Z-3.0000 S1000
G1 F1000 X19.9276 Y43.1041 Z-3.0000 S1000
G1 F1000 X79.1276 Y43.1041 Z-3.0000 S1000
G1 F1000 X79.1276 Y72.3041 Z-3.0000 S1000

G0 Z10; move to z-safe height
G0 X80.9276 Y74.1041

G0 Z0
G1 F100 Z-1.5000
G1 F1000 X18.1276 Y74.1041 Z-1.5000 S1000
G1 F1000 X18.1276 Y41.3041 Z-1.5000 S1000
G1 F1000 X80.9276 Y41.3041 Z-1.5000 S1000
G1 F1000 X80.9276 Y74.1041 Z-1.5000 S1000
G1 F100 Z-3.0000
G1 F1000 X18.1276 Y74.1041 Z-3.0000 S1000
G1 F1000 X18.1276 Y41.3041 Z-3.0000 S1000
G1 F1000 X80.9276 Y41.3041 Z-3.0000 S1000
G1 F1000 X80.9276 Y74.1041 Z-3.0000 S1000

G0 Z10; move to z-safe height
G0 X82.7276 Y75.9041

G0 Z0
G1 F100 Z-1.5000
G1 F1000 X16.3276 Y75.9041 Z-1.5000 S1000
G1 F1000 X16.3276 Y39.5041 Z-1.5000 S1000
G1 F1000 X82.7276 Y39.5041 Z-1.5000 S1000
G1 F1000 X82.7276 Y75.9041 Z-1.5000 S1000
G1 F100 Z-3.0000
G1 F1000 X16.3276 Y75.9041 Z-3.0000 S1000
G1 F1000 X16.3276 Y39.5041 Z-3.0000 S1000
G1 F1000 X82.7276 Y39.5041 Z-3.0000 S1000
G1 F1000 X82.7276 Y75.9041 Z-3.0000 S1000

G0 Z10; move to z-safe height
G0 X84.5276 Y77.7041

G0 Z0
G1 F100 Z-1.5000
G1 F1000 X14.5276 Y77.7041 Z-1.5000 S1000
G1 F1000 X14.5276 Y37.7041 Z-1.5000 S1000
G1 F1000 X84.5276 Y37.7041 Z-1.5000 S1000
G1 F1000 X84.5276 Y77.7041 Z-1.5000 S1000
G1 F100 Z-3.0000
G1 F1000 X14.5276 Y77.7041 Z-3.0000 S1000
G1 F1000 X14.5276 Y37.7041 Z-3.0000 S1000
G1 F1000 X84.5276 Y37.7041 Z-3.0000 S1000
G1 F1000 X84.5276 Y77.7041 Z-3.0000 S1000

G0 Z10; move to z-safe height
G0 X86.3276 Y79.5041

G0 Z0
G1 F100 Z-1.5000
G1 F1000 X12.7276 Y79.5041 Z-1.5000 S1000
G1 F1000 X12.7276 Y35.9041 Z-1.5000 S1000
G1 F1000 X86.3276 Y35.9041 Z-1.5000 S1000
G1 F1000 X86.3276 Y79.5041 Z-1.5000 S1000
G1 F100 Z-3.0000
G1 F1000 X12.7276 Y79.5041 Z-3.0000 S1000
G1 F1000 X12.7276 Y35.9041 Z-3.0000 S1000
G1 F1000 X86.3276 Y35.9041 Z-3.0000 S1000
G1 F1000 X86.3276 Y79.5041 Z-3.0000 S1000

G0 Z10; move to z-safe height
G0 X88.1276 Y81.3041

G0 Z0
G1 F100 Z-1.5000
G1 F1000 X10.9276 Y81.3041 Z-1.5000 S1000
G1 F1000 X10.9276 Y34.1041 Z-1.5000 S1000
G1 F1000 X88.1276 Y34.1041 Z-1.5000 S1000
G1 F1000 X88.1276 Y81.3041 Z-1.5000 S1000
G1 F100 Z-3.0000
G1 F1000 X10.9276 Y81.3041 Z-3.0000 S1000
G1 F1000 X10.9276 Y34.1041 Z-3.0000 S1000
G1 F1000 X88.1276 Y34.1041 Z-3.0000 S1000
G1 F1000 X88.1276 Y81.3041 Z-3.0000 S1000

G0 Z10; move to z-safe height
G0 X89.9276 Y83.1041

G0 Z0
G1 F100 Z-1.5000
G1 F1000 X9.1276 Y83.1041 Z-1.5000 S1000
G1 F1000 X9.1276 Y32.3041 Z-1.5000 S1000
G1 F1000 X89.9276 Y32.3041 Z-1.5000 S1000
G1 F1000 X89.9276 Y83.1041 Z-1.5000 S1000
G1 F100 Z-3.0000
G1 F1000 X9.1276 Y83.1041 Z-3.0000 S1000
G1 F1000 X9.1276 Y32.3041 Z-3.0000 S1000
G1 F1000 X89.9276 Y32.3041 Z-3.0000 S1000
G1 F1000 X89.9276 Y83.1041 Z-3.0000 S1000

G0 Z10; move to z-safe height
G0 X90.5276 Y83.7041

G0 Z0
G1 F100 Z-1.5000
G1 F1000 X8.5276 Y83.7041 Z-1.5000 S1000
G1 F1000 X8.5276 Y31.7041 Z-1.5000 S1000
G1 F1000 X90.5276 Y31.7041 Z-1.5000 S1000
G1 F1000 X90.5276 Y83.7041 Z-1.5000 S1000
G1 F100 Z-3.0000
G1 F1000 X8.5276 Y83.7041 Z-3.0000 S1000
G1 F1000 X8.5276 Y31.7041 Z-3.0000 S1000
G1 F1000 X90.5276 Y31.7041 Z-3.0000 S1000
G1 F1000 X90.5276 Y83.7041 Z-3.0000 S1000
; retracting back to z-safe
G0 Z10
; Operation 5: CNC: Vector (path outside)
; Endmill Diameter: 6

G0 Z10; move to z-safe height
G0 F1000 X172.0000 Y-3.0000

G0 Z0
G1 F300 Z-3.0000
G1 F1000 X0.0000 Y-3.0000 Z-3.0000 S1000
G1 F1000 X-0.5500 Y-2.9491 Z-3.0000 S1000
G1 F1000 X-1.2108 Y-2.7448 Z-3.0000 S1000
G1 F1000 X-1.8072 Y-2.3946 Z-3.0000 S1000
G1 F1000 X-2.3076 Y-1.9170 Z-3.0000 S1000
G1 F1000 X-2.6853 Y-1.3376 Z-3.0000 S1000
G1 F1000 X-2.9203 Y-0.6871 Z-3.0000 S1000
G1 F1000 X-3.0000 Y0.0000 Z-3.0000 S1000
G1 F1000 X-3.0000 Y92.0000 Z-3.0000 S1000
G1 F1000 X-2.9491 Y92.5500 Z-3.0000 S1000
G1 F1000 X-2.7448 Y93.2108 Z-3.0000 S1000
G1 F1000 X-2.3946 Y93.8072 Z-3.0000 S1000
G1 F1000 X-1.9170 Y94.3076 Z-3.0000 S1000
G1 F1000 X-1.3376 Y94.6853 Z-3.0000 S1000
G1 F1000 X-0.6871 Y94.9203 Z-3.0000 S1000
G1 F1000 X0.0000 Y95.0000 Z-3.0000 S1000
G1 F1000 X172.0000 Y95.0000 Z-3.0000 S1000
G1 F1000 X172.5500 Y94.9491 Z-3.0000 S1000
G1 F1000 X173.2108 Y94.7448 Z-3.0000 S1000
G1 F1000 X173.8072 Y94.3946 Z-3.0000 S1000
G1 F1000 X174.3076 Y93.9170 Z-3.0000 S1000
G1 F1000 X174.6853 Y93.3376 Z-3.0000 S1000
G1 F1000 X174.9203 Y92.6871 Z-3.0000 S1000
G1 F1000 X175.0000 Y92.0000 Z-3.0000 S1000
G1 F1000 X175.0000 Y0.0000 Z-3.0000 S1000
G1 F1000 X174.9491 Y-0.5500 Z-3.0000 S1000
G1 F1000 X174.7448 Y-1.2108 Z-3.0000 S1000
G1 F1000 X174.3946 Y-1.8072 Z-3.0000 S1000
G1 F1000 X173.9170 Y-2.3076 Z-3.0000 S1000
G1 F1000 X173.3376 Y-2.6853 Z-3.0000 S1000
G1 F1000 X172.6871 Y-2.9203 Z-3.0000 S1000
G1 F1000 X172.0000 Y-3.0000 Z-3.0000 S1000
G1 F300 Z-6.0000
G1 F1000 X134.5000 Y-3.0000 Z-6.0000 S1000
G1 F1000 X134.5000 Y-3.0000 Z-5.6000 S1000
G1 F1000 X123.5000 Y-3.0000 Z-5.6000 S1000
G1 F1000 X123.5000 Y-3.0000 Z-6.0000 S1000
G1 F1000 X86.0000 Y-3.0000 Z-6.0000 S1000
G1 F1000 X48.5000 Y-3.0000 Z-6.0000 S1000
G1 F1000 X48.5000 Y-3.0000 Z-5.6000 S1000
G1 F1000 X37.5000 Y-3.0000 Z-5.6000 S1000
G1 F1000 X37.5000 Y-3.0000 Z-6.0000 S1000
G1 F1000 X0.0000 Y-3.0000 Z-6.0000 S1000
G1 F1000 X0.0000 Y-3.0000 Z-6.0000 S1000
G1 F1000 X-0.5500 Y-2.9491 Z-6.0000 S1000
G1 F1000 X-1.2108 Y-2.7448 Z-6.0000 S1000
G1 F1000 X-1.8072 Y-2.3946 Z-6.0000 S1000
G1 F1000 X-2.3076 Y-1.9170 Z-6.0000 S1000
G1 F1000 X-2.6853 Y-1.3376 Z-6.0000 S1000
G1 F1000 X-2.9203 Y-0.6871 Z-6.0000 S1000
G1 F1000 X-3.0000 Y0.0000 Z-6.0000 S1000
G1 F1000 X-3.0000 Y40.5000 Z-6.0000 S1000
G1 F1000 X-3.0000 Y40.5000 Z-5.6000 S1000
G1 F1000 X-3.0000 Y51.5000 Z-5.6000 S1000
G1 F1000 X-3.0000 Y51.5000 Z-6.0000 S1000
G1 F1000 X-3.0000 Y92.0000 Z-6.0000 S1000
G1 F1000 X-3.0000 Y92.0000 Z-6.0000 S1000
G1 F1000 X-2.9491 Y92.5500 Z-6.0000 S1000
G1 F1000 X-2.7448 Y93.2108 Z-6.0000 S1000
G1 F1000 X-2.3946 Y93.8072 Z-6.0000 S1000
G1 F1000 X-1.9170 Y94.3076 Z-6.0000 S1000
G1 F1000 X-1.3376 Y94.6853 Z-6.0000 S1000
G1 F1000 X-0.6871 Y94.9203 Z-6.0000 S1000
G1 F1000 X0.0000 Y95.0000 Z-6.0000 S1000
G1 F1000 X172.0000 Y95.0000 Z-6.0000 S1000
G1 F1000 X172.5500 Y94.9491 Z-6.0000 S1000
G1 F1000 X173.2108 Y94.7448 Z-6.0000 S1000
G1 F1000 X173.8072 Y94.3946 Z-6.0000 S1000
G1 F1000 X174.3076 Y93.9170 Z-6.0000 S1000
G1 F1000 X174.6853 Y93.3376 Z-6.0000 S1000
G1 F1000 X174.9203 Y92.6871 Z-6.0000 S1000
G1 F1000 X175.0000 Y92.0000 Z-6.0000 S1000
G1 F1000 X175.0000 Y51.5000 Z-6.0000 S1000
G1 F1000 X175.0000 Y51.5000 Z-5.6000 S1000
G1 F1000 X175.0000 Y40.5000 Z-5.6000 S1000
G1 F1000 X175.0000 Y40.5000 Z-6.0000 S1000
G1 F1000 X175.0000 Y0.0000 Z-6.0000 S1000
G1 F1000 X175.0000 Y0.0000 Z-6.0000 S1000
G1 F1000 X174.9491 Y-0.5500 Z-6.0000 S1000
G1 F1000 X174.7448 Y-1.2108 Z-6.0000 S1000
G1 F1000 X174.3946 Y-1.8072 Z-6.0000 S1000
G1 F1000 X173.9170 Y-2.3076 Z-6.0000 S1000
G1 F1000 X173.3376 Y-2.6853 Z-6.0000 S1000
G1 F1000 X172.6871 Y-2.9203 Z-6.0000 S1000
G1 F1000 X172.0000 Y-3.0000 Z-6.0000 S1000
G1 F300 Z-8.6000
G1 F1000 X134.5000 Y-3.0000 Z-8.6000 S1000
G1 F1000 X134.5000 Y-3.0000 Z-5.6000 S1000
G1 F1000 X123.5000 Y-3.0000 Z-5.6000 S1000
G1 F1000 X123.5000 Y-3.0000 Z-8.6000 S1000
G1 F1000 X86.0000 Y-3.0000 Z-8.6000 S1000
G1 F1000 X48.5000 Y-3.0000 Z-8.6000 S1000
G1 F1000 X48.5000 Y-3.0000 Z-5.6000 S1000
G1 F1000 X37.5000 Y-3.0000 Z-5.6000 S1000
G1 F1000 X37.5000 Y-3.0000 Z-8.6000 S1000
G1 F1000 X0.0000 Y-3.0000 Z-8.6000 S1000
G1 F1000 X0.0000 Y-3.0000 Z-8.6000 S1000
G1 F1000 X-0.5500 Y-2.9491 Z-8.6000 S1000
G1 F1000 X-1.2108 Y-2.7448 Z-8.6000 S1000
G1 F1000 X-1.8072 Y-2.3946 Z-8.6000 S1000
G1 F1000 X-2.3076 Y-1.9170 Z-8.6000 S1000
G1 F1000 X-2.6853 Y-1.3376 Z-8.6000 S1000
G1 F1000 X-2.9203 Y-0.6871 Z-8.6000 S1000
G1 F1000 X-3.0000 Y0.0000 Z-8.6000 S1000
G1 F1000 X-3.0000 Y40.5000 Z-8.6000 S1000
G1 F1000 X-3.0000 Y40.5000 Z-5.6000 S1000
G1 F1000 X-3.0000 Y51.5000 Z-5.6000 S1000
G1 F1000 X-3.0000 Y51.5000 Z-8.6000 S1000
G1 F1000 X-3.0000 Y92.0000 Z-8.6000 S1000
G1 F1000 X-3.0000 Y92.0000 Z-8.6000 S1000
G1 F1000 X-2.9491 Y92.5500 Z-8.6000 S1000
G1 F1000 X-2.7448 Y93.2108 Z-8.6000 S1000
G1 F1000 X-2.3946 Y93.8072 Z-8.6000 S1000
G1 F1000 X-1.9170 Y94.3076 Z-8.6000 S1000
G1 F1000 X-1.3376 Y94.6853 Z-8.6000 S1000
G1 F1000 X-0.6871 Y94.9203 Z-8.6000 S1000
G1 F1000 X0.0000 Y95.0000 Z-8.6000 S1000
G1 F1000 X172.0000 Y95.0000 Z-8.6000 S1000
G1 F1000 X172.5500 Y94.9491 Z-8.6000 S1000
G1 F1000 X173.2108 Y94.7448 Z-8.6000 S1000
G1 F1000 X173.8072 Y94.3946 Z-8.6000 S1000
G1 F1000 X174.3076 Y93.9170 Z-8.6000 S1000
G1 F1000 X174.6853 Y93.3376 Z-8.6000 S1000
G1 F1000 X174.9203 Y92.6871 Z-8.6000 S1000
G1 F1000 X175.0000 Y92.0000 Z-8.6000 S1000
G1 F1000 X175.0000 Y51.5000 Z-8.6000 S1000
G1 F1000 X175.0000 Y51.5000 Z-5.6000 S1000
G1 F1000 X175.0000 Y40.5000 Z-5.6000 S1000
G1 F1000 X175.0000 Y40.5000 Z-8.6000 S1000
G1 F1000 X175.0000 Y0.0000 Z-8.6000 S1000
G1 F1000 X175.0000 Y0.0000 Z-8.6000 S1000
G1 F1000 X174.9491 Y-0.5500 Z-8.6000 S1000
G1 F1000 X174.7448 Y-1.2108 Z-8.6000 S1000
G1 F1000 X174.3946 Y-1.8072 Z-8.6000 S1000
G1 F1000 X173.9170 Y-2.3076 Z-8.6000 S1000
G1 F1000 X173.3376 Y-2.6853 Z-8.6000 S1000
G1 F1000 X172.6871 Y-2.9203 Z-8.6000 S1000
G1 F1000 X172.0000 Y-3.0000 Z-8.6000 S1000
; retracting back to z-safe
G0 Z10

M5 S0; Spindle Off
