; GCODE Generated by cam.openbuilds.com on 2021-04-29 
G21 ; mm-mode
G54; Work Coordinates
G21; mm-mode
G90; Absolute Positioning
M3 S1000; Spindle On

; Operation 3: CNC: Pocket
; Endmill Diameter: 6

G0 Z10; move to z-safe height
G0 F1000 X175.1244 Y14.6833

G0 Z0
G1 F100 Z-2.0000
G1 F1000 X149.0643 Y14.7820 Z-2.0000 S1000
G1 F1000 X149.0643 Y14.4000 Z-2.0000 S1000
G1 F1000 X175.1244 Y14.4000 Z-2.0000 S1000
G1 F1000 X175.1244 Y14.6833 Z-2.0000 S1000
G1 F100 Z-4.0000
G1 F1000 X149.0643 Y14.7820 Z-4.0000 S1000
G1 F1000 X149.0643 Y14.4000 Z-4.0000 S1000
G1 F1000 X175.1244 Y14.4000 Z-4.0000 S1000
G1 F1000 X175.1244 Y14.6833 Z-4.0000 S1000

G0 Z10; move to z-safe height
G0 X176.9244 Y16.4765

G0 Z0
G1 F100 Z-2.0000
G1 F1000 X147.2643 Y16.5888 Z-2.0000 S1000
G1 F1000 X147.2643 Y12.6000 Z-2.0000 S1000
G1 F1000 X176.9244 Y12.6000 Z-2.0000 S1000
G1 F1000 X176.9244 Y16.4765 Z-2.0000 S1000
G1 F100 Z-4.0000
G1 F1000 X147.2643 Y16.5888 Z-4.0000 S1000
G1 F1000 X147.2643 Y12.6000 Z-4.0000 S1000
G1 F1000 X176.9244 Y12.6000 Z-4.0000 S1000
G1 F1000 X176.9244 Y16.4765 Z-4.0000 S1000

G0 Z10; move to z-safe height
G0 X178.7244 Y18.2697

G0 Z0
G1 F100 Z-2.0000
G1 F1000 X145.4643 Y18.3957 Z-2.0000 S1000
G1 F1000 X145.4643 Y11.9817 Z-2.0000 S1000
G1 F1000 X145.3923 Y10.8000 Z-2.0000 S1000
G1 F1000 X178.7244 Y10.8000 Z-2.0000 S1000
G1 F1000 X178.7244 Y18.2697 Z-2.0000 S1000
G1 F100 Z-4.0000
G1 F1000 X145.4643 Y18.3957 Z-4.0000 S1000
G1 F1000 X145.4643 Y11.9817 Z-4.0000 S1000
G1 F1000 X145.3923 Y10.8000 Z-4.0000 S1000
G1 F1000 X178.7244 Y10.8000 Z-4.0000 S1000
G1 F1000 X178.7244 Y18.2697 Z-4.0000 S1000

G0 Z10; move to z-safe height
G0 X9.0124 Y51.1580

G0 Z0
G1 F100 Z-2.0000
G1 F1000 X12.9631 Y51.1580 Z-2.0000 S1000
G1 F1000 X12.9923 Y51.5954 Z-2.0000 S1000
G1 F1000 X13.2306 Y52.7708 Z-2.0000 S1000
G1 F1000 X13.4515 Y53.4086 Z-2.0000 S1000
G1 F1000 X9.0000 Y53.4086 Z-2.0000 S1000
G1 F1000 X9.0000 Y51.1574 Z-2.0000 S1000
G1 F1000 X9.0124 Y51.1580 Z-2.0000 S1000

G0 Z10; move to z-safe height
G0 X180.5244 Y53.4086

G0 Z0
G1 F100 Z-2.0000
G1 F1000 X176.0793 Y53.4086 Z-2.0000 S1000
G1 F1000 X176.3600 Y52.5137 Z-2.0000 S1000
G1 F1000 X176.5635 Y51.3317 Z-2.0000 S1000
G1 F1000 X176.5725 Y51.1580 Z-2.0000 S1000
G1 F1000 X180.5120 Y51.1580 Z-2.0000 S1000
G1 F1000 X180.5244 Y51.1572 Z-2.0000 S1000
G1 F1000 X180.5244 Y53.4086 Z-2.0000 S1000

G0 Z10; move to z-safe height
G0 X180.5244 Y20.0654

G0 Z0
G1 F100 Z-2.0000
G1 F1000 X180.4779 Y20.0631 Z-2.0000 S1000
G1 F1000 X143.6643 Y20.2025 Z-2.0000 S1000
G1 F1000 X143.6643 Y11.9817 Z-2.0000 S1000
G1 F1000 X143.5844 Y10.7850 Z-2.0000 S1000
G1 F1000 X143.3461 Y9.6096 Z-2.0000 S1000
G1 F1000 X143.1350 Y9.0000 Z-2.0000 S1000
G1 F1000 X180.5244 Y9.0000 Z-2.0000 S1000
G1 F1000 X180.5244 Y20.0654 Z-2.0000 S1000

G0 Z10; move to z-safe height
G0 X9.0124 Y51.1580

G0 Z0
G1 F100 Z-4.0000
G1 F1000 X12.9631 Y51.1580 Z-4.0000 S1000
G1 F1000 X12.9923 Y51.5954 Z-4.0000 S1000
G1 F1000 X13.2306 Y52.7708 Z-4.0000 S1000
G1 F1000 X13.4515 Y53.4086 Z-4.0000 S1000
G1 F1000 X9.0000 Y53.4086 Z-4.0000 S1000
G1 F1000 X9.0000 Y51.1574 Z-4.0000 S1000
G1 F1000 X9.0124 Y51.1580 Z-4.0000 S1000

G0 Z10; move to z-safe height
G0 X180.5244 Y53.4086

G0 Z0
G1 F100 Z-4.0000
G1 F1000 X176.0793 Y53.4086 Z-4.0000 S1000
G1 F1000 X176.3600 Y52.5137 Z-4.0000 S1000
G1 F1000 X176.5635 Y51.3317 Z-4.0000 S1000
G1 F1000 X176.5725 Y51.1580 Z-4.0000 S1000
G1 F1000 X180.5120 Y51.1580 Z-4.0000 S1000
G1 F1000 X180.5244 Y51.1572 Z-4.0000 S1000
G1 F1000 X180.5244 Y53.4086 Z-4.0000 S1000

G0 Z10; move to z-safe height
G0 X180.5244 Y20.0654

G0 Z0
G1 F100 Z-4.0000
G1 F1000 X180.4779 Y20.0631 Z-4.0000 S1000
G1 F1000 X143.6643 Y20.2025 Z-4.0000 S1000
G1 F1000 X143.6643 Y11.9817 Z-4.0000 S1000
G1 F1000 X143.5844 Y10.7850 Z-4.0000 S1000
G1 F1000 X143.3461 Y9.6096 Z-4.0000 S1000
G1 F1000 X143.1350 Y9.0000 Z-4.0000 S1000
G1 F1000 X180.5244 Y9.0000 Z-4.0000 S1000
G1 F1000 X180.5244 Y20.0654 Z-4.0000 S1000

G0 Z10; move to z-safe height
G0 X7.3791 Y49.1703

G0 Z0
G1 F100 Z-2.0000
G1 F1000 X8.4389 Y49.3351 Z-2.0000 S1000
G1 F1000 X9.0124 Y49.3580 Z-2.0000 S1000
G1 F1000 X14.7124 Y49.3580 Z-2.0000 S1000
G1 F1000 X14.7124 Y50.3987 Z-2.0000 S1000
G1 F1000 X14.7923 Y51.4683 Z-2.0000 S1000
G1 F1000 X15.0302 Y52.5141 Z-2.0000 S1000
G1 F1000 X15.4208 Y53.5130 Z-2.0000 S1000
G1 F1000 X15.9555 Y54.4428 Z-2.0000 S1000
G1 F1000 X16.5633 Y55.2086 Z-2.0000 S1000
G1 F1000 X7.2000 Y55.2086 Z-2.0000 S1000
G1 F1000 X7.2000 Y49.1142 Z-2.0000 S1000
G1 F1000 X7.3791 Y49.1703 Z-2.0000 S1000

G0 Z10; move to z-safe height
G0 X182.3244 Y55.2086

G0 Z0
G1 F100 Z-2.0000
G1 F1000 X172.9442 Y55.2086 Z-2.0000 S1000
G1 F1000 X173.2279 Y54.9045 Z-2.0000 S1000
G1 F1000 X173.8349 Y54.0202 Z-2.0000 S1000
G1 F1000 X174.3038 Y53.0556 Z-2.0000 S1000
G1 F1000 X174.6243 Y52.0320 Z-2.0000 S1000
G1 F1000 X174.7891 Y50.9722 Z-2.0000 S1000
G1 F1000 X174.8120 Y50.3987 Z-2.0000 S1000
G1 F1000 X174.8120 Y49.3580 Z-2.0000 S1000
G1 F1000 X180.5120 Y49.3580 Z-2.0000 S1000
G1 F1000 X181.5816 Y49.2781 Z-2.0000 S1000
G1 F1000 X182.3244 Y49.1091 Z-2.0000 S1000
G1 F1000 X182.3244 Y55.2086 Z-2.0000 S1000

G0 Z10; move to z-safe height
G0 X182.3244 Y22.1068

G0 Z0
G1 F100 Z-2.0000
G1 F1000 X182.1453 Y22.0507 Z-2.0000 S1000
G1 F1000 X181.0855 Y21.8859 Z-2.0000 S1000
G1 F1000 X180.4847 Y21.8631 Z-2.0000 S1000
G1 F1000 X141.8643 Y22.0093 Z-2.0000 S1000
G1 F1000 X141.8643 Y11.9817 Z-2.0000 S1000
G1 F1000 X141.7844 Y10.9121 Z-2.0000 S1000
G1 F1000 X141.5465 Y9.8663 Z-2.0000 S1000
G1 F1000 X141.1559 Y8.8674 Z-2.0000 S1000
G1 F1000 X140.6212 Y7.9376 Z-2.0000 S1000
G1 F1000 X140.0358 Y7.2000 Z-2.0000 S1000
G1 F1000 X182.3244 Y7.2000 Z-2.0000 S1000
G1 F1000 X182.3244 Y22.1068 Z-2.0000 S1000

G0 Z10; move to z-safe height
G0 X7.3791 Y49.1703

G0 Z0
G1 F100 Z-4.0000
G1 F1000 X8.4389 Y49.3351 Z-4.0000 S1000
G1 F1000 X9.0124 Y49.3580 Z-4.0000 S1000
G1 F1000 X14.7124 Y49.3580 Z-4.0000 S1000
G1 F1000 X14.7124 Y50.3987 Z-4.0000 S1000
G1 F1000 X14.7923 Y51.4683 Z-4.0000 S1000
G1 F1000 X15.0302 Y52.5141 Z-4.0000 S1000
G1 F1000 X15.4208 Y53.5130 Z-4.0000 S1000
G1 F1000 X15.9555 Y54.4428 Z-4.0000 S1000
G1 F1000 X16.5633 Y55.2086 Z-4.0000 S1000
G1 F1000 X7.2000 Y55.2086 Z-4.0000 S1000
G1 F1000 X7.2000 Y49.1142 Z-4.0000 S1000
G1 F1000 X7.3791 Y49.1703 Z-4.0000 S1000

G0 Z10; move to z-safe height
G0 X182.3244 Y55.2086

G0 Z0
G1 F100 Z-4.0000
G1 F1000 X172.9442 Y55.2086 Z-4.0000 S1000
G1 F1000 X173.2279 Y54.9045 Z-4.0000 S1000
G1 F1000 X173.8349 Y54.0202 Z-4.0000 S1000
G1 F1000 X174.3038 Y53.0556 Z-4.0000 S1000
G1 F1000 X174.6243 Y52.0320 Z-4.0000 S1000
G1 F1000 X174.7891 Y50.9722 Z-4.0000 S1000
G1 F1000 X174.8120 Y50.3987 Z-4.0000 S1000
G1 F1000 X174.8120 Y49.3580 Z-4.0000 S1000
G1 F1000 X180.5120 Y49.3580 Z-4.0000 S1000
G1 F1000 X181.5816 Y49.2781 Z-4.0000 S1000
G1 F1000 X182.3244 Y49.1091 Z-4.0000 S1000
G1 F1000 X182.3244 Y55.2086 Z-4.0000 S1000

G0 Z10; move to z-safe height
G0 X182.3244 Y22.1068

G0 Z0
G1 F100 Z-4.0000
G1 F1000 X182.1453 Y22.0507 Z-4.0000 S1000
G1 F1000 X181.0855 Y21.8859 Z-4.0000 S1000
G1 F1000 X180.4847 Y21.8631 Z-4.0000 S1000
G1 F1000 X141.8643 Y22.0093 Z-4.0000 S1000
G1 F1000 X141.8643 Y11.9817 Z-4.0000 S1000
G1 F1000 X141.7844 Y10.9121 Z-4.0000 S1000
G1 F1000 X141.5465 Y9.8663 Z-4.0000 S1000
G1 F1000 X141.1559 Y8.8674 Z-4.0000 S1000
G1 F1000 X140.6212 Y7.9376 Z-4.0000 S1000
G1 F1000 X140.0358 Y7.2000 Z-4.0000 S1000
G1 F1000 X182.3244 Y7.2000 Z-4.0000 S1000
G1 F1000 X182.3244 Y22.1068 Z-4.0000 S1000

G0 Z10; move to z-safe height
G0 X184.1244 Y57.0086

G0 Z0
G1 F100 Z-2.0000
G1 F1000 X5.4000 Y57.0086 Z-2.0000 S1000
G1 F1000 X5.4000 Y46.1586 Z-2.0000 S1000
G1 F1000 X5.4930 Y46.2536 Z-2.0000 S1000
G1 F1000 X6.2468 Y46.7961 Z-2.0000 S1000
G1 F1000 X7.0824 Y47.2013 Z-2.0000 S1000
G1 F1000 X7.9750 Y47.4574 Z-2.0000 S1000
G1 F1000 X9.0124 Y47.5580 Z-2.0000 S1000
G1 F1000 X16.5124 Y47.5580 Z-2.0000 S1000
G1 F1000 X16.5124 Y50.3987 Z-2.0000 S1000
G1 F1000 X16.5923 Y51.3239 Z-2.0000 S1000
G1 F1000 X16.8294 Y52.2218 Z-2.0000 S1000
G1 F1000 X17.2170 Y53.0657 Z-2.0000 S1000
G1 F1000 X17.7434 Y53.8308 Z-2.0000 S1000
G1 F1000 X18.3930 Y54.4943 Z-2.0000 S1000
G1 F1000 X19.1468 Y55.0368 Z-2.0000 S1000
G1 F1000 X19.9824 Y55.4420 Z-2.0000 S1000
G1 F1000 X20.8750 Y55.6981 Z-2.0000 S1000
G1 F1000 X21.9124 Y55.7987 Z-2.0000 S1000
G1 F1000 X167.6120 Y55.7987 Z-2.0000 S1000
G1 F1000 X168.5372 Y55.7188 Z-2.0000 S1000
G1 F1000 X169.4351 Y55.4817 Z-2.0000 S1000
G1 F1000 X170.2790 Y55.0941 Z-2.0000 S1000
G1 F1000 X171.0441 Y54.5677 Z-2.0000 S1000
G1 F1000 X171.7076 Y53.9181 Z-2.0000 S1000
G1 F1000 X172.2501 Y53.1643 Z-2.0000 S1000
G1 F1000 X172.6553 Y52.3287 Z-2.0000 S1000
G1 F1000 X172.9114 Y51.4361 Z-2.0000 S1000
G1 F1000 X173.0120 Y50.3987 Z-2.0000 S1000
G1 F1000 X173.0120 Y47.5580 Z-2.0000 S1000
G1 F1000 X180.5120 Y47.5580 Z-2.0000 S1000
G1 F1000 X181.4372 Y47.4781 Z-2.0000 S1000
G1 F1000 X182.3351 Y47.2410 Z-2.0000 S1000
G1 F1000 X183.1790 Y46.8534 Z-2.0000 S1000
G1 F1000 X183.9441 Y46.3270 Z-2.0000 S1000
G1 F1000 X184.1244 Y46.1505 Z-2.0000 S1000
G1 F1000 X184.1244 Y57.0086 Z-2.0000 S1000

G0 Z10; move to z-safe height
G0 X184.1244 Y25.0624

G0 Z0
G1 F100 Z-2.0000
G1 F1000 X184.0314 Y24.9674 Z-2.0000 S1000
G1 F1000 X183.2776 Y24.4249 Z-2.0000 S1000
G1 F1000 X182.4420 Y24.0197 Z-2.0000 S1000
G1 F1000 X181.5494 Y23.7636 Z-2.0000 S1000
G1 F1000 X180.4916 Y23.6630 Z-2.0000 S1000
G1 F1000 X140.0643 Y23.8161 Z-2.0000 S1000
G1 F1000 X140.0643 Y11.9817 Z-2.0000 S1000
G1 F1000 X139.9844 Y11.0565 Z-2.0000 S1000
G1 F1000 X139.7473 Y10.1586 Z-2.0000 S1000
G1 F1000 X139.3597 Y9.3147 Z-2.0000 S1000
G1 F1000 X138.8333 Y8.5496 Z-2.0000 S1000
G1 F1000 X138.1837 Y7.8861 Z-2.0000 S1000
G1 F1000 X137.4299 Y7.3436 Z-2.0000 S1000
G1 F1000 X136.5943 Y6.9384 Z-2.0000 S1000
G1 F1000 X135.7017 Y6.6823 Z-2.0000 S1000
G1 F1000 X134.6598 Y6.5817 Z-2.0000 S1000
G1 F1000 X9.0079 Y6.6858 Z-2.0000 S1000
G1 F1000 X8.0828 Y6.7664 Z-2.0000 S1000
G1 F1000 X7.1851 Y7.0044 Z-2.0000 S1000
G1 F1000 X6.3415 Y7.3926 Z-2.0000 S1000
G1 F1000 X5.5769 Y7.9196 Z-2.0000 S1000
G1 F1000 X5.4000 Y8.0931 Z-2.0000 S1000
G1 F1000 X5.4000 Y5.4000 Z-2.0000 S1000
G1 F1000 X184.1244 Y5.4000 Z-2.0000 S1000
G1 F1000 X184.1244 Y25.0624 Z-2.0000 S1000

G0 Z10; move to z-safe height
G0 X184.1244 Y57.0086

G0 Z0
G1 F100 Z-4.0000
G1 F1000 X5.4000 Y57.0086 Z-4.0000 S1000
G1 F1000 X5.4000 Y46.1586 Z-4.0000 S1000
G1 F1000 X5.4930 Y46.2536 Z-4.0000 S1000
G1 F1000 X6.2468 Y46.7961 Z-4.0000 S1000
G1 F1000 X7.0824 Y47.2013 Z-4.0000 S1000
G1 F1000 X7.9750 Y47.4574 Z-4.0000 S1000
G1 F1000 X9.0124 Y47.5580 Z-4.0000 S1000
G1 F1000 X16.5124 Y47.5580 Z-4.0000 S1000
G1 F1000 X16.5124 Y50.3987 Z-4.0000 S1000
G1 F1000 X16.5923 Y51.3239 Z-4.0000 S1000
G1 F1000 X16.8294 Y52.2218 Z-4.0000 S1000
G1 F1000 X17.2170 Y53.0657 Z-4.0000 S1000
G1 F1000 X17.7434 Y53.8308 Z-4.0000 S1000
G1 F1000 X18.3930 Y54.4943 Z-4.0000 S1000
G1 F1000 X19.1468 Y55.0368 Z-4.0000 S1000
G1 F1000 X19.9824 Y55.4420 Z-4.0000 S1000
G1 F1000 X20.8750 Y55.6981 Z-4.0000 S1000
G1 F1000 X21.9124 Y55.7987 Z-4.0000 S1000
G1 F1000 X167.6120 Y55.7987 Z-4.0000 S1000
G1 F1000 X168.5372 Y55.7188 Z-4.0000 S1000
G1 F1000 X169.4351 Y55.4817 Z-4.0000 S1000
G1 F1000 X170.2790 Y55.0941 Z-4.0000 S1000
G1 F1000 X171.0441 Y54.5677 Z-4.0000 S1000
G1 F1000 X171.7076 Y53.9181 Z-4.0000 S1000
G1 F1000 X172.2501 Y53.1643 Z-4.0000 S1000
G1 F1000 X172.6553 Y52.3287 Z-4.0000 S1000
G1 F1000 X172.9114 Y51.4361 Z-4.0000 S1000
G1 F1000 X173.0120 Y50.3987 Z-4.0000 S1000
G1 F1000 X173.0120 Y47.5580 Z-4.0000 S1000
G1 F1000 X180.5120 Y47.5580 Z-4.0000 S1000
G1 F1000 X181.4372 Y47.4781 Z-4.0000 S1000
G1 F1000 X182.3351 Y47.2410 Z-4.0000 S1000
G1 F1000 X183.1790 Y46.8534 Z-4.0000 S1000
G1 F1000 X183.9441 Y46.3270 Z-4.0000 S1000
G1 F1000 X184.1244 Y46.1505 Z-4.0000 S1000
G1 F1000 X184.1244 Y57.0086 Z-4.0000 S1000

G0 Z10; move to z-safe height
G0 X184.1244 Y25.0624

G0 Z0
G1 F100 Z-4.0000
G1 F1000 X184.0314 Y24.9674 Z-4.0000 S1000
G1 F1000 X183.2776 Y24.4249 Z-4.0000 S1000
G1 F1000 X182.4420 Y24.0197 Z-4.0000 S1000
G1 F1000 X181.5494 Y23.7636 Z-4.0000 S1000
G1 F1000 X180.4916 Y23.6630 Z-4.0000 S1000
G1 F1000 X140.0643 Y23.8161 Z-4.0000 S1000
G1 F1000 X140.0643 Y11.9817 Z-4.0000 S1000
G1 F1000 X139.9844 Y11.0565 Z-4.0000 S1000
G1 F1000 X139.7473 Y10.1586 Z-4.0000 S1000
G1 F1000 X139.3597 Y9.3147 Z-4.0000 S1000
G1 F1000 X138.8333 Y8.5496 Z-4.0000 S1000
G1 F1000 X138.1837 Y7.8861 Z-4.0000 S1000
G1 F1000 X137.4299 Y7.3436 Z-4.0000 S1000
G1 F1000 X136.5943 Y6.9384 Z-4.0000 S1000
G1 F1000 X135.7017 Y6.6823 Z-4.0000 S1000
G1 F1000 X134.6598 Y6.5817 Z-4.0000 S1000
G1 F1000 X9.0079 Y6.6858 Z-4.0000 S1000
G1 F1000 X8.0828 Y6.7664 Z-4.0000 S1000
G1 F1000 X7.1851 Y7.0044 Z-4.0000 S1000
G1 F1000 X6.3415 Y7.3926 Z-4.0000 S1000
G1 F1000 X5.5769 Y7.9196 Z-4.0000 S1000
G1 F1000 X5.4000 Y8.0931 Z-4.0000 S1000
G1 F1000 X5.4000 Y5.4000 Z-4.0000 S1000
G1 F1000 X184.1244 Y5.4000 Z-4.0000 S1000
G1 F1000 X184.1244 Y25.0624 Z-4.0000 S1000

G0 Z10; move to z-safe height
G0 X185.9244 Y58.8086

G0 Z0
G1 F100 Z-2.0000
G1 F1000 X3.6000 Y58.8086 Z-2.0000 S1000
G1 F1000 X3.6000 Y3.6000 Z-2.0000 S1000
G1 F1000 X185.9244 Y3.6000 Z-2.0000 S1000
G1 F1000 X185.9244 Y58.8086 Z-2.0000 S1000

G0 Z10; move to z-safe height
G0 X9.0094 Y8.4858

G0 Z0
G1 F100 Z-2.0000
G1 F1000 X8.2558 Y8.5662 Z-2.0000 S1000
G1 F1000 X7.5357 Y8.8026 Z-2.0000 S1000
G1 F1000 X6.8811 Y9.1845 Z-2.0000 S1000
G1 F1000 X6.3209 Y9.6950 Z-2.0000 S1000
G1 F1000 X5.8800 Y10.3115 Z-2.0000 S1000
G1 F1000 X5.5780 Y11.0066 Z-2.0000 S1000
G1 F1000 X5.4124 Y12.0858 Z-2.0000 S1000
G1 F1000 X5.4124 Y42.1580 Z-2.0000 S1000
G1 F1000 X5.4922 Y42.9117 Z-2.0000 S1000
G1 F1000 X5.7280 Y43.6320 Z-2.0000 S1000
G1 F1000 X6.1093 Y44.2869 Z-2.0000 S1000
G1 F1000 X6.6194 Y44.8475 Z-2.0000 S1000
G1 F1000 X7.2355 Y45.2889 Z-2.0000 S1000
G1 F1000 X7.9303 Y45.5915 Z-2.0000 S1000
G1 F1000 X9.0124 Y45.7580 Z-2.0000 S1000
G1 F1000 X18.3124 Y45.7580 Z-2.0000 S1000
G1 F1000 X18.3124 Y50.3987 Z-2.0000 S1000
G1 F1000 X18.3922 Y51.1524 Z-2.0000 S1000
G1 F1000 X18.6280 Y51.8727 Z-2.0000 S1000
G1 F1000 X19.0093 Y52.5276 Z-2.0000 S1000
G1 F1000 X19.5194 Y53.0882 Z-2.0000 S1000
G1 F1000 X20.1355 Y53.5296 Z-2.0000 S1000
G1 F1000 X20.8303 Y53.8322 Z-2.0000 S1000
G1 F1000 X21.9124 Y53.9987 Z-2.0000 S1000
G1 F1000 X167.6120 Y53.9987 Z-2.0000 S1000
G1 F1000 X168.3657 Y53.9189 Z-2.0000 S1000
G1 F1000 X169.0860 Y53.6831 Z-2.0000 S1000
G1 F1000 X169.7409 Y53.3018 Z-2.0000 S1000
G1 F1000 X170.3015 Y52.7917 Z-2.0000 S1000
G1 F1000 X170.7429 Y52.1756 Z-2.0000 S1000
G1 F1000 X171.0455 Y51.4808 Z-2.0000 S1000
G1 F1000 X171.2120 Y50.3987 Z-2.0000 S1000
G1 F1000 X171.2120 Y45.7580 Z-2.0000 S1000
G1 F1000 X180.5120 Y45.7580 Z-2.0000 S1000
G1 F1000 X181.2657 Y45.6782 Z-2.0000 S1000
G1 F1000 X181.9860 Y45.4424 Z-2.0000 S1000
G1 F1000 X182.6409 Y45.0611 Z-2.0000 S1000
G1 F1000 X183.2015 Y44.5510 Z-2.0000 S1000
G1 F1000 X183.6429 Y43.9349 Z-2.0000 S1000
G1 F1000 X183.9455 Y43.2401 Z-2.0000 S1000
G1 F1000 X184.1120 Y42.1580 Z-2.0000 S1000
G1 F1000 X184.1120 Y29.0630 Z-2.0000 S1000
G1 F1000 X184.0322 Y28.3093 Z-2.0000 S1000
G1 F1000 X183.7964 Y27.5890 Z-2.0000 S1000
G1 F1000 X183.4151 Y26.9341 Z-2.0000 S1000
G1 F1000 X182.9050 Y26.3735 Z-2.0000 S1000
G1 F1000 X182.2889 Y25.9321 Z-2.0000 S1000
G1 F1000 X181.5941 Y25.6295 Z-2.0000 S1000
G1 F1000 X180.4984 Y25.4630 Z-2.0000 S1000
G1 F1000 X138.2643 Y25.6229 Z-2.0000 S1000
G1 F1000 X138.2643 Y11.9817 Z-2.0000 S1000
G1 F1000 X138.1845 Y11.2280 Z-2.0000 S1000
G1 F1000 X137.9487 Y10.5077 Z-2.0000 S1000
G1 F1000 X137.5674 Y9.8528 Z-2.0000 S1000
G1 F1000 X137.0573 Y9.2922 Z-2.0000 S1000
G1 F1000 X136.4412 Y8.8508 Z-2.0000 S1000
G1 F1000 X135.7464 Y8.5482 Z-2.0000 S1000
G1 F1000 X134.6613 Y8.3817 Z-2.0000 S1000
G1 F1000 X9.0094 Y8.4858 Z-2.0000 S1000

G0 Z10; move to z-safe height
G0 X185.9244 Y58.8086

G0 Z0
G1 F100 Z-4.0000
G1 F1000 X3.6000 Y58.8086 Z-4.0000 S1000
G1 F1000 X3.6000 Y3.6000 Z-4.0000 S1000
G1 F1000 X185.9244 Y3.6000 Z-4.0000 S1000
G1 F1000 X185.9244 Y58.8086 Z-4.0000 S1000

G0 Z10; move to z-safe height
G0 X9.0094 Y8.4858

G0 Z0
G1 F100 Z-4.0000
G1 F1000 X8.2558 Y8.5662 Z-4.0000 S1000
G1 F1000 X7.5357 Y8.8026 Z-4.0000 S1000
G1 F1000 X6.8811 Y9.1845 Z-4.0000 S1000
G1 F1000 X6.3209 Y9.6950 Z-4.0000 S1000
G1 F1000 X5.8800 Y10.3115 Z-4.0000 S1000
G1 F1000 X5.5780 Y11.0066 Z-4.0000 S1000
G1 F1000 X5.4124 Y12.0858 Z-4.0000 S1000
G1 F1000 X5.4124 Y42.1580 Z-4.0000 S1000
G1 F1000 X5.4922 Y42.9117 Z-4.0000 S1000
G1 F1000 X5.7280 Y43.6320 Z-4.0000 S1000
G1 F1000 X6.1093 Y44.2869 Z-4.0000 S1000
G1 F1000 X6.6194 Y44.8475 Z-4.0000 S1000
G1 F1000 X7.2355 Y45.2889 Z-4.0000 S1000
G1 F1000 X7.9303 Y45.5915 Z-4.0000 S1000
G1 F1000 X9.0124 Y45.7580 Z-4.0000 S1000
G1 F1000 X18.3124 Y45.7580 Z-4.0000 S1000
G1 F1000 X18.3124 Y50.3987 Z-4.0000 S1000
G1 F1000 X18.3922 Y51.1524 Z-4.0000 S1000
G1 F1000 X18.6280 Y51.8727 Z-4.0000 S1000
G1 F1000 X19.0093 Y52.5276 Z-4.0000 S1000
G1 F1000 X19.5194 Y53.0882 Z-4.0000 S1000
G1 F1000 X20.1355 Y53.5296 Z-4.0000 S1000
G1 F1000 X20.8303 Y53.8322 Z-4.0000 S1000
G1 F1000 X21.9124 Y53.9987 Z-4.0000 S1000
G1 F1000 X167.6120 Y53.9987 Z-4.0000 S1000
G1 F1000 X168.3657 Y53.9189 Z-4.0000 S1000
G1 F1000 X169.0860 Y53.6831 Z-4.0000 S1000
G1 F1000 X169.7409 Y53.3018 Z-4.0000 S1000
G1 F1000 X170.3015 Y52.7917 Z-4.0000 S1000
G1 F1000 X170.7429 Y52.1756 Z-4.0000 S1000
G1 F1000 X171.0455 Y51.4808 Z-4.0000 S1000
G1 F1000 X171.2120 Y50.3987 Z-4.0000 S1000
G1 F1000 X171.2120 Y45.7580 Z-4.0000 S1000
G1 F1000 X180.5120 Y45.7580 Z-4.0000 S1000
G1 F1000 X181.2657 Y45.6782 Z-4.0000 S1000
G1 F1000 X181.9860 Y45.4424 Z-4.0000 S1000
G1 F1000 X182.6409 Y45.0611 Z-4.0000 S1000
G1 F1000 X183.2015 Y44.5510 Z-4.0000 S1000
G1 F1000 X183.6429 Y43.9349 Z-4.0000 S1000
G1 F1000 X183.9455 Y43.2401 Z-4.0000 S1000
G1 F1000 X184.1120 Y42.1580 Z-4.0000 S1000
G1 F1000 X184.1120 Y29.0630 Z-4.0000 S1000
G1 F1000 X184.0322 Y28.3093 Z-4.0000 S1000
G1 F1000 X183.7964 Y27.5890 Z-4.0000 S1000
G1 F1000 X183.4151 Y26.9341 Z-4.0000 S1000
G1 F1000 X182.9050 Y26.3735 Z-4.0000 S1000
G1 F1000 X182.2889 Y25.9321 Z-4.0000 S1000
G1 F1000 X181.5941 Y25.6295 Z-4.0000 S1000
G1 F1000 X180.4984 Y25.4630 Z-4.0000 S1000
G1 F1000 X138.2643 Y25.6229 Z-4.0000 S1000
G1 F1000 X138.2643 Y11.9817 Z-4.0000 S1000
G1 F1000 X138.1845 Y11.2280 Z-4.0000 S1000
G1 F1000 X137.9487 Y10.5077 Z-4.0000 S1000
G1 F1000 X137.5674 Y9.8528 Z-4.0000 S1000
G1 F1000 X137.0573 Y9.2922 Z-4.0000 S1000
G1 F1000 X136.4412 Y8.8508 Z-4.0000 S1000
G1 F1000 X135.7464 Y8.5482 Z-4.0000 S1000
G1 F1000 X134.6613 Y8.3817 Z-4.0000 S1000
G1 F1000 X9.0094 Y8.4858 Z-4.0000 S1000

G0 Z10; move to z-safe height
G0 X186.5244 Y59.4086

G0 Z0
G1 F100 Z-2.0000
G1 F1000 X3.0000 Y59.4086 Z-2.0000 S1000
G1 F1000 X3.0000 Y3.0000 Z-2.0000 S1000
G1 F1000 X186.5244 Y3.0000 Z-2.0000 S1000
G1 F1000 X186.5244 Y59.4086 Z-2.0000 S1000

G0 Z10; move to z-safe height
G0 X9.0099 Y9.0858

G0 Z0
G1 F100 Z-2.0000
G1 F1000 X8.3229 Y9.1661 Z-2.0000 S1000
G1 F1000 X7.6726 Y9.4016 Z-2.0000 S1000
G1 F1000 X7.0935 Y9.7798 Z-2.0000 S1000
G1 F1000 X6.6164 Y10.2805 Z-2.0000 S1000
G1 F1000 X6.2666 Y10.8773 Z-2.0000 S1000
G1 F1000 X6.0628 Y11.5382 Z-2.0000 S1000
G1 F1000 X6.0124 Y12.0858 Z-2.0000 S1000
G1 F1000 X6.0124 Y42.1580 Z-2.0000 S1000
G1 F1000 X6.0921 Y42.8451 Z-2.0000 S1000
G1 F1000 X6.3271 Y43.4956 Z-2.0000 S1000
G1 F1000 X6.7048 Y44.0750 Z-2.0000 S1000
G1 F1000 X7.2052 Y44.5526 Z-2.0000 S1000
G1 F1000 X7.8016 Y44.9028 Z-2.0000 S1000
G1 F1000 X8.4624 Y45.1071 Z-2.0000 S1000
G1 F1000 X9.0124 Y45.1580 Z-2.0000 S1000
G1 F1000 X18.9124 Y45.1580 Z-2.0000 S1000
G1 F1000 X18.9124 Y50.3987 Z-2.0000 S1000
G1 F1000 X18.9921 Y51.0858 Z-2.0000 S1000
G1 F1000 X19.2271 Y51.7363 Z-2.0000 S1000
G1 F1000 X19.6048 Y52.3157 Z-2.0000 S1000
G1 F1000 X20.1052 Y52.7933 Z-2.0000 S1000
G1 F1000 X20.7016 Y53.1435 Z-2.0000 S1000
G1 F1000 X21.3624 Y53.3478 Z-2.0000 S1000
G1 F1000 X21.9124 Y53.3987 Z-2.0000 S1000
G1 F1000 X167.6120 Y53.3987 Z-2.0000 S1000
G1 F1000 X168.2991 Y53.3190 Z-2.0000 S1000
G1 F1000 X168.9496 Y53.0840 Z-2.0000 S1000
G1 F1000 X169.5290 Y52.7063 Z-2.0000 S1000
G1 F1000 X170.0066 Y52.2059 Z-2.0000 S1000
G1 F1000 X170.3568 Y51.6095 Z-2.0000 S1000
G1 F1000 X170.5611 Y50.9487 Z-2.0000 S1000
G1 F1000 X170.6120 Y50.3987 Z-2.0000 S1000
G1 F1000 X170.6120 Y45.1580 Z-2.0000 S1000
G1 F1000 X180.5120 Y45.1580 Z-2.0000 S1000
G1 F1000 X181.1991 Y45.0783 Z-2.0000 S1000
G1 F1000 X181.8496 Y44.8433 Z-2.0000 S1000
G1 F1000 X182.4290 Y44.4656 Z-2.0000 S1000
G1 F1000 X182.9066 Y43.9652 Z-2.0000 S1000
G1 F1000 X183.2568 Y43.3688 Z-2.0000 S1000
G1 F1000 X183.4611 Y42.7080 Z-2.0000 S1000
G1 F1000 X183.5120 Y42.1580 Z-2.0000 S1000
G1 F1000 X183.5120 Y29.0630 Z-2.0000 S1000
G1 F1000 X183.4323 Y28.3759 Z-2.0000 S1000
G1 F1000 X183.1973 Y27.7254 Z-2.0000 S1000
G1 F1000 X182.8196 Y27.1460 Z-2.0000 S1000
G1 F1000 X182.3192 Y26.6684 Z-2.0000 S1000
G1 F1000 X181.7228 Y26.3182 Z-2.0000 S1000
G1 F1000 X181.0620 Y26.1139 Z-2.0000 S1000
G1 F1000 X180.5006 Y26.0630 Z-2.0000 S1000
G1 F1000 X137.6643 Y26.2252 Z-2.0000 S1000
G1 F1000 X137.6643 Y11.9817 Z-2.0000 S1000
G1 F1000 X137.5846 Y11.2946 Z-2.0000 S1000
G1 F1000 X137.3496 Y10.6441 Z-2.0000 S1000
G1 F1000 X136.9719 Y10.0647 Z-2.0000 S1000
G1 F1000 X136.4715 Y9.5871 Z-2.0000 S1000
G1 F1000 X135.8751 Y9.2369 Z-2.0000 S1000
G1 F1000 X135.2143 Y9.0326 Z-2.0000 S1000
G1 F1000 X134.6618 Y8.9817 Z-2.0000 S1000
G1 F1000 X9.0099 Y9.0858 Z-2.0000 S1000

G0 Z10; move to z-safe height
G0 X186.5244 Y59.4086

G0 Z0
G1 F100 Z-4.0000
G1 F1000 X3.0000 Y59.4086 Z-4.0000 S1000
G1 F1000 X3.0000 Y3.0000 Z-4.0000 S1000
G1 F1000 X186.5244 Y3.0000 Z-4.0000 S1000
G1 F1000 X186.5244 Y59.4086 Z-4.0000 S1000

G0 Z10; move to z-safe height
G0 X9.0099 Y9.0858

G0 Z0
G1 F100 Z-4.0000
G1 F1000 X8.3229 Y9.1661 Z-4.0000 S1000
G1 F1000 X7.6726 Y9.4016 Z-4.0000 S1000
G1 F1000 X7.0935 Y9.7798 Z-4.0000 S1000
G1 F1000 X6.6164 Y10.2805 Z-4.0000 S1000
G1 F1000 X6.2666 Y10.8773 Z-4.0000 S1000
G1 F1000 X6.0628 Y11.5382 Z-4.0000 S1000
G1 F1000 X6.0124 Y12.0858 Z-4.0000 S1000
G1 F1000 X6.0124 Y42.1580 Z-4.0000 S1000
G1 F1000 X6.0921 Y42.8451 Z-4.0000 S1000
G1 F1000 X6.3271 Y43.4956 Z-4.0000 S1000
G1 F1000 X6.7048 Y44.0750 Z-4.0000 S1000
G1 F1000 X7.2052 Y44.5526 Z-4.0000 S1000
G1 F1000 X7.8016 Y44.9028 Z-4.0000 S1000
G1 F1000 X8.4624 Y45.1071 Z-4.0000 S1000
G1 F1000 X9.0124 Y45.1580 Z-4.0000 S1000
G1 F1000 X18.9124 Y45.1580 Z-4.0000 S1000
G1 F1000 X18.9124 Y50.3987 Z-4.0000 S1000
G1 F1000 X18.9921 Y51.0858 Z-4.0000 S1000
G1 F1000 X19.2271 Y51.7363 Z-4.0000 S1000
G1 F1000 X19.6048 Y52.3157 Z-4.0000 S1000
G1 F1000 X20.1052 Y52.7933 Z-4.0000 S1000
G1 F1000 X20.7016 Y53.1435 Z-4.0000 S1000
G1 F1000 X21.3624 Y53.3478 Z-4.0000 S1000
G1 F1000 X21.9124 Y53.3987 Z-4.0000 S1000
G1 F1000 X167.6120 Y53.3987 Z-4.0000 S1000
G1 F1000 X168.2991 Y53.3190 Z-4.0000 S1000
G1 F1000 X168.9496 Y53.0840 Z-4.0000 S1000
G1 F1000 X169.5290 Y52.7063 Z-4.0000 S1000
G1 F1000 X170.0066 Y52.2059 Z-4.0000 S1000
G1 F1000 X170.3568 Y51.6095 Z-4.0000 S1000
G1 F1000 X170.5611 Y50.9487 Z-4.0000 S1000
G1 F1000 X170.6120 Y50.3987 Z-4.0000 S1000
G1 F1000 X170.6120 Y45.1580 Z-4.0000 S1000
G1 F1000 X180.5120 Y45.1580 Z-4.0000 S1000
G1 F1000 X181.1991 Y45.0783 Z-4.0000 S1000
G1 F1000 X181.8496 Y44.8433 Z-4.0000 S1000
G1 F1000 X182.4290 Y44.4656 Z-4.0000 S1000
G1 F1000 X182.9066 Y43.9652 Z-4.0000 S1000
G1 F1000 X183.2568 Y43.3688 Z-4.0000 S1000
G1 F1000 X183.4611 Y42.7080 Z-4.0000 S1000
G1 F1000 X183.5120 Y42.1580 Z-4.0000 S1000
G1 F1000 X183.5120 Y29.0630 Z-4.0000 S1000
G1 F1000 X183.4323 Y28.3759 Z-4.0000 S1000
G1 F1000 X183.1973 Y27.7254 Z-4.0000 S1000
G1 F1000 X182.8196 Y27.1460 Z-4.0000 S1000
G1 F1000 X182.3192 Y26.6684 Z-4.0000 S1000
G1 F1000 X181.7228 Y26.3182 Z-4.0000 S1000
G1 F1000 X181.0620 Y26.1139 Z-4.0000 S1000
G1 F1000 X180.5006 Y26.0630 Z-4.0000 S1000
G1 F1000 X137.6643 Y26.2252 Z-4.0000 S1000
G1 F1000 X137.6643 Y11.9817 Z-4.0000 S1000
G1 F1000 X137.5846 Y11.2946 Z-4.0000 S1000
G1 F1000 X137.3496 Y10.6441 Z-4.0000 S1000
G1 F1000 X136.9719 Y10.0647 Z-4.0000 S1000
G1 F1000 X136.4715 Y9.5871 Z-4.0000 S1000
G1 F1000 X135.8751 Y9.2369 Z-4.0000 S1000
G1 F1000 X135.2143 Y9.0326 Z-4.0000 S1000
G1 F1000 X134.6618 Y8.9817 Z-4.0000 S1000
G1 F1000 X9.0099 Y9.0858 Z-4.0000 S1000
; retracting back to z-safe
G0 Z10
; Operation 4: CNC: Vector (path outside)
; Endmill Diameter: 6

G0 Z10; move to z-safe height
G0 F1000 X184.7644 Y0.7039

G0 Z0
G1 F100 Z-3.0000
G1 F1000 X4.7644 Y0.7039 Z-3.0000 S1000
G1 F1000 X4.2144 Y0.7548 Z-3.0000 S1000
G1 F1000 X3.5536 Y0.9591 Z-3.0000 S1000
G1 F1000 X2.9572 Y1.3093 Z-3.0000 S1000
G1 F1000 X2.4568 Y1.7869 Z-3.0000 S1000
G1 F1000 X2.0791 Y2.3663 Z-3.0000 S1000
G1 F1000 X1.8441 Y3.0168 Z-3.0000 S1000
G1 F1000 X1.7644 Y3.7039 Z-3.0000 S1000
G1 F1000 X1.7644 Y58.7039 Z-3.0000 S1000
G1 F1000 X1.8153 Y59.2539 Z-3.0000 S1000
G1 F1000 X2.0196 Y59.9147 Z-3.0000 S1000
G1 F1000 X2.3698 Y60.5111 Z-3.0000 S1000
G1 F1000 X2.8474 Y61.0115 Z-3.0000 S1000
G1 F1000 X3.4268 Y61.3892 Z-3.0000 S1000
G1 F1000 X4.0773 Y61.6242 Z-3.0000 S1000
G1 F1000 X4.7644 Y61.7039 Z-3.0000 S1000
G1 F1000 X184.7644 Y61.7039 Z-3.0000 S1000
G1 F1000 X185.3144 Y61.6530 Z-3.0000 S1000
G1 F1000 X185.9752 Y61.4487 Z-3.0000 S1000
G1 F1000 X186.5716 Y61.0985 Z-3.0000 S1000
G1 F1000 X187.0720 Y60.6209 Z-3.0000 S1000
G1 F1000 X187.4497 Y60.0415 Z-3.0000 S1000
G1 F1000 X187.6847 Y59.3910 Z-3.0000 S1000
G1 F1000 X187.7644 Y58.7039 Z-3.0000 S1000
G1 F1000 X187.7644 Y3.7039 Z-3.0000 S1000
G1 F1000 X187.7135 Y3.1539 Z-3.0000 S1000
G1 F1000 X187.5092 Y2.4931 Z-3.0000 S1000
G1 F1000 X187.1590 Y1.8967 Z-3.0000 S1000
G1 F1000 X186.6814 Y1.3963 Z-3.0000 S1000
G1 F1000 X186.1020 Y1.0186 Z-3.0000 S1000
G1 F1000 X185.4515 Y0.7836 Z-3.0000 S1000
G1 F1000 X184.7644 Y0.7039 Z-3.0000 S1000
G1 F100 Z-6.0000
G1 F1000 X145.2644 Y0.7039 Z-6.0000 S1000
G1 F1000 X145.2644 Y0.7039 Z-5.6000 S1000
G1 F1000 X134.2644 Y0.7039 Z-5.6000 S1000
G1 F1000 X134.2644 Y0.7039 Z-6.0000 S1000
G1 F1000 X94.7644 Y0.7039 Z-6.0000 S1000
G1 F1000 X55.2644 Y0.7039 Z-6.0000 S1000
G1 F1000 X55.2644 Y0.7039 Z-5.6000 S1000
G1 F1000 X44.2644 Y0.7039 Z-5.6000 S1000
G1 F1000 X44.2644 Y0.7039 Z-6.0000 S1000
G1 F1000 X4.7644 Y0.7039 Z-6.0000 S1000
G1 F1000 X4.7644 Y0.7039 Z-6.0000 S1000
G1 F1000 X4.2144 Y0.7548 Z-6.0000 S1000
G1 F1000 X3.5536 Y0.9591 Z-6.0000 S1000
G1 F1000 X2.9572 Y1.3093 Z-6.0000 S1000
G1 F1000 X2.4568 Y1.7869 Z-6.0000 S1000
G1 F1000 X2.0791 Y2.3663 Z-6.0000 S1000
G1 F1000 X1.8441 Y3.0168 Z-6.0000 S1000
G1 F1000 X1.7644 Y3.7039 Z-6.0000 S1000
G1 F1000 X1.7644 Y25.7039 Z-6.0000 S1000
G1 F1000 X1.7644 Y25.7039 Z-5.6000 S1000
G1 F1000 X1.7644 Y36.7039 Z-5.6000 S1000
G1 F1000 X1.7644 Y36.7039 Z-6.0000 S1000
G1 F1000 X1.7644 Y58.7039 Z-6.0000 S1000
G1 F1000 X1.7644 Y58.7039 Z-6.0000 S1000
G1 F1000 X1.8153 Y59.2539 Z-6.0000 S1000
G1 F1000 X2.0196 Y59.9147 Z-6.0000 S1000
G1 F1000 X2.3698 Y60.5111 Z-6.0000 S1000
G1 F1000 X2.8474 Y61.0115 Z-6.0000 S1000
G1 F1000 X3.4268 Y61.3892 Z-6.0000 S1000
G1 F1000 X4.0773 Y61.6242 Z-6.0000 S1000
G1 F1000 X4.7644 Y61.7039 Z-6.0000 S1000
G1 F1000 X184.7644 Y61.7039 Z-6.0000 S1000
G1 F1000 X185.3144 Y61.6530 Z-6.0000 S1000
G1 F1000 X185.9752 Y61.4487 Z-6.0000 S1000
G1 F1000 X186.5716 Y61.0985 Z-6.0000 S1000
G1 F1000 X187.0720 Y60.6209 Z-6.0000 S1000
G1 F1000 X187.4497 Y60.0415 Z-6.0000 S1000
G1 F1000 X187.6847 Y59.3910 Z-6.0000 S1000
G1 F1000 X187.7644 Y58.7039 Z-6.0000 S1000
G1 F1000 X187.7644 Y36.7039 Z-6.0000 S1000
G1 F1000 X187.7644 Y36.7039 Z-5.6000 S1000
G1 F1000 X187.7644 Y25.7039 Z-5.6000 S1000
G1 F1000 X187.7644 Y25.7039 Z-6.0000 S1000
G1 F1000 X187.7644 Y3.7039 Z-6.0000 S1000
G1 F1000 X187.7644 Y3.7039 Z-6.0000 S1000
G1 F1000 X187.7135 Y3.1539 Z-6.0000 S1000
G1 F1000 X187.5092 Y2.4931 Z-6.0000 S1000
G1 F1000 X187.1590 Y1.8967 Z-6.0000 S1000
G1 F1000 X186.6814 Y1.3963 Z-6.0000 S1000
G1 F1000 X186.1020 Y1.0186 Z-6.0000 S1000
G1 F1000 X185.4515 Y0.7836 Z-6.0000 S1000
G1 F1000 X184.7644 Y0.7039 Z-6.0000 S1000
G1 F100 Z-8.6000
G1 F1000 X145.2644 Y0.7039 Z-8.6000 S1000
G1 F1000 X145.2644 Y0.7039 Z-5.6000 S1000
G1 F1000 X134.2644 Y0.7039 Z-5.6000 S1000
G1 F1000 X134.2644 Y0.7039 Z-8.6000 S1000
G1 F1000 X94.7644 Y0.7039 Z-8.6000 S1000
G1 F1000 X55.2644 Y0.7039 Z-8.6000 S1000
G1 F1000 X55.2644 Y0.7039 Z-5.6000 S1000
G1 F1000 X44.2644 Y0.7039 Z-5.6000 S1000
G1 F1000 X44.2644 Y0.7039 Z-8.6000 S1000
G1 F1000 X4.7644 Y0.7039 Z-8.6000 S1000
G1 F1000 X4.7644 Y0.7039 Z-8.6000 S1000
G1 F1000 X4.2144 Y0.7548 Z-8.6000 S1000
G1 F1000 X3.5536 Y0.9591 Z-8.6000 S1000
G1 F1000 X2.9572 Y1.3093 Z-8.6000 S1000
G1 F1000 X2.4568 Y1.7869 Z-8.6000 S1000
G1 F1000 X2.0791 Y2.3663 Z-8.6000 S1000
G1 F1000 X1.8441 Y3.0168 Z-8.6000 S1000
G1 F1000 X1.7644 Y3.7039 Z-8.6000 S1000
G1 F1000 X1.7644 Y25.7039 Z-8.6000 S1000
G1 F1000 X1.7644 Y25.7039 Z-5.6000 S1000
G1 F1000 X1.7644 Y36.7039 Z-5.6000 S1000
G1 F1000 X1.7644 Y36.7039 Z-8.6000 S1000
G1 F1000 X1.7644 Y58.7039 Z-8.6000 S1000
G1 F1000 X1.7644 Y58.7039 Z-8.6000 S1000
G1 F1000 X1.8153 Y59.2539 Z-8.6000 S1000
G1 F1000 X2.0196 Y59.9147 Z-8.6000 S1000
G1 F1000 X2.3698 Y60.5111 Z-8.6000 S1000
G1 F1000 X2.8474 Y61.0115 Z-8.6000 S1000
G1 F1000 X3.4268 Y61.3892 Z-8.6000 S1000
G1 F1000 X4.0773 Y61.6242 Z-8.6000 S1000
G1 F1000 X4.7644 Y61.7039 Z-8.6000 S1000
G1 F1000 X184.7644 Y61.7039 Z-8.6000 S1000
G1 F1000 X185.3144 Y61.6530 Z-8.6000 S1000
G1 F1000 X185.9752 Y61.4487 Z-8.6000 S1000
G1 F1000 X186.5716 Y61.0985 Z-8.6000 S1000
G1 F1000 X187.0720 Y60.6209 Z-8.6000 S1000
G1 F1000 X187.4497 Y60.0415 Z-8.6000 S1000
G1 F1000 X187.6847 Y59.3910 Z-8.6000 S1000
G1 F1000 X187.7644 Y58.7039 Z-8.6000 S1000
G1 F1000 X187.7644 Y36.7039 Z-8.6000 S1000
G1 F1000 X187.7644 Y36.7039 Z-5.6000 S1000
G1 F1000 X187.7644 Y25.7039 Z-5.6000 S1000
G1 F1000 X187.7644 Y25.7039 Z-8.6000 S1000
G1 F1000 X187.7644 Y3.7039 Z-8.6000 S1000
G1 F1000 X187.7644 Y3.7039 Z-8.6000 S1000
G1 F1000 X187.7135 Y3.1539 Z-8.6000 S1000
G1 F1000 X187.5092 Y2.4931 Z-8.6000 S1000
G1 F1000 X187.1590 Y1.8967 Z-8.6000 S1000
G1 F1000 X186.6814 Y1.3963 Z-8.6000 S1000
G1 F1000 X186.1020 Y1.0186 Z-8.6000 S1000
G1 F1000 X185.4515 Y0.7836 Z-8.6000 S1000
G1 F1000 X184.7644 Y0.7039 Z-8.6000 S1000
; retracting back to z-safe
G0 Z10

M5 S0; Spindle Off
