EESchema Schematic File Version 2
LIBS:power
LIBS:device
LIBS:transistors
LIBS:conn
LIBS:linear
LIBS:regul
LIBS:74xx
LIBS:cmos4000
LIBS:adc-dac
LIBS:memory
LIBS:xilinx
LIBS:microcontrollers
LIBS:dsp
LIBS:microchip
LIBS:analog_switches
LIBS:motorola
LIBS:texas
LIBS:intel
LIBS:audio
LIBS:interface
LIBS:digital-audio
LIBS:philips
LIBS:display
LIBS:cypress
LIBS:siliconi
LIBS:opto
LIBS:atmel
LIBS:contrib
LIBS:valves
LIBS:resonance
LIBS:MalinetteUSBShield-cache
EELAYER 25 0
EELAYER END
$Descr A4 11693 8268
encoding utf-8
Sheet 1 1
Title ""
Date "lun. 30 mars 2015"
Rev ""
Comp ""
Comment1 ""
Comment2 ""
Comment3 ""
Comment4 ""
$EndDescr
Text Label 8900 2500 0    60   ~ 0
A0
Text Label 8900 2600 0    60   ~ 0
A1
Text Label 8900 2700 0    60   ~ 0
A2
Text Label 8900 2800 0    60   ~ 0
A3
Text Label 8900 2900 0    60   ~ 0
A4
Text Label 8900 3000 0    60   ~ 0
A5
Text Label 10550 2800 0    60   ~ 0
2
Text Label 10550 2700 0    60   ~ 0
3
Text Label 10550 2600 0    60   ~ 0
4
Text Label 10550 2500 0    60   ~ 0
5
Text Label 10550 2400 0    60   ~ 0
6
Text Label 10550 2300 0    60   ~ 0
7
Text Label 10550 2100 0    60   ~ 0
8
Text Label 10550 2000 0    60   ~ 0
9
Text Label 10550 1900 0    60   ~ 0
10
Text Label 10550 1800 0    60   ~ 0
11
Text Label 10550 1700 0    60   ~ 0
12
Text Label 10550 1600 0    60   ~ 0
13
NoConn ~ 9400 1600
Text Notes 10850 1000 0    60   ~ 0
Holes
Text Notes 8550 750  0    60   ~ 0
Shield for Arduino that uses\nthe same pin disposition\nlike "Uno" board Rev 3.
$Comp
L CONN_01X08 P1
U 1 1 56D70129
P 9600 1950
F 0 "P1" H 9600 2400 50  0000 C CNN
F 1 "Power" V 9700 1950 50  0000 C CNN
F 2 "Resonance_PCB:Socket_Strip_Arduino_1x10" H 9600 1950 50  0001 C CNN
F 3 "" H 9600 1950 50  0000 C CNN
	1    9600 1950
	1    0    0    -1  
$EndComp
$Comp
L GND #PWR01
U 1 1 56D70CC2
P 9300 3150
F 0 "#PWR01" H 9300 2900 50  0001 C CNN
F 1 "GND" H 9300 3000 50  0000 C CNN
F 2 "" H 9300 3150 50  0000 C CNN
F 3 "" H 9300 3150 50  0000 C CNN
	1    9300 3150
	1    0    0    -1  
$EndComp
$Comp
L GND #PWR02
U 1 1 56D70CFF
P 10300 3150
F 0 "#PWR02" H 10300 2900 50  0001 C CNN
F 1 "GND" H 10300 3000 50  0000 C CNN
F 2 "" H 10300 3150 50  0000 C CNN
F 3 "" H 10300 3150 50  0000 C CNN
	1    10300 3150
	1    0    0    -1  
$EndComp
$Comp
L CONN_01X06 P2
U 1 1 56D70DD8
P 9600 2750
F 0 "P2" H 9600 3100 50  0000 C CNN
F 1 "Analog" V 9700 2750 50  0000 C CNN
F 2 "Resonance_PCB:Socket_Strip_Arduino_1x06" H 9600 2750 50  0001 C CNN
F 3 "" H 9600 2750 50  0000 C CNN
	1    9600 2750
	1    0    0    -1  
$EndComp
$Comp
L CONN_01X01 P5
U 1 1 56D71177
P 10800 650
F 0 "P5" V 10900 650 50  0000 C CNN
F 1 "CONN_01X01" V 10900 650 50  0001 C CNN
F 2 "Socket_Arduino_Uno:Arduino_1pin" H 10800 650 50  0001 C CNN
F 3 "" H 10800 650 50  0000 C CNN
	1    10800 650 
	0    -1   -1   0   
$EndComp
$Comp
L CONN_01X01 P6
U 1 1 56D71274
P 10900 650
F 0 "P6" V 11000 650 50  0000 C CNN
F 1 "CONN_01X01" V 11000 650 50  0001 C CNN
F 2 "Socket_Arduino_Uno:Arduino_1pin" H 10900 650 50  0001 C CNN
F 3 "" H 10900 650 50  0000 C CNN
	1    10900 650 
	0    -1   -1   0   
$EndComp
$Comp
L CONN_01X01 P7
U 1 1 56D712A8
P 11000 650
F 0 "P7" V 11100 650 50  0000 C CNN
F 1 "CONN_01X01" V 11100 650 50  0001 C CNN
F 2 "Socket_Arduino_Uno:Arduino_1pin" H 11000 650 50  0001 C CNN
F 3 "" H 11000 650 50  0000 C CNN
	1    11000 650 
	0    -1   -1   0   
$EndComp
$Comp
L CONN_01X01 P8
U 1 1 56D712DB
P 11100 650
F 0 "P8" V 11200 650 50  0000 C CNN
F 1 "CONN_01X01" V 11200 650 50  0001 C CNN
F 2 "Socket_Arduino_Uno:Arduino_1pin" H 11100 650 50  0001 C CNN
F 3 "" H 11100 650 50  0000 C CNN
	1    11100 650 
	0    -1   -1   0   
$EndComp
NoConn ~ 10800 850 
NoConn ~ 10900 850 
NoConn ~ 11000 850 
NoConn ~ 11100 850 
$Comp
L CONN_01X08 P4
U 1 1 56D7164F
P 10000 2650
F 0 "P4" H 10000 3100 50  0000 C CNN
F 1 "Digital" V 10100 2650 50  0000 C CNN
F 2 "Resonance_PCB:Socket_Strip_Arduino_1x08" H 10000 2650 50  0001 C CNN
F 3 "" H 10000 2650 50  0000 C CNN
	1    10000 2650
	-1   0    0    -1  
$EndComp
Wire Notes Line
	8525 825  9925 825 
Wire Notes Line
	9925 825  9925 475 
Wire Wire Line
	9400 2100 9300 2100
Wire Wire Line
	9400 2200 9300 2200
Connection ~ 9300 2200
Wire Wire Line
	9400 2500 8900 2500
Wire Wire Line
	9400 2600 8900 2600
Wire Wire Line
	9400 2700 8900 2700
Wire Wire Line
	9400 2800 8900 2800
Wire Wire Line
	9400 2900 8900 2900
$Comp
L CONN_01X10 P3
U 1 1 56D721E0
P 10000 1650
F 0 "P3" H 10000 2200 50  0000 C CNN
F 1 "Digital" V 10100 1650 50  0000 C CNN
F 2 "Resonance_PCB:Socket_Strip_Arduino_1x10" H 10000 1650 50  0001 C CNN
F 3 "" H 10000 1650 50  0000 C CNN
	1    10000 1650
	-1   0    0    -1  
$EndComp
Wire Wire Line
	10200 2100 10550 2100
Wire Wire Line
	10200 2000 10550 2000
Wire Wire Line
	10200 1900 10550 1900
Wire Wire Line
	10200 1800 10550 1800
Wire Wire Line
	10200 1700 10550 1700
Wire Wire Line
	10200 2800 10550 2800
Wire Wire Line
	10200 2700 10550 2700
Wire Wire Line
	10200 2600 10550 2600
Wire Wire Line
	10200 2500 10550 2500
Wire Wire Line
	10200 2400 10550 2400
Wire Wire Line
	10200 2300 10550 2300
Wire Wire Line
	10200 1500 10300 1500
Wire Wire Line
	10300 1500 10300 3150
Wire Wire Line
	9300 2100 9300 3150
Wire Notes Line
	8500 500  8500 3450
Wire Notes Line
	8500 3450 11200 3450
Text Notes 9700 1600 0    60   ~ 0
1
Wire Notes Line
	11200 1000 10700 1000
Wire Notes Line
	10700 1000 10700 500 
NoConn ~ 10200 1200
NoConn ~ 10200 1300
NoConn ~ 10200 1400
$Comp
L PWR_FLAG #FLG03
U 1 1 574C3770
P 9300 2200
F 0 "#FLG03" H 9300 2295 50  0001 C CNN
F 1 "PWR_FLAG" H 9300 2380 50  0000 C CNN
F 2 "" H 9300 2200 50  0000 C CNN
F 3 "" H 9300 2200 50  0000 C CNN
	1    9300 2200
	0    -1   -1   0   
$EndComp
$Comp
L PWR_FLAG #FLG04
U 1 1 574C37FE
P 9050 1450
F 0 "#FLG04" H 9050 1545 50  0001 C CNN
F 1 "PWR_FLAG" H 9050 1630 50  0000 C CNN
F 2 "" H 9050 1450 50  0000 C CNN
F 3 "" H 9050 1450 50  0000 C CNN
	1    9050 1450
	0    -1   -1   0   
$EndComp
Text Notes 5750 700  0    60   ~ 0
4 analog sensors
$Comp
L GND #PWR05
U 1 1 574C3755
P 5450 1400
F 0 "#PWR05" H 5450 1150 50  0001 C CNN
F 1 "GND" H 5450 1250 50  0000 C CNN
F 2 "" H 5450 1400 50  0000 C CNN
F 3 "" H 5450 1400 50  0000 C CNN
	1    5450 1400
	1    0    0    -1  
$EndComp
NoConn ~ 5450 1200
$Comp
L +5V #PWR06
U 1 1 574C3BFD
P 5450 1100
F 0 "#PWR06" H 5450 950 50  0001 C CNN
F 1 "+5V" H 5450 1240 50  0000 C CNN
F 2 "" H 5450 1100 50  0000 C CNN
F 3 "" H 5450 1100 50  0000 C CNN
	1    5450 1100
	1    0    0    -1  
$EndComp
Text Label 5450 1300 0    60   ~ 0
A0
$Comp
L USB_A P11
U 1 1 574C3864
P 5150 1300
F 0 "P11" V 4750 1400 50  0000 C CNN
F 1 "USB_A" V 4850 1350 50  0000 C CNN
F 2 "Resonance_PCB:_USB_A" V 5100 1200 50  0001 C CNN
F 3 "" V 5100 1200 50  0000 C CNN
	1    5150 1300
	0    -1   1    0   
$EndComp
$Comp
L GND #PWR07
U 1 1 574C4578
P 6150 1400
F 0 "#PWR07" H 6150 1150 50  0001 C CNN
F 1 "GND" H 6150 1250 50  0000 C CNN
F 2 "" H 6150 1400 50  0000 C CNN
F 3 "" H 6150 1400 50  0000 C CNN
	1    6150 1400
	1    0    0    -1  
$EndComp
NoConn ~ 6150 1200
$Comp
L +5V #PWR08
U 1 1 574C457F
P 6150 1100
F 0 "#PWR08" H 6150 950 50  0001 C CNN
F 1 "+5V" H 6150 1240 50  0000 C CNN
F 2 "" H 6150 1100 50  0000 C CNN
F 3 "" H 6150 1100 50  0000 C CNN
	1    6150 1100
	1    0    0    -1  
$EndComp
Text Label 6150 1300 0    60   ~ 0
A1
$Comp
L USB_A P15
U 1 1 574C4586
P 5850 1300
F 0 "P15" V 5450 1400 50  0000 C CNN
F 1 "USB_A" V 5550 1350 50  0000 C CNN
F 2 "Resonance_PCB:_USB_A" V 5800 1200 50  0001 C CNN
F 3 "" V 5800 1200 50  0000 C CNN
	1    5850 1300
	0    -1   1    0   
$EndComp
$Comp
L GND #PWR09
U 1 1 574C46BD
P 6850 1400
F 0 "#PWR09" H 6850 1150 50  0001 C CNN
F 1 "GND" H 6850 1250 50  0000 C CNN
F 2 "" H 6850 1400 50  0000 C CNN
F 3 "" H 6850 1400 50  0000 C CNN
	1    6850 1400
	1    0    0    -1  
$EndComp
NoConn ~ 6850 1200
$Comp
L +5V #PWR010
U 1 1 574C46C4
P 6850 1100
F 0 "#PWR010" H 6850 950 50  0001 C CNN
F 1 "+5V" H 6850 1240 50  0000 C CNN
F 2 "" H 6850 1100 50  0000 C CNN
F 3 "" H 6850 1100 50  0000 C CNN
	1    6850 1100
	1    0    0    -1  
$EndComp
Text Label 6850 1300 0    60   ~ 0
A2
$Comp
L USB_A P19
U 1 1 574C46CB
P 6550 1300
F 0 "P19" V 6150 1400 50  0000 C CNN
F 1 "USB_A" V 6250 1350 50  0000 C CNN
F 2 "Resonance_PCB:_USB_A" V 6500 1200 50  0001 C CNN
F 3 "" V 6500 1200 50  0000 C CNN
	1    6550 1300
	0    -1   1    0   
$EndComp
$Comp
L GND #PWR011
U 1 1 574C46D4
P 7550 1400
F 0 "#PWR011" H 7550 1150 50  0001 C CNN
F 1 "GND" H 7550 1250 50  0000 C CNN
F 2 "" H 7550 1400 50  0000 C CNN
F 3 "" H 7550 1400 50  0000 C CNN
	1    7550 1400
	1    0    0    -1  
$EndComp
NoConn ~ 7550 1200
$Comp
L +5V #PWR012
U 1 1 574C46DB
P 7550 1100
F 0 "#PWR012" H 7550 950 50  0001 C CNN
F 1 "+5V" H 7550 1240 50  0000 C CNN
F 2 "" H 7550 1100 50  0000 C CNN
F 3 "" H 7550 1100 50  0000 C CNN
	1    7550 1100
	1    0    0    -1  
$EndComp
Text Label 7550 1300 0    60   ~ 0
A3
$Comp
L USB_A P22
U 1 1 574C46E2
P 7250 1300
F 0 "P22" V 6850 1400 50  0000 C CNN
F 1 "USB_A" V 6950 1350 50  0000 C CNN
F 2 "Resonance_PCB:_USB_A" V 7200 1200 50  0001 C CNN
F 3 "" V 7200 1200 50  0000 C CNN
	1    7250 1300
	0    -1   1    0   
$EndComp
Text Notes 5750 2150 0    60   ~ 0
Hybrid connections\nAnalog sensors or digital outputs\n
$Comp
L _USB_A P20
U 1 1 574C4AB0
P 7150 2750
F 0 "P20" V 6750 2850 50  0000 C CNN
F 1 "_USB_A" V 6850 2750 50  0000 C CNN
F 2 "Resonance_PCB:_USB_A" V 7100 2650 50  0001 C CNN
F 3 "" V 7100 2650 50  0000 C CNN
	1    7150 2750
	0    -1   1    0   
$EndComp
$Comp
L GND #PWR013
U 1 1 574C50F9
P 7450 2850
F 0 "#PWR013" H 7450 2600 50  0001 C CNN
F 1 "GND" H 7450 2700 50  0000 C CNN
F 2 "" H 7450 2850 50  0000 C CNN
F 3 "" H 7450 2850 50  0000 C CNN
	1    7450 2850
	1    0    0    -1  
$EndComp
NoConn ~ 5050 1600
NoConn ~ 5750 1600
NoConn ~ 6450 1600
NoConn ~ 7150 1600
NoConn ~ 7050 3050
Text Label 7450 2550 0    60   ~ 0
C1-1
Text Label 7450 2650 0    60   ~ 0
C1-2
Text Label 7450 2750 0    60   ~ 0
C1-3
$Comp
L _USB_A P21
U 1 1 574C5C52
P 7150 3700
F 0 "P21" V 6750 3800 50  0000 C CNN
F 1 "_USB_A" V 6850 3700 50  0000 C CNN
F 2 "Resonance_PCB:_USB_A" V 7100 3600 50  0001 C CNN
F 3 "" V 7100 3600 50  0000 C CNN
	1    7150 3700
	0    -1   1    0   
$EndComp
$Comp
L GND #PWR014
U 1 1 574C5C58
P 7450 3800
F 0 "#PWR014" H 7450 3550 50  0001 C CNN
F 1 "GND" H 7450 3650 50  0000 C CNN
F 2 "" H 7450 3800 50  0000 C CNN
F 3 "" H 7450 3800 50  0000 C CNN
	1    7450 3800
	1    0    0    -1  
$EndComp
NoConn ~ 7050 4000
Text Label 7450 3500 0    60   ~ 0
C2-1
Text Label 7450 3600 0    60   ~ 0
C2-2
Text Label 7450 3700 0    60   ~ 0
C2-3
$Comp
L CONN_01X03 P9
U 1 1 574C5E83
P 5050 2650
F 0 "P9" H 5100 2300 50  0000 C CNN
F 1 "CONN_01X03" H 4900 2400 50  0000 C CNN
F 2 "Resonance_PCB:_Pin_Header_Straight_1x03" H 5050 2650 50  0001 C CNN
F 3 "" H 5050 2650 50  0000 C CNN
	1    5050 2650
	-1   0    0    -1  
$EndComp
$Comp
L +5V #PWR015
U 1 1 574C62C2
P 5250 2550
F 0 "#PWR015" H 5250 2400 50  0001 C CNN
F 1 "+5V" H 5250 2690 50  0000 C CNN
F 2 "" H 5250 2550 50  0000 C CNN
F 3 "" H 5250 2550 50  0000 C CNN
	1    5250 2550
	1    0    0    -1  
$EndComp
Text Label 5250 2650 0    60   ~ 0
C1-1
Text Label 5250 2750 0    60   ~ 0
8
$Comp
L CONN_01X03 P12
U 1 1 574C66BE
P 5750 2650
F 0 "P12" H 5800 2300 50  0000 C CNN
F 1 "CONN_01X03" H 5600 2400 50  0000 C CNN
F 2 "Resonance_PCB:_Pin_Header_Straight_1x03" H 5750 2650 50  0001 C CNN
F 3 "" H 5750 2650 50  0000 C CNN
	1    5750 2650
	-1   0    0    -1  
$EndComp
Text Label 5950 2650 0    60   ~ 0
C1-2
Text Label 5950 2750 0    60   ~ 0
12
$Comp
L CONN_01X03 P16
U 1 1 574C6724
P 6400 2650
F 0 "P16" H 6450 2300 50  0000 C CNN
F 1 "CONN_01X03" H 6250 2400 50  0000 C CNN
F 2 "Resonance_PCB:_Pin_Header_Straight_1x03" H 6400 2650 50  0001 C CNN
F 3 "" H 6400 2650 50  0000 C CNN
	1    6400 2650
	-1   0    0    -1  
$EndComp
Text Label 6600 2650 0    60   ~ 0
C1-3
Text Label 6600 2750 0    60   ~ 0
13
Text Label 5950 2550 0    60   ~ 0
A4
$Comp
L GND #PWR016
U 1 1 574C69DF
P 6600 2550
F 0 "#PWR016" H 6600 2300 50  0001 C CNN
F 1 "GND" H 6600 2400 50  0000 C CNN
F 2 "" H 6600 2550 50  0000 C CNN
F 3 "" H 6600 2550 50  0000 C CNN
	1    6600 2550
	-1   0    0    1   
$EndComp
$Comp
L CONN_01X03 P10
U 1 1 574C6E4C
P 5050 3600
F 0 "P10" H 5100 3250 50  0000 C CNN
F 1 "CONN_01X03" H 4900 3350 50  0000 C CNN
F 2 "Resonance_PCB:_Pin_Header_Straight_1x03" H 5050 3600 50  0001 C CNN
F 3 "" H 5050 3600 50  0000 C CNN
	1    5050 3600
	-1   0    0    -1  
$EndComp
$Comp
L +5V #PWR017
U 1 1 574C6E52
P 5250 3500
F 0 "#PWR017" H 5250 3350 50  0001 C CNN
F 1 "+5V" H 5250 3640 50  0000 C CNN
F 2 "" H 5250 3500 50  0000 C CNN
F 3 "" H 5250 3500 50  0000 C CNN
	1    5250 3500
	1    0    0    -1  
$EndComp
Text Label 5250 3600 0    60   ~ 0
C2-1
Text Label 5250 3700 0    60   ~ 0
2
$Comp
L CONN_01X03 P13
U 1 1 574C6E5A
P 5750 3600
F 0 "P13" H 5800 3250 50  0000 C CNN
F 1 "CONN_01X03" H 5600 3350 50  0000 C CNN
F 2 "Resonance_PCB:_Pin_Header_Straight_1x03" H 5750 3600 50  0001 C CNN
F 3 "" H 5750 3600 50  0000 C CNN
	1    5750 3600
	-1   0    0    -1  
$EndComp
Text Label 5950 3600 0    60   ~ 0
C2-2
Text Label 5950 3700 0    60   ~ 0
4
$Comp
L CONN_01X03 P17
U 1 1 574C6E62
P 6400 3600
F 0 "P17" H 6450 3250 50  0000 C CNN
F 1 "CONN_01X03" H 6250 3350 50  0000 C CNN
F 2 "Resonance_PCB:_Pin_Header_Straight_1x03" H 6400 3600 50  0001 C CNN
F 3 "" H 6400 3600 50  0000 C CNN
	1    6400 3600
	-1   0    0    -1  
$EndComp
Text Label 6600 3600 0    60   ~ 0
C2-3
Text Label 6600 3700 0    60   ~ 0
7
Text Label 6100 3500 0    60   ~ 0
A5
$Comp
L GND #PWR018
U 1 1 574C6E6B
P 6600 3500
F 0 "#PWR018" H 6600 3250 50  0001 C CNN
F 1 "GND" H 6600 3350 50  0000 C CNN
F 2 "" H 6600 3500 50  0000 C CNN
F 3 "" H 6600 3500 50  0000 C CNN
	1    6600 3500
	-1   0    0    1   
$EndComp
Text Notes 5800 4600 0    60   ~ 0
6 PWM outputs\n
$Comp
L _USB_A P14
U 1 1 574C8218
P 5750 5100
F 0 "P14" V 5350 5200 50  0000 C CNN
F 1 "_USB_A" V 5450 5100 50  0000 C CNN
F 2 "Resonance_PCB:_USB_A" V 5700 5000 50  0001 C CNN
F 3 "" V 5700 5000 50  0000 C CNN
	1    5750 5100
	0    -1   1    0   
$EndComp
NoConn ~ 5650 5400
Wire Notes Line
	5050 1850 7900 1850
Wire Notes Line
	7900 1850 7900 4200
Wire Notes Line
	7900 4200 4800 4200
Wire Notes Line
	4800 4200 4800 1850
Wire Notes Line
	4800 1850 5000 1850
Wire Notes Line
	5000 1850 5000 1900
$Comp
L GND #PWR019
U 1 1 574C8BB2
P 6050 5200
F 0 "#PWR019" H 6050 4950 50  0001 C CNN
F 1 "GND" H 6050 5050 50  0000 C CNN
F 2 "" H 6050 5200 50  0000 C CNN
F 3 "" H 6050 5200 50  0000 C CNN
	1    6050 5200
	1    0    0    -1  
$EndComp
Text Label 6050 4900 0    60   ~ 0
3
Text Label 6050 5000 0    60   ~ 0
5
Text Label 6050 5100 0    60   ~ 0
6
$Comp
L _USB_A P18
U 1 1 574C8EC3
P 6450 5100
F 0 "P18" V 6050 5200 50  0000 C CNN
F 1 "_USB_A" V 6150 5100 50  0000 C CNN
F 2 "Resonance_PCB:_USB_A" V 6400 5000 50  0001 C CNN
F 3 "" V 6400 5000 50  0000 C CNN
	1    6450 5100
	0    -1   1    0   
$EndComp
NoConn ~ 6350 5400
$Comp
L GND #PWR020
U 1 1 574C8ECA
P 6750 5200
F 0 "#PWR020" H 6750 4950 50  0001 C CNN
F 1 "GND" H 6750 5050 50  0000 C CNN
F 2 "" H 6750 5200 50  0000 C CNN
F 3 "" H 6750 5200 50  0000 C CNN
	1    6750 5200
	1    0    0    -1  
$EndComp
Text Label 6750 4900 0    60   ~ 0
9
Text Label 6750 5000 0    60   ~ 0
10
Text Label 6750 5100 0    60   ~ 0
11
Wire Wire Line
	9400 2000 9050 2000
Wire Wire Line
	9050 2000 9050 1450
$Comp
L +5V #PWR021
U 1 1 56D707BB
P 9050 1450
F 0 "#PWR021" H 9050 1300 50  0001 C CNN
F 1 "+5V" H 9050 1590 30  0000 C CNN
F 2 "" H 9050 1450 50  0000 C CNN
F 3 "" H 9050 1450 50  0000 C CNN
	1    9050 1450
	1    0    0    -1  
$EndComp
NoConn ~ 9400 1700
NoConn ~ 9400 1800
NoConn ~ 9400 1900
NoConn ~ 9400 2300
NoConn ~ 10200 3000
NoConn ~ 10200 2900
Wire Wire Line
	10200 1600 10550 1600
Wire Wire Line
	5950 3500 6100 3500
Wire Wire Line
	9400 3000 8900 3000
$EndSCHEMATC
