; GCODE Generated by cam.openbuilds.com on 2021-04-16 
G21 ; mm-mode
G54; Work Coordinates
G21; mm-mode
G90; Absolute Positioning
M3 S1000; Spindle On

; Operation 0: Drill: Continuous (Centered)
; Endmill Diameter: 3.17

G0 Z10; move to z-safe height
G0 F1000 X320.2503 Y63.5000

G0 Z0
G1 F80 Z0.0000
G1 F750 X320.2503 Y63.5000 Z-9.0000 S1000
G1 F750 X320.2503 Y63.5000 Z0.0000 S1000

G0 Z10; move to z-safe height
G0 X439.4169 Y63.5000

G0 Z0
G1 F80 Z0.0000
G1 F750 X439.4169 Y63.5000 Z-9.0000 S1000
G1 F750 X439.4169 Y63.5000 Z0.0000 S1000

G0 Z10; move to z-safe height
G0 X149.0836 Y63.5000

G0 Z0
G1 F80 Z0.0000
G1 F750 X149.0836 Y63.5000 Z-9.0000 S1000
G1 F750 X149.0836 Y63.5000 Z0.0000 S1000

G0 Z10; move to z-safe height
G0 X439.4169 Y11.5000

G0 Z0
G1 F80 Z0.0000
G1 F750 X439.4169 Y11.5000 Z-9.0000 S1000
G1 F750 X439.4169 Y11.5000 Z0.0000 S1000

G0 Z10; move to z-safe height
G0 X97.0837 Y63.5000

G0 Z0
G1 F80 Z0.0000
G1 F750 X97.0837 Y63.5000 Z-9.0000 S1000
G1 F750 X97.0837 Y63.5000 Z0.0000 S1000

G0 Z10; move to z-safe height
G0 X405.8335 Y11.5000

G0 Z0
G1 F80 Z0.0000
G1 F750 X405.8335 Y11.5000 Z-9.0000 S1000
G1 F750 X405.8335 Y11.5000 Z0.0000 S1000

G0 Z10; move to z-safe height
G0 X234.6669 Y11.5000

G0 Z0
G1 F80 Z0.0000
G1 F750 X234.6669 Y11.5000 Z-9.0000 S1000
G1 F750 X234.6669 Y11.5000 Z0.0000 S1000

G0 Z10; move to z-safe height
G0 X353.8336 Y11.5000

G0 Z0
G1 F80 Z0.0000
G1 F750 X353.8336 Y11.5000 Z-9.0000 S1000
G1 F750 X353.8336 Y11.5000 Z0.0000 S1000

G0 Z10; move to z-safe height
G0 X11.5003 Y11.5000

G0 Z0
G1 F80 Z0.0000
G1 F750 X11.5003 Y11.5000 Z-9.0000 S1000
G1 F750 X11.5003 Y11.5000 Z0.0000 S1000

G0 Z10; move to z-safe height
G0 X11.5003 Y63.5000

G0 Z0
G1 F80 Z0.0000
G1 F750 X11.5003 Y63.5000 Z-9.0000 S1000
G1 F750 X11.5003 Y63.5000 Z0.0000 S1000

G0 Z10; move to z-safe height
G0 X149.0836 Y11.5000

G0 Z0
G1 F80 Z0.0000
G1 F750 X149.0836 Y11.5000 Z-9.0000 S1000
G1 F750 X149.0836 Y11.5000 Z0.0000 S1000

G0 Z10; move to z-safe height
G0 X491.4168 Y11.5000

G0 Z0
G1 F80 Z0.0000
G1 F750 X491.4168 Y11.5000 Z-9.0000 S1000
G1 F750 X491.4168 Y11.5000 Z0.0000 S1000

G0 Z10; move to z-safe height
G0 X63.5003 Y11.5000

G0 Z0
G1 F80 Z0.0000
G1 F750 X63.5003 Y11.5000 Z-9.0000 S1000
G1 F750 X63.5003 Y11.5000 Z0.0000 S1000

G0 Z10; move to z-safe height
G0 X63.5003 Y63.5000

G0 Z0
G1 F80 Z0.0000
G1 F750 X63.5003 Y63.5000 Z-9.0000 S1000
G1 F750 X63.5003 Y63.5000 Z0.0000 S1000

G0 Z10; move to z-safe height
G0 X97.0837 Y11.5000

G0 Z0
G1 F80 Z0.0000
G1 F750 X97.0837 Y11.5000 Z-9.0000 S1000
G1 F750 X97.0837 Y11.5000 Z0.0000 S1000

G0 Z10; move to z-safe height
G0 X268.2503 Y11.5000

G0 Z0
G1 F80 Z0.0000
G1 F750 X268.2503 Y11.5000 Z-9.0000 S1000
G1 F750 X268.2503 Y11.5000 Z0.0000 S1000

G0 Z10; move to z-safe height
G0 X320.2503 Y11.5000

G0 Z0
G1 F80 Z0.0000
G1 F750 X320.2503 Y11.5000 Z-9.0000 S1000
G1 F750 X320.2503 Y11.5000 Z0.0000 S1000

G0 Z10; move to z-safe height
G0 X182.6670 Y63.5000

G0 Z0
G1 F80 Z0.0000
G1 F750 X182.6670 Y63.5000 Z-9.0000 S1000
G1 F750 X182.6670 Y63.5000 Z0.0000 S1000

G0 Z10; move to z-safe height
G0 X182.6670 Y11.5000

G0 Z0
G1 F80 Z0.0000
G1 F750 X182.6670 Y11.5000 Z-9.0000 S1000
G1 F750 X182.6670 Y11.5000 Z0.0000 S1000

G0 Z10; move to z-safe height
G0 X268.2503 Y63.5000

G0 Z0
G1 F80 Z0.0000
G1 F750 X268.2503 Y63.5000 Z-9.0000 S1000
G1 F750 X268.2503 Y63.5000 Z0.0000 S1000

G0 Z10; move to z-safe height
G0 X353.8336 Y63.5000

G0 Z0
G1 F80 Z0.0000
G1 F750 X353.8336 Y63.5000 Z-9.0000 S1000
G1 F750 X353.8336 Y63.5000 Z0.0000 S1000

G0 Z10; move to z-safe height
G0 X234.6669 Y63.5000

G0 Z0
G1 F80 Z0.0000
G1 F750 X234.6669 Y63.5000 Z-9.0000 S1000
G1 F750 X234.6669 Y63.5000 Z0.0000 S1000

G0 Z10; move to z-safe height
G0 X405.8335 Y63.5000

G0 Z0
G1 F80 Z0.0000
G1 F750 X405.8335 Y63.5000 Z-9.0000 S1000
G1 F750 X405.8335 Y63.5000 Z0.0000 S1000

G0 Z10; move to z-safe height
G0 X491.4168 Y63.5000

G0 Z0
G1 F80 Z0.0000
G1 F750 X491.4168 Y63.5000 Z-9.0000 S1000
G1 F750 X491.4168 Y63.5000 Z0.0000 S1000
; retracting back to z-safe
G0 Z10

M5 S0; Spindle Off
