; GCODE Generated by cam.openbuilds.com on 2021-04-15 
G21 ; mm-mode
G54; Work Coordinates
G21; mm-mode
G90; Absolute Positioning
M3 S1000; Spindle On

; Operation 4: Drill: Continuous (Centered)
; Endmill Diameter: 6

G0 Z10; move to z-safe height
G0 F1000 X352.4331 Y16.0003

G0 Z0
G1 F150 Z0.0000
G1 F750 X352.4331 Y16.0003 Z-1.0000 S1000
G1 F750 X352.4331 Y16.0003 Z0.0000 S1000

G0 Z10; move to z-safe height
G0 X367.2331 Y16.0003

G0 Z0
G1 F150 Z0.0000
G1 F750 X367.2331 Y16.0003 Z-1.0000 S1000
G1 F750 X367.2331 Y16.0003 Z0.0000 S1000
; retracting back to z-safe
G0 Z10
; Operation 5: Drill: Continuous (Centered)
; Endmill Diameter: 6

G0 Z10; move to z-safe height
G0 F1000 X463.4158 Y7.5002

G0 Z0
G1 F100 Z0.0000
G1 F750 X463.4158 Y7.5002 Z-3.5000 S1000
G1 F750 X463.4158 Y7.5002 Z0.0000 S1000

G0 Z10; move to z-safe height
G0 X411.4158 Y59.5002

G0 Z0
G1 F100 Z0.0000
G1 F750 X411.4158 Y59.5002 Z-3.5000 S1000
G1 F750 X411.4158 Y59.5002 Z0.0000 S1000

G0 Z10; move to z-safe height
G0 X411.4158 Y7.5002

G0 Z0
G1 F100 Z0.0000
G1 F750 X411.4158 Y7.5002 Z-3.5000 S1000
G1 F750 X411.4158 Y7.5002 Z0.0000 S1000

G0 Z10; move to z-safe height
G0 X463.4158 Y59.5002

G0 Z0
G1 F100 Z0.0000
G1 F750 X463.4158 Y59.5002 Z-3.5000 S1000
G1 F750 X463.4158 Y59.5002 Z0.0000 S1000
; retracting back to z-safe
G0 Z10
; Operation 6: CNC: Vector (path inside)
; Endmill Diameter: 6

G0 Z10; move to z-safe height
G0 F1000 X454.3180 Y10.2092

G0 Z0
G1 F100 Z-2.2500
G1 F750 X454.4634 Y10.6569 Z-2.2500 S1000
G1 F750 X454.8537 Y11.5992 Z-2.2500 S1000
G1 F750 X455.0675 Y12.0187 Z-2.2500 S1000
G1 F750 X455.6004 Y12.8883 Z-2.2500 S1000
G1 F750 X455.8772 Y13.2693 Z-2.2500 S1000
G1 F750 X456.5397 Y14.0449 Z-2.2500 S1000
G1 F750 X456.8724 Y14.3775 Z-2.2500 S1000
G1 F750 X457.6479 Y15.0399 Z-2.2500 S1000
G1 F750 X458.0289 Y15.3168 Z-2.2500 S1000
G1 F750 X458.8986 Y15.8497 Z-2.2500 S1000
G1 F750 X459.3180 Y16.0634 Z-2.2500 S1000
G1 F750 X460.2603 Y16.4537 Z-2.2500 S1000
G1 F750 X460.7079 Y16.5991 Z-2.2500 S1000
G1 F750 X460.9170 Y16.6493 Z-2.2500 S1000
G1 F750 X460.9170 Y50.3512 Z-2.2500 S1000
G1 F750 X460.7079 Y50.4014 Z-2.2500 S1000
G1 F750 X460.2600 Y50.5470 Z-2.2500 S1000
G1 F750 X459.3177 Y50.9374 Z-2.2500 S1000
G1 F750 X458.8986 Y51.1509 Z-2.2500 S1000
G1 F750 X458.0289 Y51.6838 Z-2.2500 S1000
G1 F750 X457.6480 Y51.9605 Z-2.2500 S1000
G1 F750 X456.8724 Y52.6229 Z-2.2500 S1000
G1 F750 X456.5396 Y52.9558 Z-2.2500 S1000
G1 F750 X455.8772 Y53.7313 Z-2.2500 S1000
G1 F750 X455.6003 Y54.1123 Z-2.2500 S1000
G1 F750 X455.0674 Y54.9820 Z-2.2500 S1000
G1 F750 X454.8537 Y55.4014 Z-2.2500 S1000
G1 F750 X454.4634 Y56.3437 Z-2.2500 S1000
G1 F750 X454.3180 Y56.7914 Z-2.2500 S1000
G1 F750 X454.2679 Y57.0000 Z-2.2500 S1000
G1 F750 X420.5656 Y57.0000 Z-2.2500 S1000
G1 F750 X420.5155 Y56.7914 Z-2.2500 S1000
G1 F750 X420.3701 Y56.3437 Z-2.2500 S1000
G1 F750 X419.9798 Y55.4014 Z-2.2500 S1000
G1 F750 X419.7659 Y54.9817 Z-2.2500 S1000
G1 F750 X419.2329 Y54.1121 Z-2.2500 S1000
G1 F750 X418.9564 Y53.7315 Z-2.2500 S1000
G1 F750 X418.2940 Y52.9559 Z-2.2500 S1000
G1 F750 X417.9611 Y52.6231 Z-2.2500 S1000
G1 F750 X417.1856 Y51.9607 Z-2.2500 S1000
G1 F750 X416.8046 Y51.6838 Z-2.2500 S1000
G1 F750 X415.9349 Y51.1509 Z-2.2500 S1000
G1 F750 X415.5156 Y50.9373 Z-2.2500 S1000
G1 F750 X414.5734 Y50.5470 Z-2.2500 S1000
G1 F750 X414.1259 Y50.4016 Z-2.2500 S1000
G1 F750 X413.9164 Y50.3513 Z-2.2500 S1000
G1 F750 X413.9164 Y16.6493 Z-2.2500 S1000
G1 F750 X414.1256 Y16.5991 Z-2.2500 S1000
G1 F750 X414.5732 Y16.4537 Z-2.2500 S1000
G1 F750 X415.5155 Y16.0634 Z-2.2500 S1000
G1 F750 X415.9349 Y15.8497 Z-2.2500 S1000
G1 F750 X416.8046 Y15.3168 Z-2.2500 S1000
G1 F750 X417.1856 Y15.0399 Z-2.2500 S1000
G1 F750 X417.9611 Y14.3775 Z-2.2500 S1000
G1 F750 X418.2940 Y14.0447 Z-2.2500 S1000
G1 F750 X418.9564 Y13.2691 Z-2.2500 S1000
G1 F750 X419.2330 Y12.8883 Z-2.2500 S1000
G1 F750 X419.7659 Y12.0187 Z-2.2500 S1000
G1 F750 X419.9795 Y11.5995 Z-2.2500 S1000
G1 F750 X420.3699 Y10.6572 Z-2.2500 S1000
G1 F750 X420.5155 Y10.2092 Z-2.2500 S1000
G1 F750 X420.5657 Y10.0001 Z-2.2500 S1000
G1 F750 X454.2678 Y10.0001 Z-2.2500 S1000
G1 F750 X454.3180 Y10.2092 Z-2.2500 S1000
G1 F100 Z-4.5000
G1 F750 X454.4634 Y10.6569 Z-4.5000 S1000
G1 F750 X454.8537 Y11.5992 Z-4.5000 S1000
G1 F750 X455.0675 Y12.0187 Z-4.5000 S1000
G1 F750 X455.6004 Y12.8883 Z-4.5000 S1000
G1 F750 X455.8772 Y13.2693 Z-4.5000 S1000
G1 F750 X456.5397 Y14.0449 Z-4.5000 S1000
G1 F750 X456.8724 Y14.3775 Z-4.5000 S1000
G1 F750 X457.6479 Y15.0399 Z-4.5000 S1000
G1 F750 X458.0289 Y15.3168 Z-4.5000 S1000
G1 F750 X458.8986 Y15.8497 Z-4.5000 S1000
G1 F750 X459.3180 Y16.0634 Z-4.5000 S1000
G1 F750 X460.2603 Y16.4537 Z-4.5000 S1000
G1 F750 X460.7079 Y16.5991 Z-4.5000 S1000
G1 F750 X460.9170 Y16.6493 Z-4.5000 S1000
G1 F750 X460.9170 Y50.3512 Z-4.5000 S1000
G1 F750 X460.7079 Y50.4014 Z-4.5000 S1000
G1 F750 X460.2600 Y50.5470 Z-4.5000 S1000
G1 F750 X459.3177 Y50.9374 Z-4.5000 S1000
G1 F750 X458.8986 Y51.1509 Z-4.5000 S1000
G1 F750 X458.0289 Y51.6838 Z-4.5000 S1000
G1 F750 X457.6480 Y51.9605 Z-4.5000 S1000
G1 F750 X456.8724 Y52.6229 Z-4.5000 S1000
G1 F750 X456.5396 Y52.9558 Z-4.5000 S1000
G1 F750 X455.8772 Y53.7313 Z-4.5000 S1000
G1 F750 X455.6003 Y54.1123 Z-4.5000 S1000
G1 F750 X455.0674 Y54.9820 Z-4.5000 S1000
G1 F750 X454.8537 Y55.4014 Z-4.5000 S1000
G1 F750 X454.4634 Y56.3437 Z-4.5000 S1000
G1 F750 X454.3180 Y56.7914 Z-4.5000 S1000
G1 F750 X454.2679 Y57.0000 Z-4.5000 S1000
G1 F750 X420.5656 Y57.0000 Z-4.5000 S1000
G1 F750 X420.5155 Y56.7914 Z-4.5000 S1000
G1 F750 X420.3701 Y56.3437 Z-4.5000 S1000
G1 F750 X419.9798 Y55.4014 Z-4.5000 S1000
G1 F750 X419.7659 Y54.9817 Z-4.5000 S1000
G1 F750 X419.2329 Y54.1121 Z-4.5000 S1000
G1 F750 X418.9564 Y53.7315 Z-4.5000 S1000
G1 F750 X418.2940 Y52.9559 Z-4.5000 S1000
G1 F750 X417.9611 Y52.6231 Z-4.5000 S1000
G1 F750 X417.1856 Y51.9607 Z-4.5000 S1000
G1 F750 X416.8046 Y51.6838 Z-4.5000 S1000
G1 F750 X415.9349 Y51.1509 Z-4.5000 S1000
G1 F750 X415.5156 Y50.9373 Z-4.5000 S1000
G1 F750 X414.5734 Y50.5470 Z-4.5000 S1000
G1 F750 X414.1259 Y50.4016 Z-4.5000 S1000
G1 F750 X413.9164 Y50.3513 Z-4.5000 S1000
G1 F750 X413.9164 Y16.6493 Z-4.5000 S1000
G1 F750 X414.1256 Y16.5991 Z-4.5000 S1000
G1 F750 X414.5732 Y16.4537 Z-4.5000 S1000
G1 F750 X415.5155 Y16.0634 Z-4.5000 S1000
G1 F750 X415.9349 Y15.8497 Z-4.5000 S1000
G1 F750 X416.8046 Y15.3168 Z-4.5000 S1000
G1 F750 X417.1856 Y15.0399 Z-4.5000 S1000
G1 F750 X417.9611 Y14.3775 Z-4.5000 S1000
G1 F750 X418.2940 Y14.0447 Z-4.5000 S1000
G1 F750 X418.9564 Y13.2691 Z-4.5000 S1000
G1 F750 X419.2330 Y12.8883 Z-4.5000 S1000
G1 F750 X419.7659 Y12.0187 Z-4.5000 S1000
G1 F750 X419.9795 Y11.5995 Z-4.5000 S1000
G1 F750 X420.3699 Y10.6572 Z-4.5000 S1000
G1 F750 X420.5155 Y10.2092 Z-4.5000 S1000
G1 F750 X420.5657 Y10.0001 Z-4.5000 S1000
G1 F750 X454.2678 Y10.0001 Z-4.5000 S1000
G1 F750 X454.3180 Y10.2092 Z-4.5000 S1000
G1 F100 Z-6.7500
G1 F750 X454.4634 Y10.6569 Z-6.7500 S1000
G1 F750 X454.8537 Y11.5992 Z-6.7500 S1000
G1 F750 X455.0675 Y12.0187 Z-6.7500 S1000
G1 F750 X455.6004 Y12.8883 Z-6.7500 S1000
G1 F750 X455.8772 Y13.2693 Z-6.7500 S1000
G1 F750 X456.5397 Y14.0449 Z-6.7500 S1000
G1 F750 X456.8724 Y14.3775 Z-6.7500 S1000
G1 F750 X457.6479 Y15.0399 Z-6.7500 S1000
G1 F750 X458.0289 Y15.3168 Z-6.7500 S1000
G1 F750 X458.8986 Y15.8497 Z-6.7500 S1000
G1 F750 X459.3180 Y16.0634 Z-6.7500 S1000
G1 F750 X460.2603 Y16.4537 Z-6.7500 S1000
G1 F750 X460.7079 Y16.5991 Z-6.7500 S1000
G1 F750 X460.9170 Y16.6493 Z-6.7500 S1000
G1 F750 X460.9170 Y50.3512 Z-6.7500 S1000
G1 F750 X460.7079 Y50.4014 Z-6.7500 S1000
G1 F750 X460.2600 Y50.5470 Z-6.7500 S1000
G1 F750 X459.3177 Y50.9374 Z-6.7500 S1000
G1 F750 X458.8986 Y51.1509 Z-6.7500 S1000
G1 F750 X458.0289 Y51.6838 Z-6.7500 S1000
G1 F750 X457.6480 Y51.9605 Z-6.7500 S1000
G1 F750 X456.8724 Y52.6229 Z-6.7500 S1000
G1 F750 X456.5396 Y52.9558 Z-6.7500 S1000
G1 F750 X455.8772 Y53.7313 Z-6.7500 S1000
G1 F750 X455.6003 Y54.1123 Z-6.7500 S1000
G1 F750 X455.0674 Y54.9820 Z-6.7500 S1000
G1 F750 X454.8537 Y55.4014 Z-6.7500 S1000
G1 F750 X454.4634 Y56.3437 Z-6.7500 S1000
G1 F750 X454.3180 Y56.7914 Z-6.7500 S1000
G1 F750 X454.2679 Y57.0000 Z-6.7500 S1000
G1 F750 X420.5656 Y57.0000 Z-6.7500 S1000
G1 F750 X420.5155 Y56.7914 Z-6.7500 S1000
G1 F750 X420.3701 Y56.3437 Z-6.7500 S1000
G1 F750 X419.9798 Y55.4014 Z-6.7500 S1000
G1 F750 X419.7659 Y54.9817 Z-6.7500 S1000
G1 F750 X419.2329 Y54.1121 Z-6.7500 S1000
G1 F750 X418.9564 Y53.7315 Z-6.7500 S1000
G1 F750 X418.2940 Y52.9559 Z-6.7500 S1000
G1 F750 X417.9611 Y52.6231 Z-6.7500 S1000
G1 F750 X417.1856 Y51.9607 Z-6.7500 S1000
G1 F750 X416.8046 Y51.6838 Z-6.7500 S1000
G1 F750 X415.9349 Y51.1509 Z-6.7500 S1000
G1 F750 X415.5156 Y50.9373 Z-6.7500 S1000
G1 F750 X414.5734 Y50.5470 Z-6.7500 S1000
G1 F750 X414.1259 Y50.4016 Z-6.7500 S1000
G1 F750 X413.9164 Y50.3513 Z-6.7500 S1000
G1 F750 X413.9164 Y16.6493 Z-6.7500 S1000
G1 F750 X414.1256 Y16.5991 Z-6.7500 S1000
G1 F750 X414.5732 Y16.4537 Z-6.7500 S1000
G1 F750 X415.5155 Y16.0634 Z-6.7500 S1000
G1 F750 X415.9349 Y15.8497 Z-6.7500 S1000
G1 F750 X416.8046 Y15.3168 Z-6.7500 S1000
G1 F750 X417.1856 Y15.0399 Z-6.7500 S1000
G1 F750 X417.9611 Y14.3775 Z-6.7500 S1000
G1 F750 X418.2940 Y14.0447 Z-6.7500 S1000
G1 F750 X418.9564 Y13.2691 Z-6.7500 S1000
G1 F750 X419.2330 Y12.8883 Z-6.7500 S1000
G1 F750 X419.7659 Y12.0187 Z-6.7500 S1000
G1 F750 X419.9795 Y11.5995 Z-6.7500 S1000
G1 F750 X420.3699 Y10.6572 Z-6.7500 S1000
G1 F750 X420.5155 Y10.2092 Z-6.7500 S1000
G1 F750 X420.5657 Y10.0001 Z-6.7500 S1000
G1 F750 X454.2678 Y10.0001 Z-6.7500 S1000
G1 F750 X454.3180 Y10.2092 Z-6.7500 S1000
G1 F100 Z-9.0000
G1 F750 X454.4634 Y10.6569 Z-9.0000 S1000
G1 F750 X454.8537 Y11.5992 Z-9.0000 S1000
G1 F750 X455.0675 Y12.0187 Z-9.0000 S1000
G1 F750 X455.6004 Y12.8883 Z-9.0000 S1000
G1 F750 X455.8772 Y13.2693 Z-9.0000 S1000
G1 F750 X456.5397 Y14.0449 Z-9.0000 S1000
G1 F750 X456.8724 Y14.3775 Z-9.0000 S1000
G1 F750 X457.6479 Y15.0399 Z-9.0000 S1000
G1 F750 X458.0289 Y15.3168 Z-9.0000 S1000
G1 F750 X458.8986 Y15.8497 Z-9.0000 S1000
G1 F750 X459.3180 Y16.0634 Z-9.0000 S1000
G1 F750 X460.2603 Y16.4537 Z-9.0000 S1000
G1 F750 X460.7079 Y16.5991 Z-9.0000 S1000
G1 F750 X460.9170 Y16.6493 Z-9.0000 S1000
G1 F750 X460.9170 Y50.3512 Z-9.0000 S1000
G1 F750 X460.7079 Y50.4014 Z-9.0000 S1000
G1 F750 X460.2600 Y50.5470 Z-9.0000 S1000
G1 F750 X459.3177 Y50.9374 Z-9.0000 S1000
G1 F750 X458.8986 Y51.1509 Z-9.0000 S1000
G1 F750 X458.0289 Y51.6838 Z-9.0000 S1000
G1 F750 X457.6480 Y51.9605 Z-9.0000 S1000
G1 F750 X456.8724 Y52.6229 Z-9.0000 S1000
G1 F750 X456.5396 Y52.9558 Z-9.0000 S1000
G1 F750 X455.8772 Y53.7313 Z-9.0000 S1000
G1 F750 X455.6003 Y54.1123 Z-9.0000 S1000
G1 F750 X455.0674 Y54.9820 Z-9.0000 S1000
G1 F750 X454.8537 Y55.4014 Z-9.0000 S1000
G1 F750 X454.4634 Y56.3437 Z-9.0000 S1000
G1 F750 X454.3180 Y56.7914 Z-9.0000 S1000
G1 F750 X454.2679 Y57.0000 Z-9.0000 S1000
G1 F750 X420.5656 Y57.0000 Z-9.0000 S1000
G1 F750 X420.5155 Y56.7914 Z-9.0000 S1000
G1 F750 X420.3701 Y56.3437 Z-9.0000 S1000
G1 F750 X419.9798 Y55.4014 Z-9.0000 S1000
G1 F750 X419.7659 Y54.9817 Z-9.0000 S1000
G1 F750 X419.2329 Y54.1121 Z-9.0000 S1000
G1 F750 X418.9564 Y53.7315 Z-9.0000 S1000
G1 F750 X418.2940 Y52.9559 Z-9.0000 S1000
G1 F750 X417.9611 Y52.6231 Z-9.0000 S1000
G1 F750 X417.1856 Y51.9607 Z-9.0000 S1000
G1 F750 X416.8046 Y51.6838 Z-9.0000 S1000
G1 F750 X415.9349 Y51.1509 Z-9.0000 S1000
G1 F750 X415.5156 Y50.9373 Z-9.0000 S1000
G1 F750 X414.5734 Y50.5470 Z-9.0000 S1000
G1 F750 X414.1259 Y50.4016 Z-9.0000 S1000
G1 F750 X413.9164 Y50.3513 Z-9.0000 S1000
G1 F750 X413.9164 Y16.6493 Z-9.0000 S1000
G1 F750 X414.1256 Y16.5991 Z-9.0000 S1000
G1 F750 X414.5732 Y16.4537 Z-9.0000 S1000
G1 F750 X415.5155 Y16.0634 Z-9.0000 S1000
G1 F750 X415.9349 Y15.8497 Z-9.0000 S1000
G1 F750 X416.8046 Y15.3168 Z-9.0000 S1000
G1 F750 X417.1856 Y15.0399 Z-9.0000 S1000
G1 F750 X417.9611 Y14.3775 Z-9.0000 S1000
G1 F750 X418.2940 Y14.0447 Z-9.0000 S1000
G1 F750 X418.9564 Y13.2691 Z-9.0000 S1000
G1 F750 X419.2330 Y12.8883 Z-9.0000 S1000
G1 F750 X419.7659 Y12.0187 Z-9.0000 S1000
G1 F750 X419.9795 Y11.5995 Z-9.0000 S1000
G1 F750 X420.3699 Y10.6572 Z-9.0000 S1000
G1 F750 X420.5155 Y10.2092 Z-9.0000 S1000
G1 F750 X420.5657 Y10.0001 Z-9.0000 S1000
G1 F750 X454.2678 Y10.0001 Z-9.0000 S1000
G1 F750 X454.3180 Y10.2092 Z-9.0000 S1000
; retracting back to z-safe
G0 Z10
; Operation 7: CNC: Vector (path outside)
; Endmill Diameter: 6

G0 Z10; move to z-safe height
G0 F1000 X311.6498 Y1.1000

G0 Z0
G1 F100 Z-2.0000
G1 F750 X252.8498 Y1.1000 Z-2.0000 S1000
G1 F750 X252.2998 Y1.1509 Z-2.0000 S1000
G1 F750 X251.6390 Y1.3552 Z-2.0000 S1000
G1 F750 X251.0426 Y1.7054 Z-2.0000 S1000
G1 F750 X250.5422 Y2.1830 Z-2.0000 S1000
G1 F750 X250.1645 Y2.7624 Z-2.0000 S1000
G1 F750 X249.9295 Y3.4129 Z-2.0000 S1000
G1 F750 X249.8498 Y4.1000 Z-2.0000 S1000
G1 F750 X249.8498 Y58.9000 Z-2.0000 S1000
G1 F750 X249.9007 Y59.4500 Z-2.0000 S1000
G1 F750 X250.1050 Y60.1108 Z-2.0000 S1000
G1 F750 X250.4552 Y60.7072 Z-2.0000 S1000
G1 F750 X250.9328 Y61.2076 Z-2.0000 S1000
G1 F750 X251.5122 Y61.5853 Z-2.0000 S1000
G1 F750 X252.1627 Y61.8203 Z-2.0000 S1000
G1 F750 X252.8498 Y61.9000 Z-2.0000 S1000
G1 F750 X311.6498 Y61.9000 Z-2.0000 S1000
G1 F750 X312.1998 Y61.8491 Z-2.0000 S1000
G1 F750 X312.8606 Y61.6448 Z-2.0000 S1000
G1 F750 X313.4570 Y61.2946 Z-2.0000 S1000
G1 F750 X313.9574 Y60.8170 Z-2.0000 S1000
G1 F750 X314.3351 Y60.2376 Z-2.0000 S1000
G1 F750 X314.5701 Y59.5871 Z-2.0000 S1000
G1 F750 X314.6498 Y58.9000 Z-2.0000 S1000
G1 F750 X314.6498 Y4.1000 Z-2.0000 S1000
G1 F750 X314.5989 Y3.5500 Z-2.0000 S1000
G1 F750 X314.3946 Y2.8892 Z-2.0000 S1000
G1 F750 X314.0444 Y2.2928 Z-2.0000 S1000
G1 F750 X313.5668 Y1.7924 Z-2.0000 S1000
G1 F750 X312.9874 Y1.4147 Z-2.0000 S1000
G1 F750 X312.3369 Y1.1797 Z-2.0000 S1000
G1 F750 X311.6498 Y1.1000 Z-2.0000 S1000
G1 F100 Z-4.0000
G1 F750 X252.8498 Y1.1000 Z-4.0000 S1000
G1 F750 X252.2998 Y1.1509 Z-4.0000 S1000
G1 F750 X251.6390 Y1.3552 Z-4.0000 S1000
G1 F750 X251.0426 Y1.7054 Z-4.0000 S1000
G1 F750 X250.5422 Y2.1830 Z-4.0000 S1000
G1 F750 X250.1645 Y2.7624 Z-4.0000 S1000
G1 F750 X249.9295 Y3.4129 Z-4.0000 S1000
G1 F750 X249.8498 Y4.1000 Z-4.0000 S1000
G1 F750 X249.8498 Y58.9000 Z-4.0000 S1000
G1 F750 X249.9007 Y59.4500 Z-4.0000 S1000
G1 F750 X250.1050 Y60.1108 Z-4.0000 S1000
G1 F750 X250.4552 Y60.7072 Z-4.0000 S1000
G1 F750 X250.9328 Y61.2076 Z-4.0000 S1000
G1 F750 X251.5122 Y61.5853 Z-4.0000 S1000
G1 F750 X252.1627 Y61.8203 Z-4.0000 S1000
G1 F750 X252.8498 Y61.9000 Z-4.0000 S1000
G1 F750 X311.6498 Y61.9000 Z-4.0000 S1000
G1 F750 X312.1998 Y61.8491 Z-4.0000 S1000
G1 F750 X312.8606 Y61.6448 Z-4.0000 S1000
G1 F750 X313.4570 Y61.2946 Z-4.0000 S1000
G1 F750 X313.9574 Y60.8170 Z-4.0000 S1000
G1 F750 X314.3351 Y60.2376 Z-4.0000 S1000
G1 F750 X314.5701 Y59.5871 Z-4.0000 S1000
G1 F750 X314.6498 Y58.9000 Z-4.0000 S1000
G1 F750 X314.6498 Y4.1000 Z-4.0000 S1000
G1 F750 X314.5989 Y3.5500 Z-4.0000 S1000
G1 F750 X314.3946 Y2.8892 Z-4.0000 S1000
G1 F750 X314.0444 Y2.2928 Z-4.0000 S1000
G1 F750 X313.5668 Y1.7924 Z-4.0000 S1000
G1 F750 X312.9874 Y1.4147 Z-4.0000 S1000
G1 F750 X312.3369 Y1.1797 Z-4.0000 S1000
G1 F750 X311.6498 Y1.1000 Z-4.0000 S1000

G0 Z10; move to z-safe height
G0 X234.0665 Y1.1000

G0 Z0
G1 F100 Z-2.0000
G1 F750 X175.2665 Y1.1000 Z-2.0000 S1000
G1 F750 X174.7165 Y1.1509 Z-2.0000 S1000
G1 F750 X174.0557 Y1.3552 Z-2.0000 S1000
G1 F750 X173.4593 Y1.7054 Z-2.0000 S1000
G1 F750 X172.9589 Y2.1830 Z-2.0000 S1000
G1 F750 X172.5812 Y2.7624 Z-2.0000 S1000
G1 F750 X172.3462 Y3.4129 Z-2.0000 S1000
G1 F750 X172.2665 Y4.1000 Z-2.0000 S1000
G1 F750 X172.2665 Y58.9000 Z-2.0000 S1000
G1 F750 X172.3174 Y59.4500 Z-2.0000 S1000
G1 F750 X172.5217 Y60.1108 Z-2.0000 S1000
G1 F750 X172.8719 Y60.7072 Z-2.0000 S1000
G1 F750 X173.3495 Y61.2076 Z-2.0000 S1000
G1 F750 X173.9289 Y61.5853 Z-2.0000 S1000
G1 F750 X174.5794 Y61.8203 Z-2.0000 S1000
G1 F750 X175.2665 Y61.9000 Z-2.0000 S1000
G1 F750 X234.0665 Y61.9000 Z-2.0000 S1000
G1 F750 X234.6165 Y61.8491 Z-2.0000 S1000
G1 F750 X235.2773 Y61.6448 Z-2.0000 S1000
G1 F750 X235.8737 Y61.2946 Z-2.0000 S1000
G1 F750 X236.3741 Y60.8170 Z-2.0000 S1000
G1 F750 X236.7518 Y60.2376 Z-2.0000 S1000
G1 F750 X236.9868 Y59.5871 Z-2.0000 S1000
G1 F750 X237.0665 Y58.9000 Z-2.0000 S1000
G1 F750 X237.0665 Y4.1000 Z-2.0000 S1000
G1 F750 X237.0156 Y3.5500 Z-2.0000 S1000
G1 F750 X236.8113 Y2.8892 Z-2.0000 S1000
G1 F750 X236.4611 Y2.2928 Z-2.0000 S1000
G1 F750 X235.9835 Y1.7924 Z-2.0000 S1000
G1 F750 X235.4041 Y1.4147 Z-2.0000 S1000
G1 F750 X234.7536 Y1.1797 Z-2.0000 S1000
G1 F750 X234.0665 Y1.1000 Z-2.0000 S1000
G1 F100 Z-4.0000
G1 F750 X175.2665 Y1.1000 Z-4.0000 S1000
G1 F750 X174.7165 Y1.1509 Z-4.0000 S1000
G1 F750 X174.0557 Y1.3552 Z-4.0000 S1000
G1 F750 X173.4593 Y1.7054 Z-4.0000 S1000
G1 F750 X172.9589 Y2.1830 Z-4.0000 S1000
G1 F750 X172.5812 Y2.7624 Z-4.0000 S1000
G1 F750 X172.3462 Y3.4129 Z-4.0000 S1000
G1 F750 X172.2665 Y4.1000 Z-4.0000 S1000
G1 F750 X172.2665 Y58.9000 Z-4.0000 S1000
G1 F750 X172.3174 Y59.4500 Z-4.0000 S1000
G1 F750 X172.5217 Y60.1108 Z-4.0000 S1000
G1 F750 X172.8719 Y60.7072 Z-4.0000 S1000
G1 F750 X173.3495 Y61.2076 Z-4.0000 S1000
G1 F750 X173.9289 Y61.5853 Z-4.0000 S1000
G1 F750 X174.5794 Y61.8203 Z-4.0000 S1000
G1 F750 X175.2665 Y61.9000 Z-4.0000 S1000
G1 F750 X234.0665 Y61.9000 Z-4.0000 S1000
G1 F750 X234.6165 Y61.8491 Z-4.0000 S1000
G1 F750 X235.2773 Y61.6448 Z-4.0000 S1000
G1 F750 X235.8737 Y61.2946 Z-4.0000 S1000
G1 F750 X236.3741 Y60.8170 Z-4.0000 S1000
G1 F750 X236.7518 Y60.2376 Z-4.0000 S1000
G1 F750 X236.9868 Y59.5871 Z-4.0000 S1000
G1 F750 X237.0665 Y58.9000 Z-4.0000 S1000
G1 F750 X237.0665 Y4.1000 Z-4.0000 S1000
G1 F750 X237.0156 Y3.5500 Z-4.0000 S1000
G1 F750 X236.8113 Y2.8892 Z-4.0000 S1000
G1 F750 X236.4611 Y2.2928 Z-4.0000 S1000
G1 F750 X235.9835 Y1.7924 Z-4.0000 S1000
G1 F750 X235.4041 Y1.4147 Z-4.0000 S1000
G1 F750 X234.7536 Y1.1797 Z-4.0000 S1000
G1 F750 X234.0665 Y1.1000 Z-4.0000 S1000

G0 Z10; move to z-safe height
G0 X389.2330 Y1.1000

G0 Z0
G1 F100 Z-2.0000
G1 F750 X330.4330 Y1.1000 Z-2.0000 S1000
G1 F750 X329.8830 Y1.1509 Z-2.0000 S1000
G1 F750 X329.2222 Y1.3552 Z-2.0000 S1000
G1 F750 X328.6258 Y1.7054 Z-2.0000 S1000
G1 F750 X328.1254 Y2.1830 Z-2.0000 S1000
G1 F750 X327.7477 Y2.7624 Z-2.0000 S1000
G1 F750 X327.5127 Y3.4129 Z-2.0000 S1000
G1 F750 X327.4330 Y4.1000 Z-2.0000 S1000
G1 F750 X327.4330 Y62.9000 Z-2.0000 S1000
G1 F750 X327.4839 Y63.4500 Z-2.0000 S1000
G1 F750 X327.6882 Y64.1108 Z-2.0000 S1000
G1 F750 X328.0384 Y64.7072 Z-2.0000 S1000
G1 F750 X328.5160 Y65.2076 Z-2.0000 S1000
G1 F750 X329.0954 Y65.5853 Z-2.0000 S1000
G1 F750 X329.7459 Y65.8203 Z-2.0000 S1000
G1 F750 X330.4330 Y65.9000 Z-2.0000 S1000
G1 F750 X389.2330 Y65.9000 Z-2.0000 S1000
G1 F750 X389.7830 Y65.8491 Z-2.0000 S1000
G1 F750 X390.4438 Y65.6448 Z-2.0000 S1000
G1 F750 X391.0402 Y65.2946 Z-2.0000 S1000
G1 F750 X391.5406 Y64.8170 Z-2.0000 S1000
G1 F750 X391.9183 Y64.2376 Z-2.0000 S1000
G1 F750 X392.1533 Y63.5871 Z-2.0000 S1000
G1 F750 X392.2330 Y62.9000 Z-2.0000 S1000
G1 F750 X392.2330 Y4.1000 Z-2.0000 S1000
G1 F750 X392.1821 Y3.5500 Z-2.0000 S1000
G1 F750 X391.9778 Y2.8892 Z-2.0000 S1000
G1 F750 X391.6276 Y2.2928 Z-2.0000 S1000
G1 F750 X391.1500 Y1.7924 Z-2.0000 S1000
G1 F750 X390.5706 Y1.4147 Z-2.0000 S1000
G1 F750 X389.9201 Y1.1797 Z-2.0000 S1000
G1 F750 X389.2330 Y1.1000 Z-2.0000 S1000
G1 F100 Z-4.0000
G1 F750 X330.4330 Y1.1000 Z-4.0000 S1000
G1 F750 X329.8830 Y1.1509 Z-4.0000 S1000
G1 F750 X329.2222 Y1.3552 Z-4.0000 S1000
G1 F750 X328.6258 Y1.7054 Z-4.0000 S1000
G1 F750 X328.1254 Y2.1830 Z-4.0000 S1000
G1 F750 X327.7477 Y2.7624 Z-4.0000 S1000
G1 F750 X327.5127 Y3.4129 Z-4.0000 S1000
G1 F750 X327.4330 Y4.1000 Z-4.0000 S1000
G1 F750 X327.4330 Y62.9000 Z-4.0000 S1000
G1 F750 X327.4839 Y63.4500 Z-4.0000 S1000
G1 F750 X327.6882 Y64.1108 Z-4.0000 S1000
G1 F750 X328.0384 Y64.7072 Z-4.0000 S1000
G1 F750 X328.5160 Y65.2076 Z-4.0000 S1000
G1 F750 X329.0954 Y65.5853 Z-4.0000 S1000
G1 F750 X329.7459 Y65.8203 Z-4.0000 S1000
G1 F750 X330.4330 Y65.9000 Z-4.0000 S1000
G1 F750 X389.2330 Y65.9000 Z-4.0000 S1000
G1 F750 X389.7830 Y65.8491 Z-4.0000 S1000
G1 F750 X390.4438 Y65.6448 Z-4.0000 S1000
G1 F750 X391.0402 Y65.2946 Z-4.0000 S1000
G1 F750 X391.5406 Y64.8170 Z-4.0000 S1000
G1 F750 X391.9183 Y64.2376 Z-4.0000 S1000
G1 F750 X392.1533 Y63.5871 Z-4.0000 S1000
G1 F750 X392.2330 Y62.9000 Z-4.0000 S1000
G1 F750 X392.2330 Y4.1000 Z-4.0000 S1000
G1 F750 X392.1821 Y3.5500 Z-4.0000 S1000
G1 F750 X391.9778 Y2.8892 Z-4.0000 S1000
G1 F750 X391.6276 Y2.2928 Z-4.0000 S1000
G1 F750 X391.1500 Y1.7924 Z-4.0000 S1000
G1 F750 X390.5706 Y1.4147 Z-4.0000 S1000
G1 F750 X389.9201 Y1.1797 Z-4.0000 S1000
G1 F750 X389.2330 Y1.1000 Z-4.0000 S1000

G0 Z10; move to z-safe height
G0 X70.9000 Y1.1000

G0 Z0
G1 F100 Z-2.0000
G1 F750 X4.1000 Y1.1000 Z-2.0000 S1000
G1 F750 X3.5500 Y1.1509 Z-2.0000 S1000
G1 F750 X2.8892 Y1.3552 Z-2.0000 S1000
G1 F750 X2.2928 Y1.7054 Z-2.0000 S1000
G1 F750 X1.7924 Y2.1830 Z-2.0000 S1000
G1 F750 X1.4147 Y2.7624 Z-2.0000 S1000
G1 F750 X1.1797 Y3.4129 Z-2.0000 S1000
G1 F750 X1.1000 Y4.1000 Z-2.0000 S1000
G1 F750 X1.1000 Y58.9000 Z-2.0000 S1000
G1 F750 X1.1509 Y59.4500 Z-2.0000 S1000
G1 F750 X1.3552 Y60.1108 Z-2.0000 S1000
G1 F750 X1.7054 Y60.7072 Z-2.0000 S1000
G1 F750 X2.1830 Y61.2076 Z-2.0000 S1000
G1 F750 X2.7624 Y61.5853 Z-2.0000 S1000
G1 F750 X3.4129 Y61.8203 Z-2.0000 S1000
G1 F750 X4.1000 Y61.9000 Z-2.0000 S1000
G1 F750 X70.9000 Y61.9000 Z-2.0000 S1000
G1 F750 X71.4500 Y61.8491 Z-2.0000 S1000
G1 F750 X72.1108 Y61.6448 Z-2.0000 S1000
G1 F750 X72.7072 Y61.2946 Z-2.0000 S1000
G1 F750 X73.2076 Y60.8170 Z-2.0000 S1000
G1 F750 X73.5853 Y60.2376 Z-2.0000 S1000
G1 F750 X73.8203 Y59.5871 Z-2.0000 S1000
G1 F750 X73.9000 Y58.9000 Z-2.0000 S1000
G1 F750 X73.9000 Y4.1000 Z-2.0000 S1000
G1 F750 X73.8491 Y3.5500 Z-2.0000 S1000
G1 F750 X73.6448 Y2.8892 Z-2.0000 S1000
G1 F750 X73.2946 Y2.2928 Z-2.0000 S1000
G1 F750 X72.8170 Y1.7924 Z-2.0000 S1000
G1 F750 X72.2376 Y1.4147 Z-2.0000 S1000
G1 F750 X71.5871 Y1.1797 Z-2.0000 S1000
G1 F750 X70.9000 Y1.1000 Z-2.0000 S1000
G1 F100 Z-4.0000
G1 F750 X4.1000 Y1.1000 Z-4.0000 S1000
G1 F750 X3.5500 Y1.1509 Z-4.0000 S1000
G1 F750 X2.8892 Y1.3552 Z-4.0000 S1000
G1 F750 X2.2928 Y1.7054 Z-4.0000 S1000
G1 F750 X1.7924 Y2.1830 Z-4.0000 S1000
G1 F750 X1.4147 Y2.7624 Z-4.0000 S1000
G1 F750 X1.1797 Y3.4129 Z-4.0000 S1000
G1 F750 X1.1000 Y4.1000 Z-4.0000 S1000
G1 F750 X1.1000 Y58.9000 Z-4.0000 S1000
G1 F750 X1.1509 Y59.4500 Z-4.0000 S1000
G1 F750 X1.3552 Y60.1108 Z-4.0000 S1000
G1 F750 X1.7054 Y60.7072 Z-4.0000 S1000
G1 F750 X2.1830 Y61.2076 Z-4.0000 S1000
G1 F750 X2.7624 Y61.5853 Z-4.0000 S1000
G1 F750 X3.4129 Y61.8203 Z-4.0000 S1000
G1 F750 X4.1000 Y61.9000 Z-4.0000 S1000
G1 F750 X70.9000 Y61.9000 Z-4.0000 S1000
G1 F750 X71.4500 Y61.8491 Z-4.0000 S1000
G1 F750 X72.1108 Y61.6448 Z-4.0000 S1000
G1 F750 X72.7072 Y61.2946 Z-4.0000 S1000
G1 F750 X73.2076 Y60.8170 Z-4.0000 S1000
G1 F750 X73.5853 Y60.2376 Z-4.0000 S1000
G1 F750 X73.8203 Y59.5871 Z-4.0000 S1000
G1 F750 X73.9000 Y58.9000 Z-4.0000 S1000
G1 F750 X73.9000 Y4.1000 Z-4.0000 S1000
G1 F750 X73.8491 Y3.5500 Z-4.0000 S1000
G1 F750 X73.6448 Y2.8892 Z-4.0000 S1000
G1 F750 X73.2946 Y2.2928 Z-4.0000 S1000
G1 F750 X72.8170 Y1.7924 Z-4.0000 S1000
G1 F750 X72.2376 Y1.4147 Z-4.0000 S1000
G1 F750 X71.5871 Y1.1797 Z-4.0000 S1000
G1 F750 X70.9000 Y1.1000 Z-4.0000 S1000

G0 Z10; move to z-safe height
G0 X156.4832 Y1.1000

G0 Z0
G1 F100 Z-2.0000
G1 F750 X89.6832 Y1.1000 Z-2.0000 S1000
G1 F750 X89.1332 Y1.1509 Z-2.0000 S1000
G1 F750 X88.4724 Y1.3552 Z-2.0000 S1000
G1 F750 X87.8760 Y1.7054 Z-2.0000 S1000
G1 F750 X87.3756 Y2.1830 Z-2.0000 S1000
G1 F750 X86.9979 Y2.7624 Z-2.0000 S1000
G1 F750 X86.7629 Y3.4129 Z-2.0000 S1000
G1 F750 X86.6832 Y4.1000 Z-2.0000 S1000
G1 F750 X86.6832 Y58.9000 Z-2.0000 S1000
G1 F750 X86.7341 Y59.4500 Z-2.0000 S1000
G1 F750 X86.9384 Y60.1108 Z-2.0000 S1000
G1 F750 X87.2886 Y60.7072 Z-2.0000 S1000
G1 F750 X87.7662 Y61.2076 Z-2.0000 S1000
G1 F750 X88.3456 Y61.5853 Z-2.0000 S1000
G1 F750 X88.9961 Y61.8203 Z-2.0000 S1000
G1 F750 X89.6832 Y61.9000 Z-2.0000 S1000
G1 F750 X156.4832 Y61.9000 Z-2.0000 S1000
G1 F750 X157.0332 Y61.8491 Z-2.0000 S1000
G1 F750 X157.6940 Y61.6448 Z-2.0000 S1000
G1 F750 X158.2904 Y61.2946 Z-2.0000 S1000
G1 F750 X158.7908 Y60.8170 Z-2.0000 S1000
G1 F750 X159.1685 Y60.2376 Z-2.0000 S1000
G1 F750 X159.4035 Y59.5871 Z-2.0000 S1000
G1 F750 X159.4832 Y58.9000 Z-2.0000 S1000
G1 F750 X159.4832 Y4.1000 Z-2.0000 S1000
G1 F750 X159.4323 Y3.5500 Z-2.0000 S1000
G1 F750 X159.2280 Y2.8892 Z-2.0000 S1000
G1 F750 X158.8778 Y2.2928 Z-2.0000 S1000
G1 F750 X158.4002 Y1.7924 Z-2.0000 S1000
G1 F750 X157.8208 Y1.4147 Z-2.0000 S1000
G1 F750 X157.1703 Y1.1797 Z-2.0000 S1000
G1 F750 X156.4832 Y1.1000 Z-2.0000 S1000
G1 F100 Z-4.0000
G1 F750 X89.6832 Y1.1000 Z-4.0000 S1000
G1 F750 X89.1332 Y1.1509 Z-4.0000 S1000
G1 F750 X88.4724 Y1.3552 Z-4.0000 S1000
G1 F750 X87.8760 Y1.7054 Z-4.0000 S1000
G1 F750 X87.3756 Y2.1830 Z-4.0000 S1000
G1 F750 X86.9979 Y2.7624 Z-4.0000 S1000
G1 F750 X86.7629 Y3.4129 Z-4.0000 S1000
G1 F750 X86.6832 Y4.1000 Z-4.0000 S1000
G1 F750 X86.6832 Y58.9000 Z-4.0000 S1000
G1 F750 X86.7341 Y59.4500 Z-4.0000 S1000
G1 F750 X86.9384 Y60.1108 Z-4.0000 S1000
G1 F750 X87.2886 Y60.7072 Z-4.0000 S1000
G1 F750 X87.7662 Y61.2076 Z-4.0000 S1000
G1 F750 X88.3456 Y61.5853 Z-4.0000 S1000
G1 F750 X88.9961 Y61.8203 Z-4.0000 S1000
G1 F750 X89.6832 Y61.9000 Z-4.0000 S1000
G1 F750 X156.4832 Y61.9000 Z-4.0000 S1000
G1 F750 X157.0332 Y61.8491 Z-4.0000 S1000
G1 F750 X157.6940 Y61.6448 Z-4.0000 S1000
G1 F750 X158.2904 Y61.2946 Z-4.0000 S1000
G1 F750 X158.7908 Y60.8170 Z-4.0000 S1000
G1 F750 X159.1685 Y60.2376 Z-4.0000 S1000
G1 F750 X159.4035 Y59.5871 Z-4.0000 S1000
G1 F750 X159.4832 Y58.9000 Z-4.0000 S1000
G1 F750 X159.4832 Y4.1000 Z-4.0000 S1000
G1 F750 X159.4323 Y3.5500 Z-4.0000 S1000
G1 F750 X159.2280 Y2.8892 Z-4.0000 S1000
G1 F750 X158.8778 Y2.2928 Z-4.0000 S1000
G1 F750 X158.4002 Y1.7924 Z-4.0000 S1000
G1 F750 X157.8208 Y1.4147 Z-4.0000 S1000
G1 F750 X157.1703 Y1.1797 Z-4.0000 S1000
G1 F750 X156.4832 Y1.1000 Z-4.0000 S1000
; retracting back to z-safe
G0 Z10
; Operation 8: CNC: Pocket
; Endmill Diameter: 6

G0 Z10; move to z-safe height
G0 F1000 X317.1715 Y66.8625

G0 Z0
G1 F100 Z-2.0000
G1 F750 X-0.7418 Y66.8625 Z-2.0000 S1000
G1 F750 X-0.7418 Y66.6625 Z-2.0000 S1000
G1 F750 X317.1715 Y66.6625 Z-2.0000 S1000
G1 F750 X317.1715 Y66.8625 Z-2.0000 S1000
G1 F100 Z-4.0000
G1 F750 X-0.7418 Y66.8625 Z-4.0000 S1000
G1 F750 X-0.7418 Y66.6625 Z-4.0000 S1000
G1 F750 X317.1715 Y66.6625 Z-4.0000 S1000
G1 F750 X317.1715 Y66.8625 Z-4.0000 S1000
; retracting back to z-safe
G0 Z10
; Operation 9: CNC: Vector (path outside)
; Endmill Diameter: 6

G0 Z10; move to z-safe height
G0 F1000 X315.7497 Y-3.0000

G0 Z0
G1 F100 Z-2.2500
G1 F750 X248.7497 Y-3.0000 Z-2.2500 S1000
G1 F750 X248.1997 Y-2.9491 Z-2.2500 S1000
G1 F750 X247.5389 Y-2.7448 Z-2.2500 S1000
G1 F750 X246.9425 Y-2.3946 Z-2.2500 S1000
G1 F750 X246.4421 Y-1.9170 Z-2.2500 S1000
G1 F750 X246.0644 Y-1.3376 Z-2.2500 S1000
G1 F750 X245.8294 Y-0.6871 Z-2.2500 S1000
G1 F750 X245.7497 Y0.0000 Z-2.2500 S1000
G1 F750 X245.7497 Y67.0000 Z-2.2500 S1000
G1 F750 X245.8006 Y67.5500 Z-2.2500 S1000
G1 F750 X246.0049 Y68.2108 Z-2.2500 S1000
G1 F750 X246.3551 Y68.8072 Z-2.2500 S1000
G1 F750 X246.8327 Y69.3076 Z-2.2500 S1000
G1 F750 X247.4121 Y69.6853 Z-2.2500 S1000
G1 F750 X248.0626 Y69.9203 Z-2.2500 S1000
G1 F750 X248.7497 Y70.0000 Z-2.2500 S1000
G1 F750 X315.7497 Y70.0000 Z-2.2500 S1000
G1 F750 X316.2997 Y69.9491 Z-2.2500 S1000
G1 F750 X316.9605 Y69.7448 Z-2.2500 S1000
G1 F750 X317.5569 Y69.3946 Z-2.2500 S1000
G1 F750 X318.0573 Y68.9170 Z-2.2500 S1000
G1 F750 X318.4350 Y68.3376 Z-2.2500 S1000
G1 F750 X318.6700 Y67.6871 Z-2.2500 S1000
G1 F750 X318.7497 Y67.0000 Z-2.2500 S1000
G1 F750 X318.7497 Y0.0000 Z-2.2500 S1000
G1 F750 X318.6988 Y-0.5500 Z-2.2500 S1000
G1 F750 X318.4945 Y-1.2108 Z-2.2500 S1000
G1 F750 X318.1443 Y-1.8072 Z-2.2500 S1000
G1 F750 X317.6667 Y-2.3076 Z-2.2500 S1000
G1 F750 X317.0873 Y-2.6853 Z-2.2500 S1000
G1 F750 X316.4368 Y-2.9203 Z-2.2500 S1000
G1 F750 X315.7497 Y-3.0000 Z-2.2500 S1000
G1 F100 Z-4.5000
G1 F750 X248.7497 Y-3.0000 Z-4.5000 S1000
G1 F750 X248.1997 Y-2.9491 Z-4.5000 S1000
G1 F750 X247.5389 Y-2.7448 Z-4.5000 S1000
G1 F750 X246.9425 Y-2.3946 Z-4.5000 S1000
G1 F750 X246.4421 Y-1.9170 Z-4.5000 S1000
G1 F750 X246.0644 Y-1.3376 Z-4.5000 S1000
G1 F750 X245.8294 Y-0.6871 Z-4.5000 S1000
G1 F750 X245.7497 Y0.0000 Z-4.5000 S1000
G1 F750 X245.7497 Y67.0000 Z-4.5000 S1000
G1 F750 X245.8006 Y67.5500 Z-4.5000 S1000
G1 F750 X246.0049 Y68.2108 Z-4.5000 S1000
G1 F750 X246.3551 Y68.8072 Z-4.5000 S1000
G1 F750 X246.8327 Y69.3076 Z-4.5000 S1000
G1 F750 X247.4121 Y69.6853 Z-4.5000 S1000
G1 F750 X248.0626 Y69.9203 Z-4.5000 S1000
G1 F750 X248.7497 Y70.0000 Z-4.5000 S1000
G1 F750 X315.7497 Y70.0000 Z-4.5000 S1000
G1 F750 X316.2997 Y69.9491 Z-4.5000 S1000
G1 F750 X316.9605 Y69.7448 Z-4.5000 S1000
G1 F750 X317.5569 Y69.3946 Z-4.5000 S1000
G1 F750 X318.0573 Y68.9170 Z-4.5000 S1000
G1 F750 X318.4350 Y68.3376 Z-4.5000 S1000
G1 F750 X318.6700 Y67.6871 Z-4.5000 S1000
G1 F750 X318.7497 Y67.0000 Z-4.5000 S1000
G1 F750 X318.7497 Y0.0000 Z-4.5000 S1000
G1 F750 X318.6988 Y-0.5500 Z-4.5000 S1000
G1 F750 X318.4945 Y-1.2108 Z-4.5000 S1000
G1 F750 X318.1443 Y-1.8072 Z-4.5000 S1000
G1 F750 X317.6667 Y-2.3076 Z-4.5000 S1000
G1 F750 X317.0873 Y-2.6853 Z-4.5000 S1000
G1 F750 X316.4368 Y-2.9203 Z-4.5000 S1000
G1 F750 X315.7497 Y-3.0000 Z-4.5000 S1000
G1 F100 Z-6.7500
G1 F750 X248.7497 Y-3.0000 Z-6.7500 S1000
G1 F750 X248.1997 Y-2.9491 Z-6.7500 S1000
G1 F750 X247.5389 Y-2.7448 Z-6.7500 S1000
G1 F750 X246.9425 Y-2.3946 Z-6.7500 S1000
G1 F750 X246.4421 Y-1.9170 Z-6.7500 S1000
G1 F750 X246.0644 Y-1.3376 Z-6.7500 S1000
G1 F750 X245.8294 Y-0.6871 Z-6.7500 S1000
G1 F750 X245.7497 Y0.0000 Z-6.7500 S1000
G1 F750 X245.7497 Y67.0000 Z-6.7500 S1000
G1 F750 X245.8006 Y67.5500 Z-6.7500 S1000
G1 F750 X246.0049 Y68.2108 Z-6.7500 S1000
G1 F750 X246.3551 Y68.8072 Z-6.7500 S1000
G1 F750 X246.8327 Y69.3076 Z-6.7500 S1000
G1 F750 X247.4121 Y69.6853 Z-6.7500 S1000
G1 F750 X248.0626 Y69.9203 Z-6.7500 S1000
G1 F750 X248.7497 Y70.0000 Z-6.7500 S1000
G1 F750 X315.7497 Y70.0000 Z-6.7500 S1000
G1 F750 X316.2997 Y69.9491 Z-6.7500 S1000
G1 F750 X316.9605 Y69.7448 Z-6.7500 S1000
G1 F750 X317.5569 Y69.3946 Z-6.7500 S1000
G1 F750 X318.0573 Y68.9170 Z-6.7500 S1000
G1 F750 X318.4350 Y68.3376 Z-6.7500 S1000
G1 F750 X318.6700 Y67.6871 Z-6.7500 S1000
G1 F750 X318.7497 Y67.0000 Z-6.7500 S1000
G1 F750 X318.7497 Y0.0000 Z-6.7500 S1000
G1 F750 X318.6988 Y-0.5500 Z-6.7500 S1000
G1 F750 X318.4945 Y-1.2108 Z-6.7500 S1000
G1 F750 X318.1443 Y-1.8072 Z-6.7500 S1000
G1 F750 X317.6667 Y-2.3076 Z-6.7500 S1000
G1 F750 X317.0873 Y-2.6853 Z-6.7500 S1000
G1 F750 X316.4368 Y-2.9203 Z-6.7500 S1000
G1 F750 X315.7497 Y-3.0000 Z-6.7500 S1000
G1 F100 Z-9.0000
G1 F750 X287.7497 Y-3.0000 Z-9.0000 S1000
G1 F750 X287.7497 Y-3.0000 Z-6.7500 S1000
G1 F750 X276.7497 Y-3.0000 Z-6.7500 S1000
G1 F750 X276.7497 Y-3.0000 Z-9.0000 S1000
G1 F750 X248.7497 Y-3.0000 Z-9.0000 S1000
G1 F750 X248.7497 Y-3.0000 Z-9.0000 S1000
G1 F750 X248.1997 Y-2.9491 Z-9.0000 S1000
G1 F750 X247.5389 Y-2.7448 Z-9.0000 S1000
G1 F750 X246.9425 Y-2.3946 Z-9.0000 S1000
G1 F750 X246.4421 Y-1.9170 Z-9.0000 S1000
G1 F750 X246.0644 Y-1.3376 Z-9.0000 S1000
G1 F750 X245.8294 Y-0.6871 Z-9.0000 S1000
G1 F750 X245.7497 Y0.0000 Z-9.0000 S1000
G1 F750 X245.7497 Y67.0000 Z-9.0000 S1000
G1 F750 X245.8006 Y67.5500 Z-9.0000 S1000
G1 F750 X246.0049 Y68.2108 Z-9.0000 S1000
G1 F750 X246.3551 Y68.8072 Z-9.0000 S1000
G1 F750 X246.8327 Y69.3076 Z-9.0000 S1000
G1 F750 X247.4121 Y69.6853 Z-9.0000 S1000
G1 F750 X248.0626 Y69.9203 Z-9.0000 S1000
G1 F750 X248.7497 Y70.0000 Z-9.0000 S1000
G1 F750 X276.7497 Y70.0000 Z-9.0000 S1000
G1 F750 X276.7497 Y70.0000 Z-6.7500 S1000
G1 F750 X287.7497 Y70.0000 Z-6.7500 S1000
G1 F750 X287.7497 Y70.0000 Z-9.0000 S1000
G1 F750 X315.7497 Y70.0000 Z-9.0000 S1000
G1 F750 X315.7497 Y70.0000 Z-9.0000 S1000
G1 F750 X316.2997 Y69.9491 Z-9.0000 S1000
G1 F750 X316.9605 Y69.7448 Z-9.0000 S1000
G1 F750 X317.5569 Y69.3946 Z-9.0000 S1000
G1 F750 X318.0573 Y68.9170 Z-9.0000 S1000
G1 F750 X318.4350 Y68.3376 Z-9.0000 S1000
G1 F750 X318.6700 Y67.6871 Z-9.0000 S1000
G1 F750 X318.7497 Y67.0000 Z-9.0000 S1000
G1 F750 X318.7497 Y0.0000 Z-9.0000 S1000
G1 F750 X318.6988 Y-0.5500 Z-9.0000 S1000
G1 F750 X318.4945 Y-1.2108 Z-9.0000 S1000
G1 F750 X318.1443 Y-1.8072 Z-9.0000 S1000
G1 F750 X317.6667 Y-2.3076 Z-9.0000 S1000
G1 F750 X317.0873 Y-2.6853 Z-9.0000 S1000
G1 F750 X316.4368 Y-2.9203 Z-9.0000 S1000
G1 F750 X315.7497 Y-3.0000 Z-9.0000 S1000

G0 Z10; move to z-safe height
G0 X393.3330 Y-3.0000

G0 Z0
G1 F100 Z-2.2500
G1 F750 X326.3330 Y-3.0000 Z-2.2500 S1000
G1 F750 X325.7830 Y-2.9491 Z-2.2500 S1000
G1 F750 X325.1222 Y-2.7448 Z-2.2500 S1000
G1 F750 X324.5258 Y-2.3946 Z-2.2500 S1000
G1 F750 X324.0254 Y-1.9170 Z-2.2500 S1000
G1 F750 X323.6477 Y-1.3376 Z-2.2500 S1000
G1 F750 X323.4127 Y-0.6871 Z-2.2500 S1000
G1 F750 X323.3330 Y0.0000 Z-2.2500 S1000
G1 F750 X323.3330 Y67.0000 Z-2.2500 S1000
G1 F750 X323.3839 Y67.5500 Z-2.2500 S1000
G1 F750 X323.5882 Y68.2108 Z-2.2500 S1000
G1 F750 X323.9384 Y68.8072 Z-2.2500 S1000
G1 F750 X324.4160 Y69.3076 Z-2.2500 S1000
G1 F750 X324.9954 Y69.6853 Z-2.2500 S1000
G1 F750 X325.6459 Y69.9203 Z-2.2500 S1000
G1 F750 X326.3330 Y70.0000 Z-2.2500 S1000
G1 F750 X393.3330 Y70.0000 Z-2.2500 S1000
G1 F750 X393.8830 Y69.9491 Z-2.2500 S1000
G1 F750 X394.5438 Y69.7448 Z-2.2500 S1000
G1 F750 X395.1402 Y69.3946 Z-2.2500 S1000
G1 F750 X395.6406 Y68.9170 Z-2.2500 S1000
G1 F750 X396.0183 Y68.3376 Z-2.2500 S1000
G1 F750 X396.2533 Y67.6871 Z-2.2500 S1000
G1 F750 X396.3330 Y67.0000 Z-2.2500 S1000
G1 F750 X396.3330 Y0.0000 Z-2.2500 S1000
G1 F750 X396.2821 Y-0.5500 Z-2.2500 S1000
G1 F750 X396.0778 Y-1.2108 Z-2.2500 S1000
G1 F750 X395.7276 Y-1.8072 Z-2.2500 S1000
G1 F750 X395.2500 Y-2.3076 Z-2.2500 S1000
G1 F750 X394.6706 Y-2.6853 Z-2.2500 S1000
G1 F750 X394.0201 Y-2.9203 Z-2.2500 S1000
G1 F750 X393.3330 Y-3.0000 Z-2.2500 S1000
G1 F100 Z-4.5000
G1 F750 X326.3330 Y-3.0000 Z-4.5000 S1000
G1 F750 X325.7830 Y-2.9491 Z-4.5000 S1000
G1 F750 X325.1222 Y-2.7448 Z-4.5000 S1000
G1 F750 X324.5258 Y-2.3946 Z-4.5000 S1000
G1 F750 X324.0254 Y-1.9170 Z-4.5000 S1000
G1 F750 X323.6477 Y-1.3376 Z-4.5000 S1000
G1 F750 X323.4127 Y-0.6871 Z-4.5000 S1000
G1 F750 X323.3330 Y0.0000 Z-4.5000 S1000
G1 F750 X323.3330 Y67.0000 Z-4.5000 S1000
G1 F750 X323.3839 Y67.5500 Z-4.5000 S1000
G1 F750 X323.5882 Y68.2108 Z-4.5000 S1000
G1 F750 X323.9384 Y68.8072 Z-4.5000 S1000
G1 F750 X324.4160 Y69.3076 Z-4.5000 S1000
G1 F750 X324.9954 Y69.6853 Z-4.5000 S1000
G1 F750 X325.6459 Y69.9203 Z-4.5000 S1000
G1 F750 X326.3330 Y70.0000 Z-4.5000 S1000
G1 F750 X393.3330 Y70.0000 Z-4.5000 S1000
G1 F750 X393.8830 Y69.9491 Z-4.5000 S1000
G1 F750 X394.5438 Y69.7448 Z-4.5000 S1000
G1 F750 X395.1402 Y69.3946 Z-4.5000 S1000
G1 F750 X395.6406 Y68.9170 Z-4.5000 S1000
G1 F750 X396.0183 Y68.3376 Z-4.5000 S1000
G1 F750 X396.2533 Y67.6871 Z-4.5000 S1000
G1 F750 X396.3330 Y67.0000 Z-4.5000 S1000
G1 F750 X396.3330 Y0.0000 Z-4.5000 S1000
G1 F750 X396.2821 Y-0.5500 Z-4.5000 S1000
G1 F750 X396.0778 Y-1.2108 Z-4.5000 S1000
G1 F750 X395.7276 Y-1.8072 Z-4.5000 S1000
G1 F750 X395.2500 Y-2.3076 Z-4.5000 S1000
G1 F750 X394.6706 Y-2.6853 Z-4.5000 S1000
G1 F750 X394.0201 Y-2.9203 Z-4.5000 S1000
G1 F750 X393.3330 Y-3.0000 Z-4.5000 S1000
G1 F100 Z-6.7500
G1 F750 X326.3330 Y-3.0000 Z-6.7500 S1000
G1 F750 X325.7830 Y-2.9491 Z-6.7500 S1000
G1 F750 X325.1222 Y-2.7448 Z-6.7500 S1000
G1 F750 X324.5258 Y-2.3946 Z-6.7500 S1000
G1 F750 X324.0254 Y-1.9170 Z-6.7500 S1000
G1 F750 X323.6477 Y-1.3376 Z-6.7500 S1000
G1 F750 X323.4127 Y-0.6871 Z-6.7500 S1000
G1 F750 X323.3330 Y0.0000 Z-6.7500 S1000
G1 F750 X323.3330 Y67.0000 Z-6.7500 S1000
G1 F750 X323.3839 Y67.5500 Z-6.7500 S1000
G1 F750 X323.5882 Y68.2108 Z-6.7500 S1000
G1 F750 X323.9384 Y68.8072 Z-6.7500 S1000
G1 F750 X324.4160 Y69.3076 Z-6.7500 S1000
G1 F750 X324.9954 Y69.6853 Z-6.7500 S1000
G1 F750 X325.6459 Y69.9203 Z-6.7500 S1000
G1 F750 X326.3330 Y70.0000 Z-6.7500 S1000
G1 F750 X393.3330 Y70.0000 Z-6.7500 S1000
G1 F750 X393.8830 Y69.9491 Z-6.7500 S1000
G1 F750 X394.5438 Y69.7448 Z-6.7500 S1000
G1 F750 X395.1402 Y69.3946 Z-6.7500 S1000
G1 F750 X395.6406 Y68.9170 Z-6.7500 S1000
G1 F750 X396.0183 Y68.3376 Z-6.7500 S1000
G1 F750 X396.2533 Y67.6871 Z-6.7500 S1000
G1 F750 X396.3330 Y67.0000 Z-6.7500 S1000
G1 F750 X396.3330 Y0.0000 Z-6.7500 S1000
G1 F750 X396.2821 Y-0.5500 Z-6.7500 S1000
G1 F750 X396.0778 Y-1.2108 Z-6.7500 S1000
G1 F750 X395.7276 Y-1.8072 Z-6.7500 S1000
G1 F750 X395.2500 Y-2.3076 Z-6.7500 S1000
G1 F750 X394.6706 Y-2.6853 Z-6.7500 S1000
G1 F750 X394.0201 Y-2.9203 Z-6.7500 S1000
G1 F750 X393.3330 Y-3.0000 Z-6.7500 S1000
G1 F100 Z-9.0000
G1 F750 X365.3330 Y-3.0000 Z-9.0000 S1000
G1 F750 X365.3330 Y-3.0000 Z-6.7500 S1000
G1 F750 X354.3330 Y-3.0000 Z-6.7500 S1000
G1 F750 X354.3330 Y-3.0000 Z-9.0000 S1000
G1 F750 X326.3330 Y-3.0000 Z-9.0000 S1000
G1 F750 X326.3330 Y-3.0000 Z-9.0000 S1000
G1 F750 X325.7830 Y-2.9491 Z-9.0000 S1000
G1 F750 X325.1222 Y-2.7448 Z-9.0000 S1000
G1 F750 X324.5258 Y-2.3946 Z-9.0000 S1000
G1 F750 X324.0254 Y-1.9170 Z-9.0000 S1000
G1 F750 X323.6477 Y-1.3376 Z-9.0000 S1000
G1 F750 X323.4127 Y-0.6871 Z-9.0000 S1000
G1 F750 X323.3330 Y0.0000 Z-9.0000 S1000
G1 F750 X323.3330 Y67.0000 Z-9.0000 S1000
G1 F750 X323.3839 Y67.5500 Z-9.0000 S1000
G1 F750 X323.5882 Y68.2108 Z-9.0000 S1000
G1 F750 X323.9384 Y68.8072 Z-9.0000 S1000
G1 F750 X324.4160 Y69.3076 Z-9.0000 S1000
G1 F750 X324.9954 Y69.6853 Z-9.0000 S1000
G1 F750 X325.6459 Y69.9203 Z-9.0000 S1000
G1 F750 X326.3330 Y70.0000 Z-9.0000 S1000
G1 F750 X354.3330 Y70.0000 Z-9.0000 S1000
G1 F750 X354.3330 Y70.0000 Z-6.7500 S1000
G1 F750 X365.3330 Y70.0000 Z-6.7500 S1000
G1 F750 X365.3330 Y70.0000 Z-9.0000 S1000
G1 F750 X393.3330 Y70.0000 Z-9.0000 S1000
G1 F750 X393.3330 Y70.0000 Z-9.0000 S1000
G1 F750 X393.8830 Y69.9491 Z-9.0000 S1000
G1 F750 X394.5438 Y69.7448 Z-9.0000 S1000
G1 F750 X395.1402 Y69.3946 Z-9.0000 S1000
G1 F750 X395.6406 Y68.9170 Z-9.0000 S1000
G1 F750 X396.0183 Y68.3376 Z-9.0000 S1000
G1 F750 X396.2533 Y67.6871 Z-9.0000 S1000
G1 F750 X396.3330 Y67.0000 Z-9.0000 S1000
G1 F750 X396.3330 Y0.0000 Z-9.0000 S1000
G1 F750 X396.2821 Y-0.5500 Z-9.0000 S1000
G1 F750 X396.0778 Y-1.2108 Z-9.0000 S1000
G1 F750 X395.7276 Y-1.8072 Z-9.0000 S1000
G1 F750 X395.2500 Y-2.3076 Z-9.0000 S1000
G1 F750 X394.6706 Y-2.6853 Z-9.0000 S1000
G1 F750 X394.0201 Y-2.9203 Z-9.0000 S1000
G1 F750 X393.3330 Y-3.0000 Z-9.0000 S1000

G0 Z10; move to z-safe height
G0 X238.1665 Y-3.0000

G0 Z0
G1 F100 Z-2.2500
G1 F750 X171.1665 Y-3.0000 Z-2.2500 S1000
G1 F750 X170.6165 Y-2.9491 Z-2.2500 S1000
G1 F750 X169.9557 Y-2.7448 Z-2.2500 S1000
G1 F750 X169.3593 Y-2.3946 Z-2.2500 S1000
G1 F750 X168.8589 Y-1.9170 Z-2.2500 S1000
G1 F750 X168.4812 Y-1.3376 Z-2.2500 S1000
G1 F750 X168.2462 Y-0.6871 Z-2.2500 S1000
G1 F750 X168.1665 Y0.0000 Z-2.2500 S1000
G1 F750 X168.1665 Y67.0000 Z-2.2500 S1000
G1 F750 X168.2174 Y67.5500 Z-2.2500 S1000
G1 F750 X168.4217 Y68.2108 Z-2.2500 S1000
G1 F750 X168.7719 Y68.8072 Z-2.2500 S1000
G1 F750 X169.2495 Y69.3076 Z-2.2500 S1000
G1 F750 X169.8289 Y69.6853 Z-2.2500 S1000
G1 F750 X170.4794 Y69.9203 Z-2.2500 S1000
G1 F750 X171.1665 Y70.0000 Z-2.2500 S1000
G1 F750 X238.1665 Y70.0000 Z-2.2500 S1000
G1 F750 X238.7165 Y69.9491 Z-2.2500 S1000
G1 F750 X239.3773 Y69.7448 Z-2.2500 S1000
G1 F750 X239.9737 Y69.3946 Z-2.2500 S1000
G1 F750 X240.4741 Y68.9170 Z-2.2500 S1000
G1 F750 X240.8518 Y68.3376 Z-2.2500 S1000
G1 F750 X241.0868 Y67.6871 Z-2.2500 S1000
G1 F750 X241.1665 Y67.0000 Z-2.2500 S1000
G1 F750 X241.1665 Y0.0000 Z-2.2500 S1000
G1 F750 X241.1156 Y-0.5500 Z-2.2500 S1000
G1 F750 X240.9113 Y-1.2108 Z-2.2500 S1000
G1 F750 X240.5611 Y-1.8072 Z-2.2500 S1000
G1 F750 X240.0835 Y-2.3076 Z-2.2500 S1000
G1 F750 X239.5041 Y-2.6853 Z-2.2500 S1000
G1 F750 X238.8536 Y-2.9203 Z-2.2500 S1000
G1 F750 X238.1665 Y-3.0000 Z-2.2500 S1000
G1 F100 Z-4.5000
G1 F750 X171.1665 Y-3.0000 Z-4.5000 S1000
G1 F750 X170.6165 Y-2.9491 Z-4.5000 S1000
G1 F750 X169.9557 Y-2.7448 Z-4.5000 S1000
G1 F750 X169.3593 Y-2.3946 Z-4.5000 S1000
G1 F750 X168.8589 Y-1.9170 Z-4.5000 S1000
G1 F750 X168.4812 Y-1.3376 Z-4.5000 S1000
G1 F750 X168.2462 Y-0.6871 Z-4.5000 S1000
G1 F750 X168.1665 Y0.0000 Z-4.5000 S1000
G1 F750 X168.1665 Y67.0000 Z-4.5000 S1000
G1 F750 X168.2174 Y67.5500 Z-4.5000 S1000
G1 F750 X168.4217 Y68.2108 Z-4.5000 S1000
G1 F750 X168.7719 Y68.8072 Z-4.5000 S1000
G1 F750 X169.2495 Y69.3076 Z-4.5000 S1000
G1 F750 X169.8289 Y69.6853 Z-4.5000 S1000
G1 F750 X170.4794 Y69.9203 Z-4.5000 S1000
G1 F750 X171.1665 Y70.0000 Z-4.5000 S1000
G1 F750 X238.1665 Y70.0000 Z-4.5000 S1000
G1 F750 X238.7165 Y69.9491 Z-4.5000 S1000
G1 F750 X239.3773 Y69.7448 Z-4.5000 S1000
G1 F750 X239.9737 Y69.3946 Z-4.5000 S1000
G1 F750 X240.4741 Y68.9170 Z-4.5000 S1000
G1 F750 X240.8518 Y68.3376 Z-4.5000 S1000
G1 F750 X241.0868 Y67.6871 Z-4.5000 S1000
G1 F750 X241.1665 Y67.0000 Z-4.5000 S1000
G1 F750 X241.1665 Y0.0000 Z-4.5000 S1000
G1 F750 X241.1156 Y-0.5500 Z-4.5000 S1000
G1 F750 X240.9113 Y-1.2108 Z-4.5000 S1000
G1 F750 X240.5611 Y-1.8072 Z-4.5000 S1000
G1 F750 X240.0835 Y-2.3076 Z-4.5000 S1000
G1 F750 X239.5041 Y-2.6853 Z-4.5000 S1000
G1 F750 X238.8536 Y-2.9203 Z-4.5000 S1000
G1 F750 X238.1665 Y-3.0000 Z-4.5000 S1000
G1 F100 Z-6.7500
G1 F750 X171.1665 Y-3.0000 Z-6.7500 S1000
G1 F750 X170.6165 Y-2.9491 Z-6.7500 S1000
G1 F750 X169.9557 Y-2.7448 Z-6.7500 S1000
G1 F750 X169.3593 Y-2.3946 Z-6.7500 S1000
G1 F750 X168.8589 Y-1.9170 Z-6.7500 S1000
G1 F750 X168.4812 Y-1.3376 Z-6.7500 S1000
G1 F750 X168.2462 Y-0.6871 Z-6.7500 S1000
G1 F750 X168.1665 Y0.0000 Z-6.7500 S1000
G1 F750 X168.1665 Y67.0000 Z-6.7500 S1000
G1 F750 X168.2174 Y67.5500 Z-6.7500 S1000
G1 F750 X168.4217 Y68.2108 Z-6.7500 S1000
G1 F750 X168.7719 Y68.8072 Z-6.7500 S1000
G1 F750 X169.2495 Y69.3076 Z-6.7500 S1000
G1 F750 X169.8289 Y69.6853 Z-6.7500 S1000
G1 F750 X170.4794 Y69.9203 Z-6.7500 S1000
G1 F750 X171.1665 Y70.0000 Z-6.7500 S1000
G1 F750 X238.1665 Y70.0000 Z-6.7500 S1000
G1 F750 X238.7165 Y69.9491 Z-6.7500 S1000
G1 F750 X239.3773 Y69.7448 Z-6.7500 S1000
G1 F750 X239.9737 Y69.3946 Z-6.7500 S1000
G1 F750 X240.4741 Y68.9170 Z-6.7500 S1000
G1 F750 X240.8518 Y68.3376 Z-6.7500 S1000
G1 F750 X241.0868 Y67.6871 Z-6.7500 S1000
G1 F750 X241.1665 Y67.0000 Z-6.7500 S1000
G1 F750 X241.1665 Y0.0000 Z-6.7500 S1000
G1 F750 X241.1156 Y-0.5500 Z-6.7500 S1000
G1 F750 X240.9113 Y-1.2108 Z-6.7500 S1000
G1 F750 X240.5611 Y-1.8072 Z-6.7500 S1000
G1 F750 X240.0835 Y-2.3076 Z-6.7500 S1000
G1 F750 X239.5041 Y-2.6853 Z-6.7500 S1000
G1 F750 X238.8536 Y-2.9203 Z-6.7500 S1000
G1 F750 X238.1665 Y-3.0000 Z-6.7500 S1000
G1 F100 Z-9.0000
G1 F750 X210.1665 Y-3.0000 Z-9.0000 S1000
G1 F750 X210.1665 Y-3.0000 Z-6.7500 S1000
G1 F750 X199.1665 Y-3.0000 Z-6.7500 S1000
G1 F750 X199.1665 Y-3.0000 Z-9.0000 S1000
G1 F750 X171.1665 Y-3.0000 Z-9.0000 S1000
G1 F750 X171.1665 Y-3.0000 Z-9.0000 S1000
G1 F750 X170.6165 Y-2.9491 Z-9.0000 S1000
G1 F750 X169.9557 Y-2.7448 Z-9.0000 S1000
G1 F750 X169.3593 Y-2.3946 Z-9.0000 S1000
G1 F750 X168.8589 Y-1.9170 Z-9.0000 S1000
G1 F750 X168.4812 Y-1.3376 Z-9.0000 S1000
G1 F750 X168.2462 Y-0.6871 Z-9.0000 S1000
G1 F750 X168.1665 Y0.0000 Z-9.0000 S1000
G1 F750 X168.1665 Y67.0000 Z-9.0000 S1000
G1 F750 X168.2174 Y67.5500 Z-9.0000 S1000
G1 F750 X168.4217 Y68.2108 Z-9.0000 S1000
G1 F750 X168.7719 Y68.8072 Z-9.0000 S1000
G1 F750 X169.2495 Y69.3076 Z-9.0000 S1000
G1 F750 X169.8289 Y69.6853 Z-9.0000 S1000
G1 F750 X170.4794 Y69.9203 Z-9.0000 S1000
G1 F750 X171.1665 Y70.0000 Z-9.0000 S1000
G1 F750 X199.1665 Y70.0000 Z-9.0000 S1000
G1 F750 X199.1665 Y70.0000 Z-6.7500 S1000
G1 F750 X210.1665 Y70.0000 Z-6.7500 S1000
G1 F750 X210.1665 Y70.0000 Z-9.0000 S1000
G1 F750 X238.1665 Y70.0000 Z-9.0000 S1000
G1 F750 X238.1665 Y70.0000 Z-9.0000 S1000
G1 F750 X238.7165 Y69.9491 Z-9.0000 S1000
G1 F750 X239.3773 Y69.7448 Z-9.0000 S1000
G1 F750 X239.9737 Y69.3946 Z-9.0000 S1000
G1 F750 X240.4741 Y68.9170 Z-9.0000 S1000
G1 F750 X240.8518 Y68.3376 Z-9.0000 S1000
G1 F750 X241.0868 Y67.6871 Z-9.0000 S1000
G1 F750 X241.1665 Y67.0000 Z-9.0000 S1000
G1 F750 X241.1665 Y0.0000 Z-9.0000 S1000
G1 F750 X241.1156 Y-0.5500 Z-9.0000 S1000
G1 F750 X240.9113 Y-1.2108 Z-9.0000 S1000
G1 F750 X240.5611 Y-1.8072 Z-9.0000 S1000
G1 F750 X240.0835 Y-2.3076 Z-9.0000 S1000
G1 F750 X239.5041 Y-2.6853 Z-9.0000 S1000
G1 F750 X238.8536 Y-2.9203 Z-9.0000 S1000
G1 F750 X238.1665 Y-3.0000 Z-9.0000 S1000

G0 Z10; move to z-safe height
G0 X470.9163 Y-3.0000

G0 Z0
G1 F100 Z-2.2500
G1 F750 X403.9163 Y-3.0000 Z-2.2500 S1000
G1 F750 X403.3663 Y-2.9491 Z-2.2500 S1000
G1 F750 X402.7055 Y-2.7448 Z-2.2500 S1000
G1 F750 X402.1091 Y-2.3946 Z-2.2500 S1000
G1 F750 X401.6087 Y-1.9170 Z-2.2500 S1000
G1 F750 X401.2310 Y-1.3376 Z-2.2500 S1000
G1 F750 X400.9960 Y-0.6871 Z-2.2500 S1000
G1 F750 X400.9163 Y0.0000 Z-2.2500 S1000
G1 F750 X400.9163 Y67.0001 Z-2.2500 S1000
G1 F750 X400.9672 Y67.5501 Z-2.2500 S1000
G1 F750 X401.1715 Y68.2109 Z-2.2500 S1000
G1 F750 X401.5217 Y68.8073 Z-2.2500 S1000
G1 F750 X401.9993 Y69.3077 Z-2.2500 S1000
G1 F750 X402.5787 Y69.6854 Z-2.2500 S1000
G1 F750 X403.2292 Y69.9204 Z-2.2500 S1000
G1 F750 X403.9163 Y70.0001 Z-2.2500 S1000
G1 F750 X470.9163 Y70.0001 Z-2.2500 S1000
G1 F750 X471.4663 Y69.9492 Z-2.2500 S1000
G1 F750 X472.1271 Y69.7449 Z-2.2500 S1000
G1 F750 X472.7235 Y69.3947 Z-2.2500 S1000
G1 F750 X473.2239 Y68.9171 Z-2.2500 S1000
G1 F750 X473.6016 Y68.3377 Z-2.2500 S1000
G1 F750 X473.8366 Y67.6872 Z-2.2500 S1000
G1 F750 X473.9163 Y67.0001 Z-2.2500 S1000
G1 F750 X473.9163 Y0.0000 Z-2.2500 S1000
G1 F750 X473.8654 Y-0.5500 Z-2.2500 S1000
G1 F750 X473.6611 Y-1.2108 Z-2.2500 S1000
G1 F750 X473.3109 Y-1.8072 Z-2.2500 S1000
G1 F750 X472.8333 Y-2.3076 Z-2.2500 S1000
G1 F750 X472.2539 Y-2.6853 Z-2.2500 S1000
G1 F750 X471.6034 Y-2.9203 Z-2.2500 S1000
G1 F750 X470.9163 Y-3.0000 Z-2.2500 S1000
G1 F100 Z-4.5000
G1 F750 X403.9163 Y-3.0000 Z-4.5000 S1000
G1 F750 X403.3663 Y-2.9491 Z-4.5000 S1000
G1 F750 X402.7055 Y-2.7448 Z-4.5000 S1000
G1 F750 X402.1091 Y-2.3946 Z-4.5000 S1000
G1 F750 X401.6087 Y-1.9170 Z-4.5000 S1000
G1 F750 X401.2310 Y-1.3376 Z-4.5000 S1000
G1 F750 X400.9960 Y-0.6871 Z-4.5000 S1000
G1 F750 X400.9163 Y0.0000 Z-4.5000 S1000
G1 F750 X400.9163 Y67.0001 Z-4.5000 S1000
G1 F750 X400.9672 Y67.5501 Z-4.5000 S1000
G1 F750 X401.1715 Y68.2109 Z-4.5000 S1000
G1 F750 X401.5217 Y68.8073 Z-4.5000 S1000
G1 F750 X401.9993 Y69.3077 Z-4.5000 S1000
G1 F750 X402.5787 Y69.6854 Z-4.5000 S1000
G1 F750 X403.2292 Y69.9204 Z-4.5000 S1000
G1 F750 X403.9163 Y70.0001 Z-4.5000 S1000
G1 F750 X470.9163 Y70.0001 Z-4.5000 S1000
G1 F750 X471.4663 Y69.9492 Z-4.5000 S1000
G1 F750 X472.1271 Y69.7449 Z-4.5000 S1000
G1 F750 X472.7235 Y69.3947 Z-4.5000 S1000
G1 F750 X473.2239 Y68.9171 Z-4.5000 S1000
G1 F750 X473.6016 Y68.3377 Z-4.5000 S1000
G1 F750 X473.8366 Y67.6872 Z-4.5000 S1000
G1 F750 X473.9163 Y67.0001 Z-4.5000 S1000
G1 F750 X473.9163 Y0.0000 Z-4.5000 S1000
G1 F750 X473.8654 Y-0.5500 Z-4.5000 S1000
G1 F750 X473.6611 Y-1.2108 Z-4.5000 S1000
G1 F750 X473.3109 Y-1.8072 Z-4.5000 S1000
G1 F750 X472.8333 Y-2.3076 Z-4.5000 S1000
G1 F750 X472.2539 Y-2.6853 Z-4.5000 S1000
G1 F750 X471.6034 Y-2.9203 Z-4.5000 S1000
G1 F750 X470.9163 Y-3.0000 Z-4.5000 S1000
G1 F100 Z-6.7500
G1 F750 X403.9163 Y-3.0000 Z-6.7500 S1000
G1 F750 X403.3663 Y-2.9491 Z-6.7500 S1000
G1 F750 X402.7055 Y-2.7448 Z-6.7500 S1000
G1 F750 X402.1091 Y-2.3946 Z-6.7500 S1000
G1 F750 X401.6087 Y-1.9170 Z-6.7500 S1000
G1 F750 X401.2310 Y-1.3376 Z-6.7500 S1000
G1 F750 X400.9960 Y-0.6871 Z-6.7500 S1000
G1 F750 X400.9163 Y0.0000 Z-6.7500 S1000
G1 F750 X400.9163 Y67.0001 Z-6.7500 S1000
G1 F750 X400.9672 Y67.5501 Z-6.7500 S1000
G1 F750 X401.1715 Y68.2109 Z-6.7500 S1000
G1 F750 X401.5217 Y68.8073 Z-6.7500 S1000
G1 F750 X401.9993 Y69.3077 Z-6.7500 S1000
G1 F750 X402.5787 Y69.6854 Z-6.7500 S1000
G1 F750 X403.2292 Y69.9204 Z-6.7500 S1000
G1 F750 X403.9163 Y70.0001 Z-6.7500 S1000
G1 F750 X470.9163 Y70.0001 Z-6.7500 S1000
G1 F750 X471.4663 Y69.9492 Z-6.7500 S1000
G1 F750 X472.1271 Y69.7449 Z-6.7500 S1000
G1 F750 X472.7235 Y69.3947 Z-6.7500 S1000
G1 F750 X473.2239 Y68.9171 Z-6.7500 S1000
G1 F750 X473.6016 Y68.3377 Z-6.7500 S1000
G1 F750 X473.8366 Y67.6872 Z-6.7500 S1000
G1 F750 X473.9163 Y67.0001 Z-6.7500 S1000
G1 F750 X473.9163 Y0.0000 Z-6.7500 S1000
G1 F750 X473.8654 Y-0.5500 Z-6.7500 S1000
G1 F750 X473.6611 Y-1.2108 Z-6.7500 S1000
G1 F750 X473.3109 Y-1.8072 Z-6.7500 S1000
G1 F750 X472.8333 Y-2.3076 Z-6.7500 S1000
G1 F750 X472.2539 Y-2.6853 Z-6.7500 S1000
G1 F750 X471.6034 Y-2.9203 Z-6.7500 S1000
G1 F750 X470.9163 Y-3.0000 Z-6.7500 S1000
G1 F100 Z-9.0000
G1 F750 X442.9163 Y-3.0000 Z-9.0000 S1000
G1 F750 X442.9163 Y-3.0000 Z-6.7500 S1000
G1 F750 X431.9163 Y-3.0000 Z-6.7500 S1000
G1 F750 X431.9163 Y-3.0000 Z-9.0000 S1000
G1 F750 X403.9163 Y-3.0000 Z-9.0000 S1000
G1 F750 X403.9163 Y-3.0000 Z-9.0000 S1000
G1 F750 X403.3663 Y-2.9491 Z-9.0000 S1000
G1 F750 X402.7055 Y-2.7448 Z-9.0000 S1000
G1 F750 X402.1091 Y-2.3946 Z-9.0000 S1000
G1 F750 X401.6087 Y-1.9170 Z-9.0000 S1000
G1 F750 X401.2310 Y-1.3376 Z-9.0000 S1000
G1 F750 X400.9960 Y-0.6871 Z-9.0000 S1000
G1 F750 X400.9163 Y0.0000 Z-9.0000 S1000
G1 F750 X400.9163 Y67.0001 Z-9.0000 S1000
G1 F750 X400.9672 Y67.5501 Z-9.0000 S1000
G1 F750 X401.1715 Y68.2109 Z-9.0000 S1000
G1 F750 X401.5217 Y68.8073 Z-9.0000 S1000
G1 F750 X401.9993 Y69.3077 Z-9.0000 S1000
G1 F750 X402.5787 Y69.6854 Z-9.0000 S1000
G1 F750 X403.2292 Y69.9204 Z-9.0000 S1000
G1 F750 X403.9163 Y70.0001 Z-9.0000 S1000
G1 F750 X431.9163 Y70.0001 Z-9.0000 S1000
G1 F750 X431.9163 Y70.0001 Z-6.7500 S1000
G1 F750 X442.9163 Y70.0001 Z-6.7500 S1000
G1 F750 X442.9163 Y70.0001 Z-9.0000 S1000
G1 F750 X470.9163 Y70.0001 Z-9.0000 S1000
G1 F750 X470.9163 Y70.0001 Z-9.0000 S1000
G1 F750 X471.4663 Y69.9492 Z-9.0000 S1000
G1 F750 X472.1271 Y69.7449 Z-9.0000 S1000
G1 F750 X472.7235 Y69.3947 Z-9.0000 S1000
G1 F750 X473.2239 Y68.9171 Z-9.0000 S1000
G1 F750 X473.6016 Y68.3377 Z-9.0000 S1000
G1 F750 X473.8366 Y67.6872 Z-9.0000 S1000
G1 F750 X473.9163 Y67.0001 Z-9.0000 S1000
G1 F750 X473.9163 Y0.0000 Z-9.0000 S1000
G1 F750 X473.8654 Y-0.5500 Z-9.0000 S1000
G1 F750 X473.6611 Y-1.2108 Z-9.0000 S1000
G1 F750 X473.3109 Y-1.8072 Z-9.0000 S1000
G1 F750 X472.8333 Y-2.3076 Z-9.0000 S1000
G1 F750 X472.2539 Y-2.6853 Z-9.0000 S1000
G1 F750 X471.6034 Y-2.9203 Z-9.0000 S1000
G1 F750 X470.9163 Y-3.0000 Z-9.0000 S1000

G0 Z10; move to z-safe height
G0 X75.0000 Y-3.0000

G0 Z0
G1 F100 Z-2.2500
G1 F750 X0.0000 Y-3.0000 Z-2.2500 S1000
G1 F750 X-0.5500 Y-2.9491 Z-2.2500 S1000
G1 F750 X-1.2108 Y-2.7448 Z-2.2500 S1000
G1 F750 X-1.8072 Y-2.3946 Z-2.2500 S1000
G1 F750 X-2.3076 Y-1.9170 Z-2.2500 S1000
G1 F750 X-2.6853 Y-1.3376 Z-2.2500 S1000
G1 F750 X-2.9203 Y-0.6871 Z-2.2500 S1000
G1 F750 X-3.0000 Y0.0000 Z-2.2500 S1000
G1 F750 X-3.0000 Y67.0000 Z-2.2500 S1000
G1 F750 X-2.9491 Y67.5500 Z-2.2500 S1000
G1 F750 X-2.7448 Y68.2108 Z-2.2500 S1000
G1 F750 X-2.3946 Y68.8072 Z-2.2500 S1000
G1 F750 X-1.9170 Y69.3076 Z-2.2500 S1000
G1 F750 X-1.3376 Y69.6853 Z-2.2500 S1000
G1 F750 X-0.6871 Y69.9203 Z-2.2500 S1000
G1 F750 X0.0000 Y70.0000 Z-2.2500 S1000
G1 F750 X75.0000 Y70.0000 Z-2.2500 S1000
G1 F750 X75.5500 Y69.9491 Z-2.2500 S1000
G1 F750 X76.2108 Y69.7448 Z-2.2500 S1000
G1 F750 X76.8072 Y69.3946 Z-2.2500 S1000
G1 F750 X77.3076 Y68.9170 Z-2.2500 S1000
G1 F750 X77.6853 Y68.3376 Z-2.2500 S1000
G1 F750 X77.9203 Y67.6871 Z-2.2500 S1000
G1 F750 X78.0000 Y67.0000 Z-2.2500 S1000
G1 F750 X78.0000 Y0.0000 Z-2.2500 S1000
G1 F750 X77.9491 Y-0.5500 Z-2.2500 S1000
G1 F750 X77.7448 Y-1.2108 Z-2.2500 S1000
G1 F750 X77.3946 Y-1.8072 Z-2.2500 S1000
G1 F750 X76.9170 Y-2.3076 Z-2.2500 S1000
G1 F750 X76.3376 Y-2.6853 Z-2.2500 S1000
G1 F750 X75.6871 Y-2.9203 Z-2.2500 S1000
G1 F750 X75.0000 Y-3.0000 Z-2.2500 S1000
G1 F100 Z-4.5000
G1 F750 X0.0000 Y-3.0000 Z-4.5000 S1000
G1 F750 X-0.5500 Y-2.9491 Z-4.5000 S1000
G1 F750 X-1.2108 Y-2.7448 Z-4.5000 S1000
G1 F750 X-1.8072 Y-2.3946 Z-4.5000 S1000
G1 F750 X-2.3076 Y-1.9170 Z-4.5000 S1000
G1 F750 X-2.6853 Y-1.3376 Z-4.5000 S1000
G1 F750 X-2.9203 Y-0.6871 Z-4.5000 S1000
G1 F750 X-3.0000 Y0.0000 Z-4.5000 S1000
G1 F750 X-3.0000 Y67.0000 Z-4.5000 S1000
G1 F750 X-2.9491 Y67.5500 Z-4.5000 S1000
G1 F750 X-2.7448 Y68.2108 Z-4.5000 S1000
G1 F750 X-2.3946 Y68.8072 Z-4.5000 S1000
G1 F750 X-1.9170 Y69.3076 Z-4.5000 S1000
G1 F750 X-1.3376 Y69.6853 Z-4.5000 S1000
G1 F750 X-0.6871 Y69.9203 Z-4.5000 S1000
G1 F750 X0.0000 Y70.0000 Z-4.5000 S1000
G1 F750 X75.0000 Y70.0000 Z-4.5000 S1000
G1 F750 X75.5500 Y69.9491 Z-4.5000 S1000
G1 F750 X76.2108 Y69.7448 Z-4.5000 S1000
G1 F750 X76.8072 Y69.3946 Z-4.5000 S1000
G1 F750 X77.3076 Y68.9170 Z-4.5000 S1000
G1 F750 X77.6853 Y68.3376 Z-4.5000 S1000
G1 F750 X77.9203 Y67.6871 Z-4.5000 S1000
G1 F750 X78.0000 Y67.0000 Z-4.5000 S1000
G1 F750 X78.0000 Y0.0000 Z-4.5000 S1000
G1 F750 X77.9491 Y-0.5500 Z-4.5000 S1000
G1 F750 X77.7448 Y-1.2108 Z-4.5000 S1000
G1 F750 X77.3946 Y-1.8072 Z-4.5000 S1000
G1 F750 X76.9170 Y-2.3076 Z-4.5000 S1000
G1 F750 X76.3376 Y-2.6853 Z-4.5000 S1000
G1 F750 X75.6871 Y-2.9203 Z-4.5000 S1000
G1 F750 X75.0000 Y-3.0000 Z-4.5000 S1000
G1 F100 Z-6.7500
G1 F750 X0.0000 Y-3.0000 Z-6.7500 S1000
G1 F750 X-0.5500 Y-2.9491 Z-6.7500 S1000
G1 F750 X-1.2108 Y-2.7448 Z-6.7500 S1000
G1 F750 X-1.8072 Y-2.3946 Z-6.7500 S1000
G1 F750 X-2.3076 Y-1.9170 Z-6.7500 S1000
G1 F750 X-2.6853 Y-1.3376 Z-6.7500 S1000
G1 F750 X-2.9203 Y-0.6871 Z-6.7500 S1000
G1 F750 X-3.0000 Y0.0000 Z-6.7500 S1000
G1 F750 X-3.0000 Y67.0000 Z-6.7500 S1000
G1 F750 X-2.9491 Y67.5500 Z-6.7500 S1000
G1 F750 X-2.7448 Y68.2108 Z-6.7500 S1000
G1 F750 X-2.3946 Y68.8072 Z-6.7500 S1000
G1 F750 X-1.9170 Y69.3076 Z-6.7500 S1000
G1 F750 X-1.3376 Y69.6853 Z-6.7500 S1000
G1 F750 X-0.6871 Y69.9203 Z-6.7500 S1000
G1 F750 X0.0000 Y70.0000 Z-6.7500 S1000
G1 F750 X75.0000 Y70.0000 Z-6.7500 S1000
G1 F750 X75.5500 Y69.9491 Z-6.7500 S1000
G1 F750 X76.2108 Y69.7448 Z-6.7500 S1000
G1 F750 X76.8072 Y69.3946 Z-6.7500 S1000
G1 F750 X77.3076 Y68.9170 Z-6.7500 S1000
G1 F750 X77.6853 Y68.3376 Z-6.7500 S1000
G1 F750 X77.9203 Y67.6871 Z-6.7500 S1000
G1 F750 X78.0000 Y67.0000 Z-6.7500 S1000
G1 F750 X78.0000 Y0.0000 Z-6.7500 S1000
G1 F750 X77.9491 Y-0.5500 Z-6.7500 S1000
G1 F750 X77.7448 Y-1.2108 Z-6.7500 S1000
G1 F750 X77.3946 Y-1.8072 Z-6.7500 S1000
G1 F750 X76.9170 Y-2.3076 Z-6.7500 S1000
G1 F750 X76.3376 Y-2.6853 Z-6.7500 S1000
G1 F750 X75.6871 Y-2.9203 Z-6.7500 S1000
G1 F750 X75.0000 Y-3.0000 Z-6.7500 S1000
G1 F100 Z-9.0000
G1 F750 X43.0000 Y-3.0000 Z-9.0000 S1000
G1 F750 X43.0000 Y-3.0000 Z-6.7500 S1000
G1 F750 X32.0000 Y-3.0000 Z-6.7500 S1000
G1 F750 X32.0000 Y-3.0000 Z-9.0000 S1000
G1 F750 X0.0000 Y-3.0000 Z-9.0000 S1000
G1 F750 X0.0000 Y-3.0000 Z-9.0000 S1000
G1 F750 X-0.5500 Y-2.9491 Z-9.0000 S1000
G1 F750 X-1.2108 Y-2.7448 Z-9.0000 S1000
G1 F750 X-1.8072 Y-2.3946 Z-9.0000 S1000
G1 F750 X-2.3076 Y-1.9170 Z-9.0000 S1000
G1 F750 X-2.6853 Y-1.3376 Z-9.0000 S1000
G1 F750 X-2.9203 Y-0.6871 Z-9.0000 S1000
G1 F750 X-3.0000 Y0.0000 Z-9.0000 S1000
G1 F750 X-3.0000 Y67.0000 Z-9.0000 S1000
G1 F750 X-2.9491 Y67.5500 Z-9.0000 S1000
G1 F750 X-2.7448 Y68.2108 Z-9.0000 S1000
G1 F750 X-2.3946 Y68.8072 Z-9.0000 S1000
G1 F750 X-1.9170 Y69.3076 Z-9.0000 S1000
G1 F750 X-1.3376 Y69.6853 Z-9.0000 S1000
G1 F750 X-0.6871 Y69.9203 Z-9.0000 S1000
G1 F750 X0.0000 Y70.0000 Z-9.0000 S1000
G1 F750 X32.0000 Y70.0000 Z-9.0000 S1000
G1 F750 X32.0000 Y70.0000 Z-6.7500 S1000
G1 F750 X43.0000 Y70.0000 Z-6.7500 S1000
G1 F750 X43.0000 Y70.0000 Z-9.0000 S1000
G1 F750 X75.0000 Y70.0000 Z-9.0000 S1000
G1 F750 X75.0000 Y70.0000 Z-9.0000 S1000
G1 F750 X75.5500 Y69.9491 Z-9.0000 S1000
G1 F750 X76.2108 Y69.7448 Z-9.0000 S1000
G1 F750 X76.8072 Y69.3946 Z-9.0000 S1000
G1 F750 X77.3076 Y68.9170 Z-9.0000 S1000
G1 F750 X77.6853 Y68.3376 Z-9.0000 S1000
G1 F750 X77.9203 Y67.6871 Z-9.0000 S1000
G1 F750 X78.0000 Y67.0000 Z-9.0000 S1000
G1 F750 X78.0000 Y0.0000 Z-9.0000 S1000
G1 F750 X77.9491 Y-0.5500 Z-9.0000 S1000
G1 F750 X77.7448 Y-1.2108 Z-9.0000 S1000
G1 F750 X77.3946 Y-1.8072 Z-9.0000 S1000
G1 F750 X76.9170 Y-2.3076 Z-9.0000 S1000
G1 F750 X76.3376 Y-2.6853 Z-9.0000 S1000
G1 F750 X75.6871 Y-2.9203 Z-9.0000 S1000
G1 F750 X75.0000 Y-3.0000 Z-9.0000 S1000

G0 Z10; move to z-safe height
G0 X160.5833 Y-3.0000

G0 Z0
G1 F100 Z-2.2500
G1 F750 X85.5833 Y-3.0000 Z-2.2500 S1000
G1 F750 X85.0333 Y-2.9491 Z-2.2500 S1000
G1 F750 X84.3725 Y-2.7448 Z-2.2500 S1000
G1 F750 X83.7761 Y-2.3946 Z-2.2500 S1000
G1 F750 X83.2757 Y-1.9170 Z-2.2500 S1000
G1 F750 X82.8980 Y-1.3376 Z-2.2500 S1000
G1 F750 X82.6630 Y-0.6871 Z-2.2500 S1000
G1 F750 X82.5833 Y0.0000 Z-2.2500 S1000
G1 F750 X82.5833 Y67.0000 Z-2.2500 S1000
G1 F750 X82.6342 Y67.5500 Z-2.2500 S1000
G1 F750 X82.8385 Y68.2108 Z-2.2500 S1000
G1 F750 X83.1887 Y68.8072 Z-2.2500 S1000
G1 F750 X83.6663 Y69.3076 Z-2.2500 S1000
G1 F750 X84.2457 Y69.6853 Z-2.2500 S1000
G1 F750 X84.8962 Y69.9203 Z-2.2500 S1000
G1 F750 X85.5833 Y70.0000 Z-2.2500 S1000
G1 F750 X160.5833 Y70.0000 Z-2.2500 S1000
G1 F750 X161.1333 Y69.9491 Z-2.2500 S1000
G1 F750 X161.7941 Y69.7448 Z-2.2500 S1000
G1 F750 X162.3905 Y69.3946 Z-2.2500 S1000
G1 F750 X162.8909 Y68.9170 Z-2.2500 S1000
G1 F750 X163.2686 Y68.3376 Z-2.2500 S1000
G1 F750 X163.5036 Y67.6871 Z-2.2500 S1000
G1 F750 X163.5833 Y67.0000 Z-2.2500 S1000
G1 F750 X163.5833 Y0.0000 Z-2.2500 S1000
G1 F750 X163.5324 Y-0.5500 Z-2.2500 S1000
G1 F750 X163.3281 Y-1.2108 Z-2.2500 S1000
G1 F750 X162.9779 Y-1.8072 Z-2.2500 S1000
G1 F750 X162.5003 Y-2.3076 Z-2.2500 S1000
G1 F750 X161.9209 Y-2.6853 Z-2.2500 S1000
G1 F750 X161.2704 Y-2.9203 Z-2.2500 S1000
G1 F750 X160.5833 Y-3.0000 Z-2.2500 S1000
G1 F100 Z-4.5000
G1 F750 X85.5833 Y-3.0000 Z-4.5000 S1000
G1 F750 X85.0333 Y-2.9491 Z-4.5000 S1000
G1 F750 X84.3725 Y-2.7448 Z-4.5000 S1000
G1 F750 X83.7761 Y-2.3946 Z-4.5000 S1000
G1 F750 X83.2757 Y-1.9170 Z-4.5000 S1000
G1 F750 X82.8980 Y-1.3376 Z-4.5000 S1000
G1 F750 X82.6630 Y-0.6871 Z-4.5000 S1000
G1 F750 X82.5833 Y0.0000 Z-4.5000 S1000
G1 F750 X82.5833 Y67.0000 Z-4.5000 S1000
G1 F750 X82.6342 Y67.5500 Z-4.5000 S1000
G1 F750 X82.8385 Y68.2108 Z-4.5000 S1000
G1 F750 X83.1887 Y68.8072 Z-4.5000 S1000
G1 F750 X83.6663 Y69.3076 Z-4.5000 S1000
G1 F750 X84.2457 Y69.6853 Z-4.5000 S1000
G1 F750 X84.8962 Y69.9203 Z-4.5000 S1000
G1 F750 X85.5833 Y70.0000 Z-4.5000 S1000
G1 F750 X160.5833 Y70.0000 Z-4.5000 S1000
G1 F750 X161.1333 Y69.9491 Z-4.5000 S1000
G1 F750 X161.7941 Y69.7448 Z-4.5000 S1000
G1 F750 X162.3905 Y69.3946 Z-4.5000 S1000
G1 F750 X162.8909 Y68.9170 Z-4.5000 S1000
G1 F750 X163.2686 Y68.3376 Z-4.5000 S1000
G1 F750 X163.5036 Y67.6871 Z-4.5000 S1000
G1 F750 X163.5833 Y67.0000 Z-4.5000 S1000
G1 F750 X163.5833 Y0.0000 Z-4.5000 S1000
G1 F750 X163.5324 Y-0.5500 Z-4.5000 S1000
G1 F750 X163.3281 Y-1.2108 Z-4.5000 S1000
G1 F750 X162.9779 Y-1.8072 Z-4.5000 S1000
G1 F750 X162.5003 Y-2.3076 Z-4.5000 S1000
G1 F750 X161.9209 Y-2.6853 Z-4.5000 S1000
G1 F750 X161.2704 Y-2.9203 Z-4.5000 S1000
G1 F750 X160.5833 Y-3.0000 Z-4.5000 S1000
G1 F100 Z-6.7500
G1 F750 X85.5833 Y-3.0000 Z-6.7500 S1000
G1 F750 X85.0333 Y-2.9491 Z-6.7500 S1000
G1 F750 X84.3725 Y-2.7448 Z-6.7500 S1000
G1 F750 X83.7761 Y-2.3946 Z-6.7500 S1000
G1 F750 X83.2757 Y-1.9170 Z-6.7500 S1000
G1 F750 X82.8980 Y-1.3376 Z-6.7500 S1000
G1 F750 X82.6630 Y-0.6871 Z-6.7500 S1000
G1 F750 X82.5833 Y0.0000 Z-6.7500 S1000
G1 F750 X82.5833 Y67.0000 Z-6.7500 S1000
G1 F750 X82.6342 Y67.5500 Z-6.7500 S1000
G1 F750 X82.8385 Y68.2108 Z-6.7500 S1000
G1 F750 X83.1887 Y68.8072 Z-6.7500 S1000
G1 F750 X83.6663 Y69.3076 Z-6.7500 S1000
G1 F750 X84.2457 Y69.6853 Z-6.7500 S1000
G1 F750 X84.8962 Y69.9203 Z-6.7500 S1000
G1 F750 X85.5833 Y70.0000 Z-6.7500 S1000
G1 F750 X160.5833 Y70.0000 Z-6.7500 S1000
G1 F750 X161.1333 Y69.9491 Z-6.7500 S1000
G1 F750 X161.7941 Y69.7448 Z-6.7500 S1000
G1 F750 X162.3905 Y69.3946 Z-6.7500 S1000
G1 F750 X162.8909 Y68.9170 Z-6.7500 S1000
G1 F750 X163.2686 Y68.3376 Z-6.7500 S1000
G1 F750 X163.5036 Y67.6871 Z-6.7500 S1000
G1 F750 X163.5833 Y67.0000 Z-6.7500 S1000
G1 F750 X163.5833 Y0.0000 Z-6.7500 S1000
G1 F750 X163.5324 Y-0.5500 Z-6.7500 S1000
G1 F750 X163.3281 Y-1.2108 Z-6.7500 S1000
G1 F750 X162.9779 Y-1.8072 Z-6.7500 S1000
G1 F750 X162.5003 Y-2.3076 Z-6.7500 S1000
G1 F750 X161.9209 Y-2.6853 Z-6.7500 S1000
G1 F750 X161.2704 Y-2.9203 Z-6.7500 S1000
G1 F750 X160.5833 Y-3.0000 Z-6.7500 S1000
G1 F100 Z-9.0000
G1 F750 X128.5833 Y-3.0000 Z-9.0000 S1000
G1 F750 X128.5833 Y-3.0000 Z-6.7500 S1000
G1 F750 X117.5833 Y-3.0000 Z-6.7500 S1000
G1 F750 X117.5833 Y-3.0000 Z-9.0000 S1000
G1 F750 X85.5833 Y-3.0000 Z-9.0000 S1000
G1 F750 X85.5833 Y-3.0000 Z-9.0000 S1000
G1 F750 X85.0333 Y-2.9491 Z-9.0000 S1000
G1 F750 X84.3725 Y-2.7448 Z-9.0000 S1000
G1 F750 X83.7761 Y-2.3946 Z-9.0000 S1000
G1 F750 X83.2757 Y-1.9170 Z-9.0000 S1000
G1 F750 X82.8980 Y-1.3376 Z-9.0000 S1000
G1 F750 X82.6630 Y-0.6871 Z-9.0000 S1000
G1 F750 X82.5833 Y0.0000 Z-9.0000 S1000
G1 F750 X82.5833 Y67.0000 Z-9.0000 S1000
G1 F750 X82.6342 Y67.5500 Z-9.0000 S1000
G1 F750 X82.8385 Y68.2108 Z-9.0000 S1000
G1 F750 X83.1887 Y68.8072 Z-9.0000 S1000
G1 F750 X83.6663 Y69.3076 Z-9.0000 S1000
G1 F750 X84.2457 Y69.6853 Z-9.0000 S1000
G1 F750 X84.8962 Y69.9203 Z-9.0000 S1000
G1 F750 X85.5833 Y70.0000 Z-9.0000 S1000
G1 F750 X117.5833 Y70.0000 Z-9.0000 S1000
G1 F750 X117.5833 Y70.0000 Z-6.7500 S1000
G1 F750 X128.5833 Y70.0000 Z-6.7500 S1000
G1 F750 X128.5833 Y70.0000 Z-9.0000 S1000
G1 F750 X160.5833 Y70.0000 Z-9.0000 S1000
G1 F750 X160.5833 Y70.0000 Z-9.0000 S1000
G1 F750 X161.1333 Y69.9491 Z-9.0000 S1000
G1 F750 X161.7941 Y69.7448 Z-9.0000 S1000
G1 F750 X162.3905 Y69.3946 Z-9.0000 S1000
G1 F750 X162.8909 Y68.9170 Z-9.0000 S1000
G1 F750 X163.2686 Y68.3376 Z-9.0000 S1000
G1 F750 X163.5036 Y67.6871 Z-9.0000 S1000
G1 F750 X163.5833 Y67.0000 Z-9.0000 S1000
G1 F750 X163.5833 Y0.0000 Z-9.0000 S1000
G1 F750 X163.5324 Y-0.5500 Z-9.0000 S1000
G1 F750 X163.3281 Y-1.2108 Z-9.0000 S1000
G1 F750 X162.9779 Y-1.8072 Z-9.0000 S1000
G1 F750 X162.5003 Y-2.3076 Z-9.0000 S1000
G1 F750 X161.9209 Y-2.6853 Z-9.0000 S1000
G1 F750 X161.2704 Y-2.9203 Z-9.0000 S1000
G1 F750 X160.5833 Y-3.0000 Z-9.0000 S1000
; retracting back to z-safe
G0 Z10

M5 S0; Spindle Off
