; GCODE Generated by cam.openbuilds.com on 2021-04-16 
G21 ; mm-mode
G54; Work Coordinates
G21; mm-mode
G90; Absolute Positioning
M3 S1000; Spindle On

; Operation 0: CNC: Pocket
; Endmill Diameter: 3.17

G0 Z10; move to z-safe height
G0 F1000 X46.9150 Y16.4636

G0 Z0
G1 F80 Z-1.0000
G1 F750 X28.0850 Y16.4636 Z-1.0000 S1000
G1 F750 X28.0850 Y16.4336 Z-1.0000 S1000
G1 F750 X46.9150 Y16.4336 Z-1.0000 S1000
G1 F750 X46.9150 Y16.4636 Z-1.0000 S1000
G1 F80 Z-2.0000
G1 F750 X28.0850 Y16.4636 Z-2.0000 S1000
G1 F750 X28.0850 Y16.4336 Z-2.0000 S1000
G1 F750 X46.9150 Y16.4336 Z-2.0000 S1000
G1 F750 X46.9150 Y16.4636 Z-2.0000 S1000
; retracting back to z-safe
G0 Z10
; Operation 1: Drill: Continuous (Centered)
; Endmill Diameter: 3.17

G0 Z10; move to z-safe height
G0 F1000 X359.8330 Y33.5000

G0 Z0
G1 F80 Z0.0000
G1 F750 X359.8330 Y33.5000 Z-2.0000 S1000
G1 F750 X359.8330 Y33.5000 Z0.0000 S1000
; retracting back to z-safe
G0 Z10
; Operation 2: Drill: Continuous (Centered)
; Endmill Diameter: 3.17

G0 Z10; move to z-safe height
G0 F1000 X352.4331 Y16.0003

G0 Z0
G1 F80 Z0.0000
G1 F750 X352.4331 Y16.0003 Z-9.0000 S1000
G1 F750 X352.4331 Y16.0003 Z0.0000 S1000

G0 Z10; move to z-safe height
G0 X367.2331 Y16.0003

G0 Z0
G1 F80 Z0.0000
G1 F750 X367.2331 Y16.0003 Z-9.0000 S1000
G1 F750 X367.2331 Y16.0003 Z0.0000 S1000

G0 Z10; move to z-safe height
G0 X463.4158 Y7.5002

G0 Z0
G1 F80 Z0.0000
G1 F750 X463.4158 Y7.5002 Z-9.0000 S1000
G1 F750 X463.4158 Y7.5002 Z0.0000 S1000

G0 Z10; move to z-safe height
G0 X411.4158 Y59.5002

G0 Z0
G1 F80 Z0.0000
G1 F750 X411.4158 Y59.5002 Z-9.0000 S1000
G1 F750 X411.4158 Y59.5002 Z0.0000 S1000

G0 Z10; move to z-safe height
G0 X411.4158 Y7.5002

G0 Z0
G1 F80 Z0.0000
G1 F750 X411.4158 Y7.5002 Z-9.0000 S1000
G1 F750 X411.4158 Y7.5002 Z0.0000 S1000

G0 Z10; move to z-safe height
G0 X463.4158 Y59.5002

G0 Z0
G1 F80 Z0.0000
G1 F750 X463.4158 Y59.5002 Z-9.0000 S1000
G1 F750 X463.4158 Y59.5002 Z0.0000 S1000
; retracting back to z-safe
G0 Z10
; Operation 3: CNC: Vector (path inside)
; Endmill Diameter: 3.17

G0 Z10; move to z-safe height
G0 F1000 X42.7400 Y27.0945

G0 Z0
G1 F80 Z-1.5000
G1 F750 X32.2600 Y27.0945 Z-1.5000 S1000
G1 F750 X32.2600 Y18.0145 Z-1.5000 S1000
G1 F750 X42.7400 Y18.0145 Z-1.5000 S1000
G1 F750 X42.7400 Y27.0945 Z-1.5000 S1000
G1 F80 Z-3.0000
G1 F750 X32.2600 Y27.0945 Z-3.0000 S1000
G1 F750 X32.2600 Y18.0145 Z-3.0000 S1000
G1 F750 X42.7400 Y18.0145 Z-3.0000 S1000
G1 F750 X42.7400 Y27.0945 Z-3.0000 S1000
G1 F80 Z-4.5000
G1 F750 X32.2600 Y27.0945 Z-4.5000 S1000
G1 F750 X32.2600 Y18.0145 Z-4.5000 S1000
G1 F750 X42.7400 Y18.0145 Z-4.5000 S1000
G1 F750 X42.7400 Y27.0945 Z-4.5000 S1000
G1 F80 Z-6.0000
G1 F750 X32.2600 Y27.0945 Z-6.0000 S1000
G1 F750 X32.2600 Y18.0145 Z-6.0000 S1000
G1 F750 X42.7400 Y18.0145 Z-6.0000 S1000
G1 F750 X42.7400 Y27.0945 Z-6.0000 S1000
G1 F80 Z-7.5000
G1 F750 X32.2600 Y27.0945 Z-7.5000 S1000
G1 F750 X32.2600 Y18.0145 Z-7.5000 S1000
G1 F750 X42.7400 Y18.0145 Z-7.5000 S1000
G1 F750 X42.7400 Y27.0945 Z-7.5000 S1000
G1 F80 Z-9.0000
G1 F750 X32.2600 Y27.0945 Z-9.0000 S1000
G1 F750 X32.2600 Y18.0145 Z-9.0000 S1000
G1 F750 X42.7400 Y18.0145 Z-9.0000 S1000
G1 F750 X42.7400 Y27.0945 Z-9.0000 S1000
; retracting back to z-safe
G0 Z10

M5 S0; Spindle Off
