; GCODE Generated by cam.openbuilds.com on 2021-04-16 
G21 ; mm-mode
G54; Work Coordinates
G21; mm-mode
G90; Absolute Positioning
M3 S1000; Spindle On

; Operation 0: CNC: Pocket
; Endmill Diameter: 6

G0 Z10; move to z-safe height
G0 F1000 X303.6999 Y38.6591

G0 Z0
G1 F80 Z-2.0000
G1 F750 X284.7999 Y38.6591 Z-2.0000 S1000
G1 F750 X284.7999 Y36.3409 Z-2.0000 S1000
G1 F750 X303.6999 Y36.3409 Z-2.0000 S1000
G1 F750 X303.6999 Y38.6591 Z-2.0000 S1000
G1 F80 Z-4.0000
G1 F750 X284.7999 Y38.6591 Z-4.0000 S1000
G1 F750 X284.7999 Y36.3409 Z-4.0000 S1000
G1 F750 X303.6999 Y36.3409 Z-4.0000 S1000
G1 F750 X303.6999 Y38.6591 Z-4.0000 S1000

G0 Z10; move to z-safe height
G0 X305.4999 Y40.4591

G0 Z0
G1 F80 Z-2.0000
G1 F750 X282.9999 Y40.4591 Z-2.0000 S1000
G1 F750 X282.9999 Y34.5409 Z-2.0000 S1000
G1 F750 X305.4999 Y34.5409 Z-2.0000 S1000
G1 F750 X305.4999 Y40.4591 Z-2.0000 S1000
G1 F80 Z-4.0000
G1 F750 X282.9999 Y40.4591 Z-4.0000 S1000
G1 F750 X282.9999 Y34.5409 Z-4.0000 S1000
G1 F750 X305.4999 Y34.5409 Z-4.0000 S1000
G1 F750 X305.4999 Y40.4591 Z-4.0000 S1000
; retracting back to z-safe
G0 Z10
; Operation 1: CNC: Pocket
; Endmill Diameter: 6

G0 Z10; move to z-safe height
G0 F1000 X398.4618 Y39.4500

G0 Z0
G1 F80 Z-2.0000
G1 F750 X362.5618 Y39.4500 Z-2.0000 S1000
G1 F750 X362.5618 Y35.5500 Z-2.0000 S1000
G1 F750 X398.4618 Y35.5500 Z-2.0000 S1000
G1 F750 X398.4618 Y39.4500 Z-2.0000 S1000

G0 Z10; move to z-safe height
G0 X400.2618 Y41.2500

G0 Z0
G1 F80 Z-2.0000
G1 F750 X360.7618 Y41.2500 Z-2.0000 S1000
G1 F750 X360.7618 Y33.7500 Z-2.0000 S1000
G1 F750 X400.2618 Y33.7500 Z-2.0000 S1000
G1 F750 X400.2618 Y41.2500 Z-2.0000 S1000
; retracting back to z-safe
G0 Z10
; Operation 2: CNC: Pocket
; Endmill Diameter: 6

G0 Z10; move to z-safe height
G0 F1000 X381.2118 Y27.9500

G0 Z0
G1 F80 Z-2.5000
G1 F750 X379.8118 Y27.9500 Z-2.5000 S1000
G1 F750 X379.8118 Y22.5500 Z-2.5000 S1000
G1 F750 X381.2118 Y22.5500 Z-2.5000 S1000
G1 F750 X381.2118 Y27.9500 Z-2.5000 S1000
G1 F80 Z-5.0000
G1 F750 X379.8118 Y27.9500 Z-5.0000 S1000
G1 F750 X379.8118 Y22.5500 Z-5.0000 S1000
G1 F750 X381.2118 Y22.5500 Z-5.0000 S1000
G1 F750 X381.2118 Y27.9500 Z-5.0000 S1000

G0 Z10; move to z-safe height
G0 X383.0118 Y29.7500

G0 Z0
G1 F80 Z-2.5000
G1 F750 X378.0118 Y29.7500 Z-2.5000 S1000
G1 F750 X378.0118 Y20.7500 Z-2.5000 S1000
G1 F750 X383.0118 Y20.7500 Z-2.5000 S1000
G1 F750 X383.0118 Y29.7500 Z-2.5000 S1000
G1 F80 Z-5.0000
G1 F750 X378.0118 Y29.7500 Z-5.0000 S1000
G1 F750 X378.0118 Y20.7500 Z-5.0000 S1000
G1 F750 X383.0118 Y20.7500 Z-5.0000 S1000
G1 F750 X383.0118 Y29.7500 Z-5.0000 S1000
; retracting back to z-safe
G0 Z10
; Operation 3: CNC: Pocket
; Endmill Diameter: 6

G0 Z10; move to z-safe height
G0 F1000 X467.5084 Y38.3000

G0 Z0
G1 F80 Z-0.6000
G1 F750 X462.9084 Y38.3000 Z-0.6000 S1000
G1 F750 X462.9084 Y35.2000 Z-0.6000 S1000
G1 F750 X467.5084 Y35.2000 Z-0.6000 S1000
G1 F750 X467.5084 Y38.3000 Z-0.6000 S1000

G0 Z10; move to z-safe height
G0 X469.9084 Y40.7000

G0 Z0
G1 F80 Z-0.6000
G1 F750 X460.5084 Y40.7000 Z-0.6000 S1000
G1 F750 X460.5084 Y32.8000 Z-0.6000 S1000
G1 F750 X469.9084 Y32.8000 Z-0.6000 S1000
G1 F750 X469.9084 Y40.7000 Z-0.6000 S1000

G0 Z10; move to z-safe height
G0 X472.3084 Y43.1490

G0 Z0
G1 F80 Z-0.6000
G1 F750 X471.2774 Y43.1000 Z-0.6000 S1000
G1 F750 X459.1392 Y43.1000 Z-0.6000 S1000
G1 F750 X458.1084 Y43.1544 Z-0.6000 S1000
G1 F750 X458.1084 Y30.4000 Z-0.6000 S1000
G1 F750 X472.3084 Y30.4000 Z-0.6000 S1000
G1 F750 X472.3084 Y43.1490 Z-0.6000 S1000

G0 Z10; move to z-safe height
G0 X474.7084 Y46.0078

G0 Z0
G1 F80 Z-0.6000
G1 F750 X473.4843 Y45.7047 Z-0.6000 S1000
G1 F750 X472.1105 Y45.5290 Z-0.6000 S1000
G1 F750 X471.2774 Y45.5000 Z-0.6000 S1000
G1 F750 X459.1392 Y45.5000 Z-0.6000 S1000
G1 F750 X457.7564 Y45.5799 Z-0.6000 S1000
G1 F750 X456.3921 Y45.8187 Z-0.6000 S1000
G1 F750 X455.7084 Y46.0217 Z-0.6000 S1000
G1 F750 X455.7084 Y28.0000 Z-0.6000 S1000
G1 F750 X474.7084 Y28.0000 Z-0.6000 S1000
G1 F750 X474.7084 Y46.0078 Z-0.6000 S1000

G0 Z10; move to z-safe height
G0 X477.1084 Y49.4000

G0 Z0
G1 F80 Z-0.6000
G1 F750 X476.4056 Y49.4000 Z-0.6000 S1000
G1 F750 X476.1952 Y49.2553 Z-0.6000 S1000
G1 F750 X475.0926 Y48.6907 Z-0.6000 S1000
G1 F750 X473.9265 Y48.2727 Z-0.6000 S1000
G1 F750 X472.7163 Y48.0085 Z-0.6000 S1000
G1 F750 X471.2774 Y47.9000 Z-0.6000 S1000
G1 F750 X459.1392 Y47.9000 Z-0.6000 S1000
G1 F750 X457.9031 Y47.9799 Z-0.6000 S1000
G1 F750 X456.6875 Y48.2183 Z-0.6000 S1000
G1 F750 X455.5128 Y48.6113 Z-0.6000 S1000
G1 F750 X454.3984 Y49.1522 Z-0.6000 S1000
G1 F750 X454.0211 Y49.4000 Z-0.6000 S1000
G1 F750 X453.3084 Y49.4000 Z-0.6000 S1000
G1 F750 X453.3084 Y25.6000 Z-0.6000 S1000
G1 F750 X477.1084 Y25.6000 Z-0.6000 S1000
G1 F750 X477.1084 Y49.4000 Z-0.6000 S1000

G0 Z10; move to z-safe height
G0 X479.5084 Y51.8000

G0 Z0
G1 F80 Z-0.6000
G1 F750 X475.6607 Y51.8000 Z-0.6000 S1000
G1 F750 X474.8989 Y51.2771 Z-0.6000 S1000
G1 F750 X473.9343 Y50.8082 Z-0.6000 S1000
G1 F750 X472.9107 Y50.4877 Z-0.6000 S1000
G1 F750 X471.8509 Y50.3229 Z-0.6000 S1000
G1 F750 X471.2774 Y50.3000 Z-0.6000 S1000
G1 F750 X459.1392 Y50.3000 Z-0.6000 S1000
G1 F750 X458.0696 Y50.3799 Z-0.6000 S1000
G1 F750 X457.0238 Y50.6178 Z-0.6000 S1000
G1 F750 X456.0249 Y51.0084 Z-0.6000 S1000
G1 F750 X455.0951 Y51.5431 Z-0.6000 S1000
G1 F750 X454.7714 Y51.8000 Z-0.6000 S1000
G1 F750 X450.9084 Y51.8000 Z-0.6000 S1000
G1 F750 X450.9084 Y23.2000 Z-0.6000 S1000
G1 F750 X479.5084 Y23.2000 Z-0.6000 S1000
G1 F750 X479.5084 Y51.8000 Z-0.6000 S1000

G0 Z10; move to z-safe height
G0 X481.9084 Y54.2000

G0 Z0
G1 F80 Z-0.6000
G1 F750 X474.7481 Y54.2000 Z-0.6000 S1000
G1 F750 X474.2113 Y53.7010 Z-0.6000 S1000
G1 F750 X473.4725 Y53.2313 Z-0.6000 S1000
G1 F750 X472.6607 Y52.9036 Z-0.6000 S1000
G1 F750 X471.8029 Y52.7289 Z-0.6000 S1000
G1 F750 X471.2774 Y52.7000 Z-0.6000 S1000
G1 F750 X459.1392 Y52.7000 Z-0.6000 S1000
G1 F750 X458.2674 Y52.7798 Z-0.6000 S1000
G1 F750 X457.4246 Y53.0167 Z-0.6000 S1000
G1 F750 X456.6388 Y53.4027 Z-0.6000 S1000
G1 F750 X455.9363 Y53.9249 Z-0.6000 S1000
G1 F750 X455.6805 Y54.2000 Z-0.6000 S1000
G1 F750 X448.5084 Y54.2000 Z-0.6000 S1000
G1 F750 X448.5084 Y20.8000 Z-0.6000 S1000
G1 F750 X481.9084 Y20.8000 Z-0.6000 S1000
G1 F750 X481.9084 Y54.2000 Z-0.6000 S1000

G0 Z10; move to z-safe height
G0 X468.2774 Y64.5000

G0 Z0
G1 F80 Z-0.6000
G1 F750 X462.1392 Y64.5000 Z-0.6000 S1000
G1 F750 X462.1392 Y62.0000 Z-0.6000 S1000
G1 F750 X468.2774 Y62.0000 Z-0.6000 S1000
G1 F750 X468.2774 Y64.5000 Z-0.6000 S1000

G0 Z10; move to z-safe height
G0 X483.7084 Y56.0000

G0 Z0
G1 F80 Z-0.6000
G1 F750 X473.8568 Y56.0000 Z-0.6000 S1000
G1 F750 X473.5850 Y55.5830 Z-0.6000 S1000
G1 F750 X473.0846 Y55.1054 Z-0.6000 S1000
G1 F750 X472.4882 Y54.7552 Z-0.6000 S1000
G1 F750 X471.8274 Y54.5509 Z-0.6000 S1000
G1 F750 X471.2774 Y54.5000 Z-0.6000 S1000
G1 F750 X459.1392 Y54.5000 Z-0.6000 S1000
G1 F750 X458.4521 Y54.5797 Z-0.6000 S1000
G1 F750 X457.8016 Y54.8147 Z-0.6000 S1000
G1 F750 X457.2222 Y55.1924 Z-0.6000 S1000
G1 F750 X456.7446 Y55.6928 Z-0.6000 S1000
G1 F750 X456.5642 Y56.0000 Z-0.6000 S1000
G1 F750 X446.7084 Y56.0000 Z-0.6000 S1000
G1 F750 X446.7084 Y19.0000 Z-0.6000 S1000
G1 F750 X483.7084 Y19.0000 Z-0.6000 S1000
G1 F750 X483.7084 Y56.0000 Z-0.6000 S1000
; retracting back to z-safe
G0 Z10

M5 S0; Spindle Off
