; GCODE Generated by cam.openbuilds.com on 2021-04-16 
G21 ; mm-mode
G54; Work Coordinates
G21; mm-mode
G90; Absolute Positioning
M3 S1000; Spindle On

; Operation 0: Drill: Continuous (Centered)
; Endmill Diameter: 3.17

G0 Z10; move to z-safe height
G0 F1000 X405.8333 Y63.5000

G0 Z0
G1 F80 Z0.0000
G1 F750 X405.8333 Y63.5000 Z-9.0000 S1000
G1 F750 X405.8333 Y63.5000 Z0.0000 S1000

G0 Z10; move to z-safe height
G0 X320.2503 Y11.5000

G0 Z0
G1 F80 Z0.0000
G1 F750 X320.2503 Y11.5000 Z-9.0000 S1000
G1 F750 X320.2503 Y11.5000 Z0.0000 S1000

G0 Z10; move to z-safe height
G0 X268.2503 Y11.5000

G0 Z0
G1 F80 Z0.0000
G1 F750 X268.2503 Y11.5000 Z-9.0000 S1000
G1 F750 X268.2503 Y11.5000 Z0.0000 S1000

G0 Z10; move to z-safe height
G0 X405.8333 Y11.5000

G0 Z0
G1 F80 Z0.0000
G1 F750 X405.8333 Y11.5000 Z-9.0000 S1000
G1 F750 X405.8333 Y11.5000 Z0.0000 S1000

G0 Z10; move to z-safe height
G0 X353.8333 Y11.5000

G0 Z0
G1 F80 Z0.0000
G1 F750 X353.8333 Y11.5000 Z-9.0000 S1000
G1 F750 X353.8333 Y11.5000 Z0.0000 S1000

G0 Z10; move to z-safe height
G0 X268.2503 Y63.5000

G0 Z0
G1 F80 Z0.0000
G1 F750 X268.2503 Y63.5000 Z-9.0000 S1000
G1 F750 X268.2503 Y63.5000 Z0.0000 S1000

G0 Z10; move to z-safe height
G0 X320.2503 Y63.5000

G0 Z0
G1 F80 Z0.0000
G1 F750 X320.2503 Y63.5000 Z-9.0000 S1000
G1 F750 X320.2503 Y63.5000 Z0.0000 S1000

G0 Z10; move to z-safe height
G0 X353.8333 Y63.5000

G0 Z0
G1 F80 Z0.0000
G1 F750 X353.8333 Y63.5000 Z-9.0000 S1000
G1 F750 X353.8333 Y63.5000 Z0.0000 S1000

G0 Z10; move to z-safe height
G0 X149.0837 Y63.5000

G0 Z0
G1 F80 Z0.0000
G1 F750 X149.0837 Y63.5000 Z-9.0000 S1000
G1 F750 X149.0837 Y63.5000 Z0.0000 S1000

G0 Z10; move to z-safe height
G0 X491.2086 Y11.5000

G0 Z0
G1 F80 Z0.0000
G1 F750 X491.2086 Y11.5000 Z-9.0000 S1000
G1 F750 X491.2086 Y11.5000 Z0.0000 S1000

G0 Z10; move to z-safe height
G0 X11.5004 Y63.5000

G0 Z0
G1 F80 Z0.0000
G1 F750 X11.5004 Y63.5000 Z-9.0000 S1000
G1 F750 X11.5004 Y63.5000 Z0.0000 S1000

G0 Z10; move to z-safe height
G0 X149.0837 Y11.5000

G0 Z0
G1 F80 Z0.0000
G1 F750 X149.0837 Y11.5000 Z-9.0000 S1000
G1 F750 X149.0837 Y11.5000 Z0.0000 S1000

G0 Z10; move to z-safe height
G0 X11.5004 Y11.5000

G0 Z0
G1 F80 Z0.0000
G1 F750 X11.5004 Y11.5000 Z-9.0000 S1000
G1 F750 X11.5004 Y11.5000 Z0.0000 S1000

G0 Z10; move to z-safe height
G0 X63.5003 Y11.5000

G0 Z0
G1 F80 Z0.0000
G1 F750 X63.5003 Y11.5000 Z-9.0000 S1000
G1 F750 X63.5003 Y11.5000 Z0.0000 S1000

G0 Z10; move to z-safe height
G0 X439.2088 Y63.5000

G0 Z0
G1 F80 Z0.0000
G1 F750 X439.2088 Y63.5000 Z-9.0000 S1000
G1 F750 X439.2088 Y63.5000 Z0.0000 S1000

G0 Z10; move to z-safe height
G0 X97.0837 Y11.5000

G0 Z0
G1 F80 Z0.0000
G1 F750 X97.0837 Y11.5000 Z-9.0000 S1000
G1 F750 X97.0837 Y11.5000 Z0.0000 S1000

G0 Z10; move to z-safe height
G0 X182.6669 Y63.5000

G0 Z0
G1 F80 Z0.0000
G1 F750 X182.6669 Y63.5000 Z-9.0000 S1000
G1 F750 X182.6669 Y63.5000 Z0.0000 S1000

G0 Z10; move to z-safe height
G0 X234.6669 Y63.5000

G0 Z0
G1 F80 Z0.0000
G1 F750 X234.6669 Y63.5000 Z-9.0000 S1000
G1 F750 X234.6669 Y63.5000 Z0.0000 S1000

G0 Z10; move to z-safe height
G0 X234.6669 Y11.5000

G0 Z0
G1 F80 Z0.0000
G1 F750 X234.6669 Y11.5000 Z-9.0000 S1000
G1 F750 X234.6669 Y11.5000 Z0.0000 S1000

G0 Z10; move to z-safe height
G0 X63.5003 Y63.5000

G0 Z0
G1 F80 Z0.0000
G1 F750 X63.5003 Y63.5000 Z-9.0000 S1000
G1 F750 X63.5003 Y63.5000 Z0.0000 S1000

G0 Z10; move to z-safe height
G0 X97.0837 Y63.5000

G0 Z0
G1 F80 Z0.0000
G1 F750 X97.0837 Y63.5000 Z-9.0000 S1000
G1 F750 X97.0837 Y63.5000 Z0.0000 S1000

G0 Z10; move to z-safe height
G0 X182.6669 Y11.5000

G0 Z0
G1 F80 Z0.0000
G1 F750 X182.6669 Y11.5000 Z-9.0000 S1000
G1 F750 X182.6669 Y11.5000 Z0.0000 S1000

G0 Z10; move to z-safe height
G0 X439.2088 Y11.5000

G0 Z0
G1 F80 Z0.0000
G1 F750 X439.2088 Y11.5000 Z-9.0000 S1000
G1 F750 X439.2088 Y11.5000 Z0.0000 S1000

G0 Z10; move to z-safe height
G0 X491.2086 Y63.5000

G0 Z0
G1 F80 Z0.0000
G1 F750 X491.2086 Y63.5000 Z-9.0000 S1000
G1 F750 X491.2086 Y63.5000 Z0.0000 S1000
; retracting back to z-safe
G0 Z10
; Operation 1: CNC: Vector (path inside)
; Endmill Diameter: 3.17

G0 Z10; move to z-safe height
G0 F1000 X469.6924 Y65.9150

G0 Z0
G1 F80 Z-1.5000
G1 F750 X460.7242 Y65.9150 Z-1.5000 S1000
G1 F750 X460.7242 Y65.8850 Z-1.5000 S1000
G1 F750 X469.6924 Y65.8850 Z-1.5000 S1000
G1 F750 X469.6924 Y65.9150 Z-1.5000 S1000
G1 F80 Z-3.0000
G1 F750 X460.7242 Y65.9150 Z-3.0000 S1000
G1 F750 X460.7242 Y65.8850 Z-3.0000 S1000
G1 F750 X469.6924 Y65.8850 Z-3.0000 S1000
G1 F750 X469.6924 Y65.9150 Z-3.0000 S1000
G1 F80 Z-4.5000
G1 F750 X460.7242 Y65.9150 Z-4.5000 S1000
G1 F750 X460.7242 Y65.8850 Z-4.5000 S1000
G1 F750 X469.6924 Y65.8850 Z-4.5000 S1000
G1 F750 X469.6924 Y65.9150 Z-4.5000 S1000
G1 F80 Z-6.0000
G1 F750 X460.7242 Y65.9150 Z-6.0000 S1000
G1 F750 X460.7242 Y65.8850 Z-6.0000 S1000
G1 F750 X469.6924 Y65.8850 Z-6.0000 S1000
G1 F750 X469.6924 Y65.9150 Z-6.0000 S1000
G1 F80 Z-7.5000
G1 F750 X460.7242 Y65.9150 Z-7.5000 S1000
G1 F750 X460.7242 Y65.8850 Z-7.5000 S1000
G1 F750 X469.6924 Y65.8850 Z-7.5000 S1000
G1 F750 X469.6924 Y65.9150 Z-7.5000 S1000
G1 F80 Z-9.0000
G1 F750 X460.7242 Y65.9150 Z-9.0000 S1000
G1 F750 X460.7242 Y65.8850 Z-9.0000 S1000
G1 F750 X469.6924 Y65.8850 Z-9.0000 S1000
G1 F750 X469.6924 Y65.9150 Z-9.0000 S1000

G0 Z10; move to z-safe height
G0 X125.9059 Y34.8693

G0 Z0
G1 F80 Z-1.5000
G1 F750 X126.3690 Y35.4407 Z-1.5000 S1000
G1 F750 X126.7126 Y36.0864 Z-1.5000 S1000
G1 F750 X126.9243 Y36.7828 Z-1.5000 S1000
G1 F750 X126.9957 Y37.5058 Z-1.5000 S1000
G1 F750 X126.9248 Y38.2296 Z-1.5000 S1000
G1 F750 X126.7142 Y38.9269 Z-1.5000 S1000
G1 F750 X126.3716 Y39.5721 Z-1.5000 S1000
G1 F750 X125.9104 Y40.1406 Z-1.5000 S1000
G1 F750 X125.5768 Y40.4200 Z-1.5000 S1000
G1 F750 X120.5995 Y40.4200 Z-1.5000 S1000
G1 F750 X120.2639 Y40.1393 Z-1.5000 S1000
G1 F750 X119.7997 Y39.5694 Z-1.5000 S1000
G1 F750 X119.4549 Y38.9241 Z-1.5000 S1000
G1 F750 X119.2428 Y38.2277 Z-1.5000 S1000
G1 F750 X119.1711 Y37.5053 Z-1.5000 S1000
G1 F750 X119.2431 Y36.7851 Z-1.5000 S1000
G1 F750 X119.4564 Y36.0895 Z-1.5000 S1000
G1 F750 X119.8027 Y35.4430 Z-1.5000 S1000
G1 F750 X120.2681 Y34.8708 Z-1.5000 S1000
G1 F750 X120.6136 Y34.5800 Z-1.5000 S1000
G1 F750 X125.5627 Y34.5800 Z-1.5000 S1000
G1 F750 X125.9059 Y34.8693 Z-1.5000 S1000
G1 F80 Z-3.0000
G1 F750 X126.3690 Y35.4407 Z-3.0000 S1000
G1 F750 X126.7126 Y36.0864 Z-3.0000 S1000
G1 F750 X126.9243 Y36.7828 Z-3.0000 S1000
G1 F750 X126.9957 Y37.5058 Z-3.0000 S1000
G1 F750 X126.9248 Y38.2296 Z-3.0000 S1000
G1 F750 X126.7142 Y38.9269 Z-3.0000 S1000
G1 F750 X126.3716 Y39.5721 Z-3.0000 S1000
G1 F750 X125.9104 Y40.1406 Z-3.0000 S1000
G1 F750 X125.5768 Y40.4200 Z-3.0000 S1000
G1 F750 X120.5995 Y40.4200 Z-3.0000 S1000
G1 F750 X120.2639 Y40.1393 Z-3.0000 S1000
G1 F750 X119.7997 Y39.5694 Z-3.0000 S1000
G1 F750 X119.4549 Y38.9241 Z-3.0000 S1000
G1 F750 X119.2428 Y38.2277 Z-3.0000 S1000
G1 F750 X119.1711 Y37.5053 Z-3.0000 S1000
G1 F750 X119.2431 Y36.7851 Z-3.0000 S1000
G1 F750 X119.4564 Y36.0895 Z-3.0000 S1000
G1 F750 X119.8027 Y35.4430 Z-3.0000 S1000
G1 F750 X120.2681 Y34.8708 Z-3.0000 S1000
G1 F750 X120.6136 Y34.5800 Z-3.0000 S1000
G1 F750 X125.5627 Y34.5800 Z-3.0000 S1000
G1 F750 X125.9059 Y34.8693 Z-3.0000 S1000
G1 F80 Z-4.5000
G1 F750 X126.3690 Y35.4407 Z-4.5000 S1000
G1 F750 X126.7126 Y36.0864 Z-4.5000 S1000
G1 F750 X126.9243 Y36.7828 Z-4.5000 S1000
G1 F750 X126.9957 Y37.5058 Z-4.5000 S1000
G1 F750 X126.9248 Y38.2296 Z-4.5000 S1000
G1 F750 X126.7142 Y38.9269 Z-4.5000 S1000
G1 F750 X126.3716 Y39.5721 Z-4.5000 S1000
G1 F750 X125.9104 Y40.1406 Z-4.5000 S1000
G1 F750 X125.5768 Y40.4200 Z-4.5000 S1000
G1 F750 X120.5995 Y40.4200 Z-4.5000 S1000
G1 F750 X120.2639 Y40.1393 Z-4.5000 S1000
G1 F750 X119.7997 Y39.5694 Z-4.5000 S1000
G1 F750 X119.4549 Y38.9241 Z-4.5000 S1000
G1 F750 X119.2428 Y38.2277 Z-4.5000 S1000
G1 F750 X119.1711 Y37.5053 Z-4.5000 S1000
G1 F750 X119.2431 Y36.7851 Z-4.5000 S1000
G1 F750 X119.4564 Y36.0895 Z-4.5000 S1000
G1 F750 X119.8027 Y35.4430 Z-4.5000 S1000
G1 F750 X120.2681 Y34.8708 Z-4.5000 S1000
G1 F750 X120.6136 Y34.5800 Z-4.5000 S1000
G1 F750 X125.5627 Y34.5800 Z-4.5000 S1000
G1 F750 X125.9059 Y34.8693 Z-4.5000 S1000
G1 F80 Z-6.0000
G1 F750 X126.3690 Y35.4407 Z-6.0000 S1000
G1 F750 X126.7126 Y36.0864 Z-6.0000 S1000
G1 F750 X126.9243 Y36.7828 Z-6.0000 S1000
G1 F750 X126.9957 Y37.5058 Z-6.0000 S1000
G1 F750 X126.9248 Y38.2296 Z-6.0000 S1000
G1 F750 X126.7142 Y38.9269 Z-6.0000 S1000
G1 F750 X126.3716 Y39.5721 Z-6.0000 S1000
G1 F750 X125.9104 Y40.1406 Z-6.0000 S1000
G1 F750 X125.5768 Y40.4200 Z-6.0000 S1000
G1 F750 X120.5995 Y40.4200 Z-6.0000 S1000
G1 F750 X120.2639 Y40.1393 Z-6.0000 S1000
G1 F750 X119.7997 Y39.5694 Z-6.0000 S1000
G1 F750 X119.4549 Y38.9241 Z-6.0000 S1000
G1 F750 X119.2428 Y38.2277 Z-6.0000 S1000
G1 F750 X119.1711 Y37.5053 Z-6.0000 S1000
G1 F750 X119.2431 Y36.7851 Z-6.0000 S1000
G1 F750 X119.4564 Y36.0895 Z-6.0000 S1000
G1 F750 X119.8027 Y35.4430 Z-6.0000 S1000
G1 F750 X120.2681 Y34.8708 Z-6.0000 S1000
G1 F750 X120.6136 Y34.5800 Z-6.0000 S1000
G1 F750 X125.5627 Y34.5800 Z-6.0000 S1000
G1 F750 X125.9059 Y34.8693 Z-6.0000 S1000
G1 F80 Z-7.5000
G1 F750 X126.3690 Y35.4407 Z-7.5000 S1000
G1 F750 X126.7126 Y36.0864 Z-7.5000 S1000
G1 F750 X126.9243 Y36.7828 Z-7.5000 S1000
G1 F750 X126.9957 Y37.5058 Z-7.5000 S1000
G1 F750 X126.9248 Y38.2296 Z-7.5000 S1000
G1 F750 X126.7142 Y38.9269 Z-7.5000 S1000
G1 F750 X126.3716 Y39.5721 Z-7.5000 S1000
G1 F750 X125.9104 Y40.1406 Z-7.5000 S1000
G1 F750 X125.5768 Y40.4200 Z-7.5000 S1000
G1 F750 X120.5995 Y40.4200 Z-7.5000 S1000
G1 F750 X120.2639 Y40.1393 Z-7.5000 S1000
G1 F750 X119.7997 Y39.5694 Z-7.5000 S1000
G1 F750 X119.4549 Y38.9241 Z-7.5000 S1000
G1 F750 X119.2428 Y38.2277 Z-7.5000 S1000
G1 F750 X119.1711 Y37.5053 Z-7.5000 S1000
G1 F750 X119.2431 Y36.7851 Z-7.5000 S1000
G1 F750 X119.4564 Y36.0895 Z-7.5000 S1000
G1 F750 X119.8027 Y35.4430 Z-7.5000 S1000
G1 F750 X120.2681 Y34.8708 Z-7.5000 S1000
G1 F750 X120.6136 Y34.5800 Z-7.5000 S1000
G1 F750 X125.5627 Y34.5800 Z-7.5000 S1000
G1 F750 X125.9059 Y34.8693 Z-7.5000 S1000
G1 F80 Z-9.0000
G1 F750 X126.3690 Y35.4407 Z-9.0000 S1000
G1 F750 X126.7126 Y36.0864 Z-9.0000 S1000
G1 F750 X126.9243 Y36.7828 Z-9.0000 S1000
G1 F750 X126.9957 Y37.5058 Z-9.0000 S1000
G1 F750 X126.9248 Y38.2296 Z-9.0000 S1000
G1 F750 X126.7142 Y38.9269 Z-9.0000 S1000
G1 F750 X126.3716 Y39.5721 Z-9.0000 S1000
G1 F750 X125.9104 Y40.1406 Z-9.0000 S1000
G1 F750 X125.5768 Y40.4200 Z-9.0000 S1000
G1 F750 X120.5995 Y40.4200 Z-9.0000 S1000
G1 F750 X120.2639 Y40.1393 Z-9.0000 S1000
G1 F750 X119.7997 Y39.5694 Z-9.0000 S1000
G1 F750 X119.4549 Y38.9241 Z-9.0000 S1000
G1 F750 X119.2428 Y38.2277 Z-9.0000 S1000
G1 F750 X119.1711 Y37.5053 Z-9.0000 S1000
G1 F750 X119.2431 Y36.7851 Z-9.0000 S1000
G1 F750 X119.4564 Y36.0895 Z-9.0000 S1000
G1 F750 X119.8027 Y35.4430 Z-9.0000 S1000
G1 F750 X120.2681 Y34.8708 Z-9.0000 S1000
G1 F750 X120.6136 Y34.5800 Z-9.0000 S1000
G1 F750 X125.5627 Y34.5800 Z-9.0000 S1000
G1 F750 X125.9059 Y34.8693 Z-9.0000 S1000

G0 Z10; move to z-safe height
G0 X40.3225 Y34.8693

G0 Z0
G1 F80 Z-1.5000
G1 F750 X40.7858 Y35.4410 Z-1.5000 S1000
G1 F750 X41.1291 Y36.0860 Z-1.5000 S1000
G1 F750 X41.3409 Y36.7831 Z-1.5000 S1000
G1 F750 X41.4124 Y37.5060 Z-1.5000 S1000
G1 F750 X41.3415 Y38.2296 Z-1.5000 S1000
G1 F750 X41.1309 Y38.9269 Z-1.5000 S1000
G1 F750 X40.7883 Y39.5721 Z-1.5000 S1000
G1 F750 X40.3271 Y40.1406 Z-1.5000 S1000
G1 F750 X39.9935 Y40.4200 Z-1.5000 S1000
G1 F750 X35.0161 Y40.4200 Z-1.5000 S1000
G1 F750 X34.6805 Y40.1393 Z-1.5000 S1000
G1 F750 X34.2162 Y39.5692 Z-1.5000 S1000
G1 F750 X33.8716 Y38.9243 Z-1.5000 S1000
G1 F750 X33.6594 Y38.2277 Z-1.5000 S1000
G1 F750 X33.5878 Y37.5055 Z-1.5000 S1000
G1 F750 X33.6599 Y36.7849 Z-1.5000 S1000
G1 F750 X33.8729 Y36.0896 Z-1.5000 S1000
G1 F750 X34.2194 Y35.4430 Z-1.5000 S1000
G1 F750 X34.6846 Y34.8711 Z-1.5000 S1000
G1 F750 X35.0303 Y34.5800 Z-1.5000 S1000
G1 F750 X39.9792 Y34.5800 Z-1.5000 S1000
G1 F750 X40.3225 Y34.8693 Z-1.5000 S1000
G1 F80 Z-3.0000
G1 F750 X40.7858 Y35.4410 Z-3.0000 S1000
G1 F750 X41.1291 Y36.0860 Z-3.0000 S1000
G1 F750 X41.3409 Y36.7831 Z-3.0000 S1000
G1 F750 X41.4124 Y37.5060 Z-3.0000 S1000
G1 F750 X41.3415 Y38.2296 Z-3.0000 S1000
G1 F750 X41.1309 Y38.9269 Z-3.0000 S1000
G1 F750 X40.7883 Y39.5721 Z-3.0000 S1000
G1 F750 X40.3271 Y40.1406 Z-3.0000 S1000
G1 F750 X39.9935 Y40.4200 Z-3.0000 S1000
G1 F750 X35.0161 Y40.4200 Z-3.0000 S1000
G1 F750 X34.6805 Y40.1393 Z-3.0000 S1000
G1 F750 X34.2162 Y39.5692 Z-3.0000 S1000
G1 F750 X33.8716 Y38.9243 Z-3.0000 S1000
G1 F750 X33.6594 Y38.2277 Z-3.0000 S1000
G1 F750 X33.5878 Y37.5055 Z-3.0000 S1000
G1 F750 X33.6599 Y36.7849 Z-3.0000 S1000
G1 F750 X33.8729 Y36.0896 Z-3.0000 S1000
G1 F750 X34.2194 Y35.4430 Z-3.0000 S1000
G1 F750 X34.6846 Y34.8711 Z-3.0000 S1000
G1 F750 X35.0303 Y34.5800 Z-3.0000 S1000
G1 F750 X39.9792 Y34.5800 Z-3.0000 S1000
G1 F750 X40.3225 Y34.8693 Z-3.0000 S1000
G1 F80 Z-4.5000
G1 F750 X40.7858 Y35.4410 Z-4.5000 S1000
G1 F750 X41.1291 Y36.0860 Z-4.5000 S1000
G1 F750 X41.3409 Y36.7831 Z-4.5000 S1000
G1 F750 X41.4124 Y37.5060 Z-4.5000 S1000
G1 F750 X41.3415 Y38.2296 Z-4.5000 S1000
G1 F750 X41.1309 Y38.9269 Z-4.5000 S1000
G1 F750 X40.7883 Y39.5721 Z-4.5000 S1000
G1 F750 X40.3271 Y40.1406 Z-4.5000 S1000
G1 F750 X39.9935 Y40.4200 Z-4.5000 S1000
G1 F750 X35.0161 Y40.4200 Z-4.5000 S1000
G1 F750 X34.6805 Y40.1393 Z-4.5000 S1000
G1 F750 X34.2162 Y39.5692 Z-4.5000 S1000
G1 F750 X33.8716 Y38.9243 Z-4.5000 S1000
G1 F750 X33.6594 Y38.2277 Z-4.5000 S1000
G1 F750 X33.5878 Y37.5055 Z-4.5000 S1000
G1 F750 X33.6599 Y36.7849 Z-4.5000 S1000
G1 F750 X33.8729 Y36.0896 Z-4.5000 S1000
G1 F750 X34.2194 Y35.4430 Z-4.5000 S1000
G1 F750 X34.6846 Y34.8711 Z-4.5000 S1000
G1 F750 X35.0303 Y34.5800 Z-4.5000 S1000
G1 F750 X39.9792 Y34.5800 Z-4.5000 S1000
G1 F750 X40.3225 Y34.8693 Z-4.5000 S1000
G1 F80 Z-6.0000
G1 F750 X40.7858 Y35.4410 Z-6.0000 S1000
G1 F750 X41.1291 Y36.0860 Z-6.0000 S1000
G1 F750 X41.3409 Y36.7831 Z-6.0000 S1000
G1 F750 X41.4124 Y37.5060 Z-6.0000 S1000
G1 F750 X41.3415 Y38.2296 Z-6.0000 S1000
G1 F750 X41.1309 Y38.9269 Z-6.0000 S1000
G1 F750 X40.7883 Y39.5721 Z-6.0000 S1000
G1 F750 X40.3271 Y40.1406 Z-6.0000 S1000
G1 F750 X39.9935 Y40.4200 Z-6.0000 S1000
G1 F750 X35.0161 Y40.4200 Z-6.0000 S1000
G1 F750 X34.6805 Y40.1393 Z-6.0000 S1000
G1 F750 X34.2162 Y39.5692 Z-6.0000 S1000
G1 F750 X33.8716 Y38.9243 Z-6.0000 S1000
G1 F750 X33.6594 Y38.2277 Z-6.0000 S1000
G1 F750 X33.5878 Y37.5055 Z-6.0000 S1000
G1 F750 X33.6599 Y36.7849 Z-6.0000 S1000
G1 F750 X33.8729 Y36.0896 Z-6.0000 S1000
G1 F750 X34.2194 Y35.4430 Z-6.0000 S1000
G1 F750 X34.6846 Y34.8711 Z-6.0000 S1000
G1 F750 X35.0303 Y34.5800 Z-6.0000 S1000
G1 F750 X39.9792 Y34.5800 Z-6.0000 S1000
G1 F750 X40.3225 Y34.8693 Z-6.0000 S1000
G1 F80 Z-7.5000
G1 F750 X40.7858 Y35.4410 Z-7.5000 S1000
G1 F750 X41.1291 Y36.0860 Z-7.5000 S1000
G1 F750 X41.3409 Y36.7831 Z-7.5000 S1000
G1 F750 X41.4124 Y37.5060 Z-7.5000 S1000
G1 F750 X41.3415 Y38.2296 Z-7.5000 S1000
G1 F750 X41.1309 Y38.9269 Z-7.5000 S1000
G1 F750 X40.7883 Y39.5721 Z-7.5000 S1000
G1 F750 X40.3271 Y40.1406 Z-7.5000 S1000
G1 F750 X39.9935 Y40.4200 Z-7.5000 S1000
G1 F750 X35.0161 Y40.4200 Z-7.5000 S1000
G1 F750 X34.6805 Y40.1393 Z-7.5000 S1000
G1 F750 X34.2162 Y39.5692 Z-7.5000 S1000
G1 F750 X33.8716 Y38.9243 Z-7.5000 S1000
G1 F750 X33.6594 Y38.2277 Z-7.5000 S1000
G1 F750 X33.5878 Y37.5055 Z-7.5000 S1000
G1 F750 X33.6599 Y36.7849 Z-7.5000 S1000
G1 F750 X33.8729 Y36.0896 Z-7.5000 S1000
G1 F750 X34.2194 Y35.4430 Z-7.5000 S1000
G1 F750 X34.6846 Y34.8711 Z-7.5000 S1000
G1 F750 X35.0303 Y34.5800 Z-7.5000 S1000
G1 F750 X39.9792 Y34.5800 Z-7.5000 S1000
G1 F750 X40.3225 Y34.8693 Z-7.5000 S1000
G1 F80 Z-9.0000
G1 F750 X40.7858 Y35.4410 Z-9.0000 S1000
G1 F750 X41.1291 Y36.0860 Z-9.0000 S1000
G1 F750 X41.3409 Y36.7831 Z-9.0000 S1000
G1 F750 X41.4124 Y37.5060 Z-9.0000 S1000
G1 F750 X41.3415 Y38.2296 Z-9.0000 S1000
G1 F750 X41.1309 Y38.9269 Z-9.0000 S1000
G1 F750 X40.7883 Y39.5721 Z-9.0000 S1000
G1 F750 X40.3271 Y40.1406 Z-9.0000 S1000
G1 F750 X39.9935 Y40.4200 Z-9.0000 S1000
G1 F750 X35.0161 Y40.4200 Z-9.0000 S1000
G1 F750 X34.6805 Y40.1393 Z-9.0000 S1000
G1 F750 X34.2162 Y39.5692 Z-9.0000 S1000
G1 F750 X33.8716 Y38.9243 Z-9.0000 S1000
G1 F750 X33.6594 Y38.2277 Z-9.0000 S1000
G1 F750 X33.5878 Y37.5055 Z-9.0000 S1000
G1 F750 X33.6599 Y36.7849 Z-9.0000 S1000
G1 F750 X33.8729 Y36.0896 Z-9.0000 S1000
G1 F750 X34.2194 Y35.4430 Z-9.0000 S1000
G1 F750 X34.6846 Y34.8711 Z-9.0000 S1000
G1 F750 X35.0303 Y34.5800 Z-9.0000 S1000
G1 F750 X39.9792 Y34.5800 Z-9.0000 S1000
G1 F750 X40.3225 Y34.8693 Z-9.0000 S1000

G0 Z10; move to z-safe height
G0 X302.4149 Y40.1650

G0 Z0
G1 F80 Z-1.5000
G1 F750 X286.0849 Y40.1650 Z-1.5000 S1000
G1 F750 X286.0849 Y34.8350 Z-1.5000 S1000
G1 F750 X302.4149 Y34.8350 Z-1.5000 S1000
G1 F750 X302.4149 Y40.1650 Z-1.5000 S1000
G1 F80 Z-3.0000
G1 F750 X286.0849 Y40.1650 Z-3.0000 S1000
G1 F750 X286.0849 Y34.8350 Z-3.0000 S1000
G1 F750 X302.4149 Y34.8350 Z-3.0000 S1000
G1 F750 X302.4149 Y40.1650 Z-3.0000 S1000
G1 F80 Z-4.5000
G1 F750 X286.0849 Y40.1650 Z-4.5000 S1000
G1 F750 X286.0849 Y34.8350 Z-4.5000 S1000
G1 F750 X302.4149 Y34.8350 Z-4.5000 S1000
G1 F750 X302.4149 Y40.1650 Z-4.5000 S1000
G1 F80 Z-6.0000
G1 F750 X286.0849 Y40.1650 Z-6.0000 S1000
G1 F750 X286.0849 Y34.8350 Z-6.0000 S1000
G1 F750 X302.4149 Y34.8350 Z-6.0000 S1000
G1 F750 X302.4149 Y40.1650 Z-6.0000 S1000
G1 F80 Z-7.5000
G1 F750 X286.0849 Y40.1650 Z-7.5000 S1000
G1 F750 X286.0849 Y34.8350 Z-7.5000 S1000
G1 F750 X302.4149 Y34.8350 Z-7.5000 S1000
G1 F750 X302.4149 Y40.1650 Z-7.5000 S1000
G1 F80 Z-9.0000
G1 F750 X286.0849 Y40.1650 Z-9.0000 S1000
G1 F750 X286.0849 Y34.8350 Z-9.0000 S1000
G1 F750 X302.4149 Y34.8350 Z-9.0000 S1000
G1 F750 X302.4149 Y40.1650 Z-9.0000 S1000

G0 Z10; move to z-safe height
G0 X394.0518 Y40.6650

G0 Z0
G1 F80 Z-1.5000
G1 F750 X366.9718 Y40.6650 Z-1.5000 S1000
G1 F750 X366.9718 Y34.3350 Z-1.5000 S1000
G1 F750 X394.0518 Y34.3350 Z-1.5000 S1000
G1 F750 X394.0518 Y40.6650 Z-1.5000 S1000
G1 F80 Z-3.0000
G1 F750 X366.9718 Y40.6650 Z-3.0000 S1000
G1 F750 X366.9718 Y34.3350 Z-3.0000 S1000
G1 F750 X394.0518 Y34.3350 Z-3.0000 S1000
G1 F750 X394.0518 Y40.6650 Z-3.0000 S1000
G1 F80 Z-4.5000
G1 F750 X366.9718 Y40.6650 Z-4.5000 S1000
G1 F750 X366.9718 Y34.3350 Z-4.5000 S1000
G1 F750 X394.0518 Y34.3350 Z-4.5000 S1000
G1 F750 X394.0518 Y40.6650 Z-4.5000 S1000
G1 F80 Z-6.0000
G1 F750 X366.9718 Y40.6650 Z-6.0000 S1000
G1 F750 X366.9718 Y34.3350 Z-6.0000 S1000
G1 F750 X394.0518 Y34.3350 Z-6.0000 S1000
G1 F750 X394.0518 Y40.6650 Z-6.0000 S1000
G1 F80 Z-7.5000
G1 F750 X366.9718 Y40.6650 Z-7.5000 S1000
G1 F750 X366.9718 Y34.3350 Z-7.5000 S1000
G1 F750 X394.0518 Y34.3350 Z-7.5000 S1000
G1 F750 X394.0518 Y40.6650 Z-7.5000 S1000
G1 F80 Z-9.0000
G1 F750 X366.9718 Y40.6650 Z-9.0000 S1000
G1 F750 X366.9718 Y34.3350 Z-9.0000 S1000
G1 F750 X394.0518 Y34.3350 Z-9.0000 S1000
G1 F750 X394.0518 Y40.6650 Z-9.0000 S1000
; retracting back to z-safe
G0 Z10
; Operation 2: CNC: Vector (path inside)
; Endmill Diameter: 3.17

G0 Z10; move to z-safe height
G0 F1000 X469.6924 Y65.9150

G0 Z0
G1 F80 Z-0.6000
G1 F750 X460.7242 Y65.9150 Z-0.6000 S1000
G1 F750 X460.7242 Y59.0850 Z-0.6000 S1000
G1 F750 X469.6924 Y59.0850 Z-0.6000 S1000
G1 F750 X469.6924 Y65.9150 Z-0.6000 S1000

G0 Z10; move to z-safe height
G0 X485.1234 Y57.4150

G0 Z0
G1 F80 Z-0.6000
G1 F750 X445.2934 Y57.4150 Z-0.6000 S1000
G1 F750 X445.2934 Y17.5850 Z-0.6000 S1000
G1 F750 X485.1234 Y17.5850 Z-0.6000 S1000
G1 F750 X485.1234 Y57.4150 Z-0.6000 S1000
; retracting back to z-safe
G0 Z10
; Operation 3: CNC: Vector (path inside)
; Endmill Diameter: 3.17

G0 Z10; move to z-safe height
G0 F1000 X306.9149 Y41.8741

G0 Z0
G1 F80 Z-1.5000
G1 F750 X281.5849 Y41.8741 Z-1.5000 S1000
G1 F750 X281.5849 Y33.1259 Z-1.5000 S1000
G1 F750 X306.9149 Y33.1259 Z-1.5000 S1000
G1 F750 X306.9149 Y41.8741 Z-1.5000 S1000
G1 F80 Z-3.0000
G1 F750 X281.5849 Y41.8741 Z-3.0000 S1000
G1 F750 X281.5849 Y33.1259 Z-3.0000 S1000
G1 F750 X306.9149 Y33.1259 Z-3.0000 S1000
G1 F750 X306.9149 Y41.8741 Z-3.0000 S1000
G1 F80 Z-4.0000
G1 F750 X281.5849 Y41.8741 Z-4.0000 S1000
G1 F750 X281.5849 Y33.1259 Z-4.0000 S1000
G1 F750 X306.9149 Y33.1259 Z-4.0000 S1000
G1 F750 X306.9149 Y41.8741 Z-4.0000 S1000
; retracting back to z-safe
G0 Z10
; Operation 4: CNC: Vector (path inside)
; Endmill Diameter: 3.17

G0 Z10; move to z-safe height
G0 F1000 X401.6768 Y42.6650

G0 Z0
G1 F80 Z-1.0000
G1 F750 X359.3468 Y42.6650 Z-1.0000 S1000
G1 F750 X359.3468 Y32.3350 Z-1.0000 S1000
G1 F750 X401.6768 Y32.3350 Z-1.0000 S1000
G1 F750 X401.6768 Y42.6650 Z-1.0000 S1000
G1 F80 Z-2.0000
G1 F750 X359.3468 Y42.6650 Z-2.0000 S1000
G1 F750 X359.3468 Y32.3350 Z-2.0000 S1000
G1 F750 X401.6768 Y32.3350 Z-2.0000 S1000
G1 F750 X401.6768 Y42.6650 Z-2.0000 S1000
; retracting back to z-safe
G0 Z10
; Operation 5: CNC: Vector (path inside)
; Endmill Diameter: 3.17

G0 Z10; move to z-safe height
G0 F1000 X384.4268 Y31.1650

G0 Z0
G1 F80 Z-1.5000
G1 F750 X376.5968 Y31.1650 Z-1.5000 S1000
G1 F750 X376.5968 Y19.3350 Z-1.5000 S1000
G1 F750 X384.4268 Y19.3350 Z-1.5000 S1000
G1 F750 X384.4268 Y31.1650 Z-1.5000 S1000
G1 F80 Z-3.0000
G1 F750 X376.5968 Y31.1650 Z-3.0000 S1000
G1 F750 X376.5968 Y19.3350 Z-3.0000 S1000
G1 F750 X384.4268 Y19.3350 Z-3.0000 S1000
G1 F750 X384.4268 Y31.1650 Z-3.0000 S1000
G1 F80 Z-4.0000
G1 F750 X376.5968 Y31.1650 Z-4.0000 S1000
G1 F750 X376.5968 Y19.3350 Z-4.0000 S1000
G1 F750 X384.4268 Y19.3350 Z-4.0000 S1000
G1 F750 X384.4268 Y31.1650 Z-4.0000 S1000
; retracting back to z-safe
G0 Z10

M5 S0; Spindle Off
