; GCODE Generated by cam.openbuilds.com on 2021-04-16 
G21 ; mm-mode
G54; Work Coordinates
G21; mm-mode
G90; Absolute Positioning
M3 S1000; Spindle On

; Operation 0: CNC: Vector (path inside)
; Endmill Diameter: 3.17

G0 Z10; move to z-safe height
G0 F1000 X37.8572 Y22.4948

G0 Z0
G1 F80 Z-1.5000
G1 F750 X38.1604 Y22.6973 Z-1.5000 S1000
G1 F750 X38.3629 Y23.0005 Z-1.5000 S1000
G1 F750 X38.4339 Y23.3575 Z-1.5000 S1000
G1 F750 X38.3628 Y23.7152 Z-1.5000 S1000
G1 F750 X38.1605 Y24.0180 Z-1.5000 S1000
G1 F750 X37.8572 Y24.2206 Z-1.5000 S1000
G1 F750 X37.5002 Y24.2916 Z-1.5000 S1000
G1 F750 X37.1425 Y24.2205 Z-1.5000 S1000
G1 F750 X36.8396 Y24.0181 Z-1.5000 S1000
G1 F750 X36.6372 Y23.7152 Z-1.5000 S1000
G1 F750 X36.5661 Y23.3575 Z-1.5000 S1000
G1 F750 X36.6371 Y23.0005 Z-1.5000 S1000
G1 F750 X36.8397 Y22.6972 Z-1.5000 S1000
G1 F750 X37.1425 Y22.4949 Z-1.5000 S1000
G1 F750 X37.5002 Y22.4238 Z-1.5000 S1000
G1 F750 X37.8572 Y22.4948 Z-1.5000 S1000
G1 F80 Z-3.0000
G1 F750 X38.1604 Y22.6973 Z-3.0000 S1000
G1 F750 X38.3629 Y23.0005 Z-3.0000 S1000
G1 F750 X38.4339 Y23.3575 Z-3.0000 S1000
G1 F750 X38.3628 Y23.7152 Z-3.0000 S1000
G1 F750 X38.1605 Y24.0180 Z-3.0000 S1000
G1 F750 X37.8572 Y24.2206 Z-3.0000 S1000
G1 F750 X37.5002 Y24.2916 Z-3.0000 S1000
G1 F750 X37.1425 Y24.2205 Z-3.0000 S1000
G1 F750 X36.8396 Y24.0181 Z-3.0000 S1000
G1 F750 X36.6372 Y23.7152 Z-3.0000 S1000
G1 F750 X36.5661 Y23.3575 Z-3.0000 S1000
G1 F750 X36.6371 Y23.0005 Z-3.0000 S1000
G1 F750 X36.8397 Y22.6972 Z-3.0000 S1000
G1 F750 X37.1425 Y22.4949 Z-3.0000 S1000
G1 F750 X37.5002 Y22.4238 Z-3.0000 S1000
G1 F750 X37.8572 Y22.4948 Z-3.0000 S1000
G1 F80 Z-4.5000
G1 F750 X38.1604 Y22.6973 Z-4.5000 S1000
G1 F750 X38.3629 Y23.0005 Z-4.5000 S1000
G1 F750 X38.4339 Y23.3575 Z-4.5000 S1000
G1 F750 X38.3628 Y23.7152 Z-4.5000 S1000
G1 F750 X38.1605 Y24.0180 Z-4.5000 S1000
G1 F750 X37.8572 Y24.2206 Z-4.5000 S1000
G1 F750 X37.5002 Y24.2916 Z-4.5000 S1000
G1 F750 X37.1425 Y24.2205 Z-4.5000 S1000
G1 F750 X36.8396 Y24.0181 Z-4.5000 S1000
G1 F750 X36.6372 Y23.7152 Z-4.5000 S1000
G1 F750 X36.5661 Y23.3575 Z-4.5000 S1000
G1 F750 X36.6371 Y23.0005 Z-4.5000 S1000
G1 F750 X36.8397 Y22.6972 Z-4.5000 S1000
G1 F750 X37.1425 Y22.4949 Z-4.5000 S1000
G1 F750 X37.5002 Y22.4238 Z-4.5000 S1000
G1 F750 X37.8572 Y22.4948 Z-4.5000 S1000
G1 F80 Z-6.0000
G1 F750 X38.1604 Y22.6973 Z-6.0000 S1000
G1 F750 X38.3629 Y23.0005 Z-6.0000 S1000
G1 F750 X38.4339 Y23.3575 Z-6.0000 S1000
G1 F750 X38.3628 Y23.7152 Z-6.0000 S1000
G1 F750 X38.1605 Y24.0180 Z-6.0000 S1000
G1 F750 X37.8572 Y24.2206 Z-6.0000 S1000
G1 F750 X37.5002 Y24.2916 Z-6.0000 S1000
G1 F750 X37.1425 Y24.2205 Z-6.0000 S1000
G1 F750 X36.8396 Y24.0181 Z-6.0000 S1000
G1 F750 X36.6372 Y23.7152 Z-6.0000 S1000
G1 F750 X36.5661 Y23.3575 Z-6.0000 S1000
G1 F750 X36.6371 Y23.0005 Z-6.0000 S1000
G1 F750 X36.8397 Y22.6972 Z-6.0000 S1000
G1 F750 X37.1425 Y22.4949 Z-6.0000 S1000
G1 F750 X37.5002 Y22.4238 Z-6.0000 S1000
G1 F750 X37.8572 Y22.4948 Z-6.0000 S1000
G1 F80 Z-7.5000
G1 F750 X38.1604 Y22.6973 Z-7.5000 S1000
G1 F750 X38.3629 Y23.0005 Z-7.5000 S1000
G1 F750 X38.4339 Y23.3575 Z-7.5000 S1000
G1 F750 X38.3628 Y23.7152 Z-7.5000 S1000
G1 F750 X38.1605 Y24.0180 Z-7.5000 S1000
G1 F750 X37.8572 Y24.2206 Z-7.5000 S1000
G1 F750 X37.5002 Y24.2916 Z-7.5000 S1000
G1 F750 X37.1425 Y24.2205 Z-7.5000 S1000
G1 F750 X36.8396 Y24.0181 Z-7.5000 S1000
G1 F750 X36.6372 Y23.7152 Z-7.5000 S1000
G1 F750 X36.5661 Y23.3575 Z-7.5000 S1000
G1 F750 X36.6371 Y23.0005 Z-7.5000 S1000
G1 F750 X36.8397 Y22.6972 Z-7.5000 S1000
G1 F750 X37.1425 Y22.4949 Z-7.5000 S1000
G1 F750 X37.5002 Y22.4238 Z-7.5000 S1000
G1 F750 X37.8572 Y22.4948 Z-7.5000 S1000
G1 F80 Z-9.0000
G1 F750 X38.1604 Y22.6973 Z-9.0000 S1000
G1 F750 X38.3629 Y23.0005 Z-9.0000 S1000
G1 F750 X38.4339 Y23.3575 Z-9.0000 S1000
G1 F750 X38.3628 Y23.7152 Z-9.0000 S1000
G1 F750 X38.1605 Y24.0180 Z-9.0000 S1000
G1 F750 X37.8572 Y24.2206 Z-9.0000 S1000
G1 F750 X37.5002 Y24.2916 Z-9.0000 S1000
G1 F750 X37.1425 Y24.2205 Z-9.0000 S1000
G1 F750 X36.8396 Y24.0181 Z-9.0000 S1000
G1 F750 X36.6372 Y23.7152 Z-9.0000 S1000
G1 F750 X36.5661 Y23.3575 Z-9.0000 S1000
G1 F750 X36.6371 Y23.0005 Z-9.0000 S1000
G1 F750 X36.8397 Y22.6972 Z-9.0000 S1000
G1 F750 X37.1425 Y22.4949 Z-9.0000 S1000
G1 F750 X37.5002 Y22.4238 Z-9.0000 S1000
G1 F750 X37.8572 Y22.4948 Z-9.0000 S1000
; retracting back to z-safe
G0 Z10
; Operation 1: Drill: Continuous (Centered)
; Endmill Diameter: 3.17

G0 Z10; move to z-safe height
G0 F1000 X359.8330 Y33.5000

G0 Z0
G1 F80 Z0.0000
G1 F750 X359.8330 Y33.5000 Z-2.0000 S1000
G1 F750 X359.8330 Y33.5000 Z0.0000 S1000
; retracting back to z-safe
G0 Z10
; Operation 2: Drill: Continuous (Centered)
; Endmill Diameter: 3.17

G0 Z10; move to z-safe height
G0 F1000 X463.4158 Y7.5002

G0 Z0
G1 F80 Z0.0000
G1 F750 X463.4158 Y7.5002 Z-9.0000 S1000
G1 F750 X463.4158 Y7.5002 Z0.0000 S1000

G0 Z10; move to z-safe height
G0 X411.4158 Y59.5002

G0 Z0
G1 F80 Z0.0000
G1 F750 X411.4158 Y59.5002 Z-9.0000 S1000
G1 F750 X411.4158 Y59.5002 Z0.0000 S1000

G0 Z10; move to z-safe height
G0 X411.4158 Y7.5002

G0 Z0
G1 F80 Z0.0000
G1 F750 X411.4158 Y7.5002 Z-9.0000 S1000
G1 F750 X411.4158 Y7.5002 Z0.0000 S1000

G0 Z10; move to z-safe height
G0 X463.4158 Y59.5002

G0 Z0
G1 F80 Z0.0000
G1 F750 X463.4158 Y59.5002 Z-9.0000 S1000
G1 F750 X463.4158 Y59.5002 Z0.0000 S1000
; retracting back to z-safe
G0 Z10

M5 S0; Spindle Off
