; GCODE Generated by cam.openbuilds.com on 2021-04-16 
G21 ; mm-mode
G54; Work Coordinates
G21; mm-mode
G90; Absolute Positioning
M3 S1000; Spindle On

; Operation 0: CNC: Pocket
; Endmill Diameter: 6

G0 Z10; move to z-safe height
G0 F1000 X37.5375 Y37.2180

G0 Z0
G1 F80 Z-0.7500
G1 F750 X37.5736 Y37.2251 Z-0.7500 S1000
G1 F750 X37.6091 Y37.2372 Z-0.7500 S1000
G1 F750 X37.6424 Y37.2536 Z-0.7500 S1000
G1 F750 X37.6729 Y37.2740 Z-0.7500 S1000
G1 F750 X37.7012 Y37.2988 Z-0.7500 S1000
G1 F750 X37.7260 Y37.3271 Z-0.7500 S1000
G1 F750 X37.7464 Y37.3576 Z-0.7500 S1000
G1 F750 X37.7628 Y37.3909 Z-0.7500 S1000
G1 F750 X37.7749 Y37.4264 Z-0.7500 S1000
G1 F750 X37.7820 Y37.4622 Z-0.7500 S1000
G1 F750 X37.7845 Y37.5000 Z-0.7500 S1000
G1 F750 X37.7820 Y37.5375 Z-0.7500 S1000
G1 F750 X37.7749 Y37.5736 Z-0.7500 S1000
G1 F750 X37.7628 Y37.6091 Z-0.7500 S1000
G1 F750 X37.7464 Y37.6424 Z-0.7500 S1000
G1 F750 X37.7260 Y37.6729 Z-0.7500 S1000
G1 F750 X37.7012 Y37.7012 Z-0.7500 S1000
G1 F750 X37.6733 Y37.7257 Z-0.7500 S1000
G1 F750 X37.6419 Y37.7466 Z-0.7500 S1000
G1 F750 X37.6091 Y37.7628 Z-0.7500 S1000
G1 F750 X37.5736 Y37.7749 Z-0.7500 S1000
G1 F750 X37.5375 Y37.7820 Z-0.7500 S1000
G1 F750 X37.5000 Y37.7845 Z-0.7500 S1000
G1 F750 X37.4625 Y37.7820 Z-0.7500 S1000
G1 F750 X37.4264 Y37.7749 Z-0.7500 S1000
G1 F750 X37.3909 Y37.7628 Z-0.7500 S1000
G1 F750 X37.3581 Y37.7466 Z-0.7500 S1000
G1 F750 X37.3267 Y37.7257 Z-0.7500 S1000
G1 F750 X37.2988 Y37.7012 Z-0.7500 S1000
G1 F750 X37.2743 Y37.6733 Z-0.7500 S1000
G1 F750 X37.2534 Y37.6419 Z-0.7500 S1000
G1 F750 X37.2372 Y37.6091 Z-0.7500 S1000
G1 F750 X37.2251 Y37.5736 Z-0.7500 S1000
G1 F750 X37.2180 Y37.5375 Z-0.7500 S1000
G1 F750 X37.2155 Y37.5000 Z-0.7500 S1000
G1 F750 X37.2180 Y37.4622 Z-0.7500 S1000
G1 F750 X37.2251 Y37.4264 Z-0.7500 S1000
G1 F750 X37.2372 Y37.3909 Z-0.7500 S1000
G1 F750 X37.2534 Y37.3581 Z-0.7500 S1000
G1 F750 X37.2743 Y37.3267 Z-0.7500 S1000
G1 F750 X37.2988 Y37.2988 Z-0.7500 S1000
G1 F750 X37.3271 Y37.2740 Z-0.7500 S1000
G1 F750 X37.3576 Y37.2536 Z-0.7500 S1000
G1 F750 X37.3909 Y37.2372 Z-0.7500 S1000
G1 F750 X37.4264 Y37.2251 Z-0.7500 S1000
G1 F750 X37.4625 Y37.2180 Z-0.7500 S1000
G1 F750 X37.5000 Y37.2155 Z-0.7500 S1000
G1 F750 X37.5375 Y37.2180 Z-0.7500 S1000

G0 Z10; move to z-safe height
G0 X123.1209 Y37.2180

G0 Z0
G1 F80 Z-0.7500
G1 F750 X123.1570 Y37.2251 Z-0.7500 S1000
G1 F750 X123.1920 Y37.2370 Z-0.7500 S1000
G1 F750 X123.2260 Y37.2538 Z-0.7500 S1000
G1 F750 X123.2564 Y37.2741 Z-0.7500 S1000
G1 F750 X123.2842 Y37.2985 Z-0.7500 S1000
G1 F750 X123.3093 Y37.3271 Z-0.7500 S1000
G1 F750 X123.3297 Y37.3576 Z-0.7500 S1000
G1 F750 X123.3461 Y37.3910 Z-0.7500 S1000
G1 F750 X123.3584 Y37.4270 Z-0.7500 S1000
G1 F750 X123.3654 Y37.4622 Z-0.7500 S1000
G1 F750 X123.3679 Y37.5000 Z-0.7500 S1000
G1 F750 X123.3654 Y37.5375 Z-0.7500 S1000
G1 F750 X123.3584 Y37.5730 Z-0.7500 S1000
G1 F750 X123.3461 Y37.6090 Z-0.7500 S1000
G1 F750 X123.3297 Y37.6424 Z-0.7500 S1000
G1 F750 X123.3093 Y37.6729 Z-0.7500 S1000
G1 F750 X123.2842 Y37.7016 Z-0.7500 S1000
G1 F750 X123.2569 Y37.7255 Z-0.7500 S1000
G1 F750 X123.2256 Y37.7464 Z-0.7500 S1000
G1 F750 X123.1920 Y37.7630 Z-0.7500 S1000
G1 F750 X123.1570 Y37.7749 Z-0.7500 S1000
G1 F750 X123.1209 Y37.7820 Z-0.7500 S1000
G1 F750 X123.0834 Y37.7845 Z-0.7500 S1000
G1 F750 X123.0458 Y37.7820 Z-0.7500 S1000
G1 F750 X123.0097 Y37.7749 Z-0.7500 S1000
G1 F750 X122.9742 Y37.7628 Z-0.7500 S1000
G1 F750 X122.9414 Y37.7466 Z-0.7500 S1000
G1 F750 X122.9100 Y37.7257 Z-0.7500 S1000
G1 F750 X122.8821 Y37.7012 Z-0.7500 S1000
G1 F750 X122.8577 Y37.6733 Z-0.7500 S1000
G1 F750 X122.8368 Y37.6421 Z-0.7500 S1000
G1 F750 X122.8204 Y37.6088 Z-0.7500 S1000
G1 F750 X122.8084 Y37.5736 Z-0.7500 S1000
G1 F750 X122.8013 Y37.5375 Z-0.7500 S1000
G1 F750 X122.7988 Y37.5000 Z-0.7500 S1000
G1 F750 X122.8013 Y37.4622 Z-0.7500 S1000
G1 F750 X122.8084 Y37.4264 Z-0.7500 S1000
G1 F750 X122.8204 Y37.3912 Z-0.7500 S1000
G1 F750 X122.8368 Y37.3579 Z-0.7500 S1000
G1 F750 X122.8577 Y37.3267 Z-0.7500 S1000
G1 F750 X122.8821 Y37.2988 Z-0.7500 S1000
G1 F750 X122.9104 Y37.2740 Z-0.7500 S1000
G1 F750 X122.9409 Y37.2536 Z-0.7500 S1000
G1 F750 X122.9742 Y37.2372 Z-0.7500 S1000
G1 F750 X123.0097 Y37.2251 Z-0.7500 S1000
G1 F750 X123.0458 Y37.2180 Z-0.7500 S1000
G1 F750 X123.0834 Y37.2155 Z-0.7500 S1000
G1 F750 X123.1209 Y37.2180 Z-0.7500 S1000

G0 Z10; move to z-safe height
G0 X37.5375 Y37.2180

G0 Z0
G1 F80 Z-3.0000
G1 F750 X37.5736 Y37.2251 Z-3.0000 S1000
G1 F750 X37.6091 Y37.2372 Z-3.0000 S1000
G1 F750 X37.6424 Y37.2536 Z-3.0000 S1000
G1 F750 X37.6729 Y37.2740 Z-3.0000 S1000
G1 F750 X37.7012 Y37.2988 Z-3.0000 S1000
G1 F750 X37.7260 Y37.3271 Z-3.0000 S1000
G1 F750 X37.7464 Y37.3576 Z-3.0000 S1000
G1 F750 X37.7628 Y37.3909 Z-3.0000 S1000
G1 F750 X37.7749 Y37.4264 Z-3.0000 S1000
G1 F750 X37.7820 Y37.4622 Z-3.0000 S1000
G1 F750 X37.7845 Y37.5000 Z-3.0000 S1000
G1 F750 X37.7820 Y37.5375 Z-3.0000 S1000
G1 F750 X37.7749 Y37.5736 Z-3.0000 S1000
G1 F750 X37.7628 Y37.6091 Z-3.0000 S1000
G1 F750 X37.7464 Y37.6424 Z-3.0000 S1000
G1 F750 X37.7260 Y37.6729 Z-3.0000 S1000
G1 F750 X37.7012 Y37.7012 Z-3.0000 S1000
G1 F750 X37.6733 Y37.7257 Z-3.0000 S1000
G1 F750 X37.6419 Y37.7466 Z-3.0000 S1000
G1 F750 X37.6091 Y37.7628 Z-3.0000 S1000
G1 F750 X37.5736 Y37.7749 Z-3.0000 S1000
G1 F750 X37.5375 Y37.7820 Z-3.0000 S1000
G1 F750 X37.5000 Y37.7845 Z-3.0000 S1000
G1 F750 X37.4625 Y37.7820 Z-3.0000 S1000
G1 F750 X37.4264 Y37.7749 Z-3.0000 S1000
G1 F750 X37.3909 Y37.7628 Z-3.0000 S1000
G1 F750 X37.3581 Y37.7466 Z-3.0000 S1000
G1 F750 X37.3267 Y37.7257 Z-3.0000 S1000
G1 F750 X37.2988 Y37.7012 Z-3.0000 S1000
G1 F750 X37.2743 Y37.6733 Z-3.0000 S1000
G1 F750 X37.2534 Y37.6419 Z-3.0000 S1000
G1 F750 X37.2372 Y37.6091 Z-3.0000 S1000
G1 F750 X37.2251 Y37.5736 Z-3.0000 S1000
G1 F750 X37.2180 Y37.5375 Z-3.0000 S1000
G1 F750 X37.2155 Y37.5000 Z-3.0000 S1000
G1 F750 X37.2180 Y37.4622 Z-3.0000 S1000
G1 F750 X37.2251 Y37.4264 Z-3.0000 S1000
G1 F750 X37.2372 Y37.3909 Z-3.0000 S1000
G1 F750 X37.2534 Y37.3581 Z-3.0000 S1000
G1 F750 X37.2743 Y37.3267 Z-3.0000 S1000
G1 F750 X37.2988 Y37.2988 Z-3.0000 S1000
G1 F750 X37.3271 Y37.2740 Z-3.0000 S1000
G1 F750 X37.3576 Y37.2536 Z-3.0000 S1000
G1 F750 X37.3909 Y37.2372 Z-3.0000 S1000
G1 F750 X37.4264 Y37.2251 Z-3.0000 S1000
G1 F750 X37.4625 Y37.2180 Z-3.0000 S1000
G1 F750 X37.5000 Y37.2155 Z-3.0000 S1000
G1 F750 X37.5375 Y37.2180 Z-3.0000 S1000

G0 Z10; move to z-safe height
G0 X123.1209 Y37.2180

G0 Z0
G1 F80 Z-3.0000
G1 F750 X123.1570 Y37.2251 Z-3.0000 S1000
G1 F750 X123.1920 Y37.2370 Z-3.0000 S1000
G1 F750 X123.2260 Y37.2538 Z-3.0000 S1000
G1 F750 X123.2564 Y37.2741 Z-3.0000 S1000
G1 F750 X123.2842 Y37.2985 Z-3.0000 S1000
G1 F750 X123.3093 Y37.3271 Z-3.0000 S1000
G1 F750 X123.3297 Y37.3576 Z-3.0000 S1000
G1 F750 X123.3461 Y37.3910 Z-3.0000 S1000
G1 F750 X123.3584 Y37.4270 Z-3.0000 S1000
G1 F750 X123.3654 Y37.4622 Z-3.0000 S1000
G1 F750 X123.3679 Y37.5000 Z-3.0000 S1000
G1 F750 X123.3654 Y37.5375 Z-3.0000 S1000
G1 F750 X123.3584 Y37.5730 Z-3.0000 S1000
G1 F750 X123.3461 Y37.6090 Z-3.0000 S1000
G1 F750 X123.3297 Y37.6424 Z-3.0000 S1000
G1 F750 X123.3093 Y37.6729 Z-3.0000 S1000
G1 F750 X123.2842 Y37.7016 Z-3.0000 S1000
G1 F750 X123.2569 Y37.7255 Z-3.0000 S1000
G1 F750 X123.2256 Y37.7464 Z-3.0000 S1000
G1 F750 X123.1920 Y37.7630 Z-3.0000 S1000
G1 F750 X123.1570 Y37.7749 Z-3.0000 S1000
G1 F750 X123.1209 Y37.7820 Z-3.0000 S1000
G1 F750 X123.0834 Y37.7845 Z-3.0000 S1000
G1 F750 X123.0458 Y37.7820 Z-3.0000 S1000
G1 F750 X123.0097 Y37.7749 Z-3.0000 S1000
G1 F750 X122.9742 Y37.7628 Z-3.0000 S1000
G1 F750 X122.9414 Y37.7466 Z-3.0000 S1000
G1 F750 X122.9100 Y37.7257 Z-3.0000 S1000
G1 F750 X122.8821 Y37.7012 Z-3.0000 S1000
G1 F750 X122.8577 Y37.6733 Z-3.0000 S1000
G1 F750 X122.8368 Y37.6421 Z-3.0000 S1000
G1 F750 X122.8204 Y37.6088 Z-3.0000 S1000
G1 F750 X122.8084 Y37.5736 Z-3.0000 S1000
G1 F750 X122.8013 Y37.5375 Z-3.0000 S1000
G1 F750 X122.7988 Y37.5000 Z-3.0000 S1000
G1 F750 X122.8013 Y37.4622 Z-3.0000 S1000
G1 F750 X122.8084 Y37.4264 Z-3.0000 S1000
G1 F750 X122.8204 Y37.3912 Z-3.0000 S1000
G1 F750 X122.8368 Y37.3579 Z-3.0000 S1000
G1 F750 X122.8577 Y37.3267 Z-3.0000 S1000
G1 F750 X122.8821 Y37.2988 Z-3.0000 S1000
G1 F750 X122.9104 Y37.2740 Z-3.0000 S1000
G1 F750 X122.9409 Y37.2536 Z-3.0000 S1000
G1 F750 X122.9742 Y37.2372 Z-3.0000 S1000
G1 F750 X123.0097 Y37.2251 Z-3.0000 S1000
G1 F750 X123.0458 Y37.2180 Z-3.0000 S1000
G1 F750 X123.0834 Y37.2155 Z-3.0000 S1000
G1 F750 X123.1209 Y37.2180 Z-3.0000 S1000

G0 Z10; move to z-safe height
G0 X37.5375 Y37.2180

G0 Z0
G1 F80 Z-5.2500
G1 F750 X37.5736 Y37.2251 Z-5.2500 S1000
G1 F750 X37.6091 Y37.2372 Z-5.2500 S1000
G1 F750 X37.6424 Y37.2536 Z-5.2500 S1000
G1 F750 X37.6729 Y37.2740 Z-5.2500 S1000
G1 F750 X37.7012 Y37.2988 Z-5.2500 S1000
G1 F750 X37.7260 Y37.3271 Z-5.2500 S1000
G1 F750 X37.7464 Y37.3576 Z-5.2500 S1000
G1 F750 X37.7628 Y37.3909 Z-5.2500 S1000
G1 F750 X37.7749 Y37.4264 Z-5.2500 S1000
G1 F750 X37.7820 Y37.4622 Z-5.2500 S1000
G1 F750 X37.7845 Y37.5000 Z-5.2500 S1000
G1 F750 X37.7820 Y37.5375 Z-5.2500 S1000
G1 F750 X37.7749 Y37.5736 Z-5.2500 S1000
G1 F750 X37.7628 Y37.6091 Z-5.2500 S1000
G1 F750 X37.7464 Y37.6424 Z-5.2500 S1000
G1 F750 X37.7260 Y37.6729 Z-5.2500 S1000
G1 F750 X37.7012 Y37.7012 Z-5.2500 S1000
G1 F750 X37.6733 Y37.7257 Z-5.2500 S1000
G1 F750 X37.6419 Y37.7466 Z-5.2500 S1000
G1 F750 X37.6091 Y37.7628 Z-5.2500 S1000
G1 F750 X37.5736 Y37.7749 Z-5.2500 S1000
G1 F750 X37.5375 Y37.7820 Z-5.2500 S1000
G1 F750 X37.5000 Y37.7845 Z-5.2500 S1000
G1 F750 X37.4625 Y37.7820 Z-5.2500 S1000
G1 F750 X37.4264 Y37.7749 Z-5.2500 S1000
G1 F750 X37.3909 Y37.7628 Z-5.2500 S1000
G1 F750 X37.3581 Y37.7466 Z-5.2500 S1000
G1 F750 X37.3267 Y37.7257 Z-5.2500 S1000
G1 F750 X37.2988 Y37.7012 Z-5.2500 S1000
G1 F750 X37.2743 Y37.6733 Z-5.2500 S1000
G1 F750 X37.2534 Y37.6419 Z-5.2500 S1000
G1 F750 X37.2372 Y37.6091 Z-5.2500 S1000
G1 F750 X37.2251 Y37.5736 Z-5.2500 S1000
G1 F750 X37.2180 Y37.5375 Z-5.2500 S1000
G1 F750 X37.2155 Y37.5000 Z-5.2500 S1000
G1 F750 X37.2180 Y37.4622 Z-5.2500 S1000
G1 F750 X37.2251 Y37.4264 Z-5.2500 S1000
G1 F750 X37.2372 Y37.3909 Z-5.2500 S1000
G1 F750 X37.2534 Y37.3581 Z-5.2500 S1000
G1 F750 X37.2743 Y37.3267 Z-5.2500 S1000
G1 F750 X37.2988 Y37.2988 Z-5.2500 S1000
G1 F750 X37.3271 Y37.2740 Z-5.2500 S1000
G1 F750 X37.3576 Y37.2536 Z-5.2500 S1000
G1 F750 X37.3909 Y37.2372 Z-5.2500 S1000
G1 F750 X37.4264 Y37.2251 Z-5.2500 S1000
G1 F750 X37.4625 Y37.2180 Z-5.2500 S1000
G1 F750 X37.5000 Y37.2155 Z-5.2500 S1000
G1 F750 X37.5375 Y37.2180 Z-5.2500 S1000

G0 Z10; move to z-safe height
G0 X123.1209 Y37.2180

G0 Z0
G1 F80 Z-5.2500
G1 F750 X123.1570 Y37.2251 Z-5.2500 S1000
G1 F750 X123.1920 Y37.2370 Z-5.2500 S1000
G1 F750 X123.2260 Y37.2538 Z-5.2500 S1000
G1 F750 X123.2564 Y37.2741 Z-5.2500 S1000
G1 F750 X123.2842 Y37.2985 Z-5.2500 S1000
G1 F750 X123.3093 Y37.3271 Z-5.2500 S1000
G1 F750 X123.3297 Y37.3576 Z-5.2500 S1000
G1 F750 X123.3461 Y37.3910 Z-5.2500 S1000
G1 F750 X123.3584 Y37.4270 Z-5.2500 S1000
G1 F750 X123.3654 Y37.4622 Z-5.2500 S1000
G1 F750 X123.3679 Y37.5000 Z-5.2500 S1000
G1 F750 X123.3654 Y37.5375 Z-5.2500 S1000
G1 F750 X123.3584 Y37.5730 Z-5.2500 S1000
G1 F750 X123.3461 Y37.6090 Z-5.2500 S1000
G1 F750 X123.3297 Y37.6424 Z-5.2500 S1000
G1 F750 X123.3093 Y37.6729 Z-5.2500 S1000
G1 F750 X123.2842 Y37.7016 Z-5.2500 S1000
G1 F750 X123.2569 Y37.7255 Z-5.2500 S1000
G1 F750 X123.2256 Y37.7464 Z-5.2500 S1000
G1 F750 X123.1920 Y37.7630 Z-5.2500 S1000
G1 F750 X123.1570 Y37.7749 Z-5.2500 S1000
G1 F750 X123.1209 Y37.7820 Z-5.2500 S1000
G1 F750 X123.0834 Y37.7845 Z-5.2500 S1000
G1 F750 X123.0458 Y37.7820 Z-5.2500 S1000
G1 F750 X123.0097 Y37.7749 Z-5.2500 S1000
G1 F750 X122.9742 Y37.7628 Z-5.2500 S1000
G1 F750 X122.9414 Y37.7466 Z-5.2500 S1000
G1 F750 X122.9100 Y37.7257 Z-5.2500 S1000
G1 F750 X122.8821 Y37.7012 Z-5.2500 S1000
G1 F750 X122.8577 Y37.6733 Z-5.2500 S1000
G1 F750 X122.8368 Y37.6421 Z-5.2500 S1000
G1 F750 X122.8204 Y37.6088 Z-5.2500 S1000
G1 F750 X122.8084 Y37.5736 Z-5.2500 S1000
G1 F750 X122.8013 Y37.5375 Z-5.2500 S1000
G1 F750 X122.7988 Y37.5000 Z-5.2500 S1000
G1 F750 X122.8013 Y37.4622 Z-5.2500 S1000
G1 F750 X122.8084 Y37.4264 Z-5.2500 S1000
G1 F750 X122.8204 Y37.3912 Z-5.2500 S1000
G1 F750 X122.8368 Y37.3579 Z-5.2500 S1000
G1 F750 X122.8577 Y37.3267 Z-5.2500 S1000
G1 F750 X122.8821 Y37.2988 Z-5.2500 S1000
G1 F750 X122.9104 Y37.2740 Z-5.2500 S1000
G1 F750 X122.9409 Y37.2536 Z-5.2500 S1000
G1 F750 X122.9742 Y37.2372 Z-5.2500 S1000
G1 F750 X123.0097 Y37.2251 Z-5.2500 S1000
G1 F750 X123.0458 Y37.2180 Z-5.2500 S1000
G1 F750 X123.0834 Y37.2155 Z-5.2500 S1000
G1 F750 X123.1209 Y37.2180 Z-5.2500 S1000

G0 Z10; move to z-safe height
G0 X37.8505 Y34.8333

G0 Z0
G1 F80 Z-0.7500
G1 F750 X38.1968 Y34.9022 Z-0.7500 S1000
G1 F750 X38.5294 Y35.0151 Z-0.7500 S1000
G1 F750 X38.8450 Y35.1707 Z-0.7500 S1000
G1 F750 X39.1372 Y35.3659 Z-0.7500 S1000
G1 F750 X39.4019 Y35.5981 Z-0.7500 S1000
G1 F750 X39.6341 Y35.8628 Z-0.7500 S1000
G1 F750 X39.8293 Y36.1550 Z-0.7500 S1000
G1 F750 X39.9849 Y36.4706 Z-0.7500 S1000
G1 F750 X40.0978 Y36.8032 Z-0.7500 S1000
G1 F750 X40.1667 Y37.1495 Z-0.7500 S1000
G1 F750 X40.1897 Y37.5000 Z-0.7500 S1000
G1 F750 X40.1667 Y37.8505 Z-0.7500 S1000
G1 F750 X40.0978 Y38.1968 Z-0.7500 S1000
G1 F750 X39.9849 Y38.5294 Z-0.7500 S1000
G1 F750 X39.8293 Y38.8450 Z-0.7500 S1000
G1 F750 X39.6341 Y39.1372 Z-0.7500 S1000
G1 F750 X39.4022 Y39.4016 Z-0.7500 S1000
G1 F750 X39.1373 Y39.6339 Z-0.7500 S1000
G1 F750 X38.8445 Y39.8296 Z-0.7500 S1000
G1 F750 X38.5294 Y39.9849 Z-0.7500 S1000
G1 F750 X38.1968 Y40.0978 Z-0.7500 S1000
G1 F750 X37.8505 Y40.1667 Z-0.7500 S1000
G1 F750 X37.5000 Y40.1897 Z-0.7500 S1000
G1 F750 X37.1495 Y40.1667 Z-0.7500 S1000
G1 F750 X36.8032 Y40.0978 Z-0.7500 S1000
G1 F750 X36.4706 Y39.9849 Z-0.7500 S1000
G1 F750 X36.1555 Y39.8296 Z-0.7500 S1000
G1 F750 X35.8627 Y39.6339 Z-0.7500 S1000
G1 F750 X35.5981 Y39.4019 Z-0.7500 S1000
G1 F750 X35.3661 Y39.1373 Z-0.7500 S1000
G1 F750 X35.1704 Y38.8445 Z-0.7500 S1000
G1 F750 X35.0151 Y38.5294 Z-0.7500 S1000
G1 F750 X34.9022 Y38.1968 Z-0.7500 S1000
G1 F750 X34.8333 Y37.8505 Z-0.7500 S1000
G1 F750 X34.8103 Y37.5000 Z-0.7500 S1000
G1 F750 X34.8333 Y37.1495 Z-0.7500 S1000
G1 F750 X34.9022 Y36.8032 Z-0.7500 S1000
G1 F750 X35.0151 Y36.4706 Z-0.7500 S1000
G1 F750 X35.1704 Y36.1555 Z-0.7500 S1000
G1 F750 X35.3661 Y35.8627 Z-0.7500 S1000
G1 F750 X35.5984 Y35.5978 Z-0.7500 S1000
G1 F750 X35.8628 Y35.3659 Z-0.7500 S1000
G1 F750 X36.1550 Y35.1707 Z-0.7500 S1000
G1 F750 X36.4706 Y35.0151 Z-0.7500 S1000
G1 F750 X36.8032 Y34.9022 Z-0.7500 S1000
G1 F750 X37.1495 Y34.8333 Z-0.7500 S1000
G1 F750 X37.5000 Y34.8103 Z-0.7500 S1000
G1 F750 X37.8505 Y34.8333 Z-0.7500 S1000

G0 Z10; move to z-safe height
G0 X123.4339 Y34.8333

G0 Z0
G1 F80 Z-0.7500
G1 F750 X123.7802 Y34.9022 Z-0.7500 S1000
G1 F750 X124.1127 Y35.0150 Z-0.7500 S1000
G1 F750 X124.4280 Y35.1705 Z-0.7500 S1000
G1 F750 X124.7210 Y35.3663 Z-0.7500 S1000
G1 F750 X124.9850 Y35.5979 Z-0.7500 S1000
G1 F750 X125.2174 Y35.8628 Z-0.7500 S1000
G1 F750 X125.4126 Y36.1550 Z-0.7500 S1000
G1 F750 X125.5682 Y36.4706 Z-0.7500 S1000
G1 F750 X125.6813 Y36.8037 Z-0.7500 S1000
G1 F750 X125.7501 Y37.1495 Z-0.7500 S1000
G1 F750 X125.7731 Y37.5000 Z-0.7500 S1000
G1 F750 X125.7501 Y37.8505 Z-0.7500 S1000
G1 F750 X125.6813 Y38.1963 Z-0.7500 S1000
G1 F750 X125.5682 Y38.5294 Z-0.7500 S1000
G1 F750 X125.4126 Y38.8450 Z-0.7500 S1000
G1 F750 X125.2174 Y39.1372 Z-0.7500 S1000
G1 F750 X124.9853 Y39.4018 Z-0.7500 S1000
G1 F750 X124.7208 Y39.6338 Z-0.7500 S1000
G1 F750 X124.4278 Y39.8296 Z-0.7500 S1000
G1 F750 X124.1127 Y39.9850 Z-0.7500 S1000
G1 F750 X123.7802 Y40.0978 Z-0.7500 S1000
G1 F750 X123.4339 Y40.1667 Z-0.7500 S1000
G1 F750 X123.0833 Y40.1897 Z-0.7500 S1000
G1 F750 X122.7328 Y40.1667 Z-0.7500 S1000
G1 F750 X122.3865 Y40.0978 Z-0.7500 S1000
G1 F750 X122.0539 Y39.9849 Z-0.7500 S1000
G1 F750 X121.7388 Y39.8296 Z-0.7500 S1000
G1 F750 X121.4460 Y39.6339 Z-0.7500 S1000
G1 F750 X121.1814 Y39.4019 Z-0.7500 S1000
G1 F750 X120.9493 Y39.1372 Z-0.7500 S1000
G1 F750 X120.7540 Y38.8448 Z-0.7500 S1000
G1 F750 X120.5983 Y38.5292 Z-0.7500 S1000
G1 F750 X120.4855 Y38.1968 Z-0.7500 S1000
G1 F750 X120.4166 Y37.8505 Z-0.7500 S1000
G1 F750 X120.3936 Y37.5000 Z-0.7500 S1000
G1 F750 X120.4166 Y37.1495 Z-0.7500 S1000
G1 F750 X120.4855 Y36.8032 Z-0.7500 S1000
G1 F750 X120.5983 Y36.4708 Z-0.7500 S1000
G1 F750 X120.7540 Y36.1552 Z-0.7500 S1000
G1 F750 X120.9493 Y35.8628 Z-0.7500 S1000
G1 F750 X121.1817 Y35.5978 Z-0.7500 S1000
G1 F750 X121.4461 Y35.3659 Z-0.7500 S1000
G1 F750 X121.7383 Y35.1707 Z-0.7500 S1000
G1 F750 X122.0539 Y35.0151 Z-0.7500 S1000
G1 F750 X122.3865 Y34.9022 Z-0.7500 S1000
G1 F750 X122.7328 Y34.8333 Z-0.7500 S1000
G1 F750 X123.0833 Y34.8103 Z-0.7500 S1000
G1 F750 X123.4339 Y34.8333 Z-0.7500 S1000

G0 Z10; move to z-safe height
G0 X37.8505 Y34.8333

G0 Z0
G1 F80 Z-3.0000
G1 F750 X38.1968 Y34.9022 Z-3.0000 S1000
G1 F750 X38.5294 Y35.0151 Z-3.0000 S1000
G1 F750 X38.8450 Y35.1707 Z-3.0000 S1000
G1 F750 X39.1372 Y35.3659 Z-3.0000 S1000
G1 F750 X39.4019 Y35.5981 Z-3.0000 S1000
G1 F750 X39.6341 Y35.8628 Z-3.0000 S1000
G1 F750 X39.8293 Y36.1550 Z-3.0000 S1000
G1 F750 X39.9849 Y36.4706 Z-3.0000 S1000
G1 F750 X40.0978 Y36.8032 Z-3.0000 S1000
G1 F750 X40.1667 Y37.1495 Z-3.0000 S1000
G1 F750 X40.1897 Y37.5000 Z-3.0000 S1000
G1 F750 X40.1667 Y37.8505 Z-3.0000 S1000
G1 F750 X40.0978 Y38.1968 Z-3.0000 S1000
G1 F750 X39.9849 Y38.5294 Z-3.0000 S1000
G1 F750 X39.8293 Y38.8450 Z-3.0000 S1000
G1 F750 X39.6341 Y39.1372 Z-3.0000 S1000
G1 F750 X39.4022 Y39.4016 Z-3.0000 S1000
G1 F750 X39.1373 Y39.6339 Z-3.0000 S1000
G1 F750 X38.8445 Y39.8296 Z-3.0000 S1000
G1 F750 X38.5294 Y39.9849 Z-3.0000 S1000
G1 F750 X38.1968 Y40.0978 Z-3.0000 S1000
G1 F750 X37.8505 Y40.1667 Z-3.0000 S1000
G1 F750 X37.5000 Y40.1897 Z-3.0000 S1000
G1 F750 X37.1495 Y40.1667 Z-3.0000 S1000
G1 F750 X36.8032 Y40.0978 Z-3.0000 S1000
G1 F750 X36.4706 Y39.9849 Z-3.0000 S1000
G1 F750 X36.1555 Y39.8296 Z-3.0000 S1000
G1 F750 X35.8627 Y39.6339 Z-3.0000 S1000
G1 F750 X35.5981 Y39.4019 Z-3.0000 S1000
G1 F750 X35.3661 Y39.1373 Z-3.0000 S1000
G1 F750 X35.1704 Y38.8445 Z-3.0000 S1000
G1 F750 X35.0151 Y38.5294 Z-3.0000 S1000
G1 F750 X34.9022 Y38.1968 Z-3.0000 S1000
G1 F750 X34.8333 Y37.8505 Z-3.0000 S1000
G1 F750 X34.8103 Y37.5000 Z-3.0000 S1000
G1 F750 X34.8333 Y37.1495 Z-3.0000 S1000
G1 F750 X34.9022 Y36.8032 Z-3.0000 S1000
G1 F750 X35.0151 Y36.4706 Z-3.0000 S1000
G1 F750 X35.1704 Y36.1555 Z-3.0000 S1000
G1 F750 X35.3661 Y35.8627 Z-3.0000 S1000
G1 F750 X35.5984 Y35.5978 Z-3.0000 S1000
G1 F750 X35.8628 Y35.3659 Z-3.0000 S1000
G1 F750 X36.1550 Y35.1707 Z-3.0000 S1000
G1 F750 X36.4706 Y35.0151 Z-3.0000 S1000
G1 F750 X36.8032 Y34.9022 Z-3.0000 S1000
G1 F750 X37.1495 Y34.8333 Z-3.0000 S1000
G1 F750 X37.5000 Y34.8103 Z-3.0000 S1000
G1 F750 X37.8505 Y34.8333 Z-3.0000 S1000

G0 Z10; move to z-safe height
G0 X123.4339 Y34.8333

G0 Z0
G1 F80 Z-3.0000
G1 F750 X123.7802 Y34.9022 Z-3.0000 S1000
G1 F750 X124.1127 Y35.0150 Z-3.0000 S1000
G1 F750 X124.4280 Y35.1705 Z-3.0000 S1000
G1 F750 X124.7210 Y35.3663 Z-3.0000 S1000
G1 F750 X124.9850 Y35.5979 Z-3.0000 S1000
G1 F750 X125.2174 Y35.8628 Z-3.0000 S1000
G1 F750 X125.4126 Y36.1550 Z-3.0000 S1000
G1 F750 X125.5682 Y36.4706 Z-3.0000 S1000
G1 F750 X125.6813 Y36.8037 Z-3.0000 S1000
G1 F750 X125.7501 Y37.1495 Z-3.0000 S1000
G1 F750 X125.7731 Y37.5000 Z-3.0000 S1000
G1 F750 X125.7501 Y37.8505 Z-3.0000 S1000
G1 F750 X125.6813 Y38.1963 Z-3.0000 S1000
G1 F750 X125.5682 Y38.5294 Z-3.0000 S1000
G1 F750 X125.4126 Y38.8450 Z-3.0000 S1000
G1 F750 X125.2174 Y39.1372 Z-3.0000 S1000
G1 F750 X124.9853 Y39.4018 Z-3.0000 S1000
G1 F750 X124.7208 Y39.6338 Z-3.0000 S1000
G1 F750 X124.4278 Y39.8296 Z-3.0000 S1000
G1 F750 X124.1127 Y39.9850 Z-3.0000 S1000
G1 F750 X123.7802 Y40.0978 Z-3.0000 S1000
G1 F750 X123.4339 Y40.1667 Z-3.0000 S1000
G1 F750 X123.0833 Y40.1897 Z-3.0000 S1000
G1 F750 X122.7328 Y40.1667 Z-3.0000 S1000
G1 F750 X122.3865 Y40.0978 Z-3.0000 S1000
G1 F750 X122.0539 Y39.9849 Z-3.0000 S1000
G1 F750 X121.7388 Y39.8296 Z-3.0000 S1000
G1 F750 X121.4460 Y39.6339 Z-3.0000 S1000
G1 F750 X121.1814 Y39.4019 Z-3.0000 S1000
G1 F750 X120.9493 Y39.1372 Z-3.0000 S1000
G1 F750 X120.7540 Y38.8448 Z-3.0000 S1000
G1 F750 X120.5983 Y38.5292 Z-3.0000 S1000
G1 F750 X120.4855 Y38.1968 Z-3.0000 S1000
G1 F750 X120.4166 Y37.8505 Z-3.0000 S1000
G1 F750 X120.3936 Y37.5000 Z-3.0000 S1000
G1 F750 X120.4166 Y37.1495 Z-3.0000 S1000
G1 F750 X120.4855 Y36.8032 Z-3.0000 S1000
G1 F750 X120.5983 Y36.4708 Z-3.0000 S1000
G1 F750 X120.7540 Y36.1552 Z-3.0000 S1000
G1 F750 X120.9493 Y35.8628 Z-3.0000 S1000
G1 F750 X121.1817 Y35.5978 Z-3.0000 S1000
G1 F750 X121.4461 Y35.3659 Z-3.0000 S1000
G1 F750 X121.7383 Y35.1707 Z-3.0000 S1000
G1 F750 X122.0539 Y35.0151 Z-3.0000 S1000
G1 F750 X122.3865 Y34.9022 Z-3.0000 S1000
G1 F750 X122.7328 Y34.8333 Z-3.0000 S1000
G1 F750 X123.0833 Y34.8103 Z-3.0000 S1000
G1 F750 X123.4339 Y34.8333 Z-3.0000 S1000

G0 Z10; move to z-safe height
G0 X37.8505 Y34.8333

G0 Z0
G1 F80 Z-5.2500
G1 F750 X38.1968 Y34.9022 Z-5.2500 S1000
G1 F750 X38.5294 Y35.0151 Z-5.2500 S1000
G1 F750 X38.8450 Y35.1707 Z-5.2500 S1000
G1 F750 X39.1372 Y35.3659 Z-5.2500 S1000
G1 F750 X39.4019 Y35.5981 Z-5.2500 S1000
G1 F750 X39.6341 Y35.8628 Z-5.2500 S1000
G1 F750 X39.8293 Y36.1550 Z-5.2500 S1000
G1 F750 X39.9849 Y36.4706 Z-5.2500 S1000
G1 F750 X40.0978 Y36.8032 Z-5.2500 S1000
G1 F750 X40.1667 Y37.1495 Z-5.2500 S1000
G1 F750 X40.1897 Y37.5000 Z-5.2500 S1000
G1 F750 X40.1667 Y37.8505 Z-5.2500 S1000
G1 F750 X40.0978 Y38.1968 Z-5.2500 S1000
G1 F750 X39.9849 Y38.5294 Z-5.2500 S1000
G1 F750 X39.8293 Y38.8450 Z-5.2500 S1000
G1 F750 X39.6341 Y39.1372 Z-5.2500 S1000
G1 F750 X39.4022 Y39.4016 Z-5.2500 S1000
G1 F750 X39.1373 Y39.6339 Z-5.2500 S1000
G1 F750 X38.8445 Y39.8296 Z-5.2500 S1000
G1 F750 X38.5294 Y39.9849 Z-5.2500 S1000
G1 F750 X38.1968 Y40.0978 Z-5.2500 S1000
G1 F750 X37.8505 Y40.1667 Z-5.2500 S1000
G1 F750 X37.5000 Y40.1897 Z-5.2500 S1000
G1 F750 X37.1495 Y40.1667 Z-5.2500 S1000
G1 F750 X36.8032 Y40.0978 Z-5.2500 S1000
G1 F750 X36.4706 Y39.9849 Z-5.2500 S1000
G1 F750 X36.1555 Y39.8296 Z-5.2500 S1000
G1 F750 X35.8627 Y39.6339 Z-5.2500 S1000
G1 F750 X35.5981 Y39.4019 Z-5.2500 S1000
G1 F750 X35.3661 Y39.1373 Z-5.2500 S1000
G1 F750 X35.1704 Y38.8445 Z-5.2500 S1000
G1 F750 X35.0151 Y38.5294 Z-5.2500 S1000
G1 F750 X34.9022 Y38.1968 Z-5.2500 S1000
G1 F750 X34.8333 Y37.8505 Z-5.2500 S1000
G1 F750 X34.8103 Y37.5000 Z-5.2500 S1000
G1 F750 X34.8333 Y37.1495 Z-5.2500 S1000
G1 F750 X34.9022 Y36.8032 Z-5.2500 S1000
G1 F750 X35.0151 Y36.4706 Z-5.2500 S1000
G1 F750 X35.1704 Y36.1555 Z-5.2500 S1000
G1 F750 X35.3661 Y35.8627 Z-5.2500 S1000
G1 F750 X35.5984 Y35.5978 Z-5.2500 S1000
G1 F750 X35.8628 Y35.3659 Z-5.2500 S1000
G1 F750 X36.1550 Y35.1707 Z-5.2500 S1000
G1 F750 X36.4706 Y35.0151 Z-5.2500 S1000
G1 F750 X36.8032 Y34.9022 Z-5.2500 S1000
G1 F750 X37.1495 Y34.8333 Z-5.2500 S1000
G1 F750 X37.5000 Y34.8103 Z-5.2500 S1000
G1 F750 X37.8505 Y34.8333 Z-5.2500 S1000

G0 Z10; move to z-safe height
G0 X123.4339 Y34.8333

G0 Z0
G1 F80 Z-5.2500
G1 F750 X123.7802 Y34.9022 Z-5.2500 S1000
G1 F750 X124.1127 Y35.0150 Z-5.2500 S1000
G1 F750 X124.4280 Y35.1705 Z-5.2500 S1000
G1 F750 X124.7210 Y35.3663 Z-5.2500 S1000
G1 F750 X124.9850 Y35.5979 Z-5.2500 S1000
G1 F750 X125.2174 Y35.8628 Z-5.2500 S1000
G1 F750 X125.4126 Y36.1550 Z-5.2500 S1000
G1 F750 X125.5682 Y36.4706 Z-5.2500 S1000
G1 F750 X125.6813 Y36.8037 Z-5.2500 S1000
G1 F750 X125.7501 Y37.1495 Z-5.2500 S1000
G1 F750 X125.7731 Y37.5000 Z-5.2500 S1000
G1 F750 X125.7501 Y37.8505 Z-5.2500 S1000
G1 F750 X125.6813 Y38.1963 Z-5.2500 S1000
G1 F750 X125.5682 Y38.5294 Z-5.2500 S1000
G1 F750 X125.4126 Y38.8450 Z-5.2500 S1000
G1 F750 X125.2174 Y39.1372 Z-5.2500 S1000
G1 F750 X124.9853 Y39.4018 Z-5.2500 S1000
G1 F750 X124.7208 Y39.6338 Z-5.2500 S1000
G1 F750 X124.4278 Y39.8296 Z-5.2500 S1000
G1 F750 X124.1127 Y39.9850 Z-5.2500 S1000
G1 F750 X123.7802 Y40.0978 Z-5.2500 S1000
G1 F750 X123.4339 Y40.1667 Z-5.2500 S1000
G1 F750 X123.0833 Y40.1897 Z-5.2500 S1000
G1 F750 X122.7328 Y40.1667 Z-5.2500 S1000
G1 F750 X122.3865 Y40.0978 Z-5.2500 S1000
G1 F750 X122.0539 Y39.9849 Z-5.2500 S1000
G1 F750 X121.7388 Y39.8296 Z-5.2500 S1000
G1 F750 X121.4460 Y39.6339 Z-5.2500 S1000
G1 F750 X121.1814 Y39.4019 Z-5.2500 S1000
G1 F750 X120.9493 Y39.1372 Z-5.2500 S1000
G1 F750 X120.7540 Y38.8448 Z-5.2500 S1000
G1 F750 X120.5983 Y38.5292 Z-5.2500 S1000
G1 F750 X120.4855 Y38.1968 Z-5.2500 S1000
G1 F750 X120.4166 Y37.8505 Z-5.2500 S1000
G1 F750 X120.3936 Y37.5000 Z-5.2500 S1000
G1 F750 X120.4166 Y37.1495 Z-5.2500 S1000
G1 F750 X120.4855 Y36.8032 Z-5.2500 S1000
G1 F750 X120.5983 Y36.4708 Z-5.2500 S1000
G1 F750 X120.7540 Y36.1552 Z-5.2500 S1000
G1 F750 X120.9493 Y35.8628 Z-5.2500 S1000
G1 F750 X121.1817 Y35.5978 Z-5.2500 S1000
G1 F750 X121.4461 Y35.3659 Z-5.2500 S1000
G1 F750 X121.7383 Y35.1707 Z-5.2500 S1000
G1 F750 X122.0539 Y35.0151 Z-5.2500 S1000
G1 F750 X122.3865 Y34.9022 Z-5.2500 S1000
G1 F750 X122.7328 Y34.8333 Z-5.2500 S1000
G1 F750 X123.0833 Y34.8103 Z-5.2500 S1000
G1 F750 X123.4339 Y34.8333 Z-5.2500 S1000

G0 Z10; move to z-safe height
G0 X38.0863 Y33.0449

G0 Z0
G1 F80 Z-0.7500
G1 F750 X38.6636 Y33.1598 Z-0.7500 S1000
G1 F750 X39.2198 Y33.3485 Z-0.7500 S1000
G1 F750 X39.7465 Y33.6082 Z-0.7500 S1000
G1 F750 X40.2354 Y33.9349 Z-0.7500 S1000
G1 F750 X40.6774 Y34.3226 Z-0.7500 S1000
G1 F750 X41.0651 Y34.7646 Z-0.7500 S1000
G1 F750 X41.3918 Y35.2535 Z-0.7500 S1000
G1 F750 X41.6515 Y35.7802 Z-0.7500 S1000
G1 F750 X41.8402 Y36.3364 Z-0.7500 S1000
G1 F750 X41.9551 Y36.9137 Z-0.7500 S1000
G1 F750 X41.9935 Y37.5000 Z-0.7500 S1000
G1 F750 X41.9551 Y38.0863 Z-0.7500 S1000
G1 F750 X41.8402 Y38.6636 Z-0.7500 S1000
G1 F750 X41.6515 Y39.2198 Z-0.7500 S1000
G1 F750 X41.3918 Y39.7465 Z-0.7500 S1000
G1 F750 X41.0651 Y40.2354 Z-0.7500 S1000
G1 F750 X40.6772 Y40.6777 Z-0.7500 S1000
G1 F750 X40.2358 Y41.0648 Z-0.7500 S1000
G1 F750 X39.7463 Y41.3918 Z-0.7500 S1000
G1 F750 X39.2198 Y41.6515 Z-0.7500 S1000
G1 F750 X38.6636 Y41.8402 Z-0.7500 S1000
G1 F750 X38.0863 Y41.9551 Z-0.7500 S1000
G1 F750 X37.5000 Y41.9935 Z-0.7500 S1000
G1 F750 X36.9137 Y41.9551 Z-0.7500 S1000
G1 F750 X36.3364 Y41.8402 Z-0.7500 S1000
G1 F750 X35.7802 Y41.6515 Z-0.7500 S1000
G1 F750 X35.2537 Y41.3918 Z-0.7500 S1000
G1 F750 X34.7642 Y41.0648 Z-0.7500 S1000
G1 F750 X34.3226 Y40.6774 Z-0.7500 S1000
G1 F750 X33.9352 Y40.2358 Z-0.7500 S1000
G1 F750 X33.6082 Y39.7463 Z-0.7500 S1000
G1 F750 X33.3485 Y39.2198 Z-0.7500 S1000
G1 F750 X33.1598 Y38.6636 Z-0.7500 S1000
G1 F750 X33.0449 Y38.0863 Z-0.7500 S1000
G1 F750 X33.0065 Y37.5000 Z-0.7500 S1000
G1 F750 X33.0449 Y36.9137 Z-0.7500 S1000
G1 F750 X33.1598 Y36.3364 Z-0.7500 S1000
G1 F750 X33.3485 Y35.7802 Z-0.7500 S1000
G1 F750 X33.6082 Y35.2537 Z-0.7500 S1000
G1 F750 X33.9352 Y34.7642 Z-0.7500 S1000
G1 F750 X34.3223 Y34.3228 Z-0.7500 S1000
G1 F750 X34.7646 Y33.9349 Z-0.7500 S1000
G1 F750 X35.2535 Y33.6082 Z-0.7500 S1000
G1 F750 X35.7802 Y33.3485 Z-0.7500 S1000
G1 F750 X36.3364 Y33.1598 Z-0.7500 S1000
G1 F750 X36.9137 Y33.0449 Z-0.7500 S1000
G1 F750 X37.5000 Y33.0065 Z-0.7500 S1000
G1 F750 X38.0863 Y33.0449 Z-0.7500 S1000

G0 Z10; move to z-safe height
G0 X123.6697 Y33.0449

G0 Z0
G1 F80 Z-0.7500
G1 F750 X124.2470 Y33.1598 Z-0.7500 S1000
G1 F750 X124.8028 Y33.3484 Z-0.7500 S1000
G1 F750 X125.3299 Y33.6083 Z-0.7500 S1000
G1 F750 X125.8191 Y33.9351 Z-0.7500 S1000
G1 F750 X126.2606 Y34.3224 Z-0.7500 S1000
G1 F750 X126.6484 Y34.7646 Z-0.7500 S1000
G1 F750 X126.9751 Y35.2535 Z-0.7500 S1000
G1 F750 X127.2349 Y35.7805 Z-0.7500 S1000
G1 F750 X127.4236 Y36.3363 Z-0.7500 S1000
G1 F750 X127.5385 Y36.9137 Z-0.7500 S1000
G1 F750 X127.5769 Y37.5000 Z-0.7500 S1000
G1 F750 X127.5385 Y38.0863 Z-0.7500 S1000
G1 F750 X127.4236 Y38.6637 Z-0.7500 S1000
G1 F750 X127.2349 Y39.2195 Z-0.7500 S1000
G1 F750 X126.9751 Y39.7465 Z-0.7500 S1000
G1 F750 X126.6484 Y40.2354 Z-0.7500 S1000
G1 F750 X126.2607 Y40.6774 Z-0.7500 S1000
G1 F750 X125.8186 Y41.0651 Z-0.7500 S1000
G1 F750 X125.3301 Y41.3915 Z-0.7500 S1000
G1 F750 X124.8028 Y41.6516 Z-0.7500 S1000
G1 F750 X124.2470 Y41.8402 Z-0.7500 S1000
G1 F750 X123.6697 Y41.9551 Z-0.7500 S1000
G1 F750 X123.0833 Y41.9935 Z-0.7500 S1000
G1 F750 X122.4970 Y41.9551 Z-0.7500 S1000
G1 F750 X121.9197 Y41.8402 Z-0.7500 S1000
G1 F750 X121.3635 Y41.6515 Z-0.7500 S1000
G1 F750 X120.8370 Y41.3918 Z-0.7500 S1000
G1 F750 X120.3475 Y41.0648 Z-0.7500 S1000
G1 F750 X119.9059 Y40.6774 Z-0.7500 S1000
G1 F750 X119.5186 Y40.2359 Z-0.7500 S1000
G1 F750 X119.1917 Y39.7466 Z-0.7500 S1000
G1 F750 X118.9317 Y39.2194 Z-0.7500 S1000
G1 F750 X118.7431 Y38.6636 Z-0.7500 S1000
G1 F750 X118.6282 Y38.0863 Z-0.7500 S1000
G1 F750 X118.5898 Y37.5000 Z-0.7500 S1000
G1 F750 X118.6282 Y36.9137 Z-0.7500 S1000
G1 F750 X118.7431 Y36.3364 Z-0.7500 S1000
G1 F750 X118.9317 Y35.7806 Z-0.7500 S1000
G1 F750 X119.1917 Y35.2534 Z-0.7500 S1000
G1 F750 X119.5186 Y34.7641 Z-0.7500 S1000
G1 F750 X119.9056 Y34.3228 Z-0.7500 S1000
G1 F750 X120.3479 Y33.9349 Z-0.7500 S1000
G1 F750 X120.8368 Y33.6082 Z-0.7500 S1000
G1 F750 X121.3635 Y33.3485 Z-0.7500 S1000
G1 F750 X121.9197 Y33.1598 Z-0.7500 S1000
G1 F750 X122.4970 Y33.0449 Z-0.7500 S1000
G1 F750 X123.0833 Y33.0065 Z-0.7500 S1000
G1 F750 X123.6697 Y33.0449 Z-0.7500 S1000

G0 Z10; move to z-safe height
G0 X38.0863 Y33.0449

G0 Z0
G1 F80 Z-3.0000
G1 F750 X38.6636 Y33.1598 Z-3.0000 S1000
G1 F750 X39.2198 Y33.3485 Z-3.0000 S1000
G1 F750 X39.7465 Y33.6082 Z-3.0000 S1000
G1 F750 X40.2354 Y33.9349 Z-3.0000 S1000
G1 F750 X40.6774 Y34.3226 Z-3.0000 S1000
G1 F750 X41.0651 Y34.7646 Z-3.0000 S1000
G1 F750 X41.3918 Y35.2535 Z-3.0000 S1000
G1 F750 X41.6515 Y35.7802 Z-3.0000 S1000
G1 F750 X41.8402 Y36.3364 Z-3.0000 S1000
G1 F750 X41.9551 Y36.9137 Z-3.0000 S1000
G1 F750 X41.9935 Y37.5000 Z-3.0000 S1000
G1 F750 X41.9551 Y38.0863 Z-3.0000 S1000
G1 F750 X41.8402 Y38.6636 Z-3.0000 S1000
G1 F750 X41.6515 Y39.2198 Z-3.0000 S1000
G1 F750 X41.3918 Y39.7465 Z-3.0000 S1000
G1 F750 X41.0651 Y40.2354 Z-3.0000 S1000
G1 F750 X40.6772 Y40.6777 Z-3.0000 S1000
G1 F750 X40.2358 Y41.0648 Z-3.0000 S1000
G1 F750 X39.7463 Y41.3918 Z-3.0000 S1000
G1 F750 X39.2198 Y41.6515 Z-3.0000 S1000
G1 F750 X38.6636 Y41.8402 Z-3.0000 S1000
G1 F750 X38.0863 Y41.9551 Z-3.0000 S1000
G1 F750 X37.5000 Y41.9935 Z-3.0000 S1000
G1 F750 X36.9137 Y41.9551 Z-3.0000 S1000
G1 F750 X36.3364 Y41.8402 Z-3.0000 S1000
G1 F750 X35.7802 Y41.6515 Z-3.0000 S1000
G1 F750 X35.2537 Y41.3918 Z-3.0000 S1000
G1 F750 X34.7642 Y41.0648 Z-3.0000 S1000
G1 F750 X34.3226 Y40.6774 Z-3.0000 S1000
G1 F750 X33.9352 Y40.2358 Z-3.0000 S1000
G1 F750 X33.6082 Y39.7463 Z-3.0000 S1000
G1 F750 X33.3485 Y39.2198 Z-3.0000 S1000
G1 F750 X33.1598 Y38.6636 Z-3.0000 S1000
G1 F750 X33.0449 Y38.0863 Z-3.0000 S1000
G1 F750 X33.0065 Y37.5000 Z-3.0000 S1000
G1 F750 X33.0449 Y36.9137 Z-3.0000 S1000
G1 F750 X33.1598 Y36.3364 Z-3.0000 S1000
G1 F750 X33.3485 Y35.7802 Z-3.0000 S1000
G1 F750 X33.6082 Y35.2537 Z-3.0000 S1000
G1 F750 X33.9352 Y34.7642 Z-3.0000 S1000
G1 F750 X34.3223 Y34.3228 Z-3.0000 S1000
G1 F750 X34.7646 Y33.9349 Z-3.0000 S1000
G1 F750 X35.2535 Y33.6082 Z-3.0000 S1000
G1 F750 X35.7802 Y33.3485 Z-3.0000 S1000
G1 F750 X36.3364 Y33.1598 Z-3.0000 S1000
G1 F750 X36.9137 Y33.0449 Z-3.0000 S1000
G1 F750 X37.5000 Y33.0065 Z-3.0000 S1000
G1 F750 X38.0863 Y33.0449 Z-3.0000 S1000

G0 Z10; move to z-safe height
G0 X123.6697 Y33.0449

G0 Z0
G1 F80 Z-3.0000
G1 F750 X124.2470 Y33.1598 Z-3.0000 S1000
G1 F750 X124.8028 Y33.3484 Z-3.0000 S1000
G1 F750 X125.3299 Y33.6083 Z-3.0000 S1000
G1 F750 X125.8191 Y33.9351 Z-3.0000 S1000
G1 F750 X126.2606 Y34.3224 Z-3.0000 S1000
G1 F750 X126.6484 Y34.7646 Z-3.0000 S1000
G1 F750 X126.9751 Y35.2535 Z-3.0000 S1000
G1 F750 X127.2349 Y35.7805 Z-3.0000 S1000
G1 F750 X127.4236 Y36.3363 Z-3.0000 S1000
G1 F750 X127.5385 Y36.9137 Z-3.0000 S1000
G1 F750 X127.5769 Y37.5000 Z-3.0000 S1000
G1 F750 X127.5385 Y38.0863 Z-3.0000 S1000
G1 F750 X127.4236 Y38.6637 Z-3.0000 S1000
G1 F750 X127.2349 Y39.2195 Z-3.0000 S1000
G1 F750 X126.9751 Y39.7465 Z-3.0000 S1000
G1 F750 X126.6484 Y40.2354 Z-3.0000 S1000
G1 F750 X126.2607 Y40.6774 Z-3.0000 S1000
G1 F750 X125.8186 Y41.0651 Z-3.0000 S1000
G1 F750 X125.3301 Y41.3915 Z-3.0000 S1000
G1 F750 X124.8028 Y41.6516 Z-3.0000 S1000
G1 F750 X124.2470 Y41.8402 Z-3.0000 S1000
G1 F750 X123.6697 Y41.9551 Z-3.0000 S1000
G1 F750 X123.0833 Y41.9935 Z-3.0000 S1000
G1 F750 X122.4970 Y41.9551 Z-3.0000 S1000
G1 F750 X121.9197 Y41.8402 Z-3.0000 S1000
G1 F750 X121.3635 Y41.6515 Z-3.0000 S1000
G1 F750 X120.8370 Y41.3918 Z-3.0000 S1000
G1 F750 X120.3475 Y41.0648 Z-3.0000 S1000
G1 F750 X119.9059 Y40.6774 Z-3.0000 S1000
G1 F750 X119.5186 Y40.2359 Z-3.0000 S1000
G1 F750 X119.1917 Y39.7466 Z-3.0000 S1000
G1 F750 X118.9317 Y39.2194 Z-3.0000 S1000
G1 F750 X118.7431 Y38.6636 Z-3.0000 S1000
G1 F750 X118.6282 Y38.0863 Z-3.0000 S1000
G1 F750 X118.5898 Y37.5000 Z-3.0000 S1000
G1 F750 X118.6282 Y36.9137 Z-3.0000 S1000
G1 F750 X118.7431 Y36.3364 Z-3.0000 S1000
G1 F750 X118.9317 Y35.7806 Z-3.0000 S1000
G1 F750 X119.1917 Y35.2534 Z-3.0000 S1000
G1 F750 X119.5186 Y34.7641 Z-3.0000 S1000
G1 F750 X119.9056 Y34.3228 Z-3.0000 S1000
G1 F750 X120.3479 Y33.9349 Z-3.0000 S1000
G1 F750 X120.8368 Y33.6082 Z-3.0000 S1000
G1 F750 X121.3635 Y33.3485 Z-3.0000 S1000
G1 F750 X121.9197 Y33.1598 Z-3.0000 S1000
G1 F750 X122.4970 Y33.0449 Z-3.0000 S1000
G1 F750 X123.0833 Y33.0065 Z-3.0000 S1000
G1 F750 X123.6697 Y33.0449 Z-3.0000 S1000

G0 Z10; move to z-safe height
G0 X38.0863 Y33.0449

G0 Z0
G1 F80 Z-5.2500
G1 F750 X38.6636 Y33.1598 Z-5.2500 S1000
G1 F750 X39.2198 Y33.3485 Z-5.2500 S1000
G1 F750 X39.7465 Y33.6082 Z-5.2500 S1000
G1 F750 X40.2354 Y33.9349 Z-5.2500 S1000
G1 F750 X40.6774 Y34.3226 Z-5.2500 S1000
G1 F750 X41.0651 Y34.7646 Z-5.2500 S1000
G1 F750 X41.3918 Y35.2535 Z-5.2500 S1000
G1 F750 X41.6515 Y35.7802 Z-5.2500 S1000
G1 F750 X41.8402 Y36.3364 Z-5.2500 S1000
G1 F750 X41.9551 Y36.9137 Z-5.2500 S1000
G1 F750 X41.9935 Y37.5000 Z-5.2500 S1000
G1 F750 X41.9551 Y38.0863 Z-5.2500 S1000
G1 F750 X41.8402 Y38.6636 Z-5.2500 S1000
G1 F750 X41.6515 Y39.2198 Z-5.2500 S1000
G1 F750 X41.3918 Y39.7465 Z-5.2500 S1000
G1 F750 X41.0651 Y40.2354 Z-5.2500 S1000
G1 F750 X40.6772 Y40.6777 Z-5.2500 S1000
G1 F750 X40.2358 Y41.0648 Z-5.2500 S1000
G1 F750 X39.7463 Y41.3918 Z-5.2500 S1000
G1 F750 X39.2198 Y41.6515 Z-5.2500 S1000
G1 F750 X38.6636 Y41.8402 Z-5.2500 S1000
G1 F750 X38.0863 Y41.9551 Z-5.2500 S1000
G1 F750 X37.5000 Y41.9935 Z-5.2500 S1000
G1 F750 X36.9137 Y41.9551 Z-5.2500 S1000
G1 F750 X36.3364 Y41.8402 Z-5.2500 S1000
G1 F750 X35.7802 Y41.6515 Z-5.2500 S1000
G1 F750 X35.2537 Y41.3918 Z-5.2500 S1000
G1 F750 X34.7642 Y41.0648 Z-5.2500 S1000
G1 F750 X34.3226 Y40.6774 Z-5.2500 S1000
G1 F750 X33.9352 Y40.2358 Z-5.2500 S1000
G1 F750 X33.6082 Y39.7463 Z-5.2500 S1000
G1 F750 X33.3485 Y39.2198 Z-5.2500 S1000
G1 F750 X33.1598 Y38.6636 Z-5.2500 S1000
G1 F750 X33.0449 Y38.0863 Z-5.2500 S1000
G1 F750 X33.0065 Y37.5000 Z-5.2500 S1000
G1 F750 X33.0449 Y36.9137 Z-5.2500 S1000
G1 F750 X33.1598 Y36.3364 Z-5.2500 S1000
G1 F750 X33.3485 Y35.7802 Z-5.2500 S1000
G1 F750 X33.6082 Y35.2537 Z-5.2500 S1000
G1 F750 X33.9352 Y34.7642 Z-5.2500 S1000
G1 F750 X34.3223 Y34.3228 Z-5.2500 S1000
G1 F750 X34.7646 Y33.9349 Z-5.2500 S1000
G1 F750 X35.2535 Y33.6082 Z-5.2500 S1000
G1 F750 X35.7802 Y33.3485 Z-5.2500 S1000
G1 F750 X36.3364 Y33.1598 Z-5.2500 S1000
G1 F750 X36.9137 Y33.0449 Z-5.2500 S1000
G1 F750 X37.5000 Y33.0065 Z-5.2500 S1000
G1 F750 X38.0863 Y33.0449 Z-5.2500 S1000

G0 Z10; move to z-safe height
G0 X123.6697 Y33.0449

G0 Z0
G1 F80 Z-5.2500
G1 F750 X124.2470 Y33.1598 Z-5.2500 S1000
G1 F750 X124.8028 Y33.3484 Z-5.2500 S1000
G1 F750 X125.3299 Y33.6083 Z-5.2500 S1000
G1 F750 X125.8191 Y33.9351 Z-5.2500 S1000
G1 F750 X126.2606 Y34.3224 Z-5.2500 S1000
G1 F750 X126.6484 Y34.7646 Z-5.2500 S1000
G1 F750 X126.9751 Y35.2535 Z-5.2500 S1000
G1 F750 X127.2349 Y35.7805 Z-5.2500 S1000
G1 F750 X127.4236 Y36.3363 Z-5.2500 S1000
G1 F750 X127.5385 Y36.9137 Z-5.2500 S1000
G1 F750 X127.5769 Y37.5000 Z-5.2500 S1000
G1 F750 X127.5385 Y38.0863 Z-5.2500 S1000
G1 F750 X127.4236 Y38.6637 Z-5.2500 S1000
G1 F750 X127.2349 Y39.2195 Z-5.2500 S1000
G1 F750 X126.9751 Y39.7465 Z-5.2500 S1000
G1 F750 X126.6484 Y40.2354 Z-5.2500 S1000
G1 F750 X126.2607 Y40.6774 Z-5.2500 S1000
G1 F750 X125.8186 Y41.0651 Z-5.2500 S1000
G1 F750 X125.3301 Y41.3915 Z-5.2500 S1000
G1 F750 X124.8028 Y41.6516 Z-5.2500 S1000
G1 F750 X124.2470 Y41.8402 Z-5.2500 S1000
G1 F750 X123.6697 Y41.9551 Z-5.2500 S1000
G1 F750 X123.0833 Y41.9935 Z-5.2500 S1000
G1 F750 X122.4970 Y41.9551 Z-5.2500 S1000
G1 F750 X121.9197 Y41.8402 Z-5.2500 S1000
G1 F750 X121.3635 Y41.6515 Z-5.2500 S1000
G1 F750 X120.8370 Y41.3918 Z-5.2500 S1000
G1 F750 X120.3475 Y41.0648 Z-5.2500 S1000
G1 F750 X119.9059 Y40.6774 Z-5.2500 S1000
G1 F750 X119.5186 Y40.2359 Z-5.2500 S1000
G1 F750 X119.1917 Y39.7466 Z-5.2500 S1000
G1 F750 X118.9317 Y39.2194 Z-5.2500 S1000
G1 F750 X118.7431 Y38.6636 Z-5.2500 S1000
G1 F750 X118.6282 Y38.0863 Z-5.2500 S1000
G1 F750 X118.5898 Y37.5000 Z-5.2500 S1000
G1 F750 X118.6282 Y36.9137 Z-5.2500 S1000
G1 F750 X118.7431 Y36.3364 Z-5.2500 S1000
G1 F750 X118.9317 Y35.7806 Z-5.2500 S1000
G1 F750 X119.1917 Y35.2534 Z-5.2500 S1000
G1 F750 X119.5186 Y34.7641 Z-5.2500 S1000
G1 F750 X119.9056 Y34.3228 Z-5.2500 S1000
G1 F750 X120.3479 Y33.9349 Z-5.2500 S1000
G1 F750 X120.8368 Y33.6082 Z-5.2500 S1000
G1 F750 X121.3635 Y33.3485 Z-5.2500 S1000
G1 F750 X121.9197 Y33.1598 Z-5.2500 S1000
G1 F750 X122.4970 Y33.0449 Z-5.2500 S1000
G1 F750 X123.0833 Y33.0065 Z-5.2500 S1000
G1 F750 X123.6697 Y33.0449 Z-5.2500 S1000
; retracting back to z-safe
G0 Z10

M5 S0; Spindle Off
