; GCODE Generated by cam.openbuilds.com on 2021-04-16 
G21 ; mm-mode
G54; Work Coordinates
G21; mm-mode
G90; Absolute Positioning
M3 S1000; Spindle On

; Operation 6: CNC: Vector (path inside)
; Endmill Diameter: 6

G0 Z10; move to z-safe height
G0 F1000 X149.2265 Y63.0600

G0 Z0
G1 F80 Z-2.0000
G1 F750 X149.3557 Y63.1259 Z-2.0000 S1000
G1 F750 X149.4577 Y63.2279 Z-2.0000 S1000
G1 F750 X149.5237 Y63.3574 Z-2.0000 S1000
G1 F750 X149.5463 Y63.5000 Z-2.0000 S1000
G1 F750 X149.5237 Y63.6427 Z-2.0000 S1000
G1 F750 X149.4577 Y63.7722 Z-2.0000 S1000
G1 F750 X149.3558 Y63.8741 Z-2.0000 S1000
G1 F750 X149.2266 Y63.9399 Z-2.0000 S1000
G1 F750 X149.0837 Y63.9626 Z-2.0000 S1000
G1 F750 X148.9407 Y63.9399 Z-2.0000 S1000
G1 F750 X148.8115 Y63.8741 Z-2.0000 S1000
G1 F750 X148.7096 Y63.7722 Z-2.0000 S1000
G1 F750 X148.6438 Y63.6430 Z-2.0000 S1000
G1 F750 X148.6211 Y63.5000 Z-2.0000 S1000
G1 F750 X148.6438 Y63.3571 Z-2.0000 S1000
G1 F750 X148.7096 Y63.2279 Z-2.0000 S1000
G1 F750 X148.8116 Y63.1259 Z-2.0000 S1000
G1 F750 X148.9408 Y63.0601 Z-2.0000 S1000
G1 F750 X149.0837 Y63.0374 Z-2.0000 S1000
G1 F750 X149.2265 Y63.0600 Z-2.0000 S1000
G1 F80 Z-3.5000
G1 F750 X149.3557 Y63.1259 Z-3.5000 S1000
G1 F750 X149.4577 Y63.2279 Z-3.5000 S1000
G1 F750 X149.5237 Y63.3574 Z-3.5000 S1000
G1 F750 X149.5463 Y63.5000 Z-3.5000 S1000
G1 F750 X149.5237 Y63.6427 Z-3.5000 S1000
G1 F750 X149.4577 Y63.7722 Z-3.5000 S1000
G1 F750 X149.3558 Y63.8741 Z-3.5000 S1000
G1 F750 X149.2266 Y63.9399 Z-3.5000 S1000
G1 F750 X149.0837 Y63.9626 Z-3.5000 S1000
G1 F750 X148.9407 Y63.9399 Z-3.5000 S1000
G1 F750 X148.8115 Y63.8741 Z-3.5000 S1000
G1 F750 X148.7096 Y63.7722 Z-3.5000 S1000
G1 F750 X148.6438 Y63.6430 Z-3.5000 S1000
G1 F750 X148.6211 Y63.5000 Z-3.5000 S1000
G1 F750 X148.6438 Y63.3571 Z-3.5000 S1000
G1 F750 X148.7096 Y63.2279 Z-3.5000 S1000
G1 F750 X148.8116 Y63.1259 Z-3.5000 S1000
G1 F750 X148.9408 Y63.0601 Z-3.5000 S1000
G1 F750 X149.0837 Y63.0374 Z-3.5000 S1000
G1 F750 X149.2265 Y63.0600 Z-3.5000 S1000

G0 Z10; move to z-safe height
G0 X491.3516 Y11.0601

G0 Z0
G1 F80 Z-2.0000
G1 F750 X491.4808 Y11.1259 Z-2.0000 S1000
G1 F750 X491.5827 Y11.2278 Z-2.0000 S1000
G1 F750 X491.6485 Y11.3570 Z-2.0000 S1000
G1 F750 X491.6712 Y11.5000 Z-2.0000 S1000
G1 F750 X491.6485 Y11.6429 Z-2.0000 S1000
G1 F750 X491.5827 Y11.7721 Z-2.0000 S1000
G1 F750 X491.4807 Y11.8741 Z-2.0000 S1000
G1 F750 X491.3515 Y11.9399 Z-2.0000 S1000
G1 F750 X491.2086 Y11.9626 Z-2.0000 S1000
G1 F750 X491.0658 Y11.9400 Z-2.0000 S1000
G1 F750 X490.9366 Y11.8741 Z-2.0000 S1000
G1 F750 X490.8345 Y11.7720 Z-2.0000 S1000
G1 F750 X490.7686 Y11.6428 Z-2.0000 S1000
G1 F750 X490.7460 Y11.5000 Z-2.0000 S1000
G1 F750 X490.7687 Y11.3571 Z-2.0000 S1000
G1 F750 X490.8345 Y11.2279 Z-2.0000 S1000
G1 F750 X490.9365 Y11.1259 Z-2.0000 S1000
G1 F750 X491.0657 Y11.0601 Z-2.0000 S1000
G1 F750 X491.2086 Y11.0374 Z-2.0000 S1000
G1 F750 X491.3516 Y11.0601 Z-2.0000 S1000
G1 F80 Z-3.5000
G1 F750 X491.4808 Y11.1259 Z-3.5000 S1000
G1 F750 X491.5827 Y11.2278 Z-3.5000 S1000
G1 F750 X491.6485 Y11.3570 Z-3.5000 S1000
G1 F750 X491.6712 Y11.5000 Z-3.5000 S1000
G1 F750 X491.6485 Y11.6429 Z-3.5000 S1000
G1 F750 X491.5827 Y11.7721 Z-3.5000 S1000
G1 F750 X491.4807 Y11.8741 Z-3.5000 S1000
G1 F750 X491.3515 Y11.9399 Z-3.5000 S1000
G1 F750 X491.2086 Y11.9626 Z-3.5000 S1000
G1 F750 X491.0658 Y11.9400 Z-3.5000 S1000
G1 F750 X490.9366 Y11.8741 Z-3.5000 S1000
G1 F750 X490.8345 Y11.7720 Z-3.5000 S1000
G1 F750 X490.7686 Y11.6428 Z-3.5000 S1000
G1 F750 X490.7460 Y11.5000 Z-3.5000 S1000
G1 F750 X490.7687 Y11.3571 Z-3.5000 S1000
G1 F750 X490.8345 Y11.2279 Z-3.5000 S1000
G1 F750 X490.9365 Y11.1259 Z-3.5000 S1000
G1 F750 X491.0657 Y11.0601 Z-3.5000 S1000
G1 F750 X491.2086 Y11.0374 Z-3.5000 S1000
G1 F750 X491.3516 Y11.0601 Z-3.5000 S1000

G0 Z10; move to z-safe height
G0 X11.6432 Y63.0600

G0 Z0
G1 F80 Z-2.0000
G1 F750 X11.7724 Y63.1259 Z-2.0000 S1000
G1 F750 X11.8745 Y63.2280 Z-2.0000 S1000
G1 F750 X11.9404 Y63.3572 Z-2.0000 S1000
G1 F750 X11.9630 Y63.5000 Z-2.0000 S1000
G1 F750 X11.9403 Y63.6429 Z-2.0000 S1000
G1 F750 X11.8745 Y63.7721 Z-2.0000 S1000
G1 F750 X11.7725 Y63.8741 Z-2.0000 S1000
G1 F750 X11.6433 Y63.9399 Z-2.0000 S1000
G1 F750 X11.5004 Y63.9626 Z-2.0000 S1000
G1 F750 X11.3574 Y63.9399 Z-2.0000 S1000
G1 F750 X11.2282 Y63.8741 Z-2.0000 S1000
G1 F750 X11.1263 Y63.7722 Z-2.0000 S1000
G1 F750 X11.0605 Y63.6430 Z-2.0000 S1000
G1 F750 X11.0378 Y63.5000 Z-2.0000 S1000
G1 F750 X11.0605 Y63.3571 Z-2.0000 S1000
G1 F750 X11.1263 Y63.2279 Z-2.0000 S1000
G1 F750 X11.2283 Y63.1259 Z-2.0000 S1000
G1 F750 X11.3575 Y63.0601 Z-2.0000 S1000
G1 F750 X11.5004 Y63.0374 Z-2.0000 S1000
G1 F750 X11.6432 Y63.0600 Z-2.0000 S1000
G1 F80 Z-3.5000
G1 F750 X11.7724 Y63.1259 Z-3.5000 S1000
G1 F750 X11.8745 Y63.2280 Z-3.5000 S1000
G1 F750 X11.9404 Y63.3572 Z-3.5000 S1000
G1 F750 X11.9630 Y63.5000 Z-3.5000 S1000
G1 F750 X11.9403 Y63.6429 Z-3.5000 S1000
G1 F750 X11.8745 Y63.7721 Z-3.5000 S1000
G1 F750 X11.7725 Y63.8741 Z-3.5000 S1000
G1 F750 X11.6433 Y63.9399 Z-3.5000 S1000
G1 F750 X11.5004 Y63.9626 Z-3.5000 S1000
G1 F750 X11.3574 Y63.9399 Z-3.5000 S1000
G1 F750 X11.2282 Y63.8741 Z-3.5000 S1000
G1 F750 X11.1263 Y63.7722 Z-3.5000 S1000
G1 F750 X11.0605 Y63.6430 Z-3.5000 S1000
G1 F750 X11.0378 Y63.5000 Z-3.5000 S1000
G1 F750 X11.0605 Y63.3571 Z-3.5000 S1000
G1 F750 X11.1263 Y63.2279 Z-3.5000 S1000
G1 F750 X11.2283 Y63.1259 Z-3.5000 S1000
G1 F750 X11.3575 Y63.0601 Z-3.5000 S1000
G1 F750 X11.5004 Y63.0374 Z-3.5000 S1000
G1 F750 X11.6432 Y63.0600 Z-3.5000 S1000

G0 Z10; move to z-safe height
G0 X149.2266 Y11.0601

G0 Z0
G1 F80 Z-2.0000
G1 F750 X149.3558 Y11.1259 Z-2.0000 S1000
G1 F750 X149.4577 Y11.2278 Z-2.0000 S1000
G1 F750 X149.5237 Y11.3573 Z-2.0000 S1000
G1 F750 X149.5463 Y11.4999 Z-2.0000 S1000
G1 F750 X149.5237 Y11.6426 Z-2.0000 S1000
G1 F750 X149.4577 Y11.7721 Z-2.0000 S1000
G1 F750 X149.3557 Y11.8741 Z-2.0000 S1000
G1 F750 X149.2265 Y11.9400 Z-2.0000 S1000
G1 F750 X149.0837 Y11.9626 Z-2.0000 S1000
G1 F750 X148.9408 Y11.9399 Z-2.0000 S1000
G1 F750 X148.8116 Y11.8741 Z-2.0000 S1000
G1 F750 X148.7096 Y11.7721 Z-2.0000 S1000
G1 F750 X148.6438 Y11.6429 Z-2.0000 S1000
G1 F750 X148.6211 Y11.5000 Z-2.0000 S1000
G1 F750 X148.6438 Y11.3570 Z-2.0000 S1000
G1 F750 X148.7096 Y11.2278 Z-2.0000 S1000
G1 F750 X148.8115 Y11.1259 Z-2.0000 S1000
G1 F750 X148.9407 Y11.0601 Z-2.0000 S1000
G1 F750 X149.0837 Y11.0374 Z-2.0000 S1000
G1 F750 X149.2266 Y11.0601 Z-2.0000 S1000
G1 F80 Z-3.5000
G1 F750 X149.3558 Y11.1259 Z-3.5000 S1000
G1 F750 X149.4577 Y11.2278 Z-3.5000 S1000
G1 F750 X149.5237 Y11.3573 Z-3.5000 S1000
G1 F750 X149.5463 Y11.4999 Z-3.5000 S1000
G1 F750 X149.5237 Y11.6426 Z-3.5000 S1000
G1 F750 X149.4577 Y11.7721 Z-3.5000 S1000
G1 F750 X149.3557 Y11.8741 Z-3.5000 S1000
G1 F750 X149.2265 Y11.9400 Z-3.5000 S1000
G1 F750 X149.0837 Y11.9626 Z-3.5000 S1000
G1 F750 X148.9408 Y11.9399 Z-3.5000 S1000
G1 F750 X148.8116 Y11.8741 Z-3.5000 S1000
G1 F750 X148.7096 Y11.7721 Z-3.5000 S1000
G1 F750 X148.6438 Y11.6429 Z-3.5000 S1000
G1 F750 X148.6211 Y11.5000 Z-3.5000 S1000
G1 F750 X148.6438 Y11.3570 Z-3.5000 S1000
G1 F750 X148.7096 Y11.2278 Z-3.5000 S1000
G1 F750 X148.8115 Y11.1259 Z-3.5000 S1000
G1 F750 X148.9407 Y11.0601 Z-3.5000 S1000
G1 F750 X149.0837 Y11.0374 Z-3.5000 S1000
G1 F750 X149.2266 Y11.0601 Z-3.5000 S1000

G0 Z10; move to z-safe height
G0 X11.6433 Y11.0601

G0 Z0
G1 F80 Z-2.0000
G1 F750 X11.7725 Y11.1259 Z-2.0000 S1000
G1 F750 X11.8745 Y11.2279 Z-2.0000 S1000
G1 F750 X11.9403 Y11.3571 Z-2.0000 S1000
G1 F750 X11.9630 Y11.5000 Z-2.0000 S1000
G1 F750 X11.9404 Y11.6428 Z-2.0000 S1000
G1 F750 X11.8745 Y11.7720 Z-2.0000 S1000
G1 F750 X11.7724 Y11.8741 Z-2.0000 S1000
G1 F750 X11.6432 Y11.9400 Z-2.0000 S1000
G1 F750 X11.5004 Y11.9626 Z-2.0000 S1000
G1 F750 X11.3575 Y11.9399 Z-2.0000 S1000
G1 F750 X11.2283 Y11.8741 Z-2.0000 S1000
G1 F750 X11.1263 Y11.7721 Z-2.0000 S1000
G1 F750 X11.0605 Y11.6429 Z-2.0000 S1000
G1 F750 X11.0378 Y11.5000 Z-2.0000 S1000
G1 F750 X11.0605 Y11.3570 Z-2.0000 S1000
G1 F750 X11.1263 Y11.2278 Z-2.0000 S1000
G1 F750 X11.2282 Y11.1259 Z-2.0000 S1000
G1 F750 X11.3574 Y11.0601 Z-2.0000 S1000
G1 F750 X11.5004 Y11.0374 Z-2.0000 S1000
G1 F750 X11.6433 Y11.0601 Z-2.0000 S1000
G1 F80 Z-3.5000
G1 F750 X11.7725 Y11.1259 Z-3.5000 S1000
G1 F750 X11.8745 Y11.2279 Z-3.5000 S1000
G1 F750 X11.9403 Y11.3571 Z-3.5000 S1000
G1 F750 X11.9630 Y11.5000 Z-3.5000 S1000
G1 F750 X11.9404 Y11.6428 Z-3.5000 S1000
G1 F750 X11.8745 Y11.7720 Z-3.5000 S1000
G1 F750 X11.7724 Y11.8741 Z-3.5000 S1000
G1 F750 X11.6432 Y11.9400 Z-3.5000 S1000
G1 F750 X11.5004 Y11.9626 Z-3.5000 S1000
G1 F750 X11.3575 Y11.9399 Z-3.5000 S1000
G1 F750 X11.2283 Y11.8741 Z-3.5000 S1000
G1 F750 X11.1263 Y11.7721 Z-3.5000 S1000
G1 F750 X11.0605 Y11.6429 Z-3.5000 S1000
G1 F750 X11.0378 Y11.5000 Z-3.5000 S1000
G1 F750 X11.0605 Y11.3570 Z-3.5000 S1000
G1 F750 X11.1263 Y11.2278 Z-3.5000 S1000
G1 F750 X11.2282 Y11.1259 Z-3.5000 S1000
G1 F750 X11.3574 Y11.0601 Z-3.5000 S1000
G1 F750 X11.5004 Y11.0374 Z-3.5000 S1000
G1 F750 X11.6433 Y11.0601 Z-3.5000 S1000

G0 Z10; move to z-safe height
G0 X63.6433 Y11.0601

G0 Z0
G1 F80 Z-2.0000
G1 F750 X63.7725 Y11.1259 Z-2.0000 S1000
G1 F750 X63.8744 Y11.2278 Z-2.0000 S1000
G1 F750 X63.9402 Y11.3570 Z-2.0000 S1000
G1 F750 X63.9629 Y11.5000 Z-2.0000 S1000
G1 F750 X63.9402 Y11.6429 Z-2.0000 S1000
G1 F750 X63.8744 Y11.7721 Z-2.0000 S1000
G1 F750 X63.7724 Y11.8741 Z-2.0000 S1000
G1 F750 X63.6432 Y11.9399 Z-2.0000 S1000
G1 F750 X63.5003 Y11.9626 Z-2.0000 S1000
G1 F750 X63.3573 Y11.9399 Z-2.0000 S1000
G1 F750 X63.2286 Y11.8743 Z-2.0000 S1000
G1 F750 X63.1260 Y11.7718 Z-2.0000 S1000
G1 F750 X63.0604 Y11.6429 Z-2.0000 S1000
G1 F750 X63.0377 Y11.5000 Z-2.0000 S1000
G1 F750 X63.0604 Y11.3570 Z-2.0000 S1000
G1 F750 X63.1260 Y11.2281 Z-2.0000 S1000
G1 F750 X63.2285 Y11.1257 Z-2.0000 S1000
G1 F750 X63.3572 Y11.0601 Z-2.0000 S1000
G1 F750 X63.5003 Y11.0374 Z-2.0000 S1000
G1 F750 X63.6433 Y11.0601 Z-2.0000 S1000
G1 F80 Z-3.5000
G1 F750 X63.7725 Y11.1259 Z-3.5000 S1000
G1 F750 X63.8744 Y11.2278 Z-3.5000 S1000
G1 F750 X63.9402 Y11.3570 Z-3.5000 S1000
G1 F750 X63.9629 Y11.5000 Z-3.5000 S1000
G1 F750 X63.9402 Y11.6429 Z-3.5000 S1000
G1 F750 X63.8744 Y11.7721 Z-3.5000 S1000
G1 F750 X63.7724 Y11.8741 Z-3.5000 S1000
G1 F750 X63.6432 Y11.9399 Z-3.5000 S1000
G1 F750 X63.5003 Y11.9626 Z-3.5000 S1000
G1 F750 X63.3573 Y11.9399 Z-3.5000 S1000
G1 F750 X63.2286 Y11.8743 Z-3.5000 S1000
G1 F750 X63.1260 Y11.7718 Z-3.5000 S1000
G1 F750 X63.0604 Y11.6429 Z-3.5000 S1000
G1 F750 X63.0377 Y11.5000 Z-3.5000 S1000
G1 F750 X63.0604 Y11.3570 Z-3.5000 S1000
G1 F750 X63.1260 Y11.2281 Z-3.5000 S1000
G1 F750 X63.2285 Y11.1257 Z-3.5000 S1000
G1 F750 X63.3572 Y11.0601 Z-3.5000 S1000
G1 F750 X63.5003 Y11.0374 Z-3.5000 S1000
G1 F750 X63.6433 Y11.0601 Z-3.5000 S1000

G0 Z10; move to z-safe height
G0 X439.3518 Y63.0601

G0 Z0
G1 F80 Z-2.0000
G1 F750 X439.4805 Y63.1257 Z-2.0000 S1000
G1 F750 X439.5831 Y63.2282 Z-2.0000 S1000
G1 F750 X439.6487 Y63.3571 Z-2.0000 S1000
G1 F750 X439.6714 Y63.5000 Z-2.0000 S1000
G1 F750 X439.6487 Y63.6430 Z-2.0000 S1000
G1 F750 X439.5831 Y63.7719 Z-2.0000 S1000
G1 F750 X439.4806 Y63.8743 Z-2.0000 S1000
G1 F750 X439.3519 Y63.9399 Z-2.0000 S1000
G1 F750 X439.2088 Y63.9626 Z-2.0000 S1000
G1 F750 X439.0657 Y63.9399 Z-2.0000 S1000
G1 F750 X438.9370 Y63.8743 Z-2.0000 S1000
G1 F750 X438.8345 Y63.7719 Z-2.0000 S1000
G1 F750 X438.7689 Y63.6430 Z-2.0000 S1000
G1 F750 X438.7462 Y63.5000 Z-2.0000 S1000
G1 F750 X438.7689 Y63.3571 Z-2.0000 S1000
G1 F750 X438.8345 Y63.2282 Z-2.0000 S1000
G1 F750 X438.9371 Y63.1257 Z-2.0000 S1000
G1 F750 X439.0658 Y63.0601 Z-2.0000 S1000
G1 F750 X439.2088 Y63.0374 Z-2.0000 S1000
G1 F750 X439.3518 Y63.0601 Z-2.0000 S1000
G1 F80 Z-3.5000
G1 F750 X439.4805 Y63.1257 Z-3.5000 S1000
G1 F750 X439.5831 Y63.2282 Z-3.5000 S1000
G1 F750 X439.6487 Y63.3571 Z-3.5000 S1000
G1 F750 X439.6714 Y63.5000 Z-3.5000 S1000
G1 F750 X439.6487 Y63.6430 Z-3.5000 S1000
G1 F750 X439.5831 Y63.7719 Z-3.5000 S1000
G1 F750 X439.4806 Y63.8743 Z-3.5000 S1000
G1 F750 X439.3519 Y63.9399 Z-3.5000 S1000
G1 F750 X439.2088 Y63.9626 Z-3.5000 S1000
G1 F750 X439.0657 Y63.9399 Z-3.5000 S1000
G1 F750 X438.9370 Y63.8743 Z-3.5000 S1000
G1 F750 X438.8345 Y63.7719 Z-3.5000 S1000
G1 F750 X438.7689 Y63.6430 Z-3.5000 S1000
G1 F750 X438.7462 Y63.5000 Z-3.5000 S1000
G1 F750 X438.7689 Y63.3571 Z-3.5000 S1000
G1 F750 X438.8345 Y63.2282 Z-3.5000 S1000
G1 F750 X438.9371 Y63.1257 Z-3.5000 S1000
G1 F750 X439.0658 Y63.0601 Z-3.5000 S1000
G1 F750 X439.2088 Y63.0374 Z-3.5000 S1000
G1 F750 X439.3518 Y63.0601 Z-3.5000 S1000

G0 Z10; move to z-safe height
G0 X97.2268 Y11.0601

G0 Z0
G1 F80 Z-2.0000
G1 F750 X97.3555 Y11.1257 Z-2.0000 S1000
G1 F750 X97.4580 Y11.2281 Z-2.0000 S1000
G1 F750 X97.5236 Y11.3570 Z-2.0000 S1000
G1 F750 X97.5463 Y11.5000 Z-2.0000 S1000
G1 F750 X97.5236 Y11.6429 Z-2.0000 S1000
G1 F750 X97.4580 Y11.7718 Z-2.0000 S1000
G1 F750 X97.3554 Y11.8743 Z-2.0000 S1000
G1 F750 X97.2267 Y11.9399 Z-2.0000 S1000
G1 F750 X97.0837 Y11.9626 Z-2.0000 S1000
G1 F750 X96.9408 Y11.9399 Z-2.0000 S1000
G1 F750 X96.8116 Y11.8741 Z-2.0000 S1000
G1 F750 X96.7096 Y11.7721 Z-2.0000 S1000
G1 F750 X96.6438 Y11.6429 Z-2.0000 S1000
G1 F750 X96.6211 Y11.5000 Z-2.0000 S1000
G1 F750 X96.6438 Y11.3570 Z-2.0000 S1000
G1 F750 X96.7096 Y11.2278 Z-2.0000 S1000
G1 F750 X96.8115 Y11.1259 Z-2.0000 S1000
G1 F750 X96.9407 Y11.0601 Z-2.0000 S1000
G1 F750 X97.0837 Y11.0374 Z-2.0000 S1000
G1 F750 X97.2268 Y11.0601 Z-2.0000 S1000
G1 F80 Z-3.5000
G1 F750 X97.3555 Y11.1257 Z-3.5000 S1000
G1 F750 X97.4580 Y11.2281 Z-3.5000 S1000
G1 F750 X97.5236 Y11.3570 Z-3.5000 S1000
G1 F750 X97.5463 Y11.5000 Z-3.5000 S1000
G1 F750 X97.5236 Y11.6429 Z-3.5000 S1000
G1 F750 X97.4580 Y11.7718 Z-3.5000 S1000
G1 F750 X97.3554 Y11.8743 Z-3.5000 S1000
G1 F750 X97.2267 Y11.9399 Z-3.5000 S1000
G1 F750 X97.0837 Y11.9626 Z-3.5000 S1000
G1 F750 X96.9408 Y11.9399 Z-3.5000 S1000
G1 F750 X96.8116 Y11.8741 Z-3.5000 S1000
G1 F750 X96.7096 Y11.7721 Z-3.5000 S1000
G1 F750 X96.6438 Y11.6429 Z-3.5000 S1000
G1 F750 X96.6211 Y11.5000 Z-3.5000 S1000
G1 F750 X96.6438 Y11.3570 Z-3.5000 S1000
G1 F750 X96.7096 Y11.2278 Z-3.5000 S1000
G1 F750 X96.8115 Y11.1259 Z-3.5000 S1000
G1 F750 X96.9407 Y11.0601 Z-3.5000 S1000
G1 F750 X97.0837 Y11.0374 Z-3.5000 S1000
G1 F750 X97.2268 Y11.0601 Z-3.5000 S1000

G0 Z10; move to z-safe height
G0 X182.8098 Y63.0601

G0 Z0
G1 F80 Z-2.0000
G1 F750 X182.9390 Y63.1259 Z-2.0000 S1000
G1 F750 X183.0410 Y63.2279 Z-2.0000 S1000
G1 F750 X183.1068 Y63.3571 Z-2.0000 S1000
G1 F750 X183.1295 Y63.5000 Z-2.0000 S1000
G1 F750 X183.1068 Y63.6430 Z-2.0000 S1000
G1 F750 X183.0410 Y63.7722 Z-2.0000 S1000
G1 F750 X182.9391 Y63.8741 Z-2.0000 S1000
G1 F750 X182.8099 Y63.9399 Z-2.0000 S1000
G1 F750 X182.6669 Y63.9626 Z-2.0000 S1000
G1 F750 X182.5240 Y63.9399 Z-2.0000 S1000
G1 F750 X182.3948 Y63.8741 Z-2.0000 S1000
G1 F750 X182.2928 Y63.7721 Z-2.0000 S1000
G1 F750 X182.2270 Y63.6429 Z-2.0000 S1000
G1 F750 X182.2043 Y63.5000 Z-2.0000 S1000
G1 F750 X182.2269 Y63.3572 Z-2.0000 S1000
G1 F750 X182.2928 Y63.2280 Z-2.0000 S1000
G1 F750 X182.3949 Y63.1259 Z-2.0000 S1000
G1 F750 X182.5241 Y63.0600 Z-2.0000 S1000
G1 F750 X182.6669 Y63.0374 Z-2.0000 S1000
G1 F750 X182.8098 Y63.0601 Z-2.0000 S1000
G1 F80 Z-3.5000
G1 F750 X182.9390 Y63.1259 Z-3.5000 S1000
G1 F750 X183.0410 Y63.2279 Z-3.5000 S1000
G1 F750 X183.1068 Y63.3571 Z-3.5000 S1000
G1 F750 X183.1295 Y63.5000 Z-3.5000 S1000
G1 F750 X183.1068 Y63.6430 Z-3.5000 S1000
G1 F750 X183.0410 Y63.7722 Z-3.5000 S1000
G1 F750 X182.9391 Y63.8741 Z-3.5000 S1000
G1 F750 X182.8099 Y63.9399 Z-3.5000 S1000
G1 F750 X182.6669 Y63.9626 Z-3.5000 S1000
G1 F750 X182.5240 Y63.9399 Z-3.5000 S1000
G1 F750 X182.3948 Y63.8741 Z-3.5000 S1000
G1 F750 X182.2928 Y63.7721 Z-3.5000 S1000
G1 F750 X182.2270 Y63.6429 Z-3.5000 S1000
G1 F750 X182.2043 Y63.5000 Z-3.5000 S1000
G1 F750 X182.2269 Y63.3572 Z-3.5000 S1000
G1 F750 X182.2928 Y63.2280 Z-3.5000 S1000
G1 F750 X182.3949 Y63.1259 Z-3.5000 S1000
G1 F750 X182.5241 Y63.0600 Z-3.5000 S1000
G1 F750 X182.6669 Y63.0374 Z-3.5000 S1000
G1 F750 X182.8098 Y63.0601 Z-3.5000 S1000

G0 Z10; move to z-safe height
G0 X234.8099 Y63.0601

G0 Z0
G1 F80 Z-2.0000
G1 F750 X234.9386 Y63.1257 Z-2.0000 S1000
G1 F750 X235.0412 Y63.2282 Z-2.0000 S1000
G1 F750 X235.1068 Y63.3571 Z-2.0000 S1000
G1 F750 X235.1295 Y63.5000 Z-2.0000 S1000
G1 F750 X235.1068 Y63.6430 Z-2.0000 S1000
G1 F750 X235.0412 Y63.7719 Z-2.0000 S1000
G1 F750 X234.9387 Y63.8743 Z-2.0000 S1000
G1 F750 X234.8100 Y63.9399 Z-2.0000 S1000
G1 F750 X234.6669 Y63.9626 Z-2.0000 S1000
G1 F750 X234.5239 Y63.9399 Z-2.0000 S1000
G1 F750 X234.3947 Y63.8741 Z-2.0000 S1000
G1 F750 X234.2928 Y63.7722 Z-2.0000 S1000
G1 F750 X234.2270 Y63.6430 Z-2.0000 S1000
G1 F750 X234.2043 Y63.5000 Z-2.0000 S1000
G1 F750 X234.2270 Y63.3571 Z-2.0000 S1000
G1 F750 X234.2928 Y63.2279 Z-2.0000 S1000
G1 F750 X234.3948 Y63.1259 Z-2.0000 S1000
G1 F750 X234.5240 Y63.0601 Z-2.0000 S1000
G1 F750 X234.6669 Y63.0374 Z-2.0000 S1000
G1 F750 X234.8099 Y63.0601 Z-2.0000 S1000
G1 F80 Z-3.5000
G1 F750 X234.9386 Y63.1257 Z-3.5000 S1000
G1 F750 X235.0412 Y63.2282 Z-3.5000 S1000
G1 F750 X235.1068 Y63.3571 Z-3.5000 S1000
G1 F750 X235.1295 Y63.5000 Z-3.5000 S1000
G1 F750 X235.1068 Y63.6430 Z-3.5000 S1000
G1 F750 X235.0412 Y63.7719 Z-3.5000 S1000
G1 F750 X234.9387 Y63.8743 Z-3.5000 S1000
G1 F750 X234.8100 Y63.9399 Z-3.5000 S1000
G1 F750 X234.6669 Y63.9626 Z-3.5000 S1000
G1 F750 X234.5239 Y63.9399 Z-3.5000 S1000
G1 F750 X234.3947 Y63.8741 Z-3.5000 S1000
G1 F750 X234.2928 Y63.7722 Z-3.5000 S1000
G1 F750 X234.2270 Y63.6430 Z-3.5000 S1000
G1 F750 X234.2043 Y63.5000 Z-3.5000 S1000
G1 F750 X234.2270 Y63.3571 Z-3.5000 S1000
G1 F750 X234.2928 Y63.2279 Z-3.5000 S1000
G1 F750 X234.3948 Y63.1259 Z-3.5000 S1000
G1 F750 X234.5240 Y63.0601 Z-3.5000 S1000
G1 F750 X234.6669 Y63.0374 Z-3.5000 S1000
G1 F750 X234.8099 Y63.0601 Z-3.5000 S1000

G0 Z10; move to z-safe height
G0 X234.8100 Y11.0601

G0 Z0
G1 F80 Z-2.0000
G1 F750 X234.9387 Y11.1257 Z-2.0000 S1000
G1 F750 X235.0412 Y11.2281 Z-2.0000 S1000
G1 F750 X235.1068 Y11.3570 Z-2.0000 S1000
G1 F750 X235.1295 Y11.5000 Z-2.0000 S1000
G1 F750 X235.1068 Y11.6429 Z-2.0000 S1000
G1 F750 X235.0412 Y11.7718 Z-2.0000 S1000
G1 F750 X234.9386 Y11.8743 Z-2.0000 S1000
G1 F750 X234.8099 Y11.9399 Z-2.0000 S1000
G1 F750 X234.6669 Y11.9626 Z-2.0000 S1000
G1 F750 X234.5240 Y11.9399 Z-2.0000 S1000
G1 F750 X234.3948 Y11.8741 Z-2.0000 S1000
G1 F750 X234.2928 Y11.7721 Z-2.0000 S1000
G1 F750 X234.2270 Y11.6429 Z-2.0000 S1000
G1 F750 X234.2043 Y11.5000 Z-2.0000 S1000
G1 F750 X234.2270 Y11.3570 Z-2.0000 S1000
G1 F750 X234.2928 Y11.2278 Z-2.0000 S1000
G1 F750 X234.3947 Y11.1259 Z-2.0000 S1000
G1 F750 X234.5239 Y11.0601 Z-2.0000 S1000
G1 F750 X234.6669 Y11.0374 Z-2.0000 S1000
G1 F750 X234.8100 Y11.0601 Z-2.0000 S1000
G1 F80 Z-3.5000
G1 F750 X234.9387 Y11.1257 Z-3.5000 S1000
G1 F750 X235.0412 Y11.2281 Z-3.5000 S1000
G1 F750 X235.1068 Y11.3570 Z-3.5000 S1000
G1 F750 X235.1295 Y11.5000 Z-3.5000 S1000
G1 F750 X235.1068 Y11.6429 Z-3.5000 S1000
G1 F750 X235.0412 Y11.7718 Z-3.5000 S1000
G1 F750 X234.9386 Y11.8743 Z-3.5000 S1000
G1 F750 X234.8099 Y11.9399 Z-3.5000 S1000
G1 F750 X234.6669 Y11.9626 Z-3.5000 S1000
G1 F750 X234.5240 Y11.9399 Z-3.5000 S1000
G1 F750 X234.3948 Y11.8741 Z-3.5000 S1000
G1 F750 X234.2928 Y11.7721 Z-3.5000 S1000
G1 F750 X234.2270 Y11.6429 Z-3.5000 S1000
G1 F750 X234.2043 Y11.5000 Z-3.5000 S1000
G1 F750 X234.2270 Y11.3570 Z-3.5000 S1000
G1 F750 X234.2928 Y11.2278 Z-3.5000 S1000
G1 F750 X234.3947 Y11.1259 Z-3.5000 S1000
G1 F750 X234.5239 Y11.0601 Z-3.5000 S1000
G1 F750 X234.6669 Y11.0374 Z-3.5000 S1000
G1 F750 X234.8100 Y11.0601 Z-3.5000 S1000

G0 Z10; move to z-safe height
G0 X63.6432 Y63.0601

G0 Z0
G1 F80 Z-2.0000
G1 F750 X63.7724 Y63.1259 Z-2.0000 S1000
G1 F750 X63.8744 Y63.2279 Z-2.0000 S1000
G1 F750 X63.9402 Y63.3571 Z-2.0000 S1000
G1 F750 X63.9629 Y63.5000 Z-2.0000 S1000
G1 F750 X63.9402 Y63.6430 Z-2.0000 S1000
G1 F750 X63.8744 Y63.7722 Z-2.0000 S1000
G1 F750 X63.7725 Y63.8741 Z-2.0000 S1000
G1 F750 X63.6433 Y63.9399 Z-2.0000 S1000
G1 F750 X63.5003 Y63.9626 Z-2.0000 S1000
G1 F750 X63.3572 Y63.9399 Z-2.0000 S1000
G1 F750 X63.2285 Y63.8743 Z-2.0000 S1000
G1 F750 X63.1260 Y63.7719 Z-2.0000 S1000
G1 F750 X63.0604 Y63.6430 Z-2.0000 S1000
G1 F750 X63.0377 Y63.5000 Z-2.0000 S1000
G1 F750 X63.0604 Y63.3571 Z-2.0000 S1000
G1 F750 X63.1260 Y63.2282 Z-2.0000 S1000
G1 F750 X63.2286 Y63.1257 Z-2.0000 S1000
G1 F750 X63.3573 Y63.0601 Z-2.0000 S1000
G1 F750 X63.5003 Y63.0374 Z-2.0000 S1000
G1 F750 X63.6432 Y63.0601 Z-2.0000 S1000
G1 F80 Z-3.5000
G1 F750 X63.7724 Y63.1259 Z-3.5000 S1000
G1 F750 X63.8744 Y63.2279 Z-3.5000 S1000
G1 F750 X63.9402 Y63.3571 Z-3.5000 S1000
G1 F750 X63.9629 Y63.5000 Z-3.5000 S1000
G1 F750 X63.9402 Y63.6430 Z-3.5000 S1000
G1 F750 X63.8744 Y63.7722 Z-3.5000 S1000
G1 F750 X63.7725 Y63.8741 Z-3.5000 S1000
G1 F750 X63.6433 Y63.9399 Z-3.5000 S1000
G1 F750 X63.5003 Y63.9626 Z-3.5000 S1000
G1 F750 X63.3572 Y63.9399 Z-3.5000 S1000
G1 F750 X63.2285 Y63.8743 Z-3.5000 S1000
G1 F750 X63.1260 Y63.7719 Z-3.5000 S1000
G1 F750 X63.0604 Y63.6430 Z-3.5000 S1000
G1 F750 X63.0377 Y63.5000 Z-3.5000 S1000
G1 F750 X63.0604 Y63.3571 Z-3.5000 S1000
G1 F750 X63.1260 Y63.2282 Z-3.5000 S1000
G1 F750 X63.2286 Y63.1257 Z-3.5000 S1000
G1 F750 X63.3573 Y63.0601 Z-3.5000 S1000
G1 F750 X63.5003 Y63.0374 Z-3.5000 S1000
G1 F750 X63.6432 Y63.0601 Z-3.5000 S1000

G0 Z10; move to z-safe height
G0 X97.2267 Y63.0601

G0 Z0
G1 F80 Z-2.0000
G1 F750 X97.3554 Y63.1257 Z-2.0000 S1000
G1 F750 X97.4580 Y63.2282 Z-2.0000 S1000
G1 F750 X97.5236 Y63.3571 Z-2.0000 S1000
G1 F750 X97.5463 Y63.5000 Z-2.0000 S1000
G1 F750 X97.5236 Y63.6430 Z-2.0000 S1000
G1 F750 X97.4580 Y63.7719 Z-2.0000 S1000
G1 F750 X97.3555 Y63.8743 Z-2.0000 S1000
G1 F750 X97.2268 Y63.9399 Z-2.0000 S1000
G1 F750 X97.0837 Y63.9626 Z-2.0000 S1000
G1 F750 X96.9407 Y63.9399 Z-2.0000 S1000
G1 F750 X96.8115 Y63.8741 Z-2.0000 S1000
G1 F750 X96.7096 Y63.7722 Z-2.0000 S1000
G1 F750 X96.6438 Y63.6430 Z-2.0000 S1000
G1 F750 X96.6211 Y63.5000 Z-2.0000 S1000
G1 F750 X96.6438 Y63.3571 Z-2.0000 S1000
G1 F750 X96.7096 Y63.2279 Z-2.0000 S1000
G1 F750 X96.8116 Y63.1259 Z-2.0000 S1000
G1 F750 X96.9408 Y63.0601 Z-2.0000 S1000
G1 F750 X97.0837 Y63.0374 Z-2.0000 S1000
G1 F750 X97.2267 Y63.0601 Z-2.0000 S1000
G1 F80 Z-3.5000
G1 F750 X97.3554 Y63.1257 Z-3.5000 S1000
G1 F750 X97.4580 Y63.2282 Z-3.5000 S1000
G1 F750 X97.5236 Y63.3571 Z-3.5000 S1000
G1 F750 X97.5463 Y63.5000 Z-3.5000 S1000
G1 F750 X97.5236 Y63.6430 Z-3.5000 S1000
G1 F750 X97.4580 Y63.7719 Z-3.5000 S1000
G1 F750 X97.3555 Y63.8743 Z-3.5000 S1000
G1 F750 X97.2268 Y63.9399 Z-3.5000 S1000
G1 F750 X97.0837 Y63.9626 Z-3.5000 S1000
G1 F750 X96.9407 Y63.9399 Z-3.5000 S1000
G1 F750 X96.8115 Y63.8741 Z-3.5000 S1000
G1 F750 X96.7096 Y63.7722 Z-3.5000 S1000
G1 F750 X96.6438 Y63.6430 Z-3.5000 S1000
G1 F750 X96.6211 Y63.5000 Z-3.5000 S1000
G1 F750 X96.6438 Y63.3571 Z-3.5000 S1000
G1 F750 X96.7096 Y63.2279 Z-3.5000 S1000
G1 F750 X96.8116 Y63.1259 Z-3.5000 S1000
G1 F750 X96.9408 Y63.0601 Z-3.5000 S1000
G1 F750 X97.0837 Y63.0374 Z-3.5000 S1000
G1 F750 X97.2267 Y63.0601 Z-3.5000 S1000

G0 Z10; move to z-safe height
G0 X182.8099 Y11.0601

G0 Z0
G1 F80 Z-2.0000
G1 F750 X182.9391 Y11.1259 Z-2.0000 S1000
G1 F750 X183.0410 Y11.2278 Z-2.0000 S1000
G1 F750 X183.1068 Y11.3570 Z-2.0000 S1000
G1 F750 X183.1295 Y11.5000 Z-2.0000 S1000
G1 F750 X183.1068 Y11.6429 Z-2.0000 S1000
G1 F750 X183.0410 Y11.7721 Z-2.0000 S1000
G1 F750 X182.9390 Y11.8741 Z-2.0000 S1000
G1 F750 X182.8098 Y11.9399 Z-2.0000 S1000
G1 F750 X182.6669 Y11.9626 Z-2.0000 S1000
G1 F750 X182.5241 Y11.9400 Z-2.0000 S1000
G1 F750 X182.3949 Y11.8741 Z-2.0000 S1000
G1 F750 X182.2928 Y11.7720 Z-2.0000 S1000
G1 F750 X182.2269 Y11.6428 Z-2.0000 S1000
G1 F750 X182.2043 Y11.5000 Z-2.0000 S1000
G1 F750 X182.2270 Y11.3571 Z-2.0000 S1000
G1 F750 X182.2928 Y11.2279 Z-2.0000 S1000
G1 F750 X182.3948 Y11.1259 Z-2.0000 S1000
G1 F750 X182.5240 Y11.0601 Z-2.0000 S1000
G1 F750 X182.6669 Y11.0374 Z-2.0000 S1000
G1 F750 X182.8099 Y11.0601 Z-2.0000 S1000
G1 F80 Z-3.5000
G1 F750 X182.9391 Y11.1259 Z-3.5000 S1000
G1 F750 X183.0410 Y11.2278 Z-3.5000 S1000
G1 F750 X183.1068 Y11.3570 Z-3.5000 S1000
G1 F750 X183.1295 Y11.5000 Z-3.5000 S1000
G1 F750 X183.1068 Y11.6429 Z-3.5000 S1000
G1 F750 X183.0410 Y11.7721 Z-3.5000 S1000
G1 F750 X182.9390 Y11.8741 Z-3.5000 S1000
G1 F750 X182.8098 Y11.9399 Z-3.5000 S1000
G1 F750 X182.6669 Y11.9626 Z-3.5000 S1000
G1 F750 X182.5241 Y11.9400 Z-3.5000 S1000
G1 F750 X182.3949 Y11.8741 Z-3.5000 S1000
G1 F750 X182.2928 Y11.7720 Z-3.5000 S1000
G1 F750 X182.2269 Y11.6428 Z-3.5000 S1000
G1 F750 X182.2043 Y11.5000 Z-3.5000 S1000
G1 F750 X182.2270 Y11.3571 Z-3.5000 S1000
G1 F750 X182.2928 Y11.2279 Z-3.5000 S1000
G1 F750 X182.3948 Y11.1259 Z-3.5000 S1000
G1 F750 X182.5240 Y11.0601 Z-3.5000 S1000
G1 F750 X182.6669 Y11.0374 Z-3.5000 S1000
G1 F750 X182.8099 Y11.0601 Z-3.5000 S1000

G0 Z10; move to z-safe height
G0 X439.3519 Y11.0601

G0 Z0
G1 F80 Z-2.0000
G1 F750 X439.4806 Y11.1257 Z-2.0000 S1000
G1 F750 X439.5831 Y11.2281 Z-2.0000 S1000
G1 F750 X439.6487 Y11.3570 Z-2.0000 S1000
G1 F750 X439.6714 Y11.5000 Z-2.0000 S1000
G1 F750 X439.6487 Y11.6429 Z-2.0000 S1000
G1 F750 X439.5831 Y11.7718 Z-2.0000 S1000
G1 F750 X439.4805 Y11.8743 Z-2.0000 S1000
G1 F750 X439.3518 Y11.9399 Z-2.0000 S1000
G1 F750 X439.2088 Y11.9626 Z-2.0000 S1000
G1 F750 X439.0658 Y11.9399 Z-2.0000 S1000
G1 F750 X438.9371 Y11.8743 Z-2.0000 S1000
G1 F750 X438.8345 Y11.7718 Z-2.0000 S1000
G1 F750 X438.7689 Y11.6429 Z-2.0000 S1000
G1 F750 X438.7462 Y11.5000 Z-2.0000 S1000
G1 F750 X438.7689 Y11.3570 Z-2.0000 S1000
G1 F750 X438.8345 Y11.2281 Z-2.0000 S1000
G1 F750 X438.9370 Y11.1257 Z-2.0000 S1000
G1 F750 X439.0657 Y11.0601 Z-2.0000 S1000
G1 F750 X439.2088 Y11.0374 Z-2.0000 S1000
G1 F750 X439.3519 Y11.0601 Z-2.0000 S1000
G1 F80 Z-3.5000
G1 F750 X439.4806 Y11.1257 Z-3.5000 S1000
G1 F750 X439.5831 Y11.2281 Z-3.5000 S1000
G1 F750 X439.6487 Y11.3570 Z-3.5000 S1000
G1 F750 X439.6714 Y11.5000 Z-3.5000 S1000
G1 F750 X439.6487 Y11.6429 Z-3.5000 S1000
G1 F750 X439.5831 Y11.7718 Z-3.5000 S1000
G1 F750 X439.4805 Y11.8743 Z-3.5000 S1000
G1 F750 X439.3518 Y11.9399 Z-3.5000 S1000
G1 F750 X439.2088 Y11.9626 Z-3.5000 S1000
G1 F750 X439.0658 Y11.9399 Z-3.5000 S1000
G1 F750 X438.9371 Y11.8743 Z-3.5000 S1000
G1 F750 X438.8345 Y11.7718 Z-3.5000 S1000
G1 F750 X438.7689 Y11.6429 Z-3.5000 S1000
G1 F750 X438.7462 Y11.5000 Z-3.5000 S1000
G1 F750 X438.7689 Y11.3570 Z-3.5000 S1000
G1 F750 X438.8345 Y11.2281 Z-3.5000 S1000
G1 F750 X438.9370 Y11.1257 Z-3.5000 S1000
G1 F750 X439.0657 Y11.0601 Z-3.5000 S1000
G1 F750 X439.2088 Y11.0374 Z-3.5000 S1000
G1 F750 X439.3519 Y11.0601 Z-3.5000 S1000

G0 Z10; move to z-safe height
G0 X491.3515 Y63.0601

G0 Z0
G1 F80 Z-2.0000
G1 F750 X491.4807 Y63.1259 Z-2.0000 S1000
G1 F750 X491.5827 Y63.2279 Z-2.0000 S1000
G1 F750 X491.6485 Y63.3571 Z-2.0000 S1000
G1 F750 X491.6712 Y63.5000 Z-2.0000 S1000
G1 F750 X491.6485 Y63.6430 Z-2.0000 S1000
G1 F750 X491.5827 Y63.7722 Z-2.0000 S1000
G1 F750 X491.4808 Y63.8741 Z-2.0000 S1000
G1 F750 X491.3516 Y63.9399 Z-2.0000 S1000
G1 F750 X491.2086 Y63.9626 Z-2.0000 S1000
G1 F750 X491.0657 Y63.9399 Z-2.0000 S1000
G1 F750 X490.9365 Y63.8741 Z-2.0000 S1000
G1 F750 X490.8345 Y63.7721 Z-2.0000 S1000
G1 F750 X490.7687 Y63.6429 Z-2.0000 S1000
G1 F750 X490.7460 Y63.5000 Z-2.0000 S1000
G1 F750 X490.7686 Y63.3572 Z-2.0000 S1000
G1 F750 X490.8345 Y63.2280 Z-2.0000 S1000
G1 F750 X490.9366 Y63.1259 Z-2.0000 S1000
G1 F750 X491.0658 Y63.0600 Z-2.0000 S1000
G1 F750 X491.2086 Y63.0374 Z-2.0000 S1000
G1 F750 X491.3515 Y63.0601 Z-2.0000 S1000
G1 F80 Z-3.5000
G1 F750 X491.4807 Y63.1259 Z-3.5000 S1000
G1 F750 X491.5827 Y63.2279 Z-3.5000 S1000
G1 F750 X491.6485 Y63.3571 Z-3.5000 S1000
G1 F750 X491.6712 Y63.5000 Z-3.5000 S1000
G1 F750 X491.6485 Y63.6430 Z-3.5000 S1000
G1 F750 X491.5827 Y63.7722 Z-3.5000 S1000
G1 F750 X491.4808 Y63.8741 Z-3.5000 S1000
G1 F750 X491.3516 Y63.9399 Z-3.5000 S1000
G1 F750 X491.2086 Y63.9626 Z-3.5000 S1000
G1 F750 X491.0657 Y63.9399 Z-3.5000 S1000
G1 F750 X490.9365 Y63.8741 Z-3.5000 S1000
G1 F750 X490.8345 Y63.7721 Z-3.5000 S1000
G1 F750 X490.7687 Y63.6429 Z-3.5000 S1000
G1 F750 X490.7460 Y63.5000 Z-3.5000 S1000
G1 F750 X490.7686 Y63.3572 Z-3.5000 S1000
G1 F750 X490.8345 Y63.2280 Z-3.5000 S1000
G1 F750 X490.9366 Y63.1259 Z-3.5000 S1000
G1 F750 X491.0658 Y63.0600 Z-3.5000 S1000
G1 F750 X491.2086 Y63.0374 Z-3.5000 S1000
G1 F750 X491.3515 Y63.0601 Z-3.5000 S1000
; retracting back to z-safe
G0 Z10
; Operation 7: CNC: Pocket
; Endmill Diameter: 6

G0 Z10; move to z-safe height
G0 F1000 X303.6999 Y38.6591

G0 Z0
G1 F80 Z-2.0000
G1 F750 X284.7999 Y38.6591 Z-2.0000 S1000
G1 F750 X284.7999 Y36.3409 Z-2.0000 S1000
G1 F750 X303.6999 Y36.3409 Z-2.0000 S1000
G1 F750 X303.6999 Y38.6591 Z-2.0000 S1000
G1 F80 Z-4.0000
G1 F750 X284.7999 Y38.6591 Z-4.0000 S1000
G1 F750 X284.7999 Y36.3409 Z-4.0000 S1000
G1 F750 X303.6999 Y36.3409 Z-4.0000 S1000
G1 F750 X303.6999 Y38.6591 Z-4.0000 S1000

G0 Z10; move to z-safe height
G0 X305.4999 Y40.4591

G0 Z0
G1 F80 Z-2.0000
G1 F750 X282.9999 Y40.4591 Z-2.0000 S1000
G1 F750 X282.9999 Y34.5409 Z-2.0000 S1000
G1 F750 X305.4999 Y34.5409 Z-2.0000 S1000
G1 F750 X305.4999 Y40.4591 Z-2.0000 S1000
G1 F80 Z-4.0000
G1 F750 X282.9999 Y40.4591 Z-4.0000 S1000
G1 F750 X282.9999 Y34.5409 Z-4.0000 S1000
G1 F750 X305.4999 Y34.5409 Z-4.0000 S1000
G1 F750 X305.4999 Y40.4591 Z-4.0000 S1000
; retracting back to z-safe
G0 Z10
; Operation 8: CNC: Pocket
; Endmill Diameter: 6

G0 Z10; move to z-safe height
G0 F1000 X398.4618 Y39.4500

G0 Z0
G1 F80 Z-2.0000
G1 F750 X362.5618 Y39.4500 Z-2.0000 S1000
G1 F750 X362.5618 Y35.5500 Z-2.0000 S1000
G1 F750 X398.4618 Y35.5500 Z-2.0000 S1000
G1 F750 X398.4618 Y39.4500 Z-2.0000 S1000

G0 Z10; move to z-safe height
G0 X400.2618 Y41.2500

G0 Z0
G1 F80 Z-2.0000
G1 F750 X360.7618 Y41.2500 Z-2.0000 S1000
G1 F750 X360.7618 Y33.7500 Z-2.0000 S1000
G1 F750 X400.2618 Y33.7500 Z-2.0000 S1000
G1 F750 X400.2618 Y41.2500 Z-2.0000 S1000
; retracting back to z-safe
G0 Z10
; Operation 9: CNC: Pocket
; Endmill Diameter: 6

G0 Z10; move to z-safe height
G0 F1000 X381.2118 Y27.9500

G0 Z0
G1 F80 Z-2.5000
G1 F750 X379.8118 Y27.9500 Z-2.5000 S1000
G1 F750 X379.8118 Y22.5500 Z-2.5000 S1000
G1 F750 X381.2118 Y22.5500 Z-2.5000 S1000
G1 F750 X381.2118 Y27.9500 Z-2.5000 S1000
G1 F80 Z-5.0000
G1 F750 X379.8118 Y27.9500 Z-5.0000 S1000
G1 F750 X379.8118 Y22.5500 Z-5.0000 S1000
G1 F750 X381.2118 Y22.5500 Z-5.0000 S1000
G1 F750 X381.2118 Y27.9500 Z-5.0000 S1000

G0 Z10; move to z-safe height
G0 X383.0118 Y29.7500

G0 Z0
G1 F80 Z-2.5000
G1 F750 X378.0118 Y29.7500 Z-2.5000 S1000
G1 F750 X378.0118 Y20.7500 Z-2.5000 S1000
G1 F750 X383.0118 Y20.7500 Z-2.5000 S1000
G1 F750 X383.0118 Y29.7500 Z-2.5000 S1000
G1 F80 Z-5.0000
G1 F750 X378.0118 Y29.7500 Z-5.0000 S1000
G1 F750 X378.0118 Y20.7500 Z-5.0000 S1000
G1 F750 X383.0118 Y20.7500 Z-5.0000 S1000
G1 F750 X383.0118 Y29.7500 Z-5.0000 S1000
; retracting back to z-safe
G0 Z10
; Operation 10: CNC: Pocket
; Endmill Diameter: 6

G0 Z10; move to z-safe height
G0 F1000 X467.5084 Y38.3000

G0 Z0
G1 F80 Z-0.6000
G1 F750 X462.9084 Y38.3000 Z-0.6000 S1000
G1 F750 X462.9084 Y35.2000 Z-0.6000 S1000
G1 F750 X467.5084 Y35.2000 Z-0.6000 S1000
G1 F750 X467.5084 Y38.3000 Z-0.6000 S1000

G0 Z10; move to z-safe height
G0 X469.9084 Y40.7000

G0 Z0
G1 F80 Z-0.6000
G1 F750 X460.5084 Y40.7000 Z-0.6000 S1000
G1 F750 X460.5084 Y32.8000 Z-0.6000 S1000
G1 F750 X469.9084 Y32.8000 Z-0.6000 S1000
G1 F750 X469.9084 Y40.7000 Z-0.6000 S1000

G0 Z10; move to z-safe height
G0 X472.3084 Y43.1490

G0 Z0
G1 F80 Z-0.6000
G1 F750 X471.2774 Y43.1000 Z-0.6000 S1000
G1 F750 X459.1392 Y43.1000 Z-0.6000 S1000
G1 F750 X458.1084 Y43.1544 Z-0.6000 S1000
G1 F750 X458.1084 Y30.4000 Z-0.6000 S1000
G1 F750 X472.3084 Y30.4000 Z-0.6000 S1000
G1 F750 X472.3084 Y43.1490 Z-0.6000 S1000

G0 Z10; move to z-safe height
G0 X474.7084 Y46.0078

G0 Z0
G1 F80 Z-0.6000
G1 F750 X473.4843 Y45.7047 Z-0.6000 S1000
G1 F750 X472.1105 Y45.5290 Z-0.6000 S1000
G1 F750 X471.2774 Y45.5000 Z-0.6000 S1000
G1 F750 X459.1392 Y45.5000 Z-0.6000 S1000
G1 F750 X457.7564 Y45.5799 Z-0.6000 S1000
G1 F750 X456.3921 Y45.8187 Z-0.6000 S1000
G1 F750 X455.7084 Y46.0217 Z-0.6000 S1000
G1 F750 X455.7084 Y28.0000 Z-0.6000 S1000
G1 F750 X474.7084 Y28.0000 Z-0.6000 S1000
G1 F750 X474.7084 Y46.0078 Z-0.6000 S1000

G0 Z10; move to z-safe height
G0 X477.1084 Y49.4000

G0 Z0
G1 F80 Z-0.6000
G1 F750 X476.4056 Y49.4000 Z-0.6000 S1000
G1 F750 X476.1952 Y49.2553 Z-0.6000 S1000
G1 F750 X475.0926 Y48.6907 Z-0.6000 S1000
G1 F750 X473.9265 Y48.2727 Z-0.6000 S1000
G1 F750 X472.7163 Y48.0085 Z-0.6000 S1000
G1 F750 X471.2774 Y47.9000 Z-0.6000 S1000
G1 F750 X459.1392 Y47.9000 Z-0.6000 S1000
G1 F750 X457.9031 Y47.9799 Z-0.6000 S1000
G1 F750 X456.6875 Y48.2183 Z-0.6000 S1000
G1 F750 X455.5128 Y48.6113 Z-0.6000 S1000
G1 F750 X454.3984 Y49.1522 Z-0.6000 S1000
G1 F750 X454.0211 Y49.4000 Z-0.6000 S1000
G1 F750 X453.3084 Y49.4000 Z-0.6000 S1000
G1 F750 X453.3084 Y25.6000 Z-0.6000 S1000
G1 F750 X477.1084 Y25.6000 Z-0.6000 S1000
G1 F750 X477.1084 Y49.4000 Z-0.6000 S1000

G0 Z10; move to z-safe height
G0 X479.5084 Y51.8000

G0 Z0
G1 F80 Z-0.6000
G1 F750 X475.6607 Y51.8000 Z-0.6000 S1000
G1 F750 X474.8989 Y51.2771 Z-0.6000 S1000
G1 F750 X473.9343 Y50.8082 Z-0.6000 S1000
G1 F750 X472.9107 Y50.4877 Z-0.6000 S1000
G1 F750 X471.8509 Y50.3229 Z-0.6000 S1000
G1 F750 X471.2774 Y50.3000 Z-0.6000 S1000
G1 F750 X459.1392 Y50.3000 Z-0.6000 S1000
G1 F750 X458.0696 Y50.3799 Z-0.6000 S1000
G1 F750 X457.0238 Y50.6178 Z-0.6000 S1000
G1 F750 X456.0249 Y51.0084 Z-0.6000 S1000
G1 F750 X455.0951 Y51.5431 Z-0.6000 S1000
G1 F750 X454.7714 Y51.8000 Z-0.6000 S1000
G1 F750 X450.9084 Y51.8000 Z-0.6000 S1000
G1 F750 X450.9084 Y23.2000 Z-0.6000 S1000
G1 F750 X479.5084 Y23.2000 Z-0.6000 S1000
G1 F750 X479.5084 Y51.8000 Z-0.6000 S1000

G0 Z10; move to z-safe height
G0 X481.9084 Y54.2000

G0 Z0
G1 F80 Z-0.6000
G1 F750 X474.7481 Y54.2000 Z-0.6000 S1000
G1 F750 X474.2113 Y53.7010 Z-0.6000 S1000
G1 F750 X473.4725 Y53.2313 Z-0.6000 S1000
G1 F750 X472.6607 Y52.9036 Z-0.6000 S1000
G1 F750 X471.8029 Y52.7289 Z-0.6000 S1000
G1 F750 X471.2774 Y52.7000 Z-0.6000 S1000
G1 F750 X459.1392 Y52.7000 Z-0.6000 S1000
G1 F750 X458.2674 Y52.7798 Z-0.6000 S1000
G1 F750 X457.4246 Y53.0167 Z-0.6000 S1000
G1 F750 X456.6388 Y53.4027 Z-0.6000 S1000
G1 F750 X455.9363 Y53.9249 Z-0.6000 S1000
G1 F750 X455.6805 Y54.2000 Z-0.6000 S1000
G1 F750 X448.5084 Y54.2000 Z-0.6000 S1000
G1 F750 X448.5084 Y20.8000 Z-0.6000 S1000
G1 F750 X481.9084 Y20.8000 Z-0.6000 S1000
G1 F750 X481.9084 Y54.2000 Z-0.6000 S1000

G0 Z10; move to z-safe height
G0 X468.2774 Y64.5000

G0 Z0
G1 F80 Z-0.6000
G1 F750 X462.1392 Y64.5000 Z-0.6000 S1000
G1 F750 X462.1392 Y62.0000 Z-0.6000 S1000
G1 F750 X468.2774 Y62.0000 Z-0.6000 S1000
G1 F750 X468.2774 Y64.5000 Z-0.6000 S1000

G0 Z10; move to z-safe height
G0 X483.7084 Y56.0000

G0 Z0
G1 F80 Z-0.6000
G1 F750 X473.8568 Y56.0000 Z-0.6000 S1000
G1 F750 X473.5850 Y55.5830 Z-0.6000 S1000
G1 F750 X473.0846 Y55.1054 Z-0.6000 S1000
G1 F750 X472.4882 Y54.7552 Z-0.6000 S1000
G1 F750 X471.8274 Y54.5509 Z-0.6000 S1000
G1 F750 X471.2774 Y54.5000 Z-0.6000 S1000
G1 F750 X459.1392 Y54.5000 Z-0.6000 S1000
G1 F750 X458.4521 Y54.5797 Z-0.6000 S1000
G1 F750 X457.8016 Y54.8147 Z-0.6000 S1000
G1 F750 X457.2222 Y55.1924 Z-0.6000 S1000
G1 F750 X456.7446 Y55.6928 Z-0.6000 S1000
G1 F750 X456.5642 Y56.0000 Z-0.6000 S1000
G1 F750 X446.7084 Y56.0000 Z-0.6000 S1000
G1 F750 X446.7084 Y19.0000 Z-0.6000 S1000
G1 F750 X483.7084 Y19.0000 Z-0.6000 S1000
G1 F750 X483.7084 Y56.0000 Z-0.6000 S1000
; retracting back to z-safe
G0 Z10
; Operation 11: CNC: Vector (path inside)
; Endmill Diameter: 6

G0 Z10; move to z-safe height
G0 F1000 X209.0739 Y35.4547

G0 Z0
G1 F80 Z-2.2500
G1 F750 X209.4648 Y35.5732 Z-2.2500 S1000
G1 F750 X209.8250 Y35.7658 Z-2.2500 S1000
G1 F750 X210.1412 Y36.0254 Z-2.2500 S1000
G1 F750 X210.4008 Y36.3416 Z-2.2500 S1000
G1 F750 X210.5934 Y36.7018 Z-2.2500 S1000
G1 F750 X210.7119 Y37.0927 Z-2.2500 S1000
G1 F750 X210.7520 Y37.5000 Z-2.2500 S1000
G1 F750 X210.7119 Y37.9073 Z-2.2500 S1000
G1 F750 X210.5934 Y38.2982 Z-2.2500 S1000
G1 F750 X210.4008 Y38.6584 Z-2.2500 S1000
G1 F750 X210.1412 Y38.9746 Z-2.2500 S1000
G1 F750 X209.8250 Y39.2342 Z-2.2500 S1000
G1 F750 X209.4648 Y39.4268 Z-2.2500 S1000
G1 F750 X209.0739 Y39.5453 Z-2.2500 S1000
G1 F750 X208.6666 Y39.5854 Z-2.2500 S1000
G1 F750 X208.2593 Y39.5453 Z-2.2500 S1000
G1 F750 X207.8684 Y39.4268 Z-2.2500 S1000
G1 F750 X207.5082 Y39.2342 Z-2.2500 S1000
G1 F750 X207.1920 Y38.9746 Z-2.2500 S1000
G1 F750 X206.9324 Y38.6584 Z-2.2500 S1000
G1 F750 X206.7398 Y38.2982 Z-2.2500 S1000
G1 F750 X206.6213 Y37.9073 Z-2.2500 S1000
G1 F750 X206.5812 Y37.5000 Z-2.2500 S1000
G1 F750 X206.6213 Y37.0927 Z-2.2500 S1000
G1 F750 X206.7398 Y36.7018 Z-2.2500 S1000
G1 F750 X206.9324 Y36.3416 Z-2.2500 S1000
G1 F750 X207.1920 Y36.0254 Z-2.2500 S1000
G1 F750 X207.5082 Y35.7658 Z-2.2500 S1000
G1 F750 X207.8684 Y35.5732 Z-2.2500 S1000
G1 F750 X208.2593 Y35.4547 Z-2.2500 S1000
G1 F750 X208.6666 Y35.4146 Z-2.2500 S1000
G1 F750 X209.0739 Y35.4547 Z-2.2500 S1000
G1 F80 Z-4.5000
G1 F750 X209.4648 Y35.5732 Z-4.5000 S1000
G1 F750 X209.8250 Y35.7658 Z-4.5000 S1000
G1 F750 X210.1412 Y36.0254 Z-4.5000 S1000
G1 F750 X210.4008 Y36.3416 Z-4.5000 S1000
G1 F750 X210.5934 Y36.7018 Z-4.5000 S1000
G1 F750 X210.7119 Y37.0927 Z-4.5000 S1000
G1 F750 X210.7520 Y37.5000 Z-4.5000 S1000
G1 F750 X210.7119 Y37.9073 Z-4.5000 S1000
G1 F750 X210.5934 Y38.2982 Z-4.5000 S1000
G1 F750 X210.4008 Y38.6584 Z-4.5000 S1000
G1 F750 X210.1412 Y38.9746 Z-4.5000 S1000
G1 F750 X209.8250 Y39.2342 Z-4.5000 S1000
G1 F750 X209.4648 Y39.4268 Z-4.5000 S1000
G1 F750 X209.0739 Y39.5453 Z-4.5000 S1000
G1 F750 X208.6666 Y39.5854 Z-4.5000 S1000
G1 F750 X208.2593 Y39.5453 Z-4.5000 S1000
G1 F750 X207.8684 Y39.4268 Z-4.5000 S1000
G1 F750 X207.5082 Y39.2342 Z-4.5000 S1000
G1 F750 X207.1920 Y38.9746 Z-4.5000 S1000
G1 F750 X206.9324 Y38.6584 Z-4.5000 S1000
G1 F750 X206.7398 Y38.2982 Z-4.5000 S1000
G1 F750 X206.6213 Y37.9073 Z-4.5000 S1000
G1 F750 X206.5812 Y37.5000 Z-4.5000 S1000
G1 F750 X206.6213 Y37.0927 Z-4.5000 S1000
G1 F750 X206.7398 Y36.7018 Z-4.5000 S1000
G1 F750 X206.9324 Y36.3416 Z-4.5000 S1000
G1 F750 X207.1920 Y36.0254 Z-4.5000 S1000
G1 F750 X207.5082 Y35.7658 Z-4.5000 S1000
G1 F750 X207.8684 Y35.5732 Z-4.5000 S1000
G1 F750 X208.2593 Y35.4547 Z-4.5000 S1000
G1 F750 X208.6666 Y35.4146 Z-4.5000 S1000
G1 F750 X209.0739 Y35.4547 Z-4.5000 S1000
G1 F80 Z-6.7500
G1 F750 X209.4648 Y35.5732 Z-6.7500 S1000
G1 F750 X209.8250 Y35.7658 Z-6.7500 S1000
G1 F750 X210.1412 Y36.0254 Z-6.7500 S1000
G1 F750 X210.4008 Y36.3416 Z-6.7500 S1000
G1 F750 X210.5934 Y36.7018 Z-6.7500 S1000
G1 F750 X210.7119 Y37.0927 Z-6.7500 S1000
G1 F750 X210.7520 Y37.5000 Z-6.7500 S1000
G1 F750 X210.7119 Y37.9073 Z-6.7500 S1000
G1 F750 X210.5934 Y38.2982 Z-6.7500 S1000
G1 F750 X210.4008 Y38.6584 Z-6.7500 S1000
G1 F750 X210.1412 Y38.9746 Z-6.7500 S1000
G1 F750 X209.8250 Y39.2342 Z-6.7500 S1000
G1 F750 X209.4648 Y39.4268 Z-6.7500 S1000
G1 F750 X209.0739 Y39.5453 Z-6.7500 S1000
G1 F750 X208.6666 Y39.5854 Z-6.7500 S1000
G1 F750 X208.2593 Y39.5453 Z-6.7500 S1000
G1 F750 X207.8684 Y39.4268 Z-6.7500 S1000
G1 F750 X207.5082 Y39.2342 Z-6.7500 S1000
G1 F750 X207.1920 Y38.9746 Z-6.7500 S1000
G1 F750 X206.9324 Y38.6584 Z-6.7500 S1000
G1 F750 X206.7398 Y38.2982 Z-6.7500 S1000
G1 F750 X206.6213 Y37.9073 Z-6.7500 S1000
G1 F750 X206.5812 Y37.5000 Z-6.7500 S1000
G1 F750 X206.6213 Y37.0927 Z-6.7500 S1000
G1 F750 X206.7398 Y36.7018 Z-6.7500 S1000
G1 F750 X206.9324 Y36.3416 Z-6.7500 S1000
G1 F750 X207.1920 Y36.0254 Z-6.7500 S1000
G1 F750 X207.5082 Y35.7658 Z-6.7500 S1000
G1 F750 X207.8684 Y35.5732 Z-6.7500 S1000
G1 F750 X208.2593 Y35.4547 Z-6.7500 S1000
G1 F750 X208.6666 Y35.4146 Z-6.7500 S1000
G1 F750 X209.0739 Y35.4547 Z-6.7500 S1000
G1 F80 Z-9.0000
G1 F750 X209.4648 Y35.5732 Z-9.0000 S1000
G1 F750 X209.8250 Y35.7658 Z-9.0000 S1000
G1 F750 X210.1412 Y36.0254 Z-9.0000 S1000
G1 F750 X210.4008 Y36.3416 Z-9.0000 S1000
G1 F750 X210.5934 Y36.7018 Z-9.0000 S1000
G1 F750 X210.7119 Y37.0927 Z-9.0000 S1000
G1 F750 X210.7520 Y37.5000 Z-9.0000 S1000
G1 F750 X210.7119 Y37.9073 Z-9.0000 S1000
G1 F750 X210.5934 Y38.2982 Z-9.0000 S1000
G1 F750 X210.4008 Y38.6584 Z-9.0000 S1000
G1 F750 X210.1412 Y38.9746 Z-9.0000 S1000
G1 F750 X209.8250 Y39.2342 Z-9.0000 S1000
G1 F750 X209.4648 Y39.4268 Z-9.0000 S1000
G1 F750 X209.0739 Y39.5453 Z-9.0000 S1000
G1 F750 X208.6666 Y39.5854 Z-9.0000 S1000
G1 F750 X208.2593 Y39.5453 Z-9.0000 S1000
G1 F750 X207.8684 Y39.4268 Z-9.0000 S1000
G1 F750 X207.5082 Y39.2342 Z-9.0000 S1000
G1 F750 X207.1920 Y38.9746 Z-9.0000 S1000
G1 F750 X206.9324 Y38.6584 Z-9.0000 S1000
G1 F750 X206.7398 Y38.2982 Z-9.0000 S1000
G1 F750 X206.6213 Y37.9073 Z-9.0000 S1000
G1 F750 X206.5812 Y37.5000 Z-9.0000 S1000
G1 F750 X206.6213 Y37.0927 Z-9.0000 S1000
G1 F750 X206.7398 Y36.7018 Z-9.0000 S1000
G1 F750 X206.9324 Y36.3416 Z-9.0000 S1000
G1 F750 X207.1920 Y36.0254 Z-9.0000 S1000
G1 F750 X207.5082 Y35.7658 Z-9.0000 S1000
G1 F750 X207.8684 Y35.5732 Z-9.0000 S1000
G1 F750 X208.2593 Y35.4547 Z-9.0000 S1000
G1 F750 X208.6666 Y35.4146 Z-9.0000 S1000
G1 F750 X209.0739 Y35.4547 Z-9.0000 S1000
; retracting back to z-safe
G0 Z10
; Operation 12: CNC: Vector (path outside)
; Endmill Diameter: 6

G0 Z10; move to z-safe height
G0 F1000 X246.1666 Y-3.0000

G0 Z0
G1 F80 Z-2.2500
G1 F750 X171.1666 Y-3.0000 Z-2.2500 S1000
G1 F750 X170.6166 Y-2.9491 Z-2.2500 S1000
G1 F750 X169.9558 Y-2.7448 Z-2.2500 S1000
G1 F750 X169.3594 Y-2.3946 Z-2.2500 S1000
G1 F750 X168.8590 Y-1.9170 Z-2.2500 S1000
G1 F750 X168.4813 Y-1.3376 Z-2.2500 S1000
G1 F750 X168.2463 Y-0.6871 Z-2.2500 S1000
G1 F750 X168.1666 Y0.0000 Z-2.2500 S1000
G1 F750 X168.1666 Y75.0000 Z-2.2500 S1000
G1 F750 X168.2175 Y75.5500 Z-2.2500 S1000
G1 F750 X168.4218 Y76.2108 Z-2.2500 S1000
G1 F750 X168.7720 Y76.8072 Z-2.2500 S1000
G1 F750 X169.2496 Y77.3076 Z-2.2500 S1000
G1 F750 X169.8290 Y77.6853 Z-2.2500 S1000
G1 F750 X170.4795 Y77.9203 Z-2.2500 S1000
G1 F750 X171.1666 Y78.0000 Z-2.2500 S1000
G1 F750 X246.1666 Y78.0000 Z-2.2500 S1000
G1 F750 X246.7166 Y77.9491 Z-2.2500 S1000
G1 F750 X247.3774 Y77.7448 Z-2.2500 S1000
G1 F750 X247.9738 Y77.3946 Z-2.2500 S1000
G1 F750 X248.4742 Y76.9170 Z-2.2500 S1000
G1 F750 X248.8519 Y76.3376 Z-2.2500 S1000
G1 F750 X249.0869 Y75.6871 Z-2.2500 S1000
G1 F750 X249.1666 Y75.0000 Z-2.2500 S1000
G1 F750 X249.1666 Y0.0000 Z-2.2500 S1000
G1 F750 X249.1157 Y-0.5500 Z-2.2500 S1000
G1 F750 X248.9114 Y-1.2108 Z-2.2500 S1000
G1 F750 X248.5612 Y-1.8072 Z-2.2500 S1000
G1 F750 X248.0836 Y-2.3076 Z-2.2500 S1000
G1 F750 X247.5042 Y-2.6853 Z-2.2500 S1000
G1 F750 X246.8537 Y-2.9203 Z-2.2500 S1000
G1 F750 X246.1666 Y-3.0000 Z-2.2500 S1000
G1 F80 Z-4.5000
G1 F750 X171.1666 Y-3.0000 Z-4.5000 S1000
G1 F750 X170.6166 Y-2.9491 Z-4.5000 S1000
G1 F750 X169.9558 Y-2.7448 Z-4.5000 S1000
G1 F750 X169.3594 Y-2.3946 Z-4.5000 S1000
G1 F750 X168.8590 Y-1.9170 Z-4.5000 S1000
G1 F750 X168.4813 Y-1.3376 Z-4.5000 S1000
G1 F750 X168.2463 Y-0.6871 Z-4.5000 S1000
G1 F750 X168.1666 Y0.0000 Z-4.5000 S1000
G1 F750 X168.1666 Y75.0000 Z-4.5000 S1000
G1 F750 X168.2175 Y75.5500 Z-4.5000 S1000
G1 F750 X168.4218 Y76.2108 Z-4.5000 S1000
G1 F750 X168.7720 Y76.8072 Z-4.5000 S1000
G1 F750 X169.2496 Y77.3076 Z-4.5000 S1000
G1 F750 X169.8290 Y77.6853 Z-4.5000 S1000
G1 F750 X170.4795 Y77.9203 Z-4.5000 S1000
G1 F750 X171.1666 Y78.0000 Z-4.5000 S1000
G1 F750 X246.1666 Y78.0000 Z-4.5000 S1000
G1 F750 X246.7166 Y77.9491 Z-4.5000 S1000
G1 F750 X247.3774 Y77.7448 Z-4.5000 S1000
G1 F750 X247.9738 Y77.3946 Z-4.5000 S1000
G1 F750 X248.4742 Y76.9170 Z-4.5000 S1000
G1 F750 X248.8519 Y76.3376 Z-4.5000 S1000
G1 F750 X249.0869 Y75.6871 Z-4.5000 S1000
G1 F750 X249.1666 Y75.0000 Z-4.5000 S1000
G1 F750 X249.1666 Y0.0000 Z-4.5000 S1000
G1 F750 X249.1157 Y-0.5500 Z-4.5000 S1000
G1 F750 X248.9114 Y-1.2108 Z-4.5000 S1000
G1 F750 X248.5612 Y-1.8072 Z-4.5000 S1000
G1 F750 X248.0836 Y-2.3076 Z-4.5000 S1000
G1 F750 X247.5042 Y-2.6853 Z-4.5000 S1000
G1 F750 X246.8537 Y-2.9203 Z-4.5000 S1000
G1 F750 X246.1666 Y-3.0000 Z-4.5000 S1000
G1 F80 Z-6.7500
G1 F750 X171.1666 Y-3.0000 Z-6.7500 S1000
G1 F750 X170.6166 Y-2.9491 Z-6.7500 S1000
G1 F750 X169.9558 Y-2.7448 Z-6.7500 S1000
G1 F750 X169.3594 Y-2.3946 Z-6.7500 S1000
G1 F750 X168.8590 Y-1.9170 Z-6.7500 S1000
G1 F750 X168.4813 Y-1.3376 Z-6.7500 S1000
G1 F750 X168.2463 Y-0.6871 Z-6.7500 S1000
G1 F750 X168.1666 Y0.0000 Z-6.7500 S1000
G1 F750 X168.1666 Y75.0000 Z-6.7500 S1000
G1 F750 X168.2175 Y75.5500 Z-6.7500 S1000
G1 F750 X168.4218 Y76.2108 Z-6.7500 S1000
G1 F750 X168.7720 Y76.8072 Z-6.7500 S1000
G1 F750 X169.2496 Y77.3076 Z-6.7500 S1000
G1 F750 X169.8290 Y77.6853 Z-6.7500 S1000
G1 F750 X170.4795 Y77.9203 Z-6.7500 S1000
G1 F750 X171.1666 Y78.0000 Z-6.7500 S1000
G1 F750 X246.1666 Y78.0000 Z-6.7500 S1000
G1 F750 X246.7166 Y77.9491 Z-6.7500 S1000
G1 F750 X247.3774 Y77.7448 Z-6.7500 S1000
G1 F750 X247.9738 Y77.3946 Z-6.7500 S1000
G1 F750 X248.4742 Y76.9170 Z-6.7500 S1000
G1 F750 X248.8519 Y76.3376 Z-6.7500 S1000
G1 F750 X249.0869 Y75.6871 Z-6.7500 S1000
G1 F750 X249.1666 Y75.0000 Z-6.7500 S1000
G1 F750 X249.1666 Y0.0000 Z-6.7500 S1000
G1 F750 X249.1157 Y-0.5500 Z-6.7500 S1000
G1 F750 X248.9114 Y-1.2108 Z-6.7500 S1000
G1 F750 X248.5612 Y-1.8072 Z-6.7500 S1000
G1 F750 X248.0836 Y-2.3076 Z-6.7500 S1000
G1 F750 X247.5042 Y-2.6853 Z-6.7500 S1000
G1 F750 X246.8537 Y-2.9203 Z-6.7500 S1000
G1 F750 X246.1666 Y-3.0000 Z-6.7500 S1000
G1 F80 Z-9.0000
G1 F750 X214.1666 Y-3.0000 Z-9.0000 S1000
G1 F750 X214.1666 Y-3.0000 Z-7.0000 S1000
G1 F750 X203.1666 Y-3.0000 Z-7.0000 S1000
G1 F750 X203.1666 Y-3.0000 Z-9.0000 S1000
G1 F750 X171.1666 Y-3.0000 Z-9.0000 S1000
G1 F750 X171.1666 Y-3.0000 Z-9.0000 S1000
G1 F750 X170.6166 Y-2.9491 Z-9.0000 S1000
G1 F750 X169.9558 Y-2.7448 Z-9.0000 S1000
G1 F750 X169.3594 Y-2.3946 Z-9.0000 S1000
G1 F750 X168.8590 Y-1.9170 Z-9.0000 S1000
G1 F750 X168.4813 Y-1.3376 Z-9.0000 S1000
G1 F750 X168.2463 Y-0.6871 Z-9.0000 S1000
G1 F750 X168.1666 Y0.0000 Z-9.0000 S1000
G1 F750 X168.1666 Y75.0000 Z-9.0000 S1000
G1 F750 X168.2175 Y75.5500 Z-9.0000 S1000
G1 F750 X168.4218 Y76.2108 Z-9.0000 S1000
G1 F750 X168.7720 Y76.8072 Z-9.0000 S1000
G1 F750 X169.2496 Y77.3076 Z-9.0000 S1000
G1 F750 X169.8290 Y77.6853 Z-9.0000 S1000
G1 F750 X170.4795 Y77.9203 Z-9.0000 S1000
G1 F750 X171.1666 Y78.0000 Z-9.0000 S1000
G1 F750 X203.1666 Y78.0000 Z-9.0000 S1000
G1 F750 X203.1666 Y78.0000 Z-7.0000 S1000
G1 F750 X214.1666 Y78.0000 Z-7.0000 S1000
G1 F750 X214.1666 Y78.0000 Z-9.0000 S1000
G1 F750 X246.1666 Y78.0000 Z-9.0000 S1000
G1 F750 X246.1666 Y78.0000 Z-9.0000 S1000
G1 F750 X246.7166 Y77.9491 Z-9.0000 S1000
G1 F750 X247.3774 Y77.7448 Z-9.0000 S1000
G1 F750 X247.9738 Y77.3946 Z-9.0000 S1000
G1 F750 X248.4742 Y76.9170 Z-9.0000 S1000
G1 F750 X248.8519 Y76.3376 Z-9.0000 S1000
G1 F750 X249.0869 Y75.6871 Z-9.0000 S1000
G1 F750 X249.1666 Y75.0000 Z-9.0000 S1000
G1 F750 X249.1666 Y0.0000 Z-9.0000 S1000
G1 F750 X249.1157 Y-0.5500 Z-9.0000 S1000
G1 F750 X248.9114 Y-1.2108 Z-9.0000 S1000
G1 F750 X248.5612 Y-1.8072 Z-9.0000 S1000
G1 F750 X248.0836 Y-2.3076 Z-9.0000 S1000
G1 F750 X247.5042 Y-2.6853 Z-9.0000 S1000
G1 F750 X246.8537 Y-2.9203 Z-9.0000 S1000
G1 F750 X246.1666 Y-3.0000 Z-9.0000 S1000

G0 Z10; move to z-safe height
G0 X502.7085 Y-3.0000

G0 Z0
G1 F80 Z-2.2500
G1 F750 X427.7085 Y-3.0000 Z-2.2500 S1000
G1 F750 X427.1585 Y-2.9491 Z-2.2500 S1000
G1 F750 X426.4977 Y-2.7448 Z-2.2500 S1000
G1 F750 X425.9013 Y-2.3946 Z-2.2500 S1000
G1 F750 X425.4009 Y-1.9170 Z-2.2500 S1000
G1 F750 X425.0232 Y-1.3376 Z-2.2500 S1000
G1 F750 X424.7882 Y-0.6871 Z-2.2500 S1000
G1 F750 X424.7085 Y0.0000 Z-2.2500 S1000
G1 F750 X424.7085 Y75.0000 Z-2.2500 S1000
G1 F750 X424.7594 Y75.5500 Z-2.2500 S1000
G1 F750 X424.9637 Y76.2108 Z-2.2500 S1000
G1 F750 X425.3139 Y76.8072 Z-2.2500 S1000
G1 F750 X425.7915 Y77.3076 Z-2.2500 S1000
G1 F750 X426.3709 Y77.6853 Z-2.2500 S1000
G1 F750 X427.0214 Y77.9203 Z-2.2500 S1000
G1 F750 X427.7085 Y78.0000 Z-2.2500 S1000
G1 F750 X502.7085 Y78.0000 Z-2.2500 S1000
G1 F750 X503.2585 Y77.9491 Z-2.2500 S1000
G1 F750 X503.9193 Y77.7448 Z-2.2500 S1000
G1 F750 X504.5157 Y77.3946 Z-2.2500 S1000
G1 F750 X505.0161 Y76.9170 Z-2.2500 S1000
G1 F750 X505.3938 Y76.3376 Z-2.2500 S1000
G1 F750 X505.6288 Y75.6871 Z-2.2500 S1000
G1 F750 X505.7085 Y75.0000 Z-2.2500 S1000
G1 F750 X505.7085 Y0.0000 Z-2.2500 S1000
G1 F750 X505.6576 Y-0.5500 Z-2.2500 S1000
G1 F750 X505.4533 Y-1.2108 Z-2.2500 S1000
G1 F750 X505.1031 Y-1.8072 Z-2.2500 S1000
G1 F750 X504.6255 Y-2.3076 Z-2.2500 S1000
G1 F750 X504.0461 Y-2.6853 Z-2.2500 S1000
G1 F750 X503.3956 Y-2.9203 Z-2.2500 S1000
G1 F750 X502.7085 Y-3.0000 Z-2.2500 S1000
G1 F80 Z-4.5000
G1 F750 X427.7085 Y-3.0000 Z-4.5000 S1000
G1 F750 X427.1585 Y-2.9491 Z-4.5000 S1000
G1 F750 X426.4977 Y-2.7448 Z-4.5000 S1000
G1 F750 X425.9013 Y-2.3946 Z-4.5000 S1000
G1 F750 X425.4009 Y-1.9170 Z-4.5000 S1000
G1 F750 X425.0232 Y-1.3376 Z-4.5000 S1000
G1 F750 X424.7882 Y-0.6871 Z-4.5000 S1000
G1 F750 X424.7085 Y0.0000 Z-4.5000 S1000
G1 F750 X424.7085 Y75.0000 Z-4.5000 S1000
G1 F750 X424.7594 Y75.5500 Z-4.5000 S1000
G1 F750 X424.9637 Y76.2108 Z-4.5000 S1000
G1 F750 X425.3139 Y76.8072 Z-4.5000 S1000
G1 F750 X425.7915 Y77.3076 Z-4.5000 S1000
G1 F750 X426.3709 Y77.6853 Z-4.5000 S1000
G1 F750 X427.0214 Y77.9203 Z-4.5000 S1000
G1 F750 X427.7085 Y78.0000 Z-4.5000 S1000
G1 F750 X502.7085 Y78.0000 Z-4.5000 S1000
G1 F750 X503.2585 Y77.9491 Z-4.5000 S1000
G1 F750 X503.9193 Y77.7448 Z-4.5000 S1000
G1 F750 X504.5157 Y77.3946 Z-4.5000 S1000
G1 F750 X505.0161 Y76.9170 Z-4.5000 S1000
G1 F750 X505.3938 Y76.3376 Z-4.5000 S1000
G1 F750 X505.6288 Y75.6871 Z-4.5000 S1000
G1 F750 X505.7085 Y75.0000 Z-4.5000 S1000
G1 F750 X505.7085 Y0.0000 Z-4.5000 S1000
G1 F750 X505.6576 Y-0.5500 Z-4.5000 S1000
G1 F750 X505.4533 Y-1.2108 Z-4.5000 S1000
G1 F750 X505.1031 Y-1.8072 Z-4.5000 S1000
G1 F750 X504.6255 Y-2.3076 Z-4.5000 S1000
G1 F750 X504.0461 Y-2.6853 Z-4.5000 S1000
G1 F750 X503.3956 Y-2.9203 Z-4.5000 S1000
G1 F750 X502.7085 Y-3.0000 Z-4.5000 S1000
G1 F80 Z-6.7500
G1 F750 X427.7085 Y-3.0000 Z-6.7500 S1000
G1 F750 X427.1585 Y-2.9491 Z-6.7500 S1000
G1 F750 X426.4977 Y-2.7448 Z-6.7500 S1000
G1 F750 X425.9013 Y-2.3946 Z-6.7500 S1000
G1 F750 X425.4009 Y-1.9170 Z-6.7500 S1000
G1 F750 X425.0232 Y-1.3376 Z-6.7500 S1000
G1 F750 X424.7882 Y-0.6871 Z-6.7500 S1000
G1 F750 X424.7085 Y0.0000 Z-6.7500 S1000
G1 F750 X424.7085 Y75.0000 Z-6.7500 S1000
G1 F750 X424.7594 Y75.5500 Z-6.7500 S1000
G1 F750 X424.9637 Y76.2108 Z-6.7500 S1000
G1 F750 X425.3139 Y76.8072 Z-6.7500 S1000
G1 F750 X425.7915 Y77.3076 Z-6.7500 S1000
G1 F750 X426.3709 Y77.6853 Z-6.7500 S1000
G1 F750 X427.0214 Y77.9203 Z-6.7500 S1000
G1 F750 X427.7085 Y78.0000 Z-6.7500 S1000
G1 F750 X502.7085 Y78.0000 Z-6.7500 S1000
G1 F750 X503.2585 Y77.9491 Z-6.7500 S1000
G1 F750 X503.9193 Y77.7448 Z-6.7500 S1000
G1 F750 X504.5157 Y77.3946 Z-6.7500 S1000
G1 F750 X505.0161 Y76.9170 Z-6.7500 S1000
G1 F750 X505.3938 Y76.3376 Z-6.7500 S1000
G1 F750 X505.6288 Y75.6871 Z-6.7500 S1000
G1 F750 X505.7085 Y75.0000 Z-6.7500 S1000
G1 F750 X505.7085 Y0.0000 Z-6.7500 S1000
G1 F750 X505.6576 Y-0.5500 Z-6.7500 S1000
G1 F750 X505.4533 Y-1.2108 Z-6.7500 S1000
G1 F750 X505.1031 Y-1.8072 Z-6.7500 S1000
G1 F750 X504.6255 Y-2.3076 Z-6.7500 S1000
G1 F750 X504.0461 Y-2.6853 Z-6.7500 S1000
G1 F750 X503.3956 Y-2.9203 Z-6.7500 S1000
G1 F750 X502.7085 Y-3.0000 Z-6.7500 S1000
G1 F80 Z-9.0000
G1 F750 X470.7085 Y-3.0000 Z-9.0000 S1000
G1 F750 X470.7085 Y-3.0000 Z-7.0000 S1000
G1 F750 X459.7085 Y-3.0000 Z-7.0000 S1000
G1 F750 X459.7085 Y-3.0000 Z-9.0000 S1000
G1 F750 X427.7085 Y-3.0000 Z-9.0000 S1000
G1 F750 X427.7085 Y-3.0000 Z-9.0000 S1000
G1 F750 X427.1585 Y-2.9491 Z-9.0000 S1000
G1 F750 X426.4977 Y-2.7448 Z-9.0000 S1000
G1 F750 X425.9013 Y-2.3946 Z-9.0000 S1000
G1 F750 X425.4009 Y-1.9170 Z-9.0000 S1000
G1 F750 X425.0232 Y-1.3376 Z-9.0000 S1000
G1 F750 X424.7882 Y-0.6871 Z-9.0000 S1000
G1 F750 X424.7085 Y0.0000 Z-9.0000 S1000
G1 F750 X424.7085 Y75.0000 Z-9.0000 S1000
G1 F750 X424.7594 Y75.5500 Z-9.0000 S1000
G1 F750 X424.9637 Y76.2108 Z-9.0000 S1000
G1 F750 X425.3139 Y76.8072 Z-9.0000 S1000
G1 F750 X425.7915 Y77.3076 Z-9.0000 S1000
G1 F750 X426.3709 Y77.6853 Z-9.0000 S1000
G1 F750 X427.0214 Y77.9203 Z-9.0000 S1000
G1 F750 X427.7085 Y78.0000 Z-9.0000 S1000
G1 F750 X459.7085 Y78.0000 Z-9.0000 S1000
G1 F750 X459.7085 Y78.0000 Z-7.0000 S1000
G1 F750 X470.7085 Y78.0000 Z-7.0000 S1000
G1 F750 X470.7085 Y78.0000 Z-9.0000 S1000
G1 F750 X502.7085 Y78.0000 Z-9.0000 S1000
G1 F750 X502.7085 Y78.0000 Z-9.0000 S1000
G1 F750 X503.2585 Y77.9491 Z-9.0000 S1000
G1 F750 X503.9193 Y77.7448 Z-9.0000 S1000
G1 F750 X504.5157 Y77.3946 Z-9.0000 S1000
G1 F750 X505.0161 Y76.9170 Z-9.0000 S1000
G1 F750 X505.3938 Y76.3376 Z-9.0000 S1000
G1 F750 X505.6288 Y75.6871 Z-9.0000 S1000
G1 F750 X505.7085 Y75.0000 Z-9.0000 S1000
G1 F750 X505.7085 Y0.0000 Z-9.0000 S1000
G1 F750 X505.6576 Y-0.5500 Z-9.0000 S1000
G1 F750 X505.4533 Y-1.2108 Z-9.0000 S1000
G1 F750 X505.1031 Y-1.8072 Z-9.0000 S1000
G1 F750 X504.6255 Y-2.3076 Z-9.0000 S1000
G1 F750 X504.0461 Y-2.6853 Z-9.0000 S1000
G1 F750 X503.3956 Y-2.9203 Z-9.0000 S1000
G1 F750 X502.7085 Y-3.0000 Z-9.0000 S1000

G0 Z10; move to z-safe height
G0 X75.0000 Y-3.0000

G0 Z0
G1 F80 Z-2.2500
G1 F750 X0.0000 Y-3.0000 Z-2.2500 S1000
G1 F750 X-0.5500 Y-2.9491 Z-2.2500 S1000
G1 F750 X-1.2108 Y-2.7448 Z-2.2500 S1000
G1 F750 X-1.8072 Y-2.3946 Z-2.2500 S1000
G1 F750 X-2.3076 Y-1.9170 Z-2.2500 S1000
G1 F750 X-2.6853 Y-1.3376 Z-2.2500 S1000
G1 F750 X-2.9203 Y-0.6871 Z-2.2500 S1000
G1 F750 X-3.0000 Y0.0000 Z-2.2500 S1000
G1 F750 X-3.0000 Y75.0000 Z-2.2500 S1000
G1 F750 X-2.9491 Y75.5500 Z-2.2500 S1000
G1 F750 X-2.7448 Y76.2108 Z-2.2500 S1000
G1 F750 X-2.3946 Y76.8072 Z-2.2500 S1000
G1 F750 X-1.9170 Y77.3076 Z-2.2500 S1000
G1 F750 X-1.3376 Y77.6853 Z-2.2500 S1000
G1 F750 X-0.6871 Y77.9203 Z-2.2500 S1000
G1 F750 X0.0000 Y78.0000 Z-2.2500 S1000
G1 F750 X75.0000 Y78.0000 Z-2.2500 S1000
G1 F750 X75.5500 Y77.9491 Z-2.2500 S1000
G1 F750 X76.2108 Y77.7448 Z-2.2500 S1000
G1 F750 X76.8072 Y77.3946 Z-2.2500 S1000
G1 F750 X77.3076 Y76.9170 Z-2.2500 S1000
G1 F750 X77.6853 Y76.3376 Z-2.2500 S1000
G1 F750 X77.9203 Y75.6871 Z-2.2500 S1000
G1 F750 X78.0000 Y75.0000 Z-2.2500 S1000
G1 F750 X78.0000 Y0.0000 Z-2.2500 S1000
G1 F750 X77.9491 Y-0.5500 Z-2.2500 S1000
G1 F750 X77.7448 Y-1.2108 Z-2.2500 S1000
G1 F750 X77.3946 Y-1.8072 Z-2.2500 S1000
G1 F750 X76.9170 Y-2.3076 Z-2.2500 S1000
G1 F750 X76.3376 Y-2.6853 Z-2.2500 S1000
G1 F750 X75.6871 Y-2.9203 Z-2.2500 S1000
G1 F750 X75.0000 Y-3.0000 Z-2.2500 S1000
G1 F80 Z-4.5000
G1 F750 X0.0000 Y-3.0000 Z-4.5000 S1000
G1 F750 X-0.5500 Y-2.9491 Z-4.5000 S1000
G1 F750 X-1.2108 Y-2.7448 Z-4.5000 S1000
G1 F750 X-1.8072 Y-2.3946 Z-4.5000 S1000
G1 F750 X-2.3076 Y-1.9170 Z-4.5000 S1000
G1 F750 X-2.6853 Y-1.3376 Z-4.5000 S1000
G1 F750 X-2.9203 Y-0.6871 Z-4.5000 S1000
G1 F750 X-3.0000 Y0.0000 Z-4.5000 S1000
G1 F750 X-3.0000 Y75.0000 Z-4.5000 S1000
G1 F750 X-2.9491 Y75.5500 Z-4.5000 S1000
G1 F750 X-2.7448 Y76.2108 Z-4.5000 S1000
G1 F750 X-2.3946 Y76.8072 Z-4.5000 S1000
G1 F750 X-1.9170 Y77.3076 Z-4.5000 S1000
G1 F750 X-1.3376 Y77.6853 Z-4.5000 S1000
G1 F750 X-0.6871 Y77.9203 Z-4.5000 S1000
G1 F750 X0.0000 Y78.0000 Z-4.5000 S1000
G1 F750 X75.0000 Y78.0000 Z-4.5000 S1000
G1 F750 X75.5500 Y77.9491 Z-4.5000 S1000
G1 F750 X76.2108 Y77.7448 Z-4.5000 S1000
G1 F750 X76.8072 Y77.3946 Z-4.5000 S1000
G1 F750 X77.3076 Y76.9170 Z-4.5000 S1000
G1 F750 X77.6853 Y76.3376 Z-4.5000 S1000
G1 F750 X77.9203 Y75.6871 Z-4.5000 S1000
G1 F750 X78.0000 Y75.0000 Z-4.5000 S1000
G1 F750 X78.0000 Y0.0000 Z-4.5000 S1000
G1 F750 X77.9491 Y-0.5500 Z-4.5000 S1000
G1 F750 X77.7448 Y-1.2108 Z-4.5000 S1000
G1 F750 X77.3946 Y-1.8072 Z-4.5000 S1000
G1 F750 X76.9170 Y-2.3076 Z-4.5000 S1000
G1 F750 X76.3376 Y-2.6853 Z-4.5000 S1000
G1 F750 X75.6871 Y-2.9203 Z-4.5000 S1000
G1 F750 X75.0000 Y-3.0000 Z-4.5000 S1000
G1 F80 Z-6.7500
G1 F750 X0.0000 Y-3.0000 Z-6.7500 S1000
G1 F750 X-0.5500 Y-2.9491 Z-6.7500 S1000
G1 F750 X-1.2108 Y-2.7448 Z-6.7500 S1000
G1 F750 X-1.8072 Y-2.3946 Z-6.7500 S1000
G1 F750 X-2.3076 Y-1.9170 Z-6.7500 S1000
G1 F750 X-2.6853 Y-1.3376 Z-6.7500 S1000
G1 F750 X-2.9203 Y-0.6871 Z-6.7500 S1000
G1 F750 X-3.0000 Y0.0000 Z-6.7500 S1000
G1 F750 X-3.0000 Y75.0000 Z-6.7500 S1000
G1 F750 X-2.9491 Y75.5500 Z-6.7500 S1000
G1 F750 X-2.7448 Y76.2108 Z-6.7500 S1000
G1 F750 X-2.3946 Y76.8072 Z-6.7500 S1000
G1 F750 X-1.9170 Y77.3076 Z-6.7500 S1000
G1 F750 X-1.3376 Y77.6853 Z-6.7500 S1000
G1 F750 X-0.6871 Y77.9203 Z-6.7500 S1000
G1 F750 X0.0000 Y78.0000 Z-6.7500 S1000
G1 F750 X75.0000 Y78.0000 Z-6.7500 S1000
G1 F750 X75.5500 Y77.9491 Z-6.7500 S1000
G1 F750 X76.2108 Y77.7448 Z-6.7500 S1000
G1 F750 X76.8072 Y77.3946 Z-6.7500 S1000
G1 F750 X77.3076 Y76.9170 Z-6.7500 S1000
G1 F750 X77.6853 Y76.3376 Z-6.7500 S1000
G1 F750 X77.9203 Y75.6871 Z-6.7500 S1000
G1 F750 X78.0000 Y75.0000 Z-6.7500 S1000
G1 F750 X78.0000 Y0.0000 Z-6.7500 S1000
G1 F750 X77.9491 Y-0.5500 Z-6.7500 S1000
G1 F750 X77.7448 Y-1.2108 Z-6.7500 S1000
G1 F750 X77.3946 Y-1.8072 Z-6.7500 S1000
G1 F750 X76.9170 Y-2.3076 Z-6.7500 S1000
G1 F750 X76.3376 Y-2.6853 Z-6.7500 S1000
G1 F750 X75.6871 Y-2.9203 Z-6.7500 S1000
G1 F750 X75.0000 Y-3.0000 Z-6.7500 S1000
G1 F80 Z-9.0000
G1 F750 X43.0000 Y-3.0000 Z-9.0000 S1000
G1 F750 X43.0000 Y-3.0000 Z-7.0000 S1000
G1 F750 X32.0000 Y-3.0000 Z-7.0000 S1000
G1 F750 X32.0000 Y-3.0000 Z-9.0000 S1000
G1 F750 X0.0000 Y-3.0000 Z-9.0000 S1000
G1 F750 X0.0000 Y-3.0000 Z-9.0000 S1000
G1 F750 X-0.5500 Y-2.9491 Z-9.0000 S1000
G1 F750 X-1.2108 Y-2.7448 Z-9.0000 S1000
G1 F750 X-1.8072 Y-2.3946 Z-9.0000 S1000
G1 F750 X-2.3076 Y-1.9170 Z-9.0000 S1000
G1 F750 X-2.6853 Y-1.3376 Z-9.0000 S1000
G1 F750 X-2.9203 Y-0.6871 Z-9.0000 S1000
G1 F750 X-3.0000 Y0.0000 Z-9.0000 S1000
G1 F750 X-3.0000 Y75.0000 Z-9.0000 S1000
G1 F750 X-2.9491 Y75.5500 Z-9.0000 S1000
G1 F750 X-2.7448 Y76.2108 Z-9.0000 S1000
G1 F750 X-2.3946 Y76.8072 Z-9.0000 S1000
G1 F750 X-1.9170 Y77.3076 Z-9.0000 S1000
G1 F750 X-1.3376 Y77.6853 Z-9.0000 S1000
G1 F750 X-0.6871 Y77.9203 Z-9.0000 S1000
G1 F750 X0.0000 Y78.0000 Z-9.0000 S1000
G1 F750 X32.0000 Y78.0000 Z-9.0000 S1000
G1 F750 X32.0000 Y78.0000 Z-7.0000 S1000
G1 F750 X43.0000 Y78.0000 Z-7.0000 S1000
G1 F750 X43.0000 Y78.0000 Z-9.0000 S1000
G1 F750 X75.0000 Y78.0000 Z-9.0000 S1000
G1 F750 X75.0000 Y78.0000 Z-9.0000 S1000
G1 F750 X75.5500 Y77.9491 Z-9.0000 S1000
G1 F750 X76.2108 Y77.7448 Z-9.0000 S1000
G1 F750 X76.8072 Y77.3946 Z-9.0000 S1000
G1 F750 X77.3076 Y76.9170 Z-9.0000 S1000
G1 F750 X77.6853 Y76.3376 Z-9.0000 S1000
G1 F750 X77.9203 Y75.6871 Z-9.0000 S1000
G1 F750 X78.0000 Y75.0000 Z-9.0000 S1000
G1 F750 X78.0000 Y0.0000 Z-9.0000 S1000
G1 F750 X77.9491 Y-0.5500 Z-9.0000 S1000
G1 F750 X77.7448 Y-1.2108 Z-9.0000 S1000
G1 F750 X77.3946 Y-1.8072 Z-9.0000 S1000
G1 F750 X76.9170 Y-2.3076 Z-9.0000 S1000
G1 F750 X76.3376 Y-2.6853 Z-9.0000 S1000
G1 F750 X75.6871 Y-2.9203 Z-9.0000 S1000
G1 F750 X75.0000 Y-3.0000 Z-9.0000 S1000

G0 Z10; move to z-safe height
G0 X160.5833 Y-3.0000

G0 Z0
G1 F80 Z-2.2500
G1 F750 X85.5833 Y-3.0000 Z-2.2500 S1000
G1 F750 X85.0333 Y-2.9491 Z-2.2500 S1000
G1 F750 X84.3725 Y-2.7448 Z-2.2500 S1000
G1 F750 X83.7761 Y-2.3946 Z-2.2500 S1000
G1 F750 X83.2757 Y-1.9170 Z-2.2500 S1000
G1 F750 X82.8980 Y-1.3376 Z-2.2500 S1000
G1 F750 X82.6630 Y-0.6871 Z-2.2500 S1000
G1 F750 X82.5833 Y0.0000 Z-2.2500 S1000
G1 F750 X82.5833 Y75.0000 Z-2.2500 S1000
G1 F750 X82.6342 Y75.5500 Z-2.2500 S1000
G1 F750 X82.8385 Y76.2108 Z-2.2500 S1000
G1 F750 X83.1887 Y76.8072 Z-2.2500 S1000
G1 F750 X83.6663 Y77.3076 Z-2.2500 S1000
G1 F750 X84.2457 Y77.6853 Z-2.2500 S1000
G1 F750 X84.8962 Y77.9203 Z-2.2500 S1000
G1 F750 X85.5833 Y78.0000 Z-2.2500 S1000
G1 F750 X160.5833 Y78.0000 Z-2.2500 S1000
G1 F750 X161.1333 Y77.9491 Z-2.2500 S1000
G1 F750 X161.7941 Y77.7448 Z-2.2500 S1000
G1 F750 X162.3905 Y77.3946 Z-2.2500 S1000
G1 F750 X162.8909 Y76.9170 Z-2.2500 S1000
G1 F750 X163.2686 Y76.3376 Z-2.2500 S1000
G1 F750 X163.5036 Y75.6871 Z-2.2500 S1000
G1 F750 X163.5833 Y75.0000 Z-2.2500 S1000
G1 F750 X163.5833 Y0.0000 Z-2.2500 S1000
G1 F750 X163.5324 Y-0.5500 Z-2.2500 S1000
G1 F750 X163.3281 Y-1.2108 Z-2.2500 S1000
G1 F750 X162.9779 Y-1.8072 Z-2.2500 S1000
G1 F750 X162.5003 Y-2.3076 Z-2.2500 S1000
G1 F750 X161.9209 Y-2.6853 Z-2.2500 S1000
G1 F750 X161.2704 Y-2.9203 Z-2.2500 S1000
G1 F750 X160.5833 Y-3.0000 Z-2.2500 S1000
G1 F80 Z-4.5000
G1 F750 X85.5833 Y-3.0000 Z-4.5000 S1000
G1 F750 X85.0333 Y-2.9491 Z-4.5000 S1000
G1 F750 X84.3725 Y-2.7448 Z-4.5000 S1000
G1 F750 X83.7761 Y-2.3946 Z-4.5000 S1000
G1 F750 X83.2757 Y-1.9170 Z-4.5000 S1000
G1 F750 X82.8980 Y-1.3376 Z-4.5000 S1000
G1 F750 X82.6630 Y-0.6871 Z-4.5000 S1000
G1 F750 X82.5833 Y0.0000 Z-4.5000 S1000
G1 F750 X82.5833 Y75.0000 Z-4.5000 S1000
G1 F750 X82.6342 Y75.5500 Z-4.5000 S1000
G1 F750 X82.8385 Y76.2108 Z-4.5000 S1000
G1 F750 X83.1887 Y76.8072 Z-4.5000 S1000
G1 F750 X83.6663 Y77.3076 Z-4.5000 S1000
G1 F750 X84.2457 Y77.6853 Z-4.5000 S1000
G1 F750 X84.8962 Y77.9203 Z-4.5000 S1000
G1 F750 X85.5833 Y78.0000 Z-4.5000 S1000
G1 F750 X160.5833 Y78.0000 Z-4.5000 S1000
G1 F750 X161.1333 Y77.9491 Z-4.5000 S1000
G1 F750 X161.7941 Y77.7448 Z-4.5000 S1000
G1 F750 X162.3905 Y77.3946 Z-4.5000 S1000
G1 F750 X162.8909 Y76.9170 Z-4.5000 S1000
G1 F750 X163.2686 Y76.3376 Z-4.5000 S1000
G1 F750 X163.5036 Y75.6871 Z-4.5000 S1000
G1 F750 X163.5833 Y75.0000 Z-4.5000 S1000
G1 F750 X163.5833 Y0.0000 Z-4.5000 S1000
G1 F750 X163.5324 Y-0.5500 Z-4.5000 S1000
G1 F750 X163.3281 Y-1.2108 Z-4.5000 S1000
G1 F750 X162.9779 Y-1.8072 Z-4.5000 S1000
G1 F750 X162.5003 Y-2.3076 Z-4.5000 S1000
G1 F750 X161.9209 Y-2.6853 Z-4.5000 S1000
G1 F750 X161.2704 Y-2.9203 Z-4.5000 S1000
G1 F750 X160.5833 Y-3.0000 Z-4.5000 S1000
G1 F80 Z-6.7500
G1 F750 X85.5833 Y-3.0000 Z-6.7500 S1000
G1 F750 X85.0333 Y-2.9491 Z-6.7500 S1000
G1 F750 X84.3725 Y-2.7448 Z-6.7500 S1000
G1 F750 X83.7761 Y-2.3946 Z-6.7500 S1000
G1 F750 X83.2757 Y-1.9170 Z-6.7500 S1000
G1 F750 X82.8980 Y-1.3376 Z-6.7500 S1000
G1 F750 X82.6630 Y-0.6871 Z-6.7500 S1000
G1 F750 X82.5833 Y0.0000 Z-6.7500 S1000
G1 F750 X82.5833 Y75.0000 Z-6.7500 S1000
G1 F750 X82.6342 Y75.5500 Z-6.7500 S1000
G1 F750 X82.8385 Y76.2108 Z-6.7500 S1000
G1 F750 X83.1887 Y76.8072 Z-6.7500 S1000
G1 F750 X83.6663 Y77.3076 Z-6.7500 S1000
G1 F750 X84.2457 Y77.6853 Z-6.7500 S1000
G1 F750 X84.8962 Y77.9203 Z-6.7500 S1000
G1 F750 X85.5833 Y78.0000 Z-6.7500 S1000
G1 F750 X160.5833 Y78.0000 Z-6.7500 S1000
G1 F750 X161.1333 Y77.9491 Z-6.7500 S1000
G1 F750 X161.7941 Y77.7448 Z-6.7500 S1000
G1 F750 X162.3905 Y77.3946 Z-6.7500 S1000
G1 F750 X162.8909 Y76.9170 Z-6.7500 S1000
G1 F750 X163.2686 Y76.3376 Z-6.7500 S1000
G1 F750 X163.5036 Y75.6871 Z-6.7500 S1000
G1 F750 X163.5833 Y75.0000 Z-6.7500 S1000
G1 F750 X163.5833 Y0.0000 Z-6.7500 S1000
G1 F750 X163.5324 Y-0.5500 Z-6.7500 S1000
G1 F750 X163.3281 Y-1.2108 Z-6.7500 S1000
G1 F750 X162.9779 Y-1.8072 Z-6.7500 S1000
G1 F750 X162.5003 Y-2.3076 Z-6.7500 S1000
G1 F750 X161.9209 Y-2.6853 Z-6.7500 S1000
G1 F750 X161.2704 Y-2.9203 Z-6.7500 S1000
G1 F750 X160.5833 Y-3.0000 Z-6.7500 S1000
G1 F80 Z-9.0000
G1 F750 X128.5833 Y-3.0000 Z-9.0000 S1000
G1 F750 X128.5833 Y-3.0000 Z-7.0000 S1000
G1 F750 X117.5833 Y-3.0000 Z-7.0000 S1000
G1 F750 X117.5833 Y-3.0000 Z-9.0000 S1000
G1 F750 X85.5833 Y-3.0000 Z-9.0000 S1000
G1 F750 X85.5833 Y-3.0000 Z-9.0000 S1000
G1 F750 X85.0333 Y-2.9491 Z-9.0000 S1000
G1 F750 X84.3725 Y-2.7448 Z-9.0000 S1000
G1 F750 X83.7761 Y-2.3946 Z-9.0000 S1000
G1 F750 X83.2757 Y-1.9170 Z-9.0000 S1000
G1 F750 X82.8980 Y-1.3376 Z-9.0000 S1000
G1 F750 X82.6630 Y-0.6871 Z-9.0000 S1000
G1 F750 X82.5833 Y0.0000 Z-9.0000 S1000
G1 F750 X82.5833 Y75.0000 Z-9.0000 S1000
G1 F750 X82.6342 Y75.5500 Z-9.0000 S1000
G1 F750 X82.8385 Y76.2108 Z-9.0000 S1000
G1 F750 X83.1887 Y76.8072 Z-9.0000 S1000
G1 F750 X83.6663 Y77.3076 Z-9.0000 S1000
G1 F750 X84.2457 Y77.6853 Z-9.0000 S1000
G1 F750 X84.8962 Y77.9203 Z-9.0000 S1000
G1 F750 X85.5833 Y78.0000 Z-9.0000 S1000
G1 F750 X117.5833 Y78.0000 Z-9.0000 S1000
G1 F750 X117.5833 Y78.0000 Z-7.0000 S1000
G1 F750 X128.5833 Y78.0000 Z-7.0000 S1000
G1 F750 X128.5833 Y78.0000 Z-9.0000 S1000
G1 F750 X160.5833 Y78.0000 Z-9.0000 S1000
G1 F750 X160.5833 Y78.0000 Z-9.0000 S1000
G1 F750 X161.1333 Y77.9491 Z-9.0000 S1000
G1 F750 X161.7941 Y77.7448 Z-9.0000 S1000
G1 F750 X162.3905 Y77.3946 Z-9.0000 S1000
G1 F750 X162.8909 Y76.9170 Z-9.0000 S1000
G1 F750 X163.2686 Y76.3376 Z-9.0000 S1000
G1 F750 X163.5036 Y75.6871 Z-9.0000 S1000
G1 F750 X163.5833 Y75.0000 Z-9.0000 S1000
G1 F750 X163.5833 Y0.0000 Z-9.0000 S1000
G1 F750 X163.5324 Y-0.5500 Z-9.0000 S1000
G1 F750 X163.3281 Y-1.2108 Z-9.0000 S1000
G1 F750 X162.9779 Y-1.8072 Z-9.0000 S1000
G1 F750 X162.5003 Y-2.3076 Z-9.0000 S1000
G1 F750 X161.9209 Y-2.6853 Z-9.0000 S1000
G1 F750 X161.2704 Y-2.9203 Z-9.0000 S1000
G1 F750 X160.5833 Y-3.0000 Z-9.0000 S1000

G0 Z10; move to z-safe height
G0 X331.7499 Y-3.0000

G0 Z0
G1 F80 Z-2.2500
G1 F750 X256.7499 Y-3.0000 Z-2.2500 S1000
G1 F750 X256.1999 Y-2.9491 Z-2.2500 S1000
G1 F750 X255.5391 Y-2.7448 Z-2.2500 S1000
G1 F750 X254.9427 Y-2.3946 Z-2.2500 S1000
G1 F750 X254.4423 Y-1.9170 Z-2.2500 S1000
G1 F750 X254.0646 Y-1.3376 Z-2.2500 S1000
G1 F750 X253.8296 Y-0.6871 Z-2.2500 S1000
G1 F750 X253.7499 Y0.0000 Z-2.2500 S1000
G1 F750 X253.7499 Y75.0000 Z-2.2500 S1000
G1 F750 X253.8008 Y75.5500 Z-2.2500 S1000
G1 F750 X254.0051 Y76.2108 Z-2.2500 S1000
G1 F750 X254.3553 Y76.8072 Z-2.2500 S1000
G1 F750 X254.8329 Y77.3076 Z-2.2500 S1000
G1 F750 X255.4123 Y77.6853 Z-2.2500 S1000
G1 F750 X256.0628 Y77.9203 Z-2.2500 S1000
G1 F750 X256.7499 Y78.0000 Z-2.2500 S1000
G1 F750 X331.7499 Y78.0000 Z-2.2500 S1000
G1 F750 X332.2999 Y77.9491 Z-2.2500 S1000
G1 F750 X332.9607 Y77.7448 Z-2.2500 S1000
G1 F750 X333.5571 Y77.3946 Z-2.2500 S1000
G1 F750 X334.0575 Y76.9170 Z-2.2500 S1000
G1 F750 X334.4352 Y76.3376 Z-2.2500 S1000
G1 F750 X334.6702 Y75.6871 Z-2.2500 S1000
G1 F750 X334.7499 Y75.0000 Z-2.2500 S1000
G1 F750 X334.7499 Y0.0000 Z-2.2500 S1000
G1 F750 X334.6990 Y-0.5500 Z-2.2500 S1000
G1 F750 X334.4947 Y-1.2108 Z-2.2500 S1000
G1 F750 X334.1445 Y-1.8072 Z-2.2500 S1000
G1 F750 X333.6669 Y-2.3076 Z-2.2500 S1000
G1 F750 X333.0875 Y-2.6853 Z-2.2500 S1000
G1 F750 X332.4370 Y-2.9203 Z-2.2500 S1000
G1 F750 X331.7499 Y-3.0000 Z-2.2500 S1000
G1 F80 Z-4.5000
G1 F750 X256.7499 Y-3.0000 Z-4.5000 S1000
G1 F750 X256.1999 Y-2.9491 Z-4.5000 S1000
G1 F750 X255.5391 Y-2.7448 Z-4.5000 S1000
G1 F750 X254.9427 Y-2.3946 Z-4.5000 S1000
G1 F750 X254.4423 Y-1.9170 Z-4.5000 S1000
G1 F750 X254.0646 Y-1.3376 Z-4.5000 S1000
G1 F750 X253.8296 Y-0.6871 Z-4.5000 S1000
G1 F750 X253.7499 Y0.0000 Z-4.5000 S1000
G1 F750 X253.7499 Y75.0000 Z-4.5000 S1000
G1 F750 X253.8008 Y75.5500 Z-4.5000 S1000
G1 F750 X254.0051 Y76.2108 Z-4.5000 S1000
G1 F750 X254.3553 Y76.8072 Z-4.5000 S1000
G1 F750 X254.8329 Y77.3076 Z-4.5000 S1000
G1 F750 X255.4123 Y77.6853 Z-4.5000 S1000
G1 F750 X256.0628 Y77.9203 Z-4.5000 S1000
G1 F750 X256.7499 Y78.0000 Z-4.5000 S1000
G1 F750 X331.7499 Y78.0000 Z-4.5000 S1000
G1 F750 X332.2999 Y77.9491 Z-4.5000 S1000
G1 F750 X332.9607 Y77.7448 Z-4.5000 S1000
G1 F750 X333.5571 Y77.3946 Z-4.5000 S1000
G1 F750 X334.0575 Y76.9170 Z-4.5000 S1000
G1 F750 X334.4352 Y76.3376 Z-4.5000 S1000
G1 F750 X334.6702 Y75.6871 Z-4.5000 S1000
G1 F750 X334.7499 Y75.0000 Z-4.5000 S1000
G1 F750 X334.7499 Y0.0000 Z-4.5000 S1000
G1 F750 X334.6990 Y-0.5500 Z-4.5000 S1000
G1 F750 X334.4947 Y-1.2108 Z-4.5000 S1000
G1 F750 X334.1445 Y-1.8072 Z-4.5000 S1000
G1 F750 X333.6669 Y-2.3076 Z-4.5000 S1000
G1 F750 X333.0875 Y-2.6853 Z-4.5000 S1000
G1 F750 X332.4370 Y-2.9203 Z-4.5000 S1000
G1 F750 X331.7499 Y-3.0000 Z-4.5000 S1000
G1 F80 Z-6.7500
G1 F750 X256.7499 Y-3.0000 Z-6.7500 S1000
G1 F750 X256.1999 Y-2.9491 Z-6.7500 S1000
G1 F750 X255.5391 Y-2.7448 Z-6.7500 S1000
G1 F750 X254.9427 Y-2.3946 Z-6.7500 S1000
G1 F750 X254.4423 Y-1.9170 Z-6.7500 S1000
G1 F750 X254.0646 Y-1.3376 Z-6.7500 S1000
G1 F750 X253.8296 Y-0.6871 Z-6.7500 S1000
G1 F750 X253.7499 Y0.0000 Z-6.7500 S1000
G1 F750 X253.7499 Y75.0000 Z-6.7500 S1000
G1 F750 X253.8008 Y75.5500 Z-6.7500 S1000
G1 F750 X254.0051 Y76.2108 Z-6.7500 S1000
G1 F750 X254.3553 Y76.8072 Z-6.7500 S1000
G1 F750 X254.8329 Y77.3076 Z-6.7500 S1000
G1 F750 X255.4123 Y77.6853 Z-6.7500 S1000
G1 F750 X256.0628 Y77.9203 Z-6.7500 S1000
G1 F750 X256.7499 Y78.0000 Z-6.7500 S1000
G1 F750 X331.7499 Y78.0000 Z-6.7500 S1000
G1 F750 X332.2999 Y77.9491 Z-6.7500 S1000
G1 F750 X332.9607 Y77.7448 Z-6.7500 S1000
G1 F750 X333.5571 Y77.3946 Z-6.7500 S1000
G1 F750 X334.0575 Y76.9170 Z-6.7500 S1000
G1 F750 X334.4352 Y76.3376 Z-6.7500 S1000
G1 F750 X334.6702 Y75.6871 Z-6.7500 S1000
G1 F750 X334.7499 Y75.0000 Z-6.7500 S1000
G1 F750 X334.7499 Y0.0000 Z-6.7500 S1000
G1 F750 X334.6990 Y-0.5500 Z-6.7500 S1000
G1 F750 X334.4947 Y-1.2108 Z-6.7500 S1000
G1 F750 X334.1445 Y-1.8072 Z-6.7500 S1000
G1 F750 X333.6669 Y-2.3076 Z-6.7500 S1000
G1 F750 X333.0875 Y-2.6853 Z-6.7500 S1000
G1 F750 X332.4370 Y-2.9203 Z-6.7500 S1000
G1 F750 X331.7499 Y-3.0000 Z-6.7500 S1000
G1 F80 Z-9.0000
G1 F750 X299.7499 Y-3.0000 Z-9.0000 S1000
G1 F750 X299.7499 Y-3.0000 Z-7.0000 S1000
G1 F750 X288.7499 Y-3.0000 Z-7.0000 S1000
G1 F750 X288.7499 Y-3.0000 Z-9.0000 S1000
G1 F750 X256.7499 Y-3.0000 Z-9.0000 S1000
G1 F750 X256.7499 Y-3.0000 Z-9.0000 S1000
G1 F750 X256.1999 Y-2.9491 Z-9.0000 S1000
G1 F750 X255.5391 Y-2.7448 Z-9.0000 S1000
G1 F750 X254.9427 Y-2.3946 Z-9.0000 S1000
G1 F750 X254.4423 Y-1.9170 Z-9.0000 S1000
G1 F750 X254.0646 Y-1.3376 Z-9.0000 S1000
G1 F750 X253.8296 Y-0.6871 Z-9.0000 S1000
G1 F750 X253.7499 Y0.0000 Z-9.0000 S1000
G1 F750 X253.7499 Y75.0000 Z-9.0000 S1000
G1 F750 X253.8008 Y75.5500 Z-9.0000 S1000
G1 F750 X254.0051 Y76.2108 Z-9.0000 S1000
G1 F750 X254.3553 Y76.8072 Z-9.0000 S1000
G1 F750 X254.8329 Y77.3076 Z-9.0000 S1000
G1 F750 X255.4123 Y77.6853 Z-9.0000 S1000
G1 F750 X256.0628 Y77.9203 Z-9.0000 S1000
G1 F750 X256.7499 Y78.0000 Z-9.0000 S1000
G1 F750 X288.7499 Y78.0000 Z-9.0000 S1000
G1 F750 X288.7499 Y78.0000 Z-7.0000 S1000
G1 F750 X299.7499 Y78.0000 Z-7.0000 S1000
G1 F750 X299.7499 Y78.0000 Z-9.0000 S1000
G1 F750 X331.7499 Y78.0000 Z-9.0000 S1000
G1 F750 X331.7499 Y78.0000 Z-9.0000 S1000
G1 F750 X332.2999 Y77.9491 Z-9.0000 S1000
G1 F750 X332.9607 Y77.7448 Z-9.0000 S1000
G1 F750 X333.5571 Y77.3946 Z-9.0000 S1000
G1 F750 X334.0575 Y76.9170 Z-9.0000 S1000
G1 F750 X334.4352 Y76.3376 Z-9.0000 S1000
G1 F750 X334.6702 Y75.6871 Z-9.0000 S1000
G1 F750 X334.7499 Y75.0000 Z-9.0000 S1000
G1 F750 X334.7499 Y0.0000 Z-9.0000 S1000
G1 F750 X334.6990 Y-0.5500 Z-9.0000 S1000
G1 F750 X334.4947 Y-1.2108 Z-9.0000 S1000
G1 F750 X334.1445 Y-1.8072 Z-9.0000 S1000
G1 F750 X333.6669 Y-2.3076 Z-9.0000 S1000
G1 F750 X333.0875 Y-2.6853 Z-9.0000 S1000
G1 F750 X332.4370 Y-2.9203 Z-9.0000 S1000
G1 F750 X331.7499 Y-3.0000 Z-9.0000 S1000

G0 Z10; move to z-safe height
G0 X417.3333 Y-3.0000

G0 Z0
G1 F80 Z-2.2500
G1 F750 X342.3333 Y-3.0000 Z-2.2500 S1000
G1 F750 X341.7833 Y-2.9491 Z-2.2500 S1000
G1 F750 X341.1225 Y-2.7448 Z-2.2500 S1000
G1 F750 X340.5261 Y-2.3946 Z-2.2500 S1000
G1 F750 X340.0257 Y-1.9170 Z-2.2500 S1000
G1 F750 X339.6480 Y-1.3376 Z-2.2500 S1000
G1 F750 X339.4130 Y-0.6871 Z-2.2500 S1000
G1 F750 X339.3333 Y0.0000 Z-2.2500 S1000
G1 F750 X339.3333 Y75.0000 Z-2.2500 S1000
G1 F750 X339.3842 Y75.5500 Z-2.2500 S1000
G1 F750 X339.5885 Y76.2108 Z-2.2500 S1000
G1 F750 X339.9387 Y76.8072 Z-2.2500 S1000
G1 F750 X340.4163 Y77.3076 Z-2.2500 S1000
G1 F750 X340.9957 Y77.6853 Z-2.2500 S1000
G1 F750 X341.6462 Y77.9203 Z-2.2500 S1000
G1 F750 X342.3333 Y78.0000 Z-2.2500 S1000
G1 F750 X417.3333 Y78.0000 Z-2.2500 S1000
G1 F750 X417.8833 Y77.9491 Z-2.2500 S1000
G1 F750 X418.5441 Y77.7448 Z-2.2500 S1000
G1 F750 X419.1405 Y77.3946 Z-2.2500 S1000
G1 F750 X419.6409 Y76.9170 Z-2.2500 S1000
G1 F750 X420.0186 Y76.3376 Z-2.2500 S1000
G1 F750 X420.2536 Y75.6871 Z-2.2500 S1000
G1 F750 X420.3333 Y75.0000 Z-2.2500 S1000
G1 F750 X420.3333 Y0.0000 Z-2.2500 S1000
G1 F750 X420.2824 Y-0.5500 Z-2.2500 S1000
G1 F750 X420.0781 Y-1.2108 Z-2.2500 S1000
G1 F750 X419.7279 Y-1.8072 Z-2.2500 S1000
G1 F750 X419.2503 Y-2.3076 Z-2.2500 S1000
G1 F750 X418.6709 Y-2.6853 Z-2.2500 S1000
G1 F750 X418.0204 Y-2.9203 Z-2.2500 S1000
G1 F750 X417.3333 Y-3.0000 Z-2.2500 S1000
G1 F80 Z-4.5000
G1 F750 X342.3333 Y-3.0000 Z-4.5000 S1000
G1 F750 X341.7833 Y-2.9491 Z-4.5000 S1000
G1 F750 X341.1225 Y-2.7448 Z-4.5000 S1000
G1 F750 X340.5261 Y-2.3946 Z-4.5000 S1000
G1 F750 X340.0257 Y-1.9170 Z-4.5000 S1000
G1 F750 X339.6480 Y-1.3376 Z-4.5000 S1000
G1 F750 X339.4130 Y-0.6871 Z-4.5000 S1000
G1 F750 X339.3333 Y0.0000 Z-4.5000 S1000
G1 F750 X339.3333 Y75.0000 Z-4.5000 S1000
G1 F750 X339.3842 Y75.5500 Z-4.5000 S1000
G1 F750 X339.5885 Y76.2108 Z-4.5000 S1000
G1 F750 X339.9387 Y76.8072 Z-4.5000 S1000
G1 F750 X340.4163 Y77.3076 Z-4.5000 S1000
G1 F750 X340.9957 Y77.6853 Z-4.5000 S1000
G1 F750 X341.6462 Y77.9203 Z-4.5000 S1000
G1 F750 X342.3333 Y78.0000 Z-4.5000 S1000
G1 F750 X417.3333 Y78.0000 Z-4.5000 S1000
G1 F750 X417.8833 Y77.9491 Z-4.5000 S1000
G1 F750 X418.5441 Y77.7448 Z-4.5000 S1000
G1 F750 X419.1405 Y77.3946 Z-4.5000 S1000
G1 F750 X419.6409 Y76.9170 Z-4.5000 S1000
G1 F750 X420.0186 Y76.3376 Z-4.5000 S1000
G1 F750 X420.2536 Y75.6871 Z-4.5000 S1000
G1 F750 X420.3333 Y75.0000 Z-4.5000 S1000
G1 F750 X420.3333 Y0.0000 Z-4.5000 S1000
G1 F750 X420.2824 Y-0.5500 Z-4.5000 S1000
G1 F750 X420.0781 Y-1.2108 Z-4.5000 S1000
G1 F750 X419.7279 Y-1.8072 Z-4.5000 S1000
G1 F750 X419.2503 Y-2.3076 Z-4.5000 S1000
G1 F750 X418.6709 Y-2.6853 Z-4.5000 S1000
G1 F750 X418.0204 Y-2.9203 Z-4.5000 S1000
G1 F750 X417.3333 Y-3.0000 Z-4.5000 S1000
G1 F80 Z-6.7500
G1 F750 X342.3333 Y-3.0000 Z-6.7500 S1000
G1 F750 X341.7833 Y-2.9491 Z-6.7500 S1000
G1 F750 X341.1225 Y-2.7448 Z-6.7500 S1000
G1 F750 X340.5261 Y-2.3946 Z-6.7500 S1000
G1 F750 X340.0257 Y-1.9170 Z-6.7500 S1000
G1 F750 X339.6480 Y-1.3376 Z-6.7500 S1000
G1 F750 X339.4130 Y-0.6871 Z-6.7500 S1000
G1 F750 X339.3333 Y0.0000 Z-6.7500 S1000
G1 F750 X339.3333 Y75.0000 Z-6.7500 S1000
G1 F750 X339.3842 Y75.5500 Z-6.7500 S1000
G1 F750 X339.5885 Y76.2108 Z-6.7500 S1000
G1 F750 X339.9387 Y76.8072 Z-6.7500 S1000
G1 F750 X340.4163 Y77.3076 Z-6.7500 S1000
G1 F750 X340.9957 Y77.6853 Z-6.7500 S1000
G1 F750 X341.6462 Y77.9203 Z-6.7500 S1000
G1 F750 X342.3333 Y78.0000 Z-6.7500 S1000
G1 F750 X417.3333 Y78.0000 Z-6.7500 S1000
G1 F750 X417.8833 Y77.9491 Z-6.7500 S1000
G1 F750 X418.5441 Y77.7448 Z-6.7500 S1000
G1 F750 X419.1405 Y77.3946 Z-6.7500 S1000
G1 F750 X419.6409 Y76.9170 Z-6.7500 S1000
G1 F750 X420.0186 Y76.3376 Z-6.7500 S1000
G1 F750 X420.2536 Y75.6871 Z-6.7500 S1000
G1 F750 X420.3333 Y75.0000 Z-6.7500 S1000
G1 F750 X420.3333 Y0.0000 Z-6.7500 S1000
G1 F750 X420.2824 Y-0.5500 Z-6.7500 S1000
G1 F750 X420.0781 Y-1.2108 Z-6.7500 S1000
G1 F750 X419.7279 Y-1.8072 Z-6.7500 S1000
G1 F750 X419.2503 Y-2.3076 Z-6.7500 S1000
G1 F750 X418.6709 Y-2.6853 Z-6.7500 S1000
G1 F750 X418.0204 Y-2.9203 Z-6.7500 S1000
G1 F750 X417.3333 Y-3.0000 Z-6.7500 S1000
G1 F80 Z-9.0000
G1 F750 X385.3333 Y-3.0000 Z-9.0000 S1000
G1 F750 X385.3333 Y-3.0000 Z-7.0000 S1000
G1 F750 X374.3333 Y-3.0000 Z-7.0000 S1000
G1 F750 X374.3333 Y-3.0000 Z-9.0000 S1000
G1 F750 X342.3333 Y-3.0000 Z-9.0000 S1000
G1 F750 X342.3333 Y-3.0000 Z-9.0000 S1000
G1 F750 X341.7833 Y-2.9491 Z-9.0000 S1000
G1 F750 X341.1225 Y-2.7448 Z-9.0000 S1000
G1 F750 X340.5261 Y-2.3946 Z-9.0000 S1000
G1 F750 X340.0257 Y-1.9170 Z-9.0000 S1000
G1 F750 X339.6480 Y-1.3376 Z-9.0000 S1000
G1 F750 X339.4130 Y-0.6871 Z-9.0000 S1000
G1 F750 X339.3333 Y0.0000 Z-9.0000 S1000
G1 F750 X339.3333 Y75.0000 Z-9.0000 S1000
G1 F750 X339.3842 Y75.5500 Z-9.0000 S1000
G1 F750 X339.5885 Y76.2108 Z-9.0000 S1000
G1 F750 X339.9387 Y76.8072 Z-9.0000 S1000
G1 F750 X340.4163 Y77.3076 Z-9.0000 S1000
G1 F750 X340.9957 Y77.6853 Z-9.0000 S1000
G1 F750 X341.6462 Y77.9203 Z-9.0000 S1000
G1 F750 X342.3333 Y78.0000 Z-9.0000 S1000
G1 F750 X374.3333 Y78.0000 Z-9.0000 S1000
G1 F750 X374.3333 Y78.0000 Z-7.0000 S1000
G1 F750 X385.3333 Y78.0000 Z-7.0000 S1000
G1 F750 X385.3333 Y78.0000 Z-9.0000 S1000
G1 F750 X417.3333 Y78.0000 Z-9.0000 S1000
G1 F750 X417.3333 Y78.0000 Z-9.0000 S1000
G1 F750 X417.8833 Y77.9491 Z-9.0000 S1000
G1 F750 X418.5441 Y77.7448 Z-9.0000 S1000
G1 F750 X419.1405 Y77.3946 Z-9.0000 S1000
G1 F750 X419.6409 Y76.9170 Z-9.0000 S1000
G1 F750 X420.0186 Y76.3376 Z-9.0000 S1000
G1 F750 X420.2536 Y75.6871 Z-9.0000 S1000
G1 F750 X420.3333 Y75.0000 Z-9.0000 S1000
G1 F750 X420.3333 Y0.0000 Z-9.0000 S1000
G1 F750 X420.2824 Y-0.5500 Z-9.0000 S1000
G1 F750 X420.0781 Y-1.2108 Z-9.0000 S1000
G1 F750 X419.7279 Y-1.8072 Z-9.0000 S1000
G1 F750 X419.2503 Y-2.3076 Z-9.0000 S1000
G1 F750 X418.6709 Y-2.6853 Z-9.0000 S1000
G1 F750 X418.0204 Y-2.9203 Z-9.0000 S1000
G1 F750 X417.3333 Y-3.0000 Z-9.0000 S1000
; retracting back to z-safe
G0 Z10

M5 S0; Spindle Off
