; GCODE Generated by cam.openbuilds.com on 2021-04-16 
G21 ; mm-mode
G54; Work Coordinates
G21; mm-mode
G90; Absolute Positioning
M3 S1000; Spindle On

; Operation 0: CNC: Pocket
; Endmill Diameter: 6

G0 Z10; move to z-safe height
G0 F1000 X381.6331 Y37.4494

G0 Z0
G1 F80 Z-0.5000
G1 F750 X381.6316 Y37.5533 Z-0.5000 S1000
G1 F750 X381.6292 Y37.6063 Z-0.5000 S1000
G1 F750 X381.6254 Y37.6579 Z-0.5000 S1000
G1 F750 X381.6198 Y37.7118 Z-0.5000 S1000
G1 F750 X381.6125 Y37.7661 Z-0.5000 S1000
G1 F750 X381.6039 Y37.8188 Z-0.5000 S1000
G1 F750 X381.5943 Y37.8680 Z-0.5000 S1000
G1 F750 X381.5821 Y37.9220 Z-0.5000 S1000
G1 F750 X381.5686 Y37.9744 Z-0.5000 S1000
G1 F750 X381.5539 Y38.0254 Z-0.5000 S1000
G1 F750 X381.5373 Y38.0771 Z-0.5000 S1000
G1 F750 X381.5201 Y38.1257 Z-0.5000 S1000
G1 F750 X381.5007 Y38.1756 Z-0.5000 S1000
G1 F750 X381.4803 Y38.2237 Z-0.5000 S1000
G1 F750 X381.4570 Y38.2746 Z-0.5000 S1000
G1 F750 X381.4339 Y38.3212 Z-0.5000 S1000
G1 F750 X381.4088 Y38.3685 Z-0.5000 S1000
G1 F750 X381.3817 Y38.4160 Z-0.5000 S1000
G1 F750 X381.3537 Y38.4618 Z-0.5000 S1000
G1 F750 X381.3261 Y38.5042 Z-0.5000 S1000
G1 F750 X381.2950 Y38.5489 Z-0.5000 S1000
G1 F750 X381.2658 Y38.5883 Z-0.5000 S1000
G1 F750 X381.2292 Y38.6348 Z-0.5000 S1000
G1 F750 X381.1961 Y38.6743 Z-0.5000 S1000
G1 F750 X381.1590 Y38.7162 Z-0.5000 S1000
G1 F750 X381.1257 Y38.7515 Z-0.5000 S1000
G1 F750 X381.0847 Y38.7925 Z-0.5000 S1000
G1 F750 X381.0494 Y38.8258 Z-0.5000 S1000
G1 F750 X381.0075 Y38.8629 Z-0.5000 S1000
G1 F750 X380.9680 Y38.8960 Z-0.5000 S1000
G1 F750 X380.9229 Y38.9315 Z-0.5000 S1000
G1 F750 X380.8818 Y38.9619 Z-0.5000 S1000
G1 F750 X380.8373 Y38.9929 Z-0.5000 S1000
G1 F750 X380.7951 Y39.0204 Z-0.5000 S1000
G1 F750 X380.7477 Y39.0493 Z-0.5000 S1000
G1 F750 X380.7017 Y39.0756 Z-0.5000 S1000
G1 F750 X380.6544 Y39.1007 Z-0.5000 S1000
G1 F750 X380.6069 Y39.1243 Z-0.5000 S1000
G1 F750 X380.5579 Y39.1467 Z-0.5000 S1000
G1 F750 X380.5108 Y39.1666 Z-0.5000 S1000
G1 F750 X380.4569 Y39.1876 Z-0.5000 S1000
G1 F750 X380.4098 Y39.2043 Z-0.5000 S1000
G1 F750 X380.3604 Y39.2202 Z-0.5000 S1000
G1 F750 X380.3071 Y39.2356 Z-0.5000 S1000
G1 F750 X380.2560 Y39.2487 Z-0.5000 S1000
G1 F750 X380.2025 Y39.2608 Z-0.5000 S1000
G1 F750 X380.1511 Y39.2709 Z-0.5000 S1000
G1 F750 X380.1002 Y39.2792 Z-0.5000 S1000
G1 F750 X380.0464 Y39.2865 Z-0.5000 S1000
G1 F750 X379.9911 Y39.2922 Z-0.5000 S1000
G1 F750 X379.9398 Y39.2960 Z-0.5000 S1000
G1 F750 X379.8866 Y39.2984 Z-0.5000 S1000
G1 F750 X379.8331 Y39.2992 Z-0.5000 S1000
G1 F750 X379.7798 Y39.2984 Z-0.5000 S1000
G1 F750 X379.7264 Y39.2960 Z-0.5000 S1000
G1 F750 X379.6752 Y39.2922 Z-0.5000 S1000
G1 F750 X379.6199 Y39.2865 Z-0.5000 S1000
G1 F750 X379.5670 Y39.2793 Z-0.5000 S1000
G1 F750 X379.5138 Y39.2706 Z-0.5000 S1000
G1 F750 X379.4651 Y39.2611 Z-0.5000 S1000
G1 F750 X379.4094 Y39.2485 Z-0.5000 S1000
G1 F750 X379.3587 Y39.2354 Z-0.5000 S1000
G1 F750 X379.3077 Y39.2207 Z-0.5000 S1000
G1 F750 X379.2553 Y39.2038 Z-0.5000 S1000
G1 F750 X379.2074 Y39.1869 Z-0.5000 S1000
G1 F750 X379.1575 Y39.1675 Z-0.5000 S1000
G1 F750 X379.1094 Y39.1471 Z-0.5000 S1000
G1 F750 X379.0583 Y39.1237 Z-0.5000 S1000
G1 F750 X379.0119 Y39.1007 Z-0.5000 S1000
G1 F750 X378.9646 Y39.0756 Z-0.5000 S1000
G1 F750 X378.9186 Y39.0493 Z-0.5000 S1000
G1 F750 X378.8710 Y39.0203 Z-0.5000 S1000
G1 F750 X378.8286 Y38.9926 Z-0.5000 S1000
G1 F750 X378.7850 Y38.9623 Z-0.5000 S1000
G1 F750 X378.7434 Y38.9315 Z-0.5000 S1000
G1 F750 X378.6983 Y38.8960 Z-0.5000 S1000
G1 F750 X378.6588 Y38.8629 Z-0.5000 S1000
G1 F750 X378.6169 Y38.8258 Z-0.5000 S1000
G1 F750 X378.5816 Y38.7925 Z-0.5000 S1000
G1 F750 X378.5406 Y38.7515 Z-0.5000 S1000
G1 F750 X378.5073 Y38.7162 Z-0.5000 S1000
G1 F750 X378.4702 Y38.6743 Z-0.5000 S1000
G1 F750 X378.4371 Y38.6348 Z-0.5000 S1000
G1 F750 X378.4016 Y38.5897 Z-0.5000 S1000
G1 F750 X378.3708 Y38.5481 Z-0.5000 S1000
G1 F750 X378.3405 Y38.5045 Z-0.5000 S1000
G1 F750 X378.3127 Y38.4619 Z-0.5000 S1000
G1 F750 X378.2838 Y38.4145 Z-0.5000 S1000
G1 F750 X378.2575 Y38.3685 Z-0.5000 S1000
G1 F750 X378.2324 Y38.3212 Z-0.5000 S1000
G1 F750 X378.2093 Y38.2746 Z-0.5000 S1000
G1 F750 X378.1860 Y38.2237 Z-0.5000 S1000
G1 F750 X378.1656 Y38.1756 Z-0.5000 S1000
G1 F750 X378.1462 Y38.1257 Z-0.5000 S1000
G1 F750 X378.1290 Y38.0771 Z-0.5000 S1000
G1 F750 X378.1124 Y38.0254 Z-0.5000 S1000
G1 F750 X378.0977 Y37.9744 Z-0.5000 S1000
G1 F750 X378.0842 Y37.9220 Z-0.5000 S1000
G1 F750 X378.0720 Y37.8680 Z-0.5000 S1000
G1 F750 X378.0624 Y37.8188 Z-0.5000 S1000
G1 F750 X378.0538 Y37.7661 Z-0.5000 S1000
G1 F750 X378.0465 Y37.7118 Z-0.5000 S1000
G1 F750 X378.0409 Y37.6579 Z-0.5000 S1000
G1 F750 X378.0371 Y37.6063 Z-0.5000 S1000
G1 F750 X378.0347 Y37.5533 Z-0.5000 S1000
G1 F750 X378.0332 Y37.4494 Z-0.5000 S1000
G1 F750 X378.0332 Y24.6960 Z-0.5000 S1000
G1 F750 X381.6331 Y24.6960 Z-0.5000 S1000
G1 F750 X381.6331 Y37.4494 Z-0.5000 S1000

G0 Z10; move to z-safe height
G0 X467.2166 Y37.2974

G0 Z0
G1 F80 Z-0.5000
G1 F750 X467.1940 Y37.7005 Z-0.5000 S1000
G1 F750 X467.1604 Y37.8979 Z-0.5000 S1000
G1 F750 X467.1050 Y38.0904 Z-0.5000 S1000
G1 F750 X467.0282 Y38.2757 Z-0.5000 S1000
G1 F750 X466.9307 Y38.4521 Z-0.5000 S1000
G1 F750 X466.8151 Y38.6151 Z-0.5000 S1000
G1 F750 X466.6814 Y38.7647 Z-0.5000 S1000
G1 F750 X466.5318 Y38.8984 Z-0.5000 S1000
G1 F750 X466.3686 Y39.0142 Z-0.5000 S1000
G1 F750 X466.1926 Y39.1114 Z-0.5000 S1000
G1 F750 X466.0071 Y39.1883 Z-0.5000 S1000
G1 F750 X465.8142 Y39.2438 Z-0.5000 S1000
G1 F750 X465.6178 Y39.2772 Z-0.5000 S1000
G1 F750 X465.4166 Y39.2885 Z-0.5000 S1000
G1 F750 X465.2154 Y39.2772 Z-0.5000 S1000
G1 F750 X465.0190 Y39.2438 Z-0.5000 S1000
G1 F750 X464.8261 Y39.1883 Z-0.5000 S1000
G1 F750 X464.6406 Y39.1114 Z-0.5000 S1000
G1 F750 X464.4646 Y39.0142 Z-0.5000 S1000
G1 F750 X464.3014 Y38.8984 Z-0.5000 S1000
G1 F750 X464.1523 Y38.7651 Z-0.5000 S1000
G1 F750 X464.0183 Y38.6151 Z-0.5000 S1000
G1 F750 X463.9022 Y38.4515 Z-0.5000 S1000
G1 F750 X463.8050 Y38.2757 Z-0.5000 S1000
G1 F750 X463.7282 Y38.0904 Z-0.5000 S1000
G1 F750 X463.6728 Y37.8979 Z-0.5000 S1000
G1 F750 X463.6392 Y37.7005 Z-0.5000 S1000
G1 F750 X463.6166 Y37.2974 Z-0.5000 S1000
G1 F750 X463.6166 Y24.6961 Z-0.5000 S1000
G1 F750 X467.2166 Y24.6961 Z-0.5000 S1000
G1 F750 X467.2166 Y37.2974 Z-0.5000 S1000

G0 Z10; move to z-safe height
G0 X381.6331 Y37.4494

G0 Z0
G1 F80 Z-3.0000
G1 F750 X381.6316 Y37.5533 Z-3.0000 S1000
G1 F750 X381.6292 Y37.6063 Z-3.0000 S1000
G1 F750 X381.6254 Y37.6579 Z-3.0000 S1000
G1 F750 X381.6198 Y37.7118 Z-3.0000 S1000
G1 F750 X381.6125 Y37.7661 Z-3.0000 S1000
G1 F750 X381.6039 Y37.8188 Z-3.0000 S1000
G1 F750 X381.5943 Y37.8680 Z-3.0000 S1000
G1 F750 X381.5821 Y37.9220 Z-3.0000 S1000
G1 F750 X381.5686 Y37.9744 Z-3.0000 S1000
G1 F750 X381.5539 Y38.0254 Z-3.0000 S1000
G1 F750 X381.5373 Y38.0771 Z-3.0000 S1000
G1 F750 X381.5201 Y38.1257 Z-3.0000 S1000
G1 F750 X381.5007 Y38.1756 Z-3.0000 S1000
G1 F750 X381.4803 Y38.2237 Z-3.0000 S1000
G1 F750 X381.4570 Y38.2746 Z-3.0000 S1000
G1 F750 X381.4339 Y38.3212 Z-3.0000 S1000
G1 F750 X381.4088 Y38.3685 Z-3.0000 S1000
G1 F750 X381.3817 Y38.4160 Z-3.0000 S1000
G1 F750 X381.3537 Y38.4618 Z-3.0000 S1000
G1 F750 X381.3261 Y38.5042 Z-3.0000 S1000
G1 F750 X381.2950 Y38.5489 Z-3.0000 S1000
G1 F750 X381.2658 Y38.5883 Z-3.0000 S1000
G1 F750 X381.2292 Y38.6348 Z-3.0000 S1000
G1 F750 X381.1961 Y38.6743 Z-3.0000 S1000
G1 F750 X381.1590 Y38.7162 Z-3.0000 S1000
G1 F750 X381.1257 Y38.7515 Z-3.0000 S1000
G1 F750 X381.0847 Y38.7925 Z-3.0000 S1000
G1 F750 X381.0494 Y38.8258 Z-3.0000 S1000
G1 F750 X381.0075 Y38.8629 Z-3.0000 S1000
G1 F750 X380.9680 Y38.8960 Z-3.0000 S1000
G1 F750 X380.9229 Y38.9315 Z-3.0000 S1000
G1 F750 X380.8818 Y38.9619 Z-3.0000 S1000
G1 F750 X380.8373 Y38.9929 Z-3.0000 S1000
G1 F750 X380.7951 Y39.0204 Z-3.0000 S1000
G1 F750 X380.7477 Y39.0493 Z-3.0000 S1000
G1 F750 X380.7017 Y39.0756 Z-3.0000 S1000
G1 F750 X380.6544 Y39.1007 Z-3.0000 S1000
G1 F750 X380.6069 Y39.1243 Z-3.0000 S1000
G1 F750 X380.5579 Y39.1467 Z-3.0000 S1000
G1 F750 X380.5108 Y39.1666 Z-3.0000 S1000
G1 F750 X380.4569 Y39.1876 Z-3.0000 S1000
G1 F750 X380.4098 Y39.2043 Z-3.0000 S1000
G1 F750 X380.3604 Y39.2202 Z-3.0000 S1000
G1 F750 X380.3071 Y39.2356 Z-3.0000 S1000
G1 F750 X380.2560 Y39.2487 Z-3.0000 S1000
G1 F750 X380.2025 Y39.2608 Z-3.0000 S1000
G1 F750 X380.1511 Y39.2709 Z-3.0000 S1000
G1 F750 X380.1002 Y39.2792 Z-3.0000 S1000
G1 F750 X380.0464 Y39.2865 Z-3.0000 S1000
G1 F750 X379.9911 Y39.2922 Z-3.0000 S1000
G1 F750 X379.9398 Y39.2960 Z-3.0000 S1000
G1 F750 X379.8866 Y39.2984 Z-3.0000 S1000
G1 F750 X379.8331 Y39.2992 Z-3.0000 S1000
G1 F750 X379.7798 Y39.2984 Z-3.0000 S1000
G1 F750 X379.7264 Y39.2960 Z-3.0000 S1000
G1 F750 X379.6752 Y39.2922 Z-3.0000 S1000
G1 F750 X379.6199 Y39.2865 Z-3.0000 S1000
G1 F750 X379.5670 Y39.2793 Z-3.0000 S1000
G1 F750 X379.5138 Y39.2706 Z-3.0000 S1000
G1 F750 X379.4651 Y39.2611 Z-3.0000 S1000
G1 F750 X379.4094 Y39.2485 Z-3.0000 S1000
G1 F750 X379.3587 Y39.2354 Z-3.0000 S1000
G1 F750 X379.3077 Y39.2207 Z-3.0000 S1000
G1 F750 X379.2553 Y39.2038 Z-3.0000 S1000
G1 F750 X379.2074 Y39.1869 Z-3.0000 S1000
G1 F750 X379.1575 Y39.1675 Z-3.0000 S1000
G1 F750 X379.1094 Y39.1471 Z-3.0000 S1000
G1 F750 X379.0583 Y39.1237 Z-3.0000 S1000
G1 F750 X379.0119 Y39.1007 Z-3.0000 S1000
G1 F750 X378.9646 Y39.0756 Z-3.0000 S1000
G1 F750 X378.9186 Y39.0493 Z-3.0000 S1000
G1 F750 X378.8710 Y39.0203 Z-3.0000 S1000
G1 F750 X378.8286 Y38.9926 Z-3.0000 S1000
G1 F750 X378.7850 Y38.9623 Z-3.0000 S1000
G1 F750 X378.7434 Y38.9315 Z-3.0000 S1000
G1 F750 X378.6983 Y38.8960 Z-3.0000 S1000
G1 F750 X378.6588 Y38.8629 Z-3.0000 S1000
G1 F750 X378.6169 Y38.8258 Z-3.0000 S1000
G1 F750 X378.5816 Y38.7925 Z-3.0000 S1000
G1 F750 X378.5406 Y38.7515 Z-3.0000 S1000
G1 F750 X378.5073 Y38.7162 Z-3.0000 S1000
G1 F750 X378.4702 Y38.6743 Z-3.0000 S1000
G1 F750 X378.4371 Y38.6348 Z-3.0000 S1000
G1 F750 X378.4016 Y38.5897 Z-3.0000 S1000
G1 F750 X378.3708 Y38.5481 Z-3.0000 S1000
G1 F750 X378.3405 Y38.5045 Z-3.0000 S1000
G1 F750 X378.3127 Y38.4619 Z-3.0000 S1000
G1 F750 X378.2838 Y38.4145 Z-3.0000 S1000
G1 F750 X378.2575 Y38.3685 Z-3.0000 S1000
G1 F750 X378.2324 Y38.3212 Z-3.0000 S1000
G1 F750 X378.2093 Y38.2746 Z-3.0000 S1000
G1 F750 X378.1860 Y38.2237 Z-3.0000 S1000
G1 F750 X378.1656 Y38.1756 Z-3.0000 S1000
G1 F750 X378.1462 Y38.1257 Z-3.0000 S1000
G1 F750 X378.1290 Y38.0771 Z-3.0000 S1000
G1 F750 X378.1124 Y38.0254 Z-3.0000 S1000
G1 F750 X378.0977 Y37.9744 Z-3.0000 S1000
G1 F750 X378.0842 Y37.9220 Z-3.0000 S1000
G1 F750 X378.0720 Y37.8680 Z-3.0000 S1000
G1 F750 X378.0624 Y37.8188 Z-3.0000 S1000
G1 F750 X378.0538 Y37.7661 Z-3.0000 S1000
G1 F750 X378.0465 Y37.7118 Z-3.0000 S1000
G1 F750 X378.0409 Y37.6579 Z-3.0000 S1000
G1 F750 X378.0371 Y37.6063 Z-3.0000 S1000
G1 F750 X378.0347 Y37.5533 Z-3.0000 S1000
G1 F750 X378.0332 Y37.4494 Z-3.0000 S1000
G1 F750 X378.0332 Y24.6960 Z-3.0000 S1000
G1 F750 X381.6331 Y24.6960 Z-3.0000 S1000
G1 F750 X381.6331 Y37.4494 Z-3.0000 S1000

G0 Z10; move to z-safe height
G0 X467.2166 Y37.2974

G0 Z0
G1 F80 Z-3.0000
G1 F750 X467.1940 Y37.7005 Z-3.0000 S1000
G1 F750 X467.1604 Y37.8979 Z-3.0000 S1000
G1 F750 X467.1050 Y38.0904 Z-3.0000 S1000
G1 F750 X467.0282 Y38.2757 Z-3.0000 S1000
G1 F750 X466.9307 Y38.4521 Z-3.0000 S1000
G1 F750 X466.8151 Y38.6151 Z-3.0000 S1000
G1 F750 X466.6814 Y38.7647 Z-3.0000 S1000
G1 F750 X466.5318 Y38.8984 Z-3.0000 S1000
G1 F750 X466.3686 Y39.0142 Z-3.0000 S1000
G1 F750 X466.1926 Y39.1114 Z-3.0000 S1000
G1 F750 X466.0071 Y39.1883 Z-3.0000 S1000
G1 F750 X465.8142 Y39.2438 Z-3.0000 S1000
G1 F750 X465.6178 Y39.2772 Z-3.0000 S1000
G1 F750 X465.4166 Y39.2885 Z-3.0000 S1000
G1 F750 X465.2154 Y39.2772 Z-3.0000 S1000
G1 F750 X465.0190 Y39.2438 Z-3.0000 S1000
G1 F750 X464.8261 Y39.1883 Z-3.0000 S1000
G1 F750 X464.6406 Y39.1114 Z-3.0000 S1000
G1 F750 X464.4646 Y39.0142 Z-3.0000 S1000
G1 F750 X464.3014 Y38.8984 Z-3.0000 S1000
G1 F750 X464.1523 Y38.7651 Z-3.0000 S1000
G1 F750 X464.0183 Y38.6151 Z-3.0000 S1000
G1 F750 X463.9022 Y38.4515 Z-3.0000 S1000
G1 F750 X463.8050 Y38.2757 Z-3.0000 S1000
G1 F750 X463.7282 Y38.0904 Z-3.0000 S1000
G1 F750 X463.6728 Y37.8979 Z-3.0000 S1000
G1 F750 X463.6392 Y37.7005 Z-3.0000 S1000
G1 F750 X463.6166 Y37.2974 Z-3.0000 S1000
G1 F750 X463.6166 Y24.6961 Z-3.0000 S1000
G1 F750 X467.2166 Y24.6961 Z-3.0000 S1000
G1 F750 X467.2166 Y37.2974 Z-3.0000 S1000

G0 Z10; move to z-safe height
G0 X381.6331 Y37.4494

G0 Z0
G1 F80 Z-5.5000
G1 F750 X381.6316 Y37.5533 Z-5.5000 S1000
G1 F750 X381.6292 Y37.6063 Z-5.5000 S1000
G1 F750 X381.6254 Y37.6579 Z-5.5000 S1000
G1 F750 X381.6198 Y37.7118 Z-5.5000 S1000
G1 F750 X381.6125 Y37.7661 Z-5.5000 S1000
G1 F750 X381.6039 Y37.8188 Z-5.5000 S1000
G1 F750 X381.5943 Y37.8680 Z-5.5000 S1000
G1 F750 X381.5821 Y37.9220 Z-5.5000 S1000
G1 F750 X381.5686 Y37.9744 Z-5.5000 S1000
G1 F750 X381.5539 Y38.0254 Z-5.5000 S1000
G1 F750 X381.5373 Y38.0771 Z-5.5000 S1000
G1 F750 X381.5201 Y38.1257 Z-5.5000 S1000
G1 F750 X381.5007 Y38.1756 Z-5.5000 S1000
G1 F750 X381.4803 Y38.2237 Z-5.5000 S1000
G1 F750 X381.4570 Y38.2746 Z-5.5000 S1000
G1 F750 X381.4339 Y38.3212 Z-5.5000 S1000
G1 F750 X381.4088 Y38.3685 Z-5.5000 S1000
G1 F750 X381.3817 Y38.4160 Z-5.5000 S1000
G1 F750 X381.3537 Y38.4618 Z-5.5000 S1000
G1 F750 X381.3261 Y38.5042 Z-5.5000 S1000
G1 F750 X381.2950 Y38.5489 Z-5.5000 S1000
G1 F750 X381.2658 Y38.5883 Z-5.5000 S1000
G1 F750 X381.2292 Y38.6348 Z-5.5000 S1000
G1 F750 X381.1961 Y38.6743 Z-5.5000 S1000
G1 F750 X381.1590 Y38.7162 Z-5.5000 S1000
G1 F750 X381.1257 Y38.7515 Z-5.5000 S1000
G1 F750 X381.0847 Y38.7925 Z-5.5000 S1000
G1 F750 X381.0494 Y38.8258 Z-5.5000 S1000
G1 F750 X381.0075 Y38.8629 Z-5.5000 S1000
G1 F750 X380.9680 Y38.8960 Z-5.5000 S1000
G1 F750 X380.9229 Y38.9315 Z-5.5000 S1000
G1 F750 X380.8818 Y38.9619 Z-5.5000 S1000
G1 F750 X380.8373 Y38.9929 Z-5.5000 S1000
G1 F750 X380.7951 Y39.0204 Z-5.5000 S1000
G1 F750 X380.7477 Y39.0493 Z-5.5000 S1000
G1 F750 X380.7017 Y39.0756 Z-5.5000 S1000
G1 F750 X380.6544 Y39.1007 Z-5.5000 S1000
G1 F750 X380.6069 Y39.1243 Z-5.5000 S1000
G1 F750 X380.5579 Y39.1467 Z-5.5000 S1000
G1 F750 X380.5108 Y39.1666 Z-5.5000 S1000
G1 F750 X380.4569 Y39.1876 Z-5.5000 S1000
G1 F750 X380.4098 Y39.2043 Z-5.5000 S1000
G1 F750 X380.3604 Y39.2202 Z-5.5000 S1000
G1 F750 X380.3071 Y39.2356 Z-5.5000 S1000
G1 F750 X380.2560 Y39.2487 Z-5.5000 S1000
G1 F750 X380.2025 Y39.2608 Z-5.5000 S1000
G1 F750 X380.1511 Y39.2709 Z-5.5000 S1000
G1 F750 X380.1002 Y39.2792 Z-5.5000 S1000
G1 F750 X380.0464 Y39.2865 Z-5.5000 S1000
G1 F750 X379.9911 Y39.2922 Z-5.5000 S1000
G1 F750 X379.9398 Y39.2960 Z-5.5000 S1000
G1 F750 X379.8866 Y39.2984 Z-5.5000 S1000
G1 F750 X379.8331 Y39.2992 Z-5.5000 S1000
G1 F750 X379.7798 Y39.2984 Z-5.5000 S1000
G1 F750 X379.7264 Y39.2960 Z-5.5000 S1000
G1 F750 X379.6752 Y39.2922 Z-5.5000 S1000
G1 F750 X379.6199 Y39.2865 Z-5.5000 S1000
G1 F750 X379.5670 Y39.2793 Z-5.5000 S1000
G1 F750 X379.5138 Y39.2706 Z-5.5000 S1000
G1 F750 X379.4651 Y39.2611 Z-5.5000 S1000
G1 F750 X379.4094 Y39.2485 Z-5.5000 S1000
G1 F750 X379.3587 Y39.2354 Z-5.5000 S1000
G1 F750 X379.3077 Y39.2207 Z-5.5000 S1000
G1 F750 X379.2553 Y39.2038 Z-5.5000 S1000
G1 F750 X379.2074 Y39.1869 Z-5.5000 S1000
G1 F750 X379.1575 Y39.1675 Z-5.5000 S1000
G1 F750 X379.1094 Y39.1471 Z-5.5000 S1000
G1 F750 X379.0583 Y39.1237 Z-5.5000 S1000
G1 F750 X379.0119 Y39.1007 Z-5.5000 S1000
G1 F750 X378.9646 Y39.0756 Z-5.5000 S1000
G1 F750 X378.9186 Y39.0493 Z-5.5000 S1000
G1 F750 X378.8710 Y39.0203 Z-5.5000 S1000
G1 F750 X378.8286 Y38.9926 Z-5.5000 S1000
G1 F750 X378.7850 Y38.9623 Z-5.5000 S1000
G1 F750 X378.7434 Y38.9315 Z-5.5000 S1000
G1 F750 X378.6983 Y38.8960 Z-5.5000 S1000
G1 F750 X378.6588 Y38.8629 Z-5.5000 S1000
G1 F750 X378.6169 Y38.8258 Z-5.5000 S1000
G1 F750 X378.5816 Y38.7925 Z-5.5000 S1000
G1 F750 X378.5406 Y38.7515 Z-5.5000 S1000
G1 F750 X378.5073 Y38.7162 Z-5.5000 S1000
G1 F750 X378.4702 Y38.6743 Z-5.5000 S1000
G1 F750 X378.4371 Y38.6348 Z-5.5000 S1000
G1 F750 X378.4016 Y38.5897 Z-5.5000 S1000
G1 F750 X378.3708 Y38.5481 Z-5.5000 S1000
G1 F750 X378.3405 Y38.5045 Z-5.5000 S1000
G1 F750 X378.3127 Y38.4619 Z-5.5000 S1000
G1 F750 X378.2838 Y38.4145 Z-5.5000 S1000
G1 F750 X378.2575 Y38.3685 Z-5.5000 S1000
G1 F750 X378.2324 Y38.3212 Z-5.5000 S1000
G1 F750 X378.2093 Y38.2746 Z-5.5000 S1000
G1 F750 X378.1860 Y38.2237 Z-5.5000 S1000
G1 F750 X378.1656 Y38.1756 Z-5.5000 S1000
G1 F750 X378.1462 Y38.1257 Z-5.5000 S1000
G1 F750 X378.1290 Y38.0771 Z-5.5000 S1000
G1 F750 X378.1124 Y38.0254 Z-5.5000 S1000
G1 F750 X378.0977 Y37.9744 Z-5.5000 S1000
G1 F750 X378.0842 Y37.9220 Z-5.5000 S1000
G1 F750 X378.0720 Y37.8680 Z-5.5000 S1000
G1 F750 X378.0624 Y37.8188 Z-5.5000 S1000
G1 F750 X378.0538 Y37.7661 Z-5.5000 S1000
G1 F750 X378.0465 Y37.7118 Z-5.5000 S1000
G1 F750 X378.0409 Y37.6579 Z-5.5000 S1000
G1 F750 X378.0371 Y37.6063 Z-5.5000 S1000
G1 F750 X378.0347 Y37.5533 Z-5.5000 S1000
G1 F750 X378.0332 Y37.4494 Z-5.5000 S1000
G1 F750 X378.0332 Y24.6960 Z-5.5000 S1000
G1 F750 X381.6331 Y24.6960 Z-5.5000 S1000
G1 F750 X381.6331 Y37.4494 Z-5.5000 S1000

G0 Z10; move to z-safe height
G0 X467.2166 Y37.2974

G0 Z0
G1 F80 Z-5.5000
G1 F750 X467.1940 Y37.7005 Z-5.5000 S1000
G1 F750 X467.1604 Y37.8979 Z-5.5000 S1000
G1 F750 X467.1050 Y38.0904 Z-5.5000 S1000
G1 F750 X467.0282 Y38.2757 Z-5.5000 S1000
G1 F750 X466.9307 Y38.4521 Z-5.5000 S1000
G1 F750 X466.8151 Y38.6151 Z-5.5000 S1000
G1 F750 X466.6814 Y38.7647 Z-5.5000 S1000
G1 F750 X466.5318 Y38.8984 Z-5.5000 S1000
G1 F750 X466.3686 Y39.0142 Z-5.5000 S1000
G1 F750 X466.1926 Y39.1114 Z-5.5000 S1000
G1 F750 X466.0071 Y39.1883 Z-5.5000 S1000
G1 F750 X465.8142 Y39.2438 Z-5.5000 S1000
G1 F750 X465.6178 Y39.2772 Z-5.5000 S1000
G1 F750 X465.4166 Y39.2885 Z-5.5000 S1000
G1 F750 X465.2154 Y39.2772 Z-5.5000 S1000
G1 F750 X465.0190 Y39.2438 Z-5.5000 S1000
G1 F750 X464.8261 Y39.1883 Z-5.5000 S1000
G1 F750 X464.6406 Y39.1114 Z-5.5000 S1000
G1 F750 X464.4646 Y39.0142 Z-5.5000 S1000
G1 F750 X464.3014 Y38.8984 Z-5.5000 S1000
G1 F750 X464.1523 Y38.7651 Z-5.5000 S1000
G1 F750 X464.0183 Y38.6151 Z-5.5000 S1000
G1 F750 X463.9022 Y38.4515 Z-5.5000 S1000
G1 F750 X463.8050 Y38.2757 Z-5.5000 S1000
G1 F750 X463.7282 Y38.0904 Z-5.5000 S1000
G1 F750 X463.6728 Y37.8979 Z-5.5000 S1000
G1 F750 X463.6392 Y37.7005 Z-5.5000 S1000
G1 F750 X463.6166 Y37.2974 Z-5.5000 S1000
G1 F750 X463.6166 Y24.6961 Z-5.5000 S1000
G1 F750 X467.2166 Y24.6961 Z-5.5000 S1000
G1 F750 X467.2166 Y37.2974 Z-5.5000 S1000

G0 Z10; move to z-safe height
G0 X384.0331 Y37.4640

G0 Z0
G1 F80 Z-0.5000
G1 F750 X384.0307 Y37.6255 Z-0.5000 S1000
G1 F750 X384.0253 Y37.7478 Z-0.5000 S1000
G1 F750 X384.0159 Y37.8748 Z-0.5000 S1000
G1 F750 X384.0033 Y37.9961 Z-0.5000 S1000
G1 F750 X383.9866 Y38.1202 Z-0.5000 S1000
G1 F750 X383.9666 Y38.2416 Z-0.5000 S1000
G1 F750 X383.9429 Y38.3630 Z-0.5000 S1000
G1 F750 X383.9146 Y38.4884 Z-0.5000 S1000
G1 F750 X383.8846 Y38.6049 Z-0.5000 S1000
G1 F750 X383.8490 Y38.7278 Z-0.5000 S1000
G1 F750 X383.8114 Y38.8450 Z-0.5000 S1000
G1 F750 X383.7697 Y38.9625 Z-0.5000 S1000
G1 F750 X383.7252 Y39.0769 Z-0.5000 S1000
G1 F750 X383.6754 Y39.1947 Z-0.5000 S1000
G1 F750 X383.6247 Y39.3054 Z-0.5000 S1000
G1 F750 X383.5688 Y39.4183 Z-0.5000 S1000
G1 F750 X383.5114 Y39.5261 Z-0.5000 S1000
G1 F750 X383.4494 Y39.6349 Z-0.5000 S1000
G1 F750 X383.3828 Y39.7440 Z-0.5000 S1000
G1 F750 X383.3156 Y39.8470 Z-0.5000 S1000
G1 F750 X383.2461 Y39.9469 Z-0.5000 S1000
G1 F750 X383.1720 Y40.0470 Z-0.5000 S1000
G1 F750 X383.0942 Y40.1458 Z-0.5000 S1000
G1 F750 X383.0133 Y40.2425 Z-0.5000 S1000
G1 F750 X382.9324 Y40.3337 Z-0.5000 S1000
G1 F750 X382.8463 Y40.4251 Z-0.5000 S1000
G1 F750 X382.7583 Y40.5131 Z-0.5000 S1000
G1 F750 X382.6677 Y40.5985 Z-0.5000 S1000
G1 F750 X382.5757 Y40.6801 Z-0.5000 S1000
G1 F750 X382.4790 Y40.7610 Z-0.5000 S1000
G1 F750 X382.3829 Y40.8366 Z-0.5000 S1000
G1 F750 X382.2781 Y40.9142 Z-0.5000 S1000
G1 F750 X382.1801 Y40.9824 Z-0.5000 S1000
G1 F750 X382.0764 Y41.0500 Z-0.5000 S1000
G1 F750 X381.9680 Y41.1162 Z-0.5000 S1000
G1 F750 X381.8593 Y41.1782 Z-0.5000 S1000
G1 F750 X381.7515 Y41.2356 Z-0.5000 S1000
G1 F750 X381.6396 Y41.2910 Z-0.5000 S1000
G1 F750 X381.5270 Y41.3426 Z-0.5000 S1000
G1 F750 X381.4093 Y41.3924 Z-0.5000 S1000
G1 F750 X381.2959 Y41.4364 Z-0.5000 S1000
G1 F750 X381.1791 Y41.4779 Z-0.5000 S1000
G1 F750 X381.0590 Y41.5164 Z-0.5000 S1000
G1 F750 X380.9396 Y41.5510 Z-0.5000 S1000
G1 F750 X380.8189 Y41.5821 Z-0.5000 S1000
G1 F750 X380.6993 Y41.6091 Z-0.5000 S1000
G1 F750 X380.5761 Y41.6331 Z-0.5000 S1000
G1 F750 X380.4516 Y41.6536 Z-0.5000 S1000
G1 F750 X380.3293 Y41.6701 Z-0.5000 S1000
G1 F750 X380.2080 Y41.6827 Z-0.5000 S1000
G1 F750 X380.0809 Y41.6921 Z-0.5000 S1000
G1 F750 X379.9588 Y41.6975 Z-0.5000 S1000
G1 F750 X379.8331 Y41.6994 Z-0.5000 S1000
G1 F750 X379.7076 Y41.6975 Z-0.5000 S1000
G1 F750 X379.5853 Y41.6921 Z-0.5000 S1000
G1 F750 X379.4583 Y41.6827 Z-0.5000 S1000
G1 F750 X379.3370 Y41.6701 Z-0.5000 S1000
G1 F750 X379.2129 Y41.6534 Z-0.5000 S1000
G1 F750 X379.0915 Y41.6334 Z-0.5000 S1000
G1 F750 X378.9701 Y41.6097 Z-0.5000 S1000
G1 F750 X378.8447 Y41.5814 Z-0.5000 S1000
G1 F750 X378.7282 Y41.5514 Z-0.5000 S1000
G1 F750 X378.6053 Y41.5158 Z-0.5000 S1000
G1 F750 X378.4881 Y41.4782 Z-0.5000 S1000
G1 F750 X378.3706 Y41.4365 Z-0.5000 S1000
G1 F750 X378.2562 Y41.3920 Z-0.5000 S1000
G1 F750 X378.1384 Y41.3422 Z-0.5000 S1000
G1 F750 X378.0277 Y41.2915 Z-0.5000 S1000
G1 F750 X377.9148 Y41.2356 Z-0.5000 S1000
G1 F750 X377.8070 Y41.1782 Z-0.5000 S1000
G1 F750 X377.6983 Y41.1162 Z-0.5000 S1000
G1 F750 X377.5889 Y41.0494 Z-0.5000 S1000
G1 F750 X377.4895 Y40.9846 Z-0.5000 S1000
G1 F750 X377.3858 Y40.9125 Z-0.5000 S1000
G1 F750 X377.2834 Y40.8366 Z-0.5000 S1000
G1 F750 X377.1873 Y40.7610 Z-0.5000 S1000
G1 F750 X377.0906 Y40.6801 Z-0.5000 S1000
G1 F750 X376.9986 Y40.5985 Z-0.5000 S1000
G1 F750 X376.9080 Y40.5131 Z-0.5000 S1000
G1 F750 X376.8200 Y40.4251 Z-0.5000 S1000
G1 F750 X376.7339 Y40.3337 Z-0.5000 S1000
G1 F750 X376.6530 Y40.2425 Z-0.5000 S1000
G1 F750 X376.5721 Y40.1458 Z-0.5000 S1000
G1 F750 X376.4965 Y40.0497 Z-0.5000 S1000
G1 F750 X376.4206 Y39.9473 Z-0.5000 S1000
G1 F750 X376.3485 Y39.8436 Z-0.5000 S1000
G1 F750 X376.2837 Y39.7442 Z-0.5000 S1000
G1 F750 X376.2169 Y39.6348 Z-0.5000 S1000
G1 F750 X376.1549 Y39.5261 Z-0.5000 S1000
G1 F750 X376.0975 Y39.4183 Z-0.5000 S1000
G1 F750 X376.0416 Y39.3054 Z-0.5000 S1000
G1 F750 X375.9909 Y39.1947 Z-0.5000 S1000
G1 F750 X375.9411 Y39.0769 Z-0.5000 S1000
G1 F750 X375.8966 Y38.9625 Z-0.5000 S1000
G1 F750 X375.8549 Y38.8450 Z-0.5000 S1000
G1 F750 X375.8173 Y38.7278 Z-0.5000 S1000
G1 F750 X375.7817 Y38.6049 Z-0.5000 S1000
G1 F750 X375.7517 Y38.4884 Z-0.5000 S1000
G1 F750 X375.7234 Y38.3630 Z-0.5000 S1000
G1 F750 X375.6997 Y38.2416 Z-0.5000 S1000
G1 F750 X375.6797 Y38.1202 Z-0.5000 S1000
G1 F750 X375.6630 Y37.9961 Z-0.5000 S1000
G1 F750 X375.6504 Y37.8748 Z-0.5000 S1000
G1 F750 X375.6410 Y37.7478 Z-0.5000 S1000
G1 F750 X375.6356 Y37.6255 Z-0.5000 S1000
G1 F750 X375.6332 Y37.4640 Z-0.5000 S1000
G1 F750 X375.6332 Y22.2960 Z-0.5000 S1000
G1 F750 X384.0331 Y22.2960 Z-0.5000 S1000
G1 F750 X384.0331 Y37.4640 Z-0.5000 S1000

G0 Z10; move to z-safe height
G0 X469.6166 Y37.3661

G0 Z0
G1 F80 Z-0.5000
G1 F750 X469.5827 Y37.9692 Z-0.5000 S1000
G1 F750 X469.5040 Y38.4326 Z-0.5000 S1000
G1 F750 X469.3737 Y38.8849 Z-0.5000 S1000
G1 F750 X469.1939 Y39.3189 Z-0.5000 S1000
G1 F750 X468.9666 Y39.7302 Z-0.5000 S1000
G1 F750 X468.6946 Y40.1136 Z-0.5000 S1000
G1 F750 X468.3806 Y40.4649 Z-0.5000 S1000
G1 F750 X468.0308 Y40.7775 Z-0.5000 S1000
G1 F750 X467.6469 Y41.0499 Z-0.5000 S1000
G1 F750 X467.2360 Y41.2770 Z-0.5000 S1000
G1 F750 X466.8009 Y41.4572 Z-0.5000 S1000
G1 F750 X466.3495 Y41.5873 Z-0.5000 S1000
G1 F750 X465.8859 Y41.6660 Z-0.5000 S1000
G1 F750 X465.4166 Y41.6924 Z-0.5000 S1000
G1 F750 X464.9473 Y41.6660 Z-0.5000 S1000
G1 F750 X464.4837 Y41.5873 Z-0.5000 S1000
G1 F750 X464.0323 Y41.4572 Z-0.5000 S1000
G1 F750 X463.5972 Y41.2770 Z-0.5000 S1000
G1 F750 X463.1863 Y41.0499 Z-0.5000 S1000
G1 F750 X462.8024 Y40.7775 Z-0.5000 S1000
G1 F750 X462.4524 Y40.4647 Z-0.5000 S1000
G1 F750 X462.1390 Y40.1140 Z-0.5000 S1000
G1 F750 X461.8665 Y39.7299 Z-0.5000 S1000
G1 F750 X461.6393 Y39.3189 Z-0.5000 S1000
G1 F750 X461.4595 Y38.8849 Z-0.5000 S1000
G1 F750 X461.3292 Y38.4326 Z-0.5000 S1000
G1 F750 X461.2505 Y37.9692 Z-0.5000 S1000
G1 F750 X461.2166 Y37.3661 Z-0.5000 S1000
G1 F750 X461.2166 Y22.2961 Z-0.5000 S1000
G1 F750 X469.6166 Y22.2961 Z-0.5000 S1000
G1 F750 X469.6166 Y37.3661 Z-0.5000 S1000

G0 Z10; move to z-safe height
G0 X384.0331 Y37.4640

G0 Z0
G1 F80 Z-3.0000
G1 F750 X384.0307 Y37.6255 Z-3.0000 S1000
G1 F750 X384.0253 Y37.7478 Z-3.0000 S1000
G1 F750 X384.0159 Y37.8748 Z-3.0000 S1000
G1 F750 X384.0033 Y37.9961 Z-3.0000 S1000
G1 F750 X383.9866 Y38.1202 Z-3.0000 S1000
G1 F750 X383.9666 Y38.2416 Z-3.0000 S1000
G1 F750 X383.9429 Y38.3630 Z-3.0000 S1000
G1 F750 X383.9146 Y38.4884 Z-3.0000 S1000
G1 F750 X383.8846 Y38.6049 Z-3.0000 S1000
G1 F750 X383.8490 Y38.7278 Z-3.0000 S1000
G1 F750 X383.8114 Y38.8450 Z-3.0000 S1000
G1 F750 X383.7697 Y38.9625 Z-3.0000 S1000
G1 F750 X383.7252 Y39.0769 Z-3.0000 S1000
G1 F750 X383.6754 Y39.1947 Z-3.0000 S1000
G1 F750 X383.6247 Y39.3054 Z-3.0000 S1000
G1 F750 X383.5688 Y39.4183 Z-3.0000 S1000
G1 F750 X383.5114 Y39.5261 Z-3.0000 S1000
G1 F750 X383.4494 Y39.6349 Z-3.0000 S1000
G1 F750 X383.3828 Y39.7440 Z-3.0000 S1000
G1 F750 X383.3156 Y39.8470 Z-3.0000 S1000
G1 F750 X383.2461 Y39.9469 Z-3.0000 S1000
G1 F750 X383.1720 Y40.0470 Z-3.0000 S1000
G1 F750 X383.0942 Y40.1458 Z-3.0000 S1000
G1 F750 X383.0133 Y40.2425 Z-3.0000 S1000
G1 F750 X382.9324 Y40.3337 Z-3.0000 S1000
G1 F750 X382.8463 Y40.4251 Z-3.0000 S1000
G1 F750 X382.7583 Y40.5131 Z-3.0000 S1000
G1 F750 X382.6677 Y40.5985 Z-3.0000 S1000
G1 F750 X382.5757 Y40.6801 Z-3.0000 S1000
G1 F750 X382.4790 Y40.7610 Z-3.0000 S1000
G1 F750 X382.3829 Y40.8366 Z-3.0000 S1000
G1 F750 X382.2781 Y40.9142 Z-3.0000 S1000
G1 F750 X382.1801 Y40.9824 Z-3.0000 S1000
G1 F750 X382.0764 Y41.0500 Z-3.0000 S1000
G1 F750 X381.9680 Y41.1162 Z-3.0000 S1000
G1 F750 X381.8593 Y41.1782 Z-3.0000 S1000
G1 F750 X381.7515 Y41.2356 Z-3.0000 S1000
G1 F750 X381.6396 Y41.2910 Z-3.0000 S1000
G1 F750 X381.5270 Y41.3426 Z-3.0000 S1000
G1 F750 X381.4093 Y41.3924 Z-3.0000 S1000
G1 F750 X381.2959 Y41.4364 Z-3.0000 S1000
G1 F750 X381.1791 Y41.4779 Z-3.0000 S1000
G1 F750 X381.0590 Y41.5164 Z-3.0000 S1000
G1 F750 X380.9396 Y41.5510 Z-3.0000 S1000
G1 F750 X380.8189 Y41.5821 Z-3.0000 S1000
G1 F750 X380.6993 Y41.6091 Z-3.0000 S1000
G1 F750 X380.5761 Y41.6331 Z-3.0000 S1000
G1 F750 X380.4516 Y41.6536 Z-3.0000 S1000
G1 F750 X380.3293 Y41.6701 Z-3.0000 S1000
G1 F750 X380.2080 Y41.6827 Z-3.0000 S1000
G1 F750 X380.0809 Y41.6921 Z-3.0000 S1000
G1 F750 X379.9588 Y41.6975 Z-3.0000 S1000
G1 F750 X379.8331 Y41.6994 Z-3.0000 S1000
G1 F750 X379.7076 Y41.6975 Z-3.0000 S1000
G1 F750 X379.5853 Y41.6921 Z-3.0000 S1000
G1 F750 X379.4583 Y41.6827 Z-3.0000 S1000
G1 F750 X379.3370 Y41.6701 Z-3.0000 S1000
G1 F750 X379.2129 Y41.6534 Z-3.0000 S1000
G1 F750 X379.0915 Y41.6334 Z-3.0000 S1000
G1 F750 X378.9701 Y41.6097 Z-3.0000 S1000
G1 F750 X378.8447 Y41.5814 Z-3.0000 S1000
G1 F750 X378.7282 Y41.5514 Z-3.0000 S1000
G1 F750 X378.6053 Y41.5158 Z-3.0000 S1000
G1 F750 X378.4881 Y41.4782 Z-3.0000 S1000
G1 F750 X378.3706 Y41.4365 Z-3.0000 S1000
G1 F750 X378.2562 Y41.3920 Z-3.0000 S1000
G1 F750 X378.1384 Y41.3422 Z-3.0000 S1000
G1 F750 X378.0277 Y41.2915 Z-3.0000 S1000
G1 F750 X377.9148 Y41.2356 Z-3.0000 S1000
G1 F750 X377.8070 Y41.1782 Z-3.0000 S1000
G1 F750 X377.6983 Y41.1162 Z-3.0000 S1000
G1 F750 X377.5889 Y41.0494 Z-3.0000 S1000
G1 F750 X377.4895 Y40.9846 Z-3.0000 S1000
G1 F750 X377.3858 Y40.9125 Z-3.0000 S1000
G1 F750 X377.2834 Y40.8366 Z-3.0000 S1000
G1 F750 X377.1873 Y40.7610 Z-3.0000 S1000
G1 F750 X377.0906 Y40.6801 Z-3.0000 S1000
G1 F750 X376.9986 Y40.5985 Z-3.0000 S1000
G1 F750 X376.9080 Y40.5131 Z-3.0000 S1000
G1 F750 X376.8200 Y40.4251 Z-3.0000 S1000
G1 F750 X376.7339 Y40.3337 Z-3.0000 S1000
G1 F750 X376.6530 Y40.2425 Z-3.0000 S1000
G1 F750 X376.5721 Y40.1458 Z-3.0000 S1000
G1 F750 X376.4965 Y40.0497 Z-3.0000 S1000
G1 F750 X376.4206 Y39.9473 Z-3.0000 S1000
G1 F750 X376.3485 Y39.8436 Z-3.0000 S1000
G1 F750 X376.2837 Y39.7442 Z-3.0000 S1000
G1 F750 X376.2169 Y39.6348 Z-3.0000 S1000
G1 F750 X376.1549 Y39.5261 Z-3.0000 S1000
G1 F750 X376.0975 Y39.4183 Z-3.0000 S1000
G1 F750 X376.0416 Y39.3054 Z-3.0000 S1000
G1 F750 X375.9909 Y39.1947 Z-3.0000 S1000
G1 F750 X375.9411 Y39.0769 Z-3.0000 S1000
G1 F750 X375.8966 Y38.9625 Z-3.0000 S1000
G1 F750 X375.8549 Y38.8450 Z-3.0000 S1000
G1 F750 X375.8173 Y38.7278 Z-3.0000 S1000
G1 F750 X375.7817 Y38.6049 Z-3.0000 S1000
G1 F750 X375.7517 Y38.4884 Z-3.0000 S1000
G1 F750 X375.7234 Y38.3630 Z-3.0000 S1000
G1 F750 X375.6997 Y38.2416 Z-3.0000 S1000
G1 F750 X375.6797 Y38.1202 Z-3.0000 S1000
G1 F750 X375.6630 Y37.9961 Z-3.0000 S1000
G1 F750 X375.6504 Y37.8748 Z-3.0000 S1000
G1 F750 X375.6410 Y37.7478 Z-3.0000 S1000
G1 F750 X375.6356 Y37.6255 Z-3.0000 S1000
G1 F750 X375.6332 Y37.4640 Z-3.0000 S1000
G1 F750 X375.6332 Y22.2960 Z-3.0000 S1000
G1 F750 X384.0331 Y22.2960 Z-3.0000 S1000
G1 F750 X384.0331 Y37.4640 Z-3.0000 S1000

G0 Z10; move to z-safe height
G0 X469.6166 Y37.3661

G0 Z0
G1 F80 Z-3.0000
G1 F750 X469.5827 Y37.9692 Z-3.0000 S1000
G1 F750 X469.5040 Y38.4326 Z-3.0000 S1000
G1 F750 X469.3737 Y38.8849 Z-3.0000 S1000
G1 F750 X469.1939 Y39.3189 Z-3.0000 S1000
G1 F750 X468.9666 Y39.7302 Z-3.0000 S1000
G1 F750 X468.6946 Y40.1136 Z-3.0000 S1000
G1 F750 X468.3806 Y40.4649 Z-3.0000 S1000
G1 F750 X468.0308 Y40.7775 Z-3.0000 S1000
G1 F750 X467.6469 Y41.0499 Z-3.0000 S1000
G1 F750 X467.2360 Y41.2770 Z-3.0000 S1000
G1 F750 X466.8009 Y41.4572 Z-3.0000 S1000
G1 F750 X466.3495 Y41.5873 Z-3.0000 S1000
G1 F750 X465.8859 Y41.6660 Z-3.0000 S1000
G1 F750 X465.4166 Y41.6924 Z-3.0000 S1000
G1 F750 X464.9473 Y41.6660 Z-3.0000 S1000
G1 F750 X464.4837 Y41.5873 Z-3.0000 S1000
G1 F750 X464.0323 Y41.4572 Z-3.0000 S1000
G1 F750 X463.5972 Y41.2770 Z-3.0000 S1000
G1 F750 X463.1863 Y41.0499 Z-3.0000 S1000
G1 F750 X462.8024 Y40.7775 Z-3.0000 S1000
G1 F750 X462.4524 Y40.4647 Z-3.0000 S1000
G1 F750 X462.1390 Y40.1140 Z-3.0000 S1000
G1 F750 X461.8665 Y39.7299 Z-3.0000 S1000
G1 F750 X461.6393 Y39.3189 Z-3.0000 S1000
G1 F750 X461.4595 Y38.8849 Z-3.0000 S1000
G1 F750 X461.3292 Y38.4326 Z-3.0000 S1000
G1 F750 X461.2505 Y37.9692 Z-3.0000 S1000
G1 F750 X461.2166 Y37.3661 Z-3.0000 S1000
G1 F750 X461.2166 Y22.2961 Z-3.0000 S1000
G1 F750 X469.6166 Y22.2961 Z-3.0000 S1000
G1 F750 X469.6166 Y37.3661 Z-3.0000 S1000

G0 Z10; move to z-safe height
G0 X384.0331 Y37.4640

G0 Z0
G1 F80 Z-5.5000
G1 F750 X384.0307 Y37.6255 Z-5.5000 S1000
G1 F750 X384.0253 Y37.7478 Z-5.5000 S1000
G1 F750 X384.0159 Y37.8748 Z-5.5000 S1000
G1 F750 X384.0033 Y37.9961 Z-5.5000 S1000
G1 F750 X383.9866 Y38.1202 Z-5.5000 S1000
G1 F750 X383.9666 Y38.2416 Z-5.5000 S1000
G1 F750 X383.9429 Y38.3630 Z-5.5000 S1000
G1 F750 X383.9146 Y38.4884 Z-5.5000 S1000
G1 F750 X383.8846 Y38.6049 Z-5.5000 S1000
G1 F750 X383.8490 Y38.7278 Z-5.5000 S1000
G1 F750 X383.8114 Y38.8450 Z-5.5000 S1000
G1 F750 X383.7697 Y38.9625 Z-5.5000 S1000
G1 F750 X383.7252 Y39.0769 Z-5.5000 S1000
G1 F750 X383.6754 Y39.1947 Z-5.5000 S1000
G1 F750 X383.6247 Y39.3054 Z-5.5000 S1000
G1 F750 X383.5688 Y39.4183 Z-5.5000 S1000
G1 F750 X383.5114 Y39.5261 Z-5.5000 S1000
G1 F750 X383.4494 Y39.6349 Z-5.5000 S1000
G1 F750 X383.3828 Y39.7440 Z-5.5000 S1000
G1 F750 X383.3156 Y39.8470 Z-5.5000 S1000
G1 F750 X383.2461 Y39.9469 Z-5.5000 S1000
G1 F750 X383.1720 Y40.0470 Z-5.5000 S1000
G1 F750 X383.0942 Y40.1458 Z-5.5000 S1000
G1 F750 X383.0133 Y40.2425 Z-5.5000 S1000
G1 F750 X382.9324 Y40.3337 Z-5.5000 S1000
G1 F750 X382.8463 Y40.4251 Z-5.5000 S1000
G1 F750 X382.7583 Y40.5131 Z-5.5000 S1000
G1 F750 X382.6677 Y40.5985 Z-5.5000 S1000
G1 F750 X382.5757 Y40.6801 Z-5.5000 S1000
G1 F750 X382.4790 Y40.7610 Z-5.5000 S1000
G1 F750 X382.3829 Y40.8366 Z-5.5000 S1000
G1 F750 X382.2781 Y40.9142 Z-5.5000 S1000
G1 F750 X382.1801 Y40.9824 Z-5.5000 S1000
G1 F750 X382.0764 Y41.0500 Z-5.5000 S1000
G1 F750 X381.9680 Y41.1162 Z-5.5000 S1000
G1 F750 X381.8593 Y41.1782 Z-5.5000 S1000
G1 F750 X381.7515 Y41.2356 Z-5.5000 S1000
G1 F750 X381.6396 Y41.2910 Z-5.5000 S1000
G1 F750 X381.5270 Y41.3426 Z-5.5000 S1000
G1 F750 X381.4093 Y41.3924 Z-5.5000 S1000
G1 F750 X381.2959 Y41.4364 Z-5.5000 S1000
G1 F750 X381.1791 Y41.4779 Z-5.5000 S1000
G1 F750 X381.0590 Y41.5164 Z-5.5000 S1000
G1 F750 X380.9396 Y41.5510 Z-5.5000 S1000
G1 F750 X380.8189 Y41.5821 Z-5.5000 S1000
G1 F750 X380.6993 Y41.6091 Z-5.5000 S1000
G1 F750 X380.5761 Y41.6331 Z-5.5000 S1000
G1 F750 X380.4516 Y41.6536 Z-5.5000 S1000
G1 F750 X380.3293 Y41.6701 Z-5.5000 S1000
G1 F750 X380.2080 Y41.6827 Z-5.5000 S1000
G1 F750 X380.0809 Y41.6921 Z-5.5000 S1000
G1 F750 X379.9588 Y41.6975 Z-5.5000 S1000
G1 F750 X379.8331 Y41.6994 Z-5.5000 S1000
G1 F750 X379.7076 Y41.6975 Z-5.5000 S1000
G1 F750 X379.5853 Y41.6921 Z-5.5000 S1000
G1 F750 X379.4583 Y41.6827 Z-5.5000 S1000
G1 F750 X379.3370 Y41.6701 Z-5.5000 S1000
G1 F750 X379.2129 Y41.6534 Z-5.5000 S1000
G1 F750 X379.0915 Y41.6334 Z-5.5000 S1000
G1 F750 X378.9701 Y41.6097 Z-5.5000 S1000
G1 F750 X378.8447 Y41.5814 Z-5.5000 S1000
G1 F750 X378.7282 Y41.5514 Z-5.5000 S1000
G1 F750 X378.6053 Y41.5158 Z-5.5000 S1000
G1 F750 X378.4881 Y41.4782 Z-5.5000 S1000
G1 F750 X378.3706 Y41.4365 Z-5.5000 S1000
G1 F750 X378.2562 Y41.3920 Z-5.5000 S1000
G1 F750 X378.1384 Y41.3422 Z-5.5000 S1000
G1 F750 X378.0277 Y41.2915 Z-5.5000 S1000
G1 F750 X377.9148 Y41.2356 Z-5.5000 S1000
G1 F750 X377.8070 Y41.1782 Z-5.5000 S1000
G1 F750 X377.6983 Y41.1162 Z-5.5000 S1000
G1 F750 X377.5889 Y41.0494 Z-5.5000 S1000
G1 F750 X377.4895 Y40.9846 Z-5.5000 S1000
G1 F750 X377.3858 Y40.9125 Z-5.5000 S1000
G1 F750 X377.2834 Y40.8366 Z-5.5000 S1000
G1 F750 X377.1873 Y40.7610 Z-5.5000 S1000
G1 F750 X377.0906 Y40.6801 Z-5.5000 S1000
G1 F750 X376.9986 Y40.5985 Z-5.5000 S1000
G1 F750 X376.9080 Y40.5131 Z-5.5000 S1000
G1 F750 X376.8200 Y40.4251 Z-5.5000 S1000
G1 F750 X376.7339 Y40.3337 Z-5.5000 S1000
G1 F750 X376.6530 Y40.2425 Z-5.5000 S1000
G1 F750 X376.5721 Y40.1458 Z-5.5000 S1000
G1 F750 X376.4965 Y40.0497 Z-5.5000 S1000
G1 F750 X376.4206 Y39.9473 Z-5.5000 S1000
G1 F750 X376.3485 Y39.8436 Z-5.5000 S1000
G1 F750 X376.2837 Y39.7442 Z-5.5000 S1000
G1 F750 X376.2169 Y39.6348 Z-5.5000 S1000
G1 F750 X376.1549 Y39.5261 Z-5.5000 S1000
G1 F750 X376.0975 Y39.4183 Z-5.5000 S1000
G1 F750 X376.0416 Y39.3054 Z-5.5000 S1000
G1 F750 X375.9909 Y39.1947 Z-5.5000 S1000
G1 F750 X375.9411 Y39.0769 Z-5.5000 S1000
G1 F750 X375.8966 Y38.9625 Z-5.5000 S1000
G1 F750 X375.8549 Y38.8450 Z-5.5000 S1000
G1 F750 X375.8173 Y38.7278 Z-5.5000 S1000
G1 F750 X375.7817 Y38.6049 Z-5.5000 S1000
G1 F750 X375.7517 Y38.4884 Z-5.5000 S1000
G1 F750 X375.7234 Y38.3630 Z-5.5000 S1000
G1 F750 X375.6997 Y38.2416 Z-5.5000 S1000
G1 F750 X375.6797 Y38.1202 Z-5.5000 S1000
G1 F750 X375.6630 Y37.9961 Z-5.5000 S1000
G1 F750 X375.6504 Y37.8748 Z-5.5000 S1000
G1 F750 X375.6410 Y37.7478 Z-5.5000 S1000
G1 F750 X375.6356 Y37.6255 Z-5.5000 S1000
G1 F750 X375.6332 Y37.4640 Z-5.5000 S1000
G1 F750 X375.6332 Y22.2960 Z-5.5000 S1000
G1 F750 X384.0331 Y22.2960 Z-5.5000 S1000
G1 F750 X384.0331 Y37.4640 Z-5.5000 S1000

G0 Z10; move to z-safe height
G0 X469.6166 Y37.3661

G0 Z0
G1 F80 Z-5.5000
G1 F750 X469.5827 Y37.9692 Z-5.5000 S1000
G1 F750 X469.5040 Y38.4326 Z-5.5000 S1000
G1 F750 X469.3737 Y38.8849 Z-5.5000 S1000
G1 F750 X469.1939 Y39.3189 Z-5.5000 S1000
G1 F750 X468.9666 Y39.7302 Z-5.5000 S1000
G1 F750 X468.6946 Y40.1136 Z-5.5000 S1000
G1 F750 X468.3806 Y40.4649 Z-5.5000 S1000
G1 F750 X468.0308 Y40.7775 Z-5.5000 S1000
G1 F750 X467.6469 Y41.0499 Z-5.5000 S1000
G1 F750 X467.2360 Y41.2770 Z-5.5000 S1000
G1 F750 X466.8009 Y41.4572 Z-5.5000 S1000
G1 F750 X466.3495 Y41.5873 Z-5.5000 S1000
G1 F750 X465.8859 Y41.6660 Z-5.5000 S1000
G1 F750 X465.4166 Y41.6924 Z-5.5000 S1000
G1 F750 X464.9473 Y41.6660 Z-5.5000 S1000
G1 F750 X464.4837 Y41.5873 Z-5.5000 S1000
G1 F750 X464.0323 Y41.4572 Z-5.5000 S1000
G1 F750 X463.5972 Y41.2770 Z-5.5000 S1000
G1 F750 X463.1863 Y41.0499 Z-5.5000 S1000
G1 F750 X462.8024 Y40.7775 Z-5.5000 S1000
G1 F750 X462.4524 Y40.4647 Z-5.5000 S1000
G1 F750 X462.1390 Y40.1140 Z-5.5000 S1000
G1 F750 X461.8665 Y39.7299 Z-5.5000 S1000
G1 F750 X461.6393 Y39.3189 Z-5.5000 S1000
G1 F750 X461.4595 Y38.8849 Z-5.5000 S1000
G1 F750 X461.3292 Y38.4326 Z-5.5000 S1000
G1 F750 X461.2505 Y37.9692 Z-5.5000 S1000
G1 F750 X461.2166 Y37.3661 Z-5.5000 S1000
G1 F750 X461.2166 Y22.2961 Z-5.5000 S1000
G1 F750 X469.6166 Y22.2961 Z-5.5000 S1000
G1 F750 X469.6166 Y37.3661 Z-5.5000 S1000

G0 Z10; move to z-safe height
G0 X385.8331 Y37.4766

G0 Z0
G1 F80 Z-0.5000
G1 F750 X385.8301 Y37.6789 Z-0.5000 S1000
G1 F750 X385.8223 Y37.8551 Z-0.5000 S1000
G1 F750 X385.8091 Y38.0329 Z-0.5000 S1000
G1 F750 X385.7907 Y38.2102 Z-0.5000 S1000
G1 F750 X385.7672 Y38.3852 Z-0.5000 S1000
G1 F750 X385.7381 Y38.5620 Z-0.5000 S1000
G1 F750 X385.7047 Y38.7330 Z-0.5000 S1000
G1 F750 X385.6650 Y38.9088 Z-0.5000 S1000
G1 F750 X385.6203 Y39.0821 Z-0.5000 S1000
G1 F750 X385.5705 Y39.2544 Z-0.5000 S1000
G1 F750 X385.5171 Y39.4207 Z-0.5000 S1000
G1 F750 X385.4574 Y39.5889 Z-0.5000 S1000
G1 F750 X385.3928 Y39.7552 Z-0.5000 S1000
G1 F750 X385.3242 Y39.9174 Z-0.5000 S1000
G1 F750 X385.2497 Y40.0799 Z-0.5000 S1000
G1 F750 X385.1706 Y40.2397 Z-0.5000 S1000
G1 F750 X385.0865 Y40.3978 Z-0.5000 S1000
G1 F750 X384.9992 Y40.5508 Z-0.5000 S1000
G1 F750 X384.9059 Y40.7037 Z-0.5000 S1000
G1 F750 X384.8101 Y40.8506 Z-0.5000 S1000
G1 F750 X384.7081 Y40.9971 Z-0.5000 S1000
G1 F750 X384.6007 Y41.1422 Z-0.5000 S1000
G1 F750 X384.4922 Y41.2801 Z-0.5000 S1000
G1 F750 X384.3781 Y41.4165 Z-0.5000 S1000
G1 F750 X384.2611 Y41.5483 Z-0.5000 S1000
G1 F750 X384.1367 Y41.6803 Z-0.5000 S1000
G1 F750 X384.0135 Y41.8035 Z-0.5000 S1000
G1 F750 X383.8815 Y41.9279 Z-0.5000 S1000
G1 F750 X383.7497 Y42.0449 Z-0.5000 S1000
G1 F750 X383.6133 Y42.1590 Z-0.5000 S1000
G1 F750 X383.4747 Y42.2680 Z-0.5000 S1000
G1 F750 X383.3315 Y42.3741 Z-0.5000 S1000
G1 F750 X383.1837 Y42.4769 Z-0.5000 S1000
G1 F750 X383.0366 Y42.5728 Z-0.5000 S1000
G1 F750 X382.8836 Y42.6662 Z-0.5000 S1000
G1 F750 X382.7310 Y42.7533 Z-0.5000 S1000
G1 F750 X382.5729 Y42.8374 Z-0.5000 S1000
G1 F750 X382.4125 Y42.9168 Z-0.5000 S1000
G1 F750 X382.2505 Y42.9910 Z-0.5000 S1000
G1 F750 X382.0906 Y43.0587 Z-0.5000 S1000
G1 F750 X381.9209 Y43.1246 Z-0.5000 S1000
G1 F750 X381.7538 Y43.1839 Z-0.5000 S1000
G1 F750 X381.5870 Y43.2375 Z-0.5000 S1000
G1 F750 X381.4156 Y43.2871 Z-0.5000 S1000
G1 F750 X381.2406 Y43.3321 Z-0.5000 S1000
G1 F750 X381.0677 Y43.3712 Z-0.5000 S1000
G1 F750 X380.8961 Y43.4047 Z-0.5000 S1000
G1 F750 X380.7172 Y43.4341 Z-0.5000 S1000
G1 F750 X380.5434 Y43.4575 Z-0.5000 S1000
G1 F750 X380.3661 Y43.4759 Z-0.5000 S1000
G1 F750 X380.1882 Y43.4891 Z-0.5000 S1000
G1 F750 X380.0121 Y43.4969 Z-0.5000 S1000
G1 F750 X379.8331 Y43.4996 Z-0.5000 S1000
G1 F750 X379.6542 Y43.4969 Z-0.5000 S1000
G1 F750 X379.4780 Y43.4891 Z-0.5000 S1000
G1 F750 X379.3002 Y43.4759 Z-0.5000 S1000
G1 F750 X379.1229 Y43.4575 Z-0.5000 S1000
G1 F750 X378.9479 Y43.4340 Z-0.5000 S1000
G1 F750 X378.7711 Y43.4049 Z-0.5000 S1000
G1 F750 X378.6001 Y43.3715 Z-0.5000 S1000
G1 F750 X378.4243 Y43.3318 Z-0.5000 S1000
G1 F750 X378.2510 Y43.2871 Z-0.5000 S1000
G1 F750 X378.0787 Y43.2373 Z-0.5000 S1000
G1 F750 X377.9124 Y43.1839 Z-0.5000 S1000
G1 F750 X377.7442 Y43.1242 Z-0.5000 S1000
G1 F750 X377.5779 Y43.0596 Z-0.5000 S1000
G1 F750 X377.4157 Y42.9910 Z-0.5000 S1000
G1 F750 X377.2532 Y42.9165 Z-0.5000 S1000
G1 F750 X377.0934 Y42.8374 Z-0.5000 S1000
G1 F750 X376.9353 Y42.7533 Z-0.5000 S1000
G1 F750 X376.7827 Y42.6662 Z-0.5000 S1000
G1 F750 X376.6288 Y42.5722 Z-0.5000 S1000
G1 F750 X376.4835 Y42.4775 Z-0.5000 S1000
G1 F750 X376.3347 Y42.3740 Z-0.5000 S1000
G1 F750 X376.1916 Y42.2680 Z-0.5000 S1000
G1 F750 X376.0530 Y42.1590 Z-0.5000 S1000
G1 F750 X375.9166 Y42.0449 Z-0.5000 S1000
G1 F750 X375.7848 Y41.9279 Z-0.5000 S1000
G1 F750 X375.6528 Y41.8035 Z-0.5000 S1000
G1 F750 X375.5296 Y41.6803 Z-0.5000 S1000
G1 F750 X375.4052 Y41.5483 Z-0.5000 S1000
G1 F750 X375.2882 Y41.4165 Z-0.5000 S1000
G1 F750 X375.1741 Y41.2801 Z-0.5000 S1000
G1 F750 X375.0651 Y41.1415 Z-0.5000 S1000
G1 F750 X374.9591 Y40.9984 Z-0.5000 S1000
G1 F750 X374.8556 Y40.8496 Z-0.5000 S1000
G1 F750 X374.7609 Y40.7043 Z-0.5000 S1000
G1 F750 X374.6669 Y40.5504 Z-0.5000 S1000
G1 F750 X374.5798 Y40.3978 Z-0.5000 S1000
G1 F750 X374.4957 Y40.2397 Z-0.5000 S1000
G1 F750 X374.4166 Y40.0799 Z-0.5000 S1000
G1 F750 X374.3421 Y39.9174 Z-0.5000 S1000
G1 F750 X374.2735 Y39.7552 Z-0.5000 S1000
G1 F750 X374.2089 Y39.5889 Z-0.5000 S1000
G1 F750 X374.1492 Y39.4207 Z-0.5000 S1000
G1 F750 X374.0958 Y39.2544 Z-0.5000 S1000
G1 F750 X374.0460 Y39.0821 Z-0.5000 S1000
G1 F750 X374.0013 Y38.9088 Z-0.5000 S1000
G1 F750 X373.9616 Y38.7330 Z-0.5000 S1000
G1 F750 X373.9282 Y38.5620 Z-0.5000 S1000
G1 F750 X373.8991 Y38.3852 Z-0.5000 S1000
G1 F750 X373.8756 Y38.2102 Z-0.5000 S1000
G1 F750 X373.8572 Y38.0329 Z-0.5000 S1000
G1 F750 X373.8440 Y37.8551 Z-0.5000 S1000
G1 F750 X373.8362 Y37.6789 Z-0.5000 S1000
G1 F750 X373.8332 Y37.4766 Z-0.5000 S1000
G1 F750 X373.8332 Y20.4960 Z-0.5000 S1000
G1 F750 X385.8331 Y20.4960 Z-0.5000 S1000
G1 F750 X385.8331 Y37.4766 Z-0.5000 S1000

G0 Z10; move to z-safe height
G0 X471.4166 Y37.4154

G0 Z0
G1 F80 Z-0.5000
G1 F750 X471.3741 Y38.1713 Z-0.5000 S1000
G1 F750 X471.2615 Y38.8338 Z-0.5000 S1000
G1 F750 X471.0754 Y39.4800 Z-0.5000 S1000
G1 F750 X470.8178 Y40.1018 Z-0.5000 S1000
G1 F750 X470.4932 Y40.6892 Z-0.5000 S1000
G1 F750 X470.1040 Y41.2378 Z-0.5000 S1000
G1 F750 X469.6558 Y41.7392 Z-0.5000 S1000
G1 F750 X469.1545 Y42.1873 Z-0.5000 S1000
G1 F750 X468.6063 Y42.5762 Z-0.5000 S1000
G1 F750 X468.0175 Y42.9016 Z-0.5000 S1000
G1 F750 X467.3964 Y43.1589 Z-0.5000 S1000
G1 F750 X466.7509 Y43.3449 Z-0.5000 S1000
G1 F750 X466.0884 Y43.4574 Z-0.5000 S1000
G1 F750 X465.4166 Y43.4952 Z-0.5000 S1000
G1 F750 X464.7448 Y43.4574 Z-0.5000 S1000
G1 F750 X464.0823 Y43.3449 Z-0.5000 S1000
G1 F750 X463.4368 Y43.1589 Z-0.5000 S1000
G1 F750 X462.8157 Y42.9016 Z-0.5000 S1000
G1 F750 X462.2269 Y42.5762 Z-0.5000 S1000
G1 F750 X461.6787 Y42.1873 Z-0.5000 S1000
G1 F750 X461.1771 Y41.7389 Z-0.5000 S1000
G1 F750 X460.7298 Y41.2384 Z-0.5000 S1000
G1 F750 X460.3398 Y40.6889 Z-0.5000 S1000
G1 F750 X460.0154 Y40.1018 Z-0.5000 S1000
G1 F750 X459.7578 Y39.4800 Z-0.5000 S1000
G1 F750 X459.5717 Y38.8338 Z-0.5000 S1000
G1 F750 X459.4591 Y38.1713 Z-0.5000 S1000
G1 F750 X459.4166 Y37.4154 Z-0.5000 S1000
G1 F750 X459.4166 Y20.4961 Z-0.5000 S1000
G1 F750 X471.4166 Y20.4961 Z-0.5000 S1000
G1 F750 X471.4166 Y37.4154 Z-0.5000 S1000

G0 Z10; move to z-safe height
G0 X385.8331 Y37.4766

G0 Z0
G1 F80 Z-3.0000
G1 F750 X385.8301 Y37.6789 Z-3.0000 S1000
G1 F750 X385.8223 Y37.8551 Z-3.0000 S1000
G1 F750 X385.8091 Y38.0329 Z-3.0000 S1000
G1 F750 X385.7907 Y38.2102 Z-3.0000 S1000
G1 F750 X385.7672 Y38.3852 Z-3.0000 S1000
G1 F750 X385.7381 Y38.5620 Z-3.0000 S1000
G1 F750 X385.7047 Y38.7330 Z-3.0000 S1000
G1 F750 X385.6650 Y38.9088 Z-3.0000 S1000
G1 F750 X385.6203 Y39.0821 Z-3.0000 S1000
G1 F750 X385.5705 Y39.2544 Z-3.0000 S1000
G1 F750 X385.5171 Y39.4207 Z-3.0000 S1000
G1 F750 X385.4574 Y39.5889 Z-3.0000 S1000
G1 F750 X385.3928 Y39.7552 Z-3.0000 S1000
G1 F750 X385.3242 Y39.9174 Z-3.0000 S1000
G1 F750 X385.2497 Y40.0799 Z-3.0000 S1000
G1 F750 X385.1706 Y40.2397 Z-3.0000 S1000
G1 F750 X385.0865 Y40.3978 Z-3.0000 S1000
G1 F750 X384.9992 Y40.5508 Z-3.0000 S1000
G1 F750 X384.9059 Y40.7037 Z-3.0000 S1000
G1 F750 X384.8101 Y40.8506 Z-3.0000 S1000
G1 F750 X384.7081 Y40.9971 Z-3.0000 S1000
G1 F750 X384.6007 Y41.1422 Z-3.0000 S1000
G1 F750 X384.4922 Y41.2801 Z-3.0000 S1000
G1 F750 X384.3781 Y41.4165 Z-3.0000 S1000
G1 F750 X384.2611 Y41.5483 Z-3.0000 S1000
G1 F750 X384.1367 Y41.6803 Z-3.0000 S1000
G1 F750 X384.0135 Y41.8035 Z-3.0000 S1000
G1 F750 X383.8815 Y41.9279 Z-3.0000 S1000
G1 F750 X383.7497 Y42.0449 Z-3.0000 S1000
G1 F750 X383.6133 Y42.1590 Z-3.0000 S1000
G1 F750 X383.4747 Y42.2680 Z-3.0000 S1000
G1 F750 X383.3315 Y42.3741 Z-3.0000 S1000
G1 F750 X383.1837 Y42.4769 Z-3.0000 S1000
G1 F750 X383.0366 Y42.5728 Z-3.0000 S1000
G1 F750 X382.8836 Y42.6662 Z-3.0000 S1000
G1 F750 X382.7310 Y42.7533 Z-3.0000 S1000
G1 F750 X382.5729 Y42.8374 Z-3.0000 S1000
G1 F750 X382.4125 Y42.9168 Z-3.0000 S1000
G1 F750 X382.2505 Y42.9910 Z-3.0000 S1000
G1 F750 X382.0906 Y43.0587 Z-3.0000 S1000
G1 F750 X381.9209 Y43.1246 Z-3.0000 S1000
G1 F750 X381.7538 Y43.1839 Z-3.0000 S1000
G1 F750 X381.5870 Y43.2375 Z-3.0000 S1000
G1 F750 X381.4156 Y43.2871 Z-3.0000 S1000
G1 F750 X381.2406 Y43.3321 Z-3.0000 S1000
G1 F750 X381.0677 Y43.3712 Z-3.0000 S1000
G1 F750 X380.8961 Y43.4047 Z-3.0000 S1000
G1 F750 X380.7172 Y43.4341 Z-3.0000 S1000
G1 F750 X380.5434 Y43.4575 Z-3.0000 S1000
G1 F750 X380.3661 Y43.4759 Z-3.0000 S1000
G1 F750 X380.1882 Y43.4891 Z-3.0000 S1000
G1 F750 X380.0121 Y43.4969 Z-3.0000 S1000
G1 F750 X379.8331 Y43.4996 Z-3.0000 S1000
G1 F750 X379.6542 Y43.4969 Z-3.0000 S1000
G1 F750 X379.4780 Y43.4891 Z-3.0000 S1000
G1 F750 X379.3002 Y43.4759 Z-3.0000 S1000
G1 F750 X379.1229 Y43.4575 Z-3.0000 S1000
G1 F750 X378.9479 Y43.4340 Z-3.0000 S1000
G1 F750 X378.7711 Y43.4049 Z-3.0000 S1000
G1 F750 X378.6001 Y43.3715 Z-3.0000 S1000
G1 F750 X378.4243 Y43.3318 Z-3.0000 S1000
G1 F750 X378.2510 Y43.2871 Z-3.0000 S1000
G1 F750 X378.0787 Y43.2373 Z-3.0000 S1000
G1 F750 X377.9124 Y43.1839 Z-3.0000 S1000
G1 F750 X377.7442 Y43.1242 Z-3.0000 S1000
G1 F750 X377.5779 Y43.0596 Z-3.0000 S1000
G1 F750 X377.4157 Y42.9910 Z-3.0000 S1000
G1 F750 X377.2532 Y42.9165 Z-3.0000 S1000
G1 F750 X377.0934 Y42.8374 Z-3.0000 S1000
G1 F750 X376.9353 Y42.7533 Z-3.0000 S1000
G1 F750 X376.7827 Y42.6662 Z-3.0000 S1000
G1 F750 X376.6288 Y42.5722 Z-3.0000 S1000
G1 F750 X376.4835 Y42.4775 Z-3.0000 S1000
G1 F750 X376.3347 Y42.3740 Z-3.0000 S1000
G1 F750 X376.1916 Y42.2680 Z-3.0000 S1000
G1 F750 X376.0530 Y42.1590 Z-3.0000 S1000
G1 F750 X375.9166 Y42.0449 Z-3.0000 S1000
G1 F750 X375.7848 Y41.9279 Z-3.0000 S1000
G1 F750 X375.6528 Y41.8035 Z-3.0000 S1000
G1 F750 X375.5296 Y41.6803 Z-3.0000 S1000
G1 F750 X375.4052 Y41.5483 Z-3.0000 S1000
G1 F750 X375.2882 Y41.4165 Z-3.0000 S1000
G1 F750 X375.1741 Y41.2801 Z-3.0000 S1000
G1 F750 X375.0651 Y41.1415 Z-3.0000 S1000
G1 F750 X374.9591 Y40.9984 Z-3.0000 S1000
G1 F750 X374.8556 Y40.8496 Z-3.0000 S1000
G1 F750 X374.7609 Y40.7043 Z-3.0000 S1000
G1 F750 X374.6669 Y40.5504 Z-3.0000 S1000
G1 F750 X374.5798 Y40.3978 Z-3.0000 S1000
G1 F750 X374.4957 Y40.2397 Z-3.0000 S1000
G1 F750 X374.4166 Y40.0799 Z-3.0000 S1000
G1 F750 X374.3421 Y39.9174 Z-3.0000 S1000
G1 F750 X374.2735 Y39.7552 Z-3.0000 S1000
G1 F750 X374.2089 Y39.5889 Z-3.0000 S1000
G1 F750 X374.1492 Y39.4207 Z-3.0000 S1000
G1 F750 X374.0958 Y39.2544 Z-3.0000 S1000
G1 F750 X374.0460 Y39.0821 Z-3.0000 S1000
G1 F750 X374.0013 Y38.9088 Z-3.0000 S1000
G1 F750 X373.9616 Y38.7330 Z-3.0000 S1000
G1 F750 X373.9282 Y38.5620 Z-3.0000 S1000
G1 F750 X373.8991 Y38.3852 Z-3.0000 S1000
G1 F750 X373.8756 Y38.2102 Z-3.0000 S1000
G1 F750 X373.8572 Y38.0329 Z-3.0000 S1000
G1 F750 X373.8440 Y37.8551 Z-3.0000 S1000
G1 F750 X373.8362 Y37.6789 Z-3.0000 S1000
G1 F750 X373.8332 Y37.4766 Z-3.0000 S1000
G1 F750 X373.8332 Y20.4960 Z-3.0000 S1000
G1 F750 X385.8331 Y20.4960 Z-3.0000 S1000
G1 F750 X385.8331 Y37.4766 Z-3.0000 S1000

G0 Z10; move to z-safe height
G0 X471.4166 Y37.4154

G0 Z0
G1 F80 Z-3.0000
G1 F750 X471.3741 Y38.1713 Z-3.0000 S1000
G1 F750 X471.2615 Y38.8338 Z-3.0000 S1000
G1 F750 X471.0754 Y39.4800 Z-3.0000 S1000
G1 F750 X470.8178 Y40.1018 Z-3.0000 S1000
G1 F750 X470.4932 Y40.6892 Z-3.0000 S1000
G1 F750 X470.1040 Y41.2378 Z-3.0000 S1000
G1 F750 X469.6558 Y41.7392 Z-3.0000 S1000
G1 F750 X469.1545 Y42.1873 Z-3.0000 S1000
G1 F750 X468.6063 Y42.5762 Z-3.0000 S1000
G1 F750 X468.0175 Y42.9016 Z-3.0000 S1000
G1 F750 X467.3964 Y43.1589 Z-3.0000 S1000
G1 F750 X466.7509 Y43.3449 Z-3.0000 S1000
G1 F750 X466.0884 Y43.4574 Z-3.0000 S1000
G1 F750 X465.4166 Y43.4952 Z-3.0000 S1000
G1 F750 X464.7448 Y43.4574 Z-3.0000 S1000
G1 F750 X464.0823 Y43.3449 Z-3.0000 S1000
G1 F750 X463.4368 Y43.1589 Z-3.0000 S1000
G1 F750 X462.8157 Y42.9016 Z-3.0000 S1000
G1 F750 X462.2269 Y42.5762 Z-3.0000 S1000
G1 F750 X461.6787 Y42.1873 Z-3.0000 S1000
G1 F750 X461.1771 Y41.7389 Z-3.0000 S1000
G1 F750 X460.7298 Y41.2384 Z-3.0000 S1000
G1 F750 X460.3398 Y40.6889 Z-3.0000 S1000
G1 F750 X460.0154 Y40.1018 Z-3.0000 S1000
G1 F750 X459.7578 Y39.4800 Z-3.0000 S1000
G1 F750 X459.5717 Y38.8338 Z-3.0000 S1000
G1 F750 X459.4591 Y38.1713 Z-3.0000 S1000
G1 F750 X459.4166 Y37.4154 Z-3.0000 S1000
G1 F750 X459.4166 Y20.4961 Z-3.0000 S1000
G1 F750 X471.4166 Y20.4961 Z-3.0000 S1000
G1 F750 X471.4166 Y37.4154 Z-3.0000 S1000

G0 Z10; move to z-safe height
G0 X385.8331 Y37.4766

G0 Z0
G1 F80 Z-5.5000
G1 F750 X385.8301 Y37.6789 Z-5.5000 S1000
G1 F750 X385.8223 Y37.8551 Z-5.5000 S1000
G1 F750 X385.8091 Y38.0329 Z-5.5000 S1000
G1 F750 X385.7907 Y38.2102 Z-5.5000 S1000
G1 F750 X385.7672 Y38.3852 Z-5.5000 S1000
G1 F750 X385.7381 Y38.5620 Z-5.5000 S1000
G1 F750 X385.7047 Y38.7330 Z-5.5000 S1000
G1 F750 X385.6650 Y38.9088 Z-5.5000 S1000
G1 F750 X385.6203 Y39.0821 Z-5.5000 S1000
G1 F750 X385.5705 Y39.2544 Z-5.5000 S1000
G1 F750 X385.5171 Y39.4207 Z-5.5000 S1000
G1 F750 X385.4574 Y39.5889 Z-5.5000 S1000
G1 F750 X385.3928 Y39.7552 Z-5.5000 S1000
G1 F750 X385.3242 Y39.9174 Z-5.5000 S1000
G1 F750 X385.2497 Y40.0799 Z-5.5000 S1000
G1 F750 X385.1706 Y40.2397 Z-5.5000 S1000
G1 F750 X385.0865 Y40.3978 Z-5.5000 S1000
G1 F750 X384.9992 Y40.5508 Z-5.5000 S1000
G1 F750 X384.9059 Y40.7037 Z-5.5000 S1000
G1 F750 X384.8101 Y40.8506 Z-5.5000 S1000
G1 F750 X384.7081 Y40.9971 Z-5.5000 S1000
G1 F750 X384.6007 Y41.1422 Z-5.5000 S1000
G1 F750 X384.4922 Y41.2801 Z-5.5000 S1000
G1 F750 X384.3781 Y41.4165 Z-5.5000 S1000
G1 F750 X384.2611 Y41.5483 Z-5.5000 S1000
G1 F750 X384.1367 Y41.6803 Z-5.5000 S1000
G1 F750 X384.0135 Y41.8035 Z-5.5000 S1000
G1 F750 X383.8815 Y41.9279 Z-5.5000 S1000
G1 F750 X383.7497 Y42.0449 Z-5.5000 S1000
G1 F750 X383.6133 Y42.1590 Z-5.5000 S1000
G1 F750 X383.4747 Y42.2680 Z-5.5000 S1000
G1 F750 X383.3315 Y42.3741 Z-5.5000 S1000
G1 F750 X383.1837 Y42.4769 Z-5.5000 S1000
G1 F750 X383.0366 Y42.5728 Z-5.5000 S1000
G1 F750 X382.8836 Y42.6662 Z-5.5000 S1000
G1 F750 X382.7310 Y42.7533 Z-5.5000 S1000
G1 F750 X382.5729 Y42.8374 Z-5.5000 S1000
G1 F750 X382.4125 Y42.9168 Z-5.5000 S1000
G1 F750 X382.2505 Y42.9910 Z-5.5000 S1000
G1 F750 X382.0906 Y43.0587 Z-5.5000 S1000
G1 F750 X381.9209 Y43.1246 Z-5.5000 S1000
G1 F750 X381.7538 Y43.1839 Z-5.5000 S1000
G1 F750 X381.5870 Y43.2375 Z-5.5000 S1000
G1 F750 X381.4156 Y43.2871 Z-5.5000 S1000
G1 F750 X381.2406 Y43.3321 Z-5.5000 S1000
G1 F750 X381.0677 Y43.3712 Z-5.5000 S1000
G1 F750 X380.8961 Y43.4047 Z-5.5000 S1000
G1 F750 X380.7172 Y43.4341 Z-5.5000 S1000
G1 F750 X380.5434 Y43.4575 Z-5.5000 S1000
G1 F750 X380.3661 Y43.4759 Z-5.5000 S1000
G1 F750 X380.1882 Y43.4891 Z-5.5000 S1000
G1 F750 X380.0121 Y43.4969 Z-5.5000 S1000
G1 F750 X379.8331 Y43.4996 Z-5.5000 S1000
G1 F750 X379.6542 Y43.4969 Z-5.5000 S1000
G1 F750 X379.4780 Y43.4891 Z-5.5000 S1000
G1 F750 X379.3002 Y43.4759 Z-5.5000 S1000
G1 F750 X379.1229 Y43.4575 Z-5.5000 S1000
G1 F750 X378.9479 Y43.4340 Z-5.5000 S1000
G1 F750 X378.7711 Y43.4049 Z-5.5000 S1000
G1 F750 X378.6001 Y43.3715 Z-5.5000 S1000
G1 F750 X378.4243 Y43.3318 Z-5.5000 S1000
G1 F750 X378.2510 Y43.2871 Z-5.5000 S1000
G1 F750 X378.0787 Y43.2373 Z-5.5000 S1000
G1 F750 X377.9124 Y43.1839 Z-5.5000 S1000
G1 F750 X377.7442 Y43.1242 Z-5.5000 S1000
G1 F750 X377.5779 Y43.0596 Z-5.5000 S1000
G1 F750 X377.4157 Y42.9910 Z-5.5000 S1000
G1 F750 X377.2532 Y42.9165 Z-5.5000 S1000
G1 F750 X377.0934 Y42.8374 Z-5.5000 S1000
G1 F750 X376.9353 Y42.7533 Z-5.5000 S1000
G1 F750 X376.7827 Y42.6662 Z-5.5000 S1000
G1 F750 X376.6288 Y42.5722 Z-5.5000 S1000
G1 F750 X376.4835 Y42.4775 Z-5.5000 S1000
G1 F750 X376.3347 Y42.3740 Z-5.5000 S1000
G1 F750 X376.1916 Y42.2680 Z-5.5000 S1000
G1 F750 X376.0530 Y42.1590 Z-5.5000 S1000
G1 F750 X375.9166 Y42.0449 Z-5.5000 S1000
G1 F750 X375.7848 Y41.9279 Z-5.5000 S1000
G1 F750 X375.6528 Y41.8035 Z-5.5000 S1000
G1 F750 X375.5296 Y41.6803 Z-5.5000 S1000
G1 F750 X375.4052 Y41.5483 Z-5.5000 S1000
G1 F750 X375.2882 Y41.4165 Z-5.5000 S1000
G1 F750 X375.1741 Y41.2801 Z-5.5000 S1000
G1 F750 X375.0651 Y41.1415 Z-5.5000 S1000
G1 F750 X374.9591 Y40.9984 Z-5.5000 S1000
G1 F750 X374.8556 Y40.8496 Z-5.5000 S1000
G1 F750 X374.7609 Y40.7043 Z-5.5000 S1000
G1 F750 X374.6669 Y40.5504 Z-5.5000 S1000
G1 F750 X374.5798 Y40.3978 Z-5.5000 S1000
G1 F750 X374.4957 Y40.2397 Z-5.5000 S1000
G1 F750 X374.4166 Y40.0799 Z-5.5000 S1000
G1 F750 X374.3421 Y39.9174 Z-5.5000 S1000
G1 F750 X374.2735 Y39.7552 Z-5.5000 S1000
G1 F750 X374.2089 Y39.5889 Z-5.5000 S1000
G1 F750 X374.1492 Y39.4207 Z-5.5000 S1000
G1 F750 X374.0958 Y39.2544 Z-5.5000 S1000
G1 F750 X374.0460 Y39.0821 Z-5.5000 S1000
G1 F750 X374.0013 Y38.9088 Z-5.5000 S1000
G1 F750 X373.9616 Y38.7330 Z-5.5000 S1000
G1 F750 X373.9282 Y38.5620 Z-5.5000 S1000
G1 F750 X373.8991 Y38.3852 Z-5.5000 S1000
G1 F750 X373.8756 Y38.2102 Z-5.5000 S1000
G1 F750 X373.8572 Y38.0329 Z-5.5000 S1000
G1 F750 X373.8440 Y37.8551 Z-5.5000 S1000
G1 F750 X373.8362 Y37.6789 Z-5.5000 S1000
G1 F750 X373.8332 Y37.4766 Z-5.5000 S1000
G1 F750 X373.8332 Y20.4960 Z-5.5000 S1000
G1 F750 X385.8331 Y20.4960 Z-5.5000 S1000
G1 F750 X385.8331 Y37.4766 Z-5.5000 S1000

G0 Z10; move to z-safe height
G0 X471.4166 Y37.4154

G0 Z0
G1 F80 Z-5.5000
G1 F750 X471.3741 Y38.1713 Z-5.5000 S1000
G1 F750 X471.2615 Y38.8338 Z-5.5000 S1000
G1 F750 X471.0754 Y39.4800 Z-5.5000 S1000
G1 F750 X470.8178 Y40.1018 Z-5.5000 S1000
G1 F750 X470.4932 Y40.6892 Z-5.5000 S1000
G1 F750 X470.1040 Y41.2378 Z-5.5000 S1000
G1 F750 X469.6558 Y41.7392 Z-5.5000 S1000
G1 F750 X469.1545 Y42.1873 Z-5.5000 S1000
G1 F750 X468.6063 Y42.5762 Z-5.5000 S1000
G1 F750 X468.0175 Y42.9016 Z-5.5000 S1000
G1 F750 X467.3964 Y43.1589 Z-5.5000 S1000
G1 F750 X466.7509 Y43.3449 Z-5.5000 S1000
G1 F750 X466.0884 Y43.4574 Z-5.5000 S1000
G1 F750 X465.4166 Y43.4952 Z-5.5000 S1000
G1 F750 X464.7448 Y43.4574 Z-5.5000 S1000
G1 F750 X464.0823 Y43.3449 Z-5.5000 S1000
G1 F750 X463.4368 Y43.1589 Z-5.5000 S1000
G1 F750 X462.8157 Y42.9016 Z-5.5000 S1000
G1 F750 X462.2269 Y42.5762 Z-5.5000 S1000
G1 F750 X461.6787 Y42.1873 Z-5.5000 S1000
G1 F750 X461.1771 Y41.7389 Z-5.5000 S1000
G1 F750 X460.7298 Y41.2384 Z-5.5000 S1000
G1 F750 X460.3398 Y40.6889 Z-5.5000 S1000
G1 F750 X460.0154 Y40.1018 Z-5.5000 S1000
G1 F750 X459.7578 Y39.4800 Z-5.5000 S1000
G1 F750 X459.5717 Y38.8338 Z-5.5000 S1000
G1 F750 X459.4591 Y38.1713 Z-5.5000 S1000
G1 F750 X459.4166 Y37.4154 Z-5.5000 S1000
G1 F750 X459.4166 Y20.4961 Z-5.5000 S1000
G1 F750 X471.4166 Y20.4961 Z-5.5000 S1000
G1 F750 X471.4166 Y37.4154 Z-5.5000 S1000
; retracting back to z-safe
G0 Z10

M5 S0; Spindle Off
