; GCODE Generated by cam.openbuilds.com on 2021-04-26 
G21 ; mm-mode
G54; Work Coordinates
G21; mm-mode
G90; Absolute Positioning
M3 S1000; Spindle On

; Operation 0: CNC: Vector (path outside)
; Endmill Diameter: 6

G0 Z10; move to z-safe height
G0 F1000 X74.6418 Y1.1000

G0 Z0
G1 F60 Z-2.0000
G1 F1000 X7.8418 Y1.1000 Z-2.0000 S1000
G1 F1000 X7.2918 Y1.1509 Z-2.0000 S1000
G1 F1000 X6.6310 Y1.3552 Z-2.0000 S1000
G1 F1000 X6.0346 Y1.7054 Z-2.0000 S1000
G1 F1000 X5.5342 Y2.1830 Z-2.0000 S1000
G1 F1000 X5.1565 Y2.7624 Z-2.0000 S1000
G1 F1000 X4.9215 Y3.4129 Z-2.0000 S1000
G1 F1000 X4.8418 Y4.1000 Z-2.0000 S1000
G1 F1000 X4.8418 Y58.9000 Z-2.0000 S1000
G1 F1000 X4.8927 Y59.4500 Z-2.0000 S1000
G1 F1000 X5.0970 Y60.1108 Z-2.0000 S1000
G1 F1000 X5.4472 Y60.7072 Z-2.0000 S1000
G1 F1000 X5.9248 Y61.2076 Z-2.0000 S1000
G1 F1000 X6.5042 Y61.5853 Z-2.0000 S1000
G1 F1000 X7.1547 Y61.8203 Z-2.0000 S1000
G1 F1000 X7.8418 Y61.9000 Z-2.0000 S1000
G1 F1000 X74.6418 Y61.9000 Z-2.0000 S1000
G1 F1000 X75.1918 Y61.8491 Z-2.0000 S1000
G1 F1000 X75.8526 Y61.6448 Z-2.0000 S1000
G1 F1000 X76.4490 Y61.2946 Z-2.0000 S1000
G1 F1000 X76.9494 Y60.8170 Z-2.0000 S1000
G1 F1000 X77.3271 Y60.2376 Z-2.0000 S1000
G1 F1000 X77.5621 Y59.5871 Z-2.0000 S1000
G1 F1000 X77.6418 Y58.9000 Z-2.0000 S1000
G1 F1000 X77.6418 Y4.1000 Z-2.0000 S1000
G1 F1000 X77.5909 Y3.5500 Z-2.0000 S1000
G1 F1000 X77.3866 Y2.8892 Z-2.0000 S1000
G1 F1000 X77.0364 Y2.2928 Z-2.0000 S1000
G1 F1000 X76.5588 Y1.7924 Z-2.0000 S1000
G1 F1000 X75.9794 Y1.4147 Z-2.0000 S1000
G1 F1000 X75.3289 Y1.1797 Z-2.0000 S1000
G1 F1000 X74.6418 Y1.1000 Z-2.0000 S1000
G1 F60 Z-4.0000
G1 F1000 X7.8418 Y1.1000 Z-4.0000 S1000
G1 F1000 X7.2918 Y1.1509 Z-4.0000 S1000
G1 F1000 X6.6310 Y1.3552 Z-4.0000 S1000
G1 F1000 X6.0346 Y1.7054 Z-4.0000 S1000
G1 F1000 X5.5342 Y2.1830 Z-4.0000 S1000
G1 F1000 X5.1565 Y2.7624 Z-4.0000 S1000
G1 F1000 X4.9215 Y3.4129 Z-4.0000 S1000
G1 F1000 X4.8418 Y4.1000 Z-4.0000 S1000
G1 F1000 X4.8418 Y58.9000 Z-4.0000 S1000
G1 F1000 X4.8927 Y59.4500 Z-4.0000 S1000
G1 F1000 X5.0970 Y60.1108 Z-4.0000 S1000
G1 F1000 X5.4472 Y60.7072 Z-4.0000 S1000
G1 F1000 X5.9248 Y61.2076 Z-4.0000 S1000
G1 F1000 X6.5042 Y61.5853 Z-4.0000 S1000
G1 F1000 X7.1547 Y61.8203 Z-4.0000 S1000
G1 F1000 X7.8418 Y61.9000 Z-4.0000 S1000
G1 F1000 X74.6418 Y61.9000 Z-4.0000 S1000
G1 F1000 X75.1918 Y61.8491 Z-4.0000 S1000
G1 F1000 X75.8526 Y61.6448 Z-4.0000 S1000
G1 F1000 X76.4490 Y61.2946 Z-4.0000 S1000
G1 F1000 X76.9494 Y60.8170 Z-4.0000 S1000
G1 F1000 X77.3271 Y60.2376 Z-4.0000 S1000
G1 F1000 X77.5621 Y59.5871 Z-4.0000 S1000
G1 F1000 X77.6418 Y58.9000 Z-4.0000 S1000
G1 F1000 X77.6418 Y4.1000 Z-4.0000 S1000
G1 F1000 X77.5909 Y3.5500 Z-4.0000 S1000
G1 F1000 X77.3866 Y2.8892 Z-4.0000 S1000
G1 F1000 X77.0364 Y2.2928 Z-4.0000 S1000
G1 F1000 X76.5588 Y1.7924 Z-4.0000 S1000
G1 F1000 X75.9794 Y1.4147 Z-4.0000 S1000
G1 F1000 X75.3289 Y1.1797 Z-4.0000 S1000
G1 F1000 X74.6418 Y1.1000 Z-4.0000 S1000
; retracting back to z-safe
G0 Z10
; Operation 1: CNC: Pocket
; Endmill Diameter: 6

G0 Z10; move to z-safe height
G0 F1000 X78.7671 Y66.8625

G0 Z0
G1 F60 Z-2.0000
G1 F1000 X3.0000 Y66.8625 Z-2.0000 S1000
G1 F1000 X3.0000 Y66.6625 Z-2.0000 S1000
G1 F1000 X78.7671 Y66.6625 Z-2.0000 S1000
G1 F1000 X78.7671 Y66.8625 Z-2.0000 S1000
G1 F60 Z-4.0000
G1 F1000 X3.0000 Y66.8625 Z-4.0000 S1000
G1 F1000 X3.0000 Y66.6625 Z-4.0000 S1000
G1 F1000 X78.7671 Y66.6625 Z-4.0000 S1000
G1 F1000 X78.7671 Y66.8625 Z-4.0000 S1000
; retracting back to z-safe
G0 Z10
; Operation 2: CNC: Vector (path outside)
; Endmill Diameter: 6

G0 Z10; move to z-safe height
G0 F1000 X78.7418 Y-3.0000

G0 Z0
G1 F60 Z-2.5000
G1 F1000 X3.7418 Y-3.0000 Z-2.5000 S1000
G1 F1000 X3.1918 Y-2.9491 Z-2.5000 S1000
G1 F1000 X2.5310 Y-2.7448 Z-2.5000 S1000
G1 F1000 X1.9346 Y-2.3946 Z-2.5000 S1000
G1 F1000 X1.4342 Y-1.9170 Z-2.5000 S1000
G1 F1000 X1.0565 Y-1.3376 Z-2.5000 S1000
G1 F1000 X0.8215 Y-0.6871 Z-2.5000 S1000
G1 F1000 X0.7418 Y0.0000 Z-2.5000 S1000
G1 F1000 X0.7418 Y67.0000 Z-2.5000 S1000
G1 F1000 X0.7927 Y67.5500 Z-2.5000 S1000
G1 F1000 X0.9970 Y68.2108 Z-2.5000 S1000
G1 F1000 X1.3472 Y68.8072 Z-2.5000 S1000
G1 F1000 X1.8248 Y69.3076 Z-2.5000 S1000
G1 F1000 X2.4042 Y69.6853 Z-2.5000 S1000
G1 F1000 X3.0547 Y69.9203 Z-2.5000 S1000
G1 F1000 X3.7418 Y70.0000 Z-2.5000 S1000
G1 F1000 X78.7418 Y70.0000 Z-2.5000 S1000
G1 F1000 X79.2918 Y69.9491 Z-2.5000 S1000
G1 F1000 X79.9526 Y69.7448 Z-2.5000 S1000
G1 F1000 X80.5490 Y69.3946 Z-2.5000 S1000
G1 F1000 X81.0494 Y68.9170 Z-2.5000 S1000
G1 F1000 X81.4271 Y68.3376 Z-2.5000 S1000
G1 F1000 X81.6621 Y67.6871 Z-2.5000 S1000
G1 F1000 X81.7418 Y67.0000 Z-2.5000 S1000
G1 F1000 X81.7418 Y0.0000 Z-2.5000 S1000
G1 F1000 X81.6909 Y-0.5500 Z-2.5000 S1000
G1 F1000 X81.4866 Y-1.2108 Z-2.5000 S1000
G1 F1000 X81.1364 Y-1.8072 Z-2.5000 S1000
G1 F1000 X80.6588 Y-2.3076 Z-2.5000 S1000
G1 F1000 X80.0794 Y-2.6853 Z-2.5000 S1000
G1 F1000 X79.4289 Y-2.9203 Z-2.5000 S1000
G1 F1000 X78.7418 Y-3.0000 Z-2.5000 S1000
G1 F60 Z-5.0000
G1 F1000 X3.7418 Y-3.0000 Z-5.0000 S1000
G1 F1000 X3.1918 Y-2.9491 Z-5.0000 S1000
G1 F1000 X2.5310 Y-2.7448 Z-5.0000 S1000
G1 F1000 X1.9346 Y-2.3946 Z-5.0000 S1000
G1 F1000 X1.4342 Y-1.9170 Z-5.0000 S1000
G1 F1000 X1.0565 Y-1.3376 Z-5.0000 S1000
G1 F1000 X0.8215 Y-0.6871 Z-5.0000 S1000
G1 F1000 X0.7418 Y0.0000 Z-5.0000 S1000
G1 F1000 X0.7418 Y67.0000 Z-5.0000 S1000
G1 F1000 X0.7927 Y67.5500 Z-5.0000 S1000
G1 F1000 X0.9970 Y68.2108 Z-5.0000 S1000
G1 F1000 X1.3472 Y68.8072 Z-5.0000 S1000
G1 F1000 X1.8248 Y69.3076 Z-5.0000 S1000
G1 F1000 X2.4042 Y69.6853 Z-5.0000 S1000
G1 F1000 X3.0547 Y69.9203 Z-5.0000 S1000
G1 F1000 X3.7418 Y70.0000 Z-5.0000 S1000
G1 F1000 X78.7418 Y70.0000 Z-5.0000 S1000
G1 F1000 X79.2918 Y69.9491 Z-5.0000 S1000
G1 F1000 X79.9526 Y69.7448 Z-5.0000 S1000
G1 F1000 X80.5490 Y69.3946 Z-5.0000 S1000
G1 F1000 X81.0494 Y68.9170 Z-5.0000 S1000
G1 F1000 X81.4271 Y68.3376 Z-5.0000 S1000
G1 F1000 X81.6621 Y67.6871 Z-5.0000 S1000
G1 F1000 X81.7418 Y67.0000 Z-5.0000 S1000
G1 F1000 X81.7418 Y0.0000 Z-5.0000 S1000
G1 F1000 X81.6909 Y-0.5500 Z-5.0000 S1000
G1 F1000 X81.4866 Y-1.2108 Z-5.0000 S1000
G1 F1000 X81.1364 Y-1.8072 Z-5.0000 S1000
G1 F1000 X80.6588 Y-2.3076 Z-5.0000 S1000
G1 F1000 X80.0794 Y-2.6853 Z-5.0000 S1000
G1 F1000 X79.4289 Y-2.9203 Z-5.0000 S1000
G1 F1000 X78.7418 Y-3.0000 Z-5.0000 S1000
G1 F60 Z-7.5000
G1 F1000 X46.7418 Y-3.0000 Z-7.5000 S1000
G1 F1000 X46.7418 Y-3.0000 Z-5.1000 S1000
G1 F1000 X35.7418 Y-3.0000 Z-5.1000 S1000
G1 F1000 X35.7418 Y-3.0000 Z-7.5000 S1000
G1 F1000 X3.7418 Y-3.0000 Z-7.5000 S1000
G1 F1000 X3.7418 Y-3.0000 Z-7.5000 S1000
G1 F1000 X3.1918 Y-2.9491 Z-7.5000 S1000
G1 F1000 X2.5310 Y-2.7448 Z-7.5000 S1000
G1 F1000 X1.9346 Y-2.3946 Z-7.5000 S1000
G1 F1000 X1.4342 Y-1.9170 Z-7.5000 S1000
G1 F1000 X1.0565 Y-1.3376 Z-7.5000 S1000
G1 F1000 X0.8215 Y-0.6871 Z-7.5000 S1000
G1 F1000 X0.7418 Y0.0000 Z-7.5000 S1000
G1 F1000 X0.7418 Y67.0000 Z-7.5000 S1000
G1 F1000 X0.7927 Y67.5500 Z-7.5000 S1000
G1 F1000 X0.9970 Y68.2108 Z-7.5000 S1000
G1 F1000 X1.3472 Y68.8072 Z-7.5000 S1000
G1 F1000 X1.8248 Y69.3076 Z-7.5000 S1000
G1 F1000 X2.4042 Y69.6853 Z-7.5000 S1000
G1 F1000 X3.0547 Y69.9203 Z-7.5000 S1000
G1 F1000 X3.7418 Y70.0000 Z-7.5000 S1000
G1 F1000 X35.7418 Y70.0000 Z-7.5000 S1000
G1 F1000 X35.7418 Y70.0000 Z-5.1000 S1000
G1 F1000 X46.7418 Y70.0000 Z-5.1000 S1000
G1 F1000 X46.7418 Y70.0000 Z-7.5000 S1000
G1 F1000 X78.7418 Y70.0000 Z-7.5000 S1000
G1 F1000 X78.7418 Y70.0000 Z-7.5000 S1000
G1 F1000 X79.2918 Y69.9491 Z-7.5000 S1000
G1 F1000 X79.9526 Y69.7448 Z-7.5000 S1000
G1 F1000 X80.5490 Y69.3946 Z-7.5000 S1000
G1 F1000 X81.0494 Y68.9170 Z-7.5000 S1000
G1 F1000 X81.4271 Y68.3376 Z-7.5000 S1000
G1 F1000 X81.6621 Y67.6871 Z-7.5000 S1000
G1 F1000 X81.7418 Y67.0000 Z-7.5000 S1000
G1 F1000 X81.7418 Y0.0000 Z-7.5000 S1000
G1 F1000 X81.6909 Y-0.5500 Z-7.5000 S1000
G1 F1000 X81.4866 Y-1.2108 Z-7.5000 S1000
G1 F1000 X81.1364 Y-1.8072 Z-7.5000 S1000
G1 F1000 X80.6588 Y-2.3076 Z-7.5000 S1000
G1 F1000 X80.0794 Y-2.6853 Z-7.5000 S1000
G1 F1000 X79.4289 Y-2.9203 Z-7.5000 S1000
G1 F1000 X78.7418 Y-3.0000 Z-7.5000 S1000
G1 F60 Z-8.6000
G1 F1000 X46.7418 Y-3.0000 Z-8.6000 S1000
G1 F1000 X46.7418 Y-3.0000 Z-5.1000 S1000
G1 F1000 X35.7418 Y-3.0000 Z-5.1000 S1000
G1 F1000 X35.7418 Y-3.0000 Z-8.6000 S1000
G1 F1000 X3.7418 Y-3.0000 Z-8.6000 S1000
G1 F1000 X3.7418 Y-3.0000 Z-8.6000 S1000
G1 F1000 X3.1918 Y-2.9491 Z-8.6000 S1000
G1 F1000 X2.5310 Y-2.7448 Z-8.6000 S1000
G1 F1000 X1.9346 Y-2.3946 Z-8.6000 S1000
G1 F1000 X1.4342 Y-1.9170 Z-8.6000 S1000
G1 F1000 X1.0565 Y-1.3376 Z-8.6000 S1000
G1 F1000 X0.8215 Y-0.6871 Z-8.6000 S1000
G1 F1000 X0.7418 Y0.0000 Z-8.6000 S1000
G1 F1000 X0.7418 Y67.0000 Z-8.6000 S1000
G1 F1000 X0.7927 Y67.5500 Z-8.6000 S1000
G1 F1000 X0.9970 Y68.2108 Z-8.6000 S1000
G1 F1000 X1.3472 Y68.8072 Z-8.6000 S1000
G1 F1000 X1.8248 Y69.3076 Z-8.6000 S1000
G1 F1000 X2.4042 Y69.6853 Z-8.6000 S1000
G1 F1000 X3.0547 Y69.9203 Z-8.6000 S1000
G1 F1000 X3.7418 Y70.0000 Z-8.6000 S1000
G1 F1000 X35.7418 Y70.0000 Z-8.6000 S1000
G1 F1000 X35.7418 Y70.0000 Z-5.1000 S1000
G1 F1000 X46.7418 Y70.0000 Z-5.1000 S1000
G1 F1000 X46.7418 Y70.0000 Z-8.6000 S1000
G1 F1000 X78.7418 Y70.0000 Z-8.6000 S1000
G1 F1000 X78.7418 Y70.0000 Z-8.6000 S1000
G1 F1000 X79.2918 Y69.9491 Z-8.6000 S1000
G1 F1000 X79.9526 Y69.7448 Z-8.6000 S1000
G1 F1000 X80.5490 Y69.3946 Z-8.6000 S1000
G1 F1000 X81.0494 Y68.9170 Z-8.6000 S1000
G1 F1000 X81.4271 Y68.3376 Z-8.6000 S1000
G1 F1000 X81.6621 Y67.6871 Z-8.6000 S1000
G1 F1000 X81.7418 Y67.0000 Z-8.6000 S1000
G1 F1000 X81.7418 Y0.0000 Z-8.6000 S1000
G1 F1000 X81.6909 Y-0.5500 Z-8.6000 S1000
G1 F1000 X81.4866 Y-1.2108 Z-8.6000 S1000
G1 F1000 X81.1364 Y-1.8072 Z-8.6000 S1000
G1 F1000 X80.6588 Y-2.3076 Z-8.6000 S1000
G1 F1000 X80.0794 Y-2.6853 Z-8.6000 S1000
G1 F1000 X79.4289 Y-2.9203 Z-8.6000 S1000
G1 F1000 X78.7418 Y-3.0000 Z-8.6000 S1000
; retracting back to z-safe
G0 Z10

M5 S0; Spindle Off
