; GCODE Generated by cam.openbuilds.com on 2021-04-27 
G21 ; mm-mode
G54; Work Coordinates
G21; mm-mode
G90; Absolute Positioning
M3 S1; Spindle On

; Operation 0: Drill: Peck (Centered)
; Endmill Diameter: 6

G0 Z10; move to z-safe height
G0 F1000 X63.5002 Y63.5000

G0 Z0
G1 F100 Z0.0000
G1 F1000 X63.5002 Y63.5000 Z0.0000 S1
G1 F1000 X63.5002 Y63.5000 Z0.0000 S1
G1 F100 Z0.0000
G1 F1000 X63.5002 Y63.5000 Z-1.5000 S1
G1 F1000 X63.5002 Y63.5000 Z0.0000 S1
G1 F100 Z-1.5000
G1 F1000 X63.5002 Y63.5000 Z-3.0000 S1
G1 F1000 X63.5002 Y63.5000 Z0.0000 S1
G1 F100 Z-3.0000
G1 F1000 X63.5002 Y63.5000 Z-4.5000 S1
G1 F1000 X63.5002 Y63.5000 Z0.0000 S1
G1 F100 Z-4.5000
G1 F1000 X63.5002 Y63.5000 Z-6.0000 S1
G1 F1000 X63.5002 Y63.5000 Z0.0000 S1
G1 F100 Z-6.0000
G1 F1000 X63.5002 Y63.5000 Z-7.5000 S1
G1 F1000 X63.5002 Y63.5000 Z0.0000 S1
G1 F100 Z-7.5000
G1 F1000 X63.5002 Y63.5000 Z-9.0000 S1
G1 F1000 X63.5002 Y63.5000 Z0.0000 S1

G0 Z10; move to z-safe height
G0 X63.5002 Y11.5000

G0 Z0
G1 F100 Z0.0000
G1 F1000 X63.5002 Y11.5000 Z0.0000 S1
G1 F1000 X63.5002 Y11.5000 Z0.0000 S1
G1 F100 Z0.0000
G1 F1000 X63.5002 Y11.5000 Z-1.5000 S1
G1 F1000 X63.5002 Y11.5000 Z0.0000 S1
G1 F100 Z-1.5000
G1 F1000 X63.5002 Y11.5000 Z-3.0000 S1
G1 F1000 X63.5002 Y11.5000 Z0.0000 S1
G1 F100 Z-3.0000
G1 F1000 X63.5002 Y11.5000 Z-4.5000 S1
G1 F1000 X63.5002 Y11.5000 Z0.0000 S1
G1 F100 Z-4.5000
G1 F1000 X63.5002 Y11.5000 Z-6.0000 S1
G1 F1000 X63.5002 Y11.5000 Z0.0000 S1
G1 F100 Z-6.0000
G1 F1000 X63.5002 Y11.5000 Z-7.5000 S1
G1 F1000 X63.5002 Y11.5000 Z0.0000 S1
G1 F100 Z-7.5000
G1 F1000 X63.5002 Y11.5000 Z-9.0000 S1
G1 F1000 X63.5002 Y11.5000 Z0.0000 S1

G0 Z10; move to z-safe height
G0 X11.5003 Y11.5000

G0 Z0
G1 F100 Z0.0000
G1 F1000 X11.5003 Y11.5000 Z0.0000 S1
G1 F1000 X11.5003 Y11.5000 Z0.0000 S1
G1 F100 Z0.0000
G1 F1000 X11.5003 Y11.5000 Z-1.5000 S1
G1 F1000 X11.5003 Y11.5000 Z0.0000 S1
G1 F100 Z-1.5000
G1 F1000 X11.5003 Y11.5000 Z-3.0000 S1
G1 F1000 X11.5003 Y11.5000 Z0.0000 S1
G1 F100 Z-3.0000
G1 F1000 X11.5003 Y11.5000 Z-4.5000 S1
G1 F1000 X11.5003 Y11.5000 Z0.0000 S1
G1 F100 Z-4.5000
G1 F1000 X11.5003 Y11.5000 Z-6.0000 S1
G1 F1000 X11.5003 Y11.5000 Z0.0000 S1
G1 F100 Z-6.0000
G1 F1000 X11.5003 Y11.5000 Z-7.5000 S1
G1 F1000 X11.5003 Y11.5000 Z0.0000 S1
G1 F100 Z-7.5000
G1 F1000 X11.5003 Y11.5000 Z-9.0000 S1
G1 F1000 X11.5003 Y11.5000 Z0.0000 S1

G0 Z10; move to z-safe height
G0 X11.5003 Y63.5000

G0 Z0
G1 F100 Z0.0000
G1 F1000 X11.5003 Y63.5000 Z0.0000 S1
G1 F1000 X11.5003 Y63.5000 Z0.0000 S1
G1 F100 Z0.0000
G1 F1000 X11.5003 Y63.5000 Z-1.5000 S1
G1 F1000 X11.5003 Y63.5000 Z0.0000 S1
G1 F100 Z-1.5000
G1 F1000 X11.5003 Y63.5000 Z-3.0000 S1
G1 F1000 X11.5003 Y63.5000 Z0.0000 S1
G1 F100 Z-3.0000
G1 F1000 X11.5003 Y63.5000 Z-4.5000 S1
G1 F1000 X11.5003 Y63.5000 Z0.0000 S1
G1 F100 Z-4.5000
G1 F1000 X11.5003 Y63.5000 Z-6.0000 S1
G1 F1000 X11.5003 Y63.5000 Z0.0000 S1
G1 F100 Z-6.0000
G1 F1000 X11.5003 Y63.5000 Z-7.5000 S1
G1 F1000 X11.5003 Y63.5000 Z0.0000 S1
G1 F100 Z-7.5000
G1 F1000 X11.5003 Y63.5000 Z-9.0000 S1
G1 F1000 X11.5003 Y63.5000 Z0.0000 S1
; retracting back to z-safe
G0 Z10
; Operation 1: CNC: Vector (path inside)
; Endmill Diameter: 3.17

G0 Z10; move to z-safe height
G0 F1000 X40.9150 Y65.9150

G0 Z0
G1 F100 Z-1.5000
G1 F1000 X34.0851 Y65.9150 Z-1.5000 S1
G1 F1000 X34.0851 Y65.8850 Z-1.5000 S1
G1 F1000 X40.9150 Y65.8850 Z-1.5000 S1
G1 F1000 X40.9150 Y65.9150 Z-1.5000 S1
G1 F100 Z-3.0000
G1 F1000 X34.0851 Y65.9150 Z-3.0000 S1
G1 F1000 X34.0851 Y65.8850 Z-3.0000 S1
G1 F1000 X40.9150 Y65.8850 Z-3.0000 S1
G1 F1000 X40.9150 Y65.9150 Z-3.0000 S1
G1 F100 Z-4.5000
G1 F1000 X34.0851 Y65.9150 Z-4.5000 S1
G1 F1000 X34.0851 Y65.8850 Z-4.5000 S1
G1 F1000 X40.9150 Y65.8850 Z-4.5000 S1
G1 F1000 X40.9150 Y65.9150 Z-4.5000 S1
G1 F100 Z-6.0000
G1 F1000 X34.0851 Y65.9150 Z-6.0000 S1
G1 F1000 X34.0851 Y65.8850 Z-6.0000 S1
G1 F1000 X40.9150 Y65.8850 Z-6.0000 S1
G1 F1000 X40.9150 Y65.9150 Z-6.0000 S1
G1 F100 Z-7.5000
G1 F1000 X34.0851 Y65.9150 Z-7.5000 S1
G1 F1000 X34.0851 Y65.8850 Z-7.5000 S1
G1 F1000 X40.9150 Y65.8850 Z-7.5000 S1
G1 F1000 X40.9150 Y65.9150 Z-7.5000 S1
G1 F100 Z-9.0000
G1 F1000 X34.0851 Y65.9150 Z-9.0000 S1
G1 F1000 X34.0851 Y65.8850 Z-9.0000 S1
G1 F1000 X40.9150 Y65.8850 Z-9.0000 S1
G1 F1000 X40.9150 Y65.9150 Z-9.0000 S1
; retracting back to z-safe
G0 Z10
; Operation 2: CNC: Pocket
; Endmill Diameter: 3.17

G0 Z10; move to z-safe height
G0 F1000 X38.3507 Y58.8425

G0 Z0
G1 F100 Z-0.3500
G1 F1000 X38.1884 Y59.1436 Z-0.3500 S1
G1 F1000 X37.8054 Y60.0802 Z-0.3500 S1
G1 F1000 X37.5400 Y60.9402 Z-0.3500 S1
G1 F1000 X37.5061 Y61.2608 Z-0.3500 S1
G1 F1000 X37.4921 Y61.1035 Z-0.3500 S1
G1 F1000 X37.2450 Y60.2084 Z-0.3500 S1
G1 F1000 X36.9230 Y59.3556 Z-0.3500 S1
G1 F1000 X36.6455 Y58.7808 Z-0.3500 S1
G1 F1000 X38.3507 Y58.8425 Z-0.3500 S1
G1 F100 Z-0.7000
G1 F1000 X38.1884 Y59.1436 Z-0.7000 S1
G1 F1000 X37.8054 Y60.0802 Z-0.7000 S1
G1 F1000 X37.5400 Y60.9402 Z-0.7000 S1
G1 F1000 X37.5061 Y61.2608 Z-0.7000 S1
G1 F1000 X37.4921 Y61.1035 Z-0.7000 S1
G1 F1000 X37.2450 Y60.2084 Z-0.7000 S1
G1 F1000 X36.9230 Y59.3556 Z-0.7000 S1
G1 F1000 X36.6455 Y58.7808 Z-0.7000 S1
G1 F1000 X38.3507 Y58.8425 Z-0.7000 S1

G0 Z10; move to z-safe height
G0 X41.0899 Y57.6728

G0 Z0
G1 F100 Z-0.3500
G1 F1000 X40.6883 Y57.9564 Z-0.3500 S1
G1 F1000 X40.1013 Y58.4687 Z-0.3500 S1
G1 F1000 X39.6310 Y59.0899 Z-0.3500 S1
G1 F1000 X39.3620 Y59.6236 Z-0.3500 S1
G1 F1000 X38.9790 Y60.5602 Z-0.3500 S1
G1 F1000 X38.7595 Y61.3077 Z-0.3500 S1
G1 F1000 X38.6960 Y62.0000 Z-0.3500 S1
G1 F1000 X38.6960 Y63.6960 Z-0.3500 S1
G1 F1000 X36.3040 Y63.6960 Z-0.3500 S1
G1 F1000 X36.3040 Y61.9999 Z-0.3500 S1
G1 F1000 X36.2242 Y61.2249 Z-0.3500 S1
G1 F1000 X36.0588 Y60.6563 Z-0.3500 S1
G1 F1000 X35.7368 Y59.8035 Z-0.3500 S1
G1 F1000 X35.3884 Y59.1066 Z-0.3500 S1
G1 F1000 X34.9053 Y58.4953 Z-0.3500 S1
G1 F1000 X34.5445 Y58.1689 Z-0.3500 S1
G1 F1000 X33.8187 Y57.5922 Z-0.3500 S1
G1 F1000 X33.4998 Y57.3981 Z-0.3500 S1
G1 F1000 X41.0899 Y57.6728 Z-0.3500 S1
G1 F100 Z-0.7000
G1 F1000 X40.6883 Y57.9564 Z-0.7000 S1
G1 F1000 X40.1013 Y58.4687 Z-0.7000 S1
G1 F1000 X39.6310 Y59.0899 Z-0.7000 S1
G1 F1000 X39.3620 Y59.6236 Z-0.7000 S1
G1 F1000 X38.9790 Y60.5602 Z-0.7000 S1
G1 F1000 X38.7595 Y61.3077 Z-0.7000 S1
G1 F1000 X38.6960 Y62.0000 Z-0.7000 S1
G1 F1000 X38.6960 Y63.6960 Z-0.7000 S1
G1 F1000 X36.3040 Y63.6960 Z-0.7000 S1
G1 F1000 X36.3040 Y61.9999 Z-0.7000 S1
G1 F1000 X36.2242 Y61.2249 Z-0.7000 S1
G1 F1000 X36.0588 Y60.6563 Z-0.7000 S1
G1 F1000 X35.7368 Y59.8035 Z-0.7000 S1
G1 F1000 X35.3884 Y59.1066 Z-0.7000 S1
G1 F1000 X34.9053 Y58.4953 Z-0.7000 S1
G1 F1000 X34.5445 Y58.1689 Z-0.7000 S1
G1 F1000 X33.8187 Y57.5922 Z-0.7000 S1
G1 F1000 X33.4998 Y57.3981 Z-0.7000 S1
G1 F1000 X41.0899 Y57.6728 Z-0.7000 S1

G0 Z10; move to z-safe height
G0 X44.9353 Y56.5430

G0 Z0
G1 F100 Z-0.3500
G1 F1000 X44.9407 Y56.7581 Z-0.3500 S1
G1 F1000 X44.8583 Y57.3705 Z-0.3500 S1
G1 F1000 X44.8299 Y57.4751 Z-0.3500 S1
G1 F1000 X44.1344 Y57.6327 Z-0.3500 S1
G1 F1000 X43.8065 Y57.7307 Z-0.3500 S1
G1 F1000 X42.8366 Y58.0934 Z-0.3500 S1
G1 F1000 X42.2617 Y58.3974 Z-0.3500 S1
G1 F1000 X41.4198 Y58.9921 Z-0.3500 S1
G1 F1000 X40.9507 Y59.4210 Z-0.3500 S1
G1 F1000 X40.5357 Y60.1035 Z-0.3500 S1
G1 F1000 X40.1527 Y61.0401 Z-0.3500 S1
G1 F1000 X39.9877 Y61.6541 Z-0.3500 S1
G1 F1000 X39.9640 Y62.0000 Z-0.3500 S1
G1 F1000 X39.9640 Y64.9640 Z-0.3500 S1
G1 F1000 X35.0361 Y64.9640 Z-0.3500 S1
G1 F1000 X35.0360 Y62.0000 Z-0.3500 S1
G1 F1000 X34.8725 Y61.1042 Z-0.3500 S1
G1 F1000 X34.5505 Y60.2514 Z-0.3500 S1
G1 F1000 X34.2532 Y59.6895 Z-0.3500 S1
G1 F1000 X33.7556 Y59.1617 Z-0.3500 S1
G1 F1000 X33.0298 Y58.5850 Z-0.3500 S1
G1 F1000 X32.4913 Y58.2572 Z-0.3500 S1
G1 F1000 X31.6422 Y57.8758 Z-0.3500 S1
G1 F1000 X31.3248 Y57.7580 Z-0.3500 S1
G1 F1000 X30.9087 Y57.6389 Z-0.3500 S1
G1 F1000 X30.5317 Y56.0218 Z-0.3500 S1
G1 F1000 X44.9353 Y56.5430 Z-0.3500 S1
G1 F100 Z-0.7000
G1 F1000 X44.9407 Y56.7581 Z-0.7000 S1
G1 F1000 X44.8583 Y57.3705 Z-0.7000 S1
G1 F1000 X44.8299 Y57.4751 Z-0.7000 S1
G1 F1000 X44.1344 Y57.6327 Z-0.7000 S1
G1 F1000 X43.8065 Y57.7307 Z-0.7000 S1
G1 F1000 X42.8366 Y58.0934 Z-0.7000 S1
G1 F1000 X42.2617 Y58.3974 Z-0.7000 S1
G1 F1000 X41.4198 Y58.9921 Z-0.7000 S1
G1 F1000 X40.9507 Y59.4210 Z-0.7000 S1
G1 F1000 X40.5357 Y60.1035 Z-0.7000 S1
G1 F1000 X40.1527 Y61.0401 Z-0.7000 S1
G1 F1000 X39.9877 Y61.6541 Z-0.7000 S1
G1 F1000 X39.9640 Y62.0000 Z-0.7000 S1
G1 F1000 X39.9640 Y64.9640 Z-0.7000 S1
G1 F1000 X35.0361 Y64.9640 Z-0.7000 S1
G1 F1000 X35.0360 Y62.0000 Z-0.7000 S1
G1 F1000 X34.8725 Y61.1042 Z-0.7000 S1
G1 F1000 X34.5505 Y60.2514 Z-0.7000 S1
G1 F1000 X34.2532 Y59.6895 Z-0.7000 S1
G1 F1000 X33.7556 Y59.1617 Z-0.7000 S1
G1 F1000 X33.0298 Y58.5850 Z-0.7000 S1
G1 F1000 X32.4913 Y58.2572 Z-0.7000 S1
G1 F1000 X31.6422 Y57.8758 Z-0.7000 S1
G1 F1000 X31.3248 Y57.7580 Z-0.7000 S1
G1 F1000 X30.9087 Y57.6389 Z-0.7000 S1
G1 F1000 X30.5317 Y56.0218 Z-0.7000 S1
G1 F1000 X44.9353 Y56.5430 Z-0.7000 S1

G0 Z10; move to z-safe height
G0 X45.7676 Y55.6216

G0 Z0
G1 F100 Z-0.3500
G1 F1000 X45.8754 Y56.1046 Z-0.3500 S1
G1 F1000 X45.8934 Y56.8099 Z-0.3500 S1
G1 F1000 X45.7925 Y57.5589 Z-0.3500 S1
G1 F1000 X45.5919 Y58.2995 Z-0.3500 S1
G1 F1000 X45.3551 Y58.3312 Z-0.3500 S1
G1 F1000 X44.1396 Y58.6214 Z-0.3500 S1
G1 F1000 X43.1697 Y58.9841 Z-0.3500 S1
G1 F1000 X42.8104 Y59.1741 Z-0.3500 S1
G1 F1000 X41.9685 Y59.7688 Z-0.3500 S1
G1 F1000 X41.6095 Y60.1197 Z-0.3500 S1
G1 F1000 X41.4159 Y60.4635 Z-0.3500 S1
G1 F1000 X41.0329 Y61.4001 Z-0.3500 S1
G1 F1000 X40.9150 Y62.0000 Z-0.3500 S1
G1 F1000 X40.9150 Y65.9150 Z-0.3500 S1
G1 F1000 X34.0851 Y65.9150 Z-0.3500 S1
G1 F1000 X34.0850 Y62.0000 Z-0.3500 S1
G1 F1000 X33.9828 Y61.4401 Z-0.3500 S1
G1 F1000 X33.6608 Y60.5873 Z-0.3500 S1
G1 F1000 X33.4114 Y60.1517 Z-0.3500 S1
G1 F1000 X33.1640 Y59.9062 Z-0.3500 S1
G1 F1000 X32.4382 Y59.3295 Z-0.3500 S1
G1 F1000 X32.1016 Y59.1247 Z-0.3500 S1
G1 F1000 X31.0542 Y58.6696 Z-0.3500 S1
G1 F1000 X30.1086 Y58.3959 Z-0.3500 S1
G1 F1000 X29.3231 Y55.0266 Z-0.3500 S1
G1 F1000 X45.7676 Y55.6216 Z-0.3500 S1
G1 F100 Z-0.7000
G1 F1000 X45.8754 Y56.1046 Z-0.7000 S1
G1 F1000 X45.8934 Y56.8099 Z-0.7000 S1
G1 F1000 X45.7925 Y57.5589 Z-0.7000 S1
G1 F1000 X45.5919 Y58.2995 Z-0.7000 S1
G1 F1000 X45.3551 Y58.3312 Z-0.7000 S1
G1 F1000 X44.1396 Y58.6214 Z-0.7000 S1
G1 F1000 X43.1697 Y58.9841 Z-0.7000 S1
G1 F1000 X42.8104 Y59.1741 Z-0.7000 S1
G1 F1000 X41.9685 Y59.7688 Z-0.7000 S1
G1 F1000 X41.6095 Y60.1197 Z-0.7000 S1
G1 F1000 X41.4159 Y60.4635 Z-0.7000 S1
G1 F1000 X41.0329 Y61.4001 Z-0.7000 S1
G1 F1000 X40.9150 Y62.0000 Z-0.7000 S1
G1 F1000 X40.9150 Y65.9150 Z-0.7000 S1
G1 F1000 X34.0851 Y65.9150 Z-0.7000 S1
G1 F1000 X34.0850 Y62.0000 Z-0.7000 S1
G1 F1000 X33.9828 Y61.4401 Z-0.7000 S1
G1 F1000 X33.6608 Y60.5873 Z-0.7000 S1
G1 F1000 X33.4114 Y60.1517 Z-0.7000 S1
G1 F1000 X33.1640 Y59.9062 Z-0.7000 S1
G1 F1000 X32.4382 Y59.3295 Z-0.7000 S1
G1 F1000 X32.1016 Y59.1247 Z-0.7000 S1
G1 F1000 X31.0542 Y58.6696 Z-0.7000 S1
G1 F1000 X30.1086 Y58.3959 Z-0.7000 S1
G1 F1000 X29.3231 Y55.0266 Z-0.7000 S1
G1 F1000 X45.7676 Y55.6216 Z-0.7000 S1
; retracting back to z-safe
G0 Z10
; Operation 3: Drill: Peck (Centered)
; Endmill Diameter: 3.17

G0 Z10; move to z-safe height
G0 F1000 X59.4170 Y15.6460

G0 Z0
G1 F100 Z0.0000
G1 F1000 X59.4170 Y15.6460 Z0.0000 S1
G1 F1000 X59.4170 Y15.6460 Z0.0000 S1
G1 F100 Z0.0000
G1 F1000 X59.4170 Y15.6460 Z-0.3500 S1
G1 F1000 X59.4170 Y15.6460 Z0.0000 S1
G1 F100 Z-0.3500
G1 F1000 X59.4170 Y15.6460 Z-0.7000 S1
G1 F1000 X59.4170 Y15.6460 Z0.0000 S1

G0 Z10; move to z-safe height
G0 X15.5960 Y15.6460

G0 Z0
G1 F100 Z0.0000
G1 F1000 X15.5960 Y15.6460 Z0.0000 S1
G1 F1000 X15.5960 Y15.6460 Z0.0000 S1
G1 F100 Z0.0000
G1 F1000 X15.5960 Y15.6460 Z-0.3500 S1
G1 F1000 X15.5960 Y15.6460 Z0.0000 S1
G1 F100 Z-0.3500
G1 F1000 X15.5960 Y15.6460 Z-0.7000 S1
G1 F1000 X15.5960 Y15.6460 Z0.0000 S1

G0 Z10; move to z-safe height
G0 X15.5960 Y59.3670

G0 Z0
G1 F100 Z0.0000
G1 F1000 X15.5960 Y59.3670 Z0.0000 S1
G1 F1000 X15.5960 Y59.3670 Z0.0000 S1
G1 F100 Z0.0000
G1 F1000 X15.5960 Y59.3670 Z-0.3500 S1
G1 F1000 X15.5960 Y59.3670 Z0.0000 S1
G1 F100 Z-0.3500
G1 F1000 X15.5960 Y59.3670 Z-0.7000 S1
G1 F1000 X15.5960 Y59.3670 Z0.0000 S1

G0 Z10; move to z-safe height
G0 X59.4170 Y59.3670

G0 Z0
G1 F100 Z0.0000
G1 F1000 X59.4170 Y59.3670 Z0.0000 S1
G1 F1000 X59.4170 Y59.3670 Z0.0000 S1
G1 F100 Z0.0000
G1 F1000 X59.4170 Y59.3670 Z-0.3500 S1
G1 F1000 X59.4170 Y59.3670 Z0.0000 S1
G1 F100 Z-0.3500
G1 F1000 X59.4170 Y59.3670 Z-0.7000 S1
G1 F1000 X59.4170 Y59.3670 Z0.0000 S1
; retracting back to z-safe
G0 Z10
; Operation 4: CNC: Vector (path inside)
; Endmill Diameter: 3.17

G0 Z10; move to z-safe height
G0 F1000 X58.9150 Y58.9150

G0 Z0
G1 F100 Z-0.3500
G1 F1000 X16.0850 Y58.9150 Z-0.3500 S1
G1 F1000 X16.0850 Y16.0850 Z-0.3500 S1
G1 F1000 X58.9150 Y16.0850 Z-0.3500 S1
G1 F1000 X58.9150 Y58.9150 Z-0.3500 S1
G1 F100 Z-0.7000
G1 F1000 X16.0850 Y58.9150 Z-0.7000 S1
G1 F1000 X16.0850 Y16.0850 Z-0.7000 S1
G1 F1000 X58.9150 Y16.0850 Z-0.7000 S1
G1 F1000 X58.9150 Y58.9150 Z-0.7000 S1
; retracting back to z-safe
G0 Z10

M5 S0; Spindle Off
