; GCODE Generated by cam.openbuilds.com on 2021-04-27 
G21 ; mm-mode
G54; Work Coordinates
G21; mm-mode
G90; Absolute Positioning
M3 S1; Spindle On

; Operation 5: Drill: Continuous (Centered)
; Endmill Diameter: 6

G0 Z10; move to z-safe height
G0 F1000 X63.5002 Y63.5000

G0 Z0
G1 F100 Z0.0000
G1 F1000 X63.5002 Y63.5000 Z-4.0000 S1
G1 F1000 X63.5002 Y63.5000 Z0.0000 S1

G0 Z10; move to z-safe height
G0 X63.5002 Y11.5000

G0 Z0
G1 F100 Z0.0000
G1 F1000 X63.5002 Y11.5000 Z-4.0000 S1
G1 F1000 X63.5002 Y11.5000 Z0.0000 S1

G0 Z10; move to z-safe height
G0 X11.5003 Y11.5000

G0 Z0
G1 F100 Z0.0000
G1 F1000 X11.5003 Y11.5000 Z-4.0000 S1
G1 F1000 X11.5003 Y11.5000 Z0.0000 S1

G0 Z10; move to z-safe height
G0 X11.5003 Y63.5000

G0 Z0
G1 F100 Z0.0000
G1 F1000 X11.5003 Y63.5000 Z-4.0000 S1
G1 F1000 X11.5003 Y63.5000 Z0.0000 S1
; retracting back to z-safe
G0 Z10
; Operation 6: CNC: Pocket
; Endmill Diameter: 6

G0 Z10; move to z-safe height
G0 F1000 X38.9000 Y38.9000

G0 Z0
G1 F100 Z-0.3500
G1 F1000 X36.1000 Y38.9000 Z-0.3500 S1
G1 F1000 X36.1000 Y36.1000 Z-0.3500 S1
G1 F1000 X38.9000 Y36.1000 Z-0.3500 S1
G1 F1000 X38.9000 Y38.9000 Z-0.3500 S1
G1 F100 Z-0.7000
G1 F1000 X36.1000 Y38.9000 Z-0.7000 S1
G1 F1000 X36.1000 Y36.1000 Z-0.7000 S1
G1 F1000 X38.9000 Y36.1000 Z-0.7000 S1
G1 F1000 X38.9000 Y38.9000 Z-0.7000 S1

G0 Z10; move to z-safe height
G0 X41.3000 Y41.3000

G0 Z0
G1 F100 Z-0.3500
G1 F1000 X33.7000 Y41.3000 Z-0.3500 S1
G1 F1000 X33.7000 Y33.7000 Z-0.3500 S1
G1 F1000 X41.3000 Y33.7000 Z-0.3500 S1
G1 F1000 X41.3000 Y41.3000 Z-0.3500 S1
G1 F100 Z-0.7000
G1 F1000 X33.7000 Y41.3000 Z-0.7000 S1
G1 F1000 X33.7000 Y33.7000 Z-0.7000 S1
G1 F1000 X41.3000 Y33.7000 Z-0.7000 S1
G1 F1000 X41.3000 Y41.3000 Z-0.7000 S1

G0 Z10; move to z-safe height
G0 X43.7000 Y43.7000

G0 Z0
G1 F100 Z-0.3500
G1 F1000 X31.3000 Y43.7000 Z-0.3500 S1
G1 F1000 X31.3000 Y31.3000 Z-0.3500 S1
G1 F1000 X43.7000 Y31.3000 Z-0.3500 S1
G1 F1000 X43.7000 Y43.7000 Z-0.3500 S1
G1 F100 Z-0.7000
G1 F1000 X31.3000 Y43.7000 Z-0.7000 S1
G1 F1000 X31.3000 Y31.3000 Z-0.7000 S1
G1 F1000 X43.7000 Y31.3000 Z-0.7000 S1
G1 F1000 X43.7000 Y43.7000 Z-0.7000 S1

G0 Z10; move to z-safe height
G0 X46.1000 Y46.1000

G0 Z0
G1 F100 Z-0.3500
G1 F1000 X28.9000 Y46.1000 Z-0.3500 S1
G1 F1000 X28.9000 Y28.9000 Z-0.3500 S1
G1 F1000 X46.1000 Y28.9000 Z-0.3500 S1
G1 F1000 X46.1000 Y46.1000 Z-0.3500 S1
G1 F100 Z-0.7000
G1 F1000 X28.9000 Y46.1000 Z-0.7000 S1
G1 F1000 X28.9000 Y28.9000 Z-0.7000 S1
G1 F1000 X46.1000 Y28.9000 Z-0.7000 S1
G1 F1000 X46.1000 Y46.1000 Z-0.7000 S1

G0 Z10; move to z-safe height
G0 X48.5000 Y48.5000

G0 Z0
G1 F100 Z-0.3500
G1 F1000 X26.5000 Y48.5000 Z-0.3500 S1
G1 F1000 X26.5000 Y26.5000 Z-0.3500 S1
G1 F1000 X48.5000 Y26.5000 Z-0.3500 S1
G1 F1000 X48.5000 Y48.5000 Z-0.3500 S1
G1 F100 Z-0.7000
G1 F1000 X26.5000 Y48.5000 Z-0.7000 S1
G1 F1000 X26.5000 Y26.5000 Z-0.7000 S1
G1 F1000 X48.5000 Y26.5000 Z-0.7000 S1
G1 F1000 X48.5000 Y48.5000 Z-0.7000 S1

G0 Z10; move to z-safe height
G0 X50.9000 Y50.9000

G0 Z0
G1 F100 Z-0.3500
G1 F1000 X24.1000 Y50.9000 Z-0.3500 S1
G1 F1000 X24.1000 Y24.1000 Z-0.3500 S1
G1 F1000 X50.9000 Y24.1000 Z-0.3500 S1
G1 F1000 X50.9000 Y50.9000 Z-0.3500 S1
G1 F100 Z-0.7000
G1 F1000 X24.1000 Y50.9000 Z-0.7000 S1
G1 F1000 X24.1000 Y24.1000 Z-0.7000 S1
G1 F1000 X50.9000 Y24.1000 Z-0.7000 S1
G1 F1000 X50.9000 Y50.9000 Z-0.7000 S1

G0 Z10; move to z-safe height
G0 X53.3000 Y53.3000

G0 Z0
G1 F100 Z-0.3500
G1 F1000 X21.7000 Y53.3000 Z-0.3500 S1
G1 F1000 X21.7000 Y21.7000 Z-0.3500 S1
G1 F1000 X53.3000 Y21.7000 Z-0.3500 S1
G1 F1000 X53.3000 Y53.3000 Z-0.3500 S1
G1 F100 Z-0.7000
G1 F1000 X21.7000 Y53.3000 Z-0.7000 S1
G1 F1000 X21.7000 Y21.7000 Z-0.7000 S1
G1 F1000 X53.3000 Y21.7000 Z-0.7000 S1
G1 F1000 X53.3000 Y53.3000 Z-0.7000 S1

G0 Z10; move to z-safe height
G0 X55.7000 Y55.7000

G0 Z0
G1 F100 Z-0.3500
G1 F1000 X19.3000 Y55.7000 Z-0.3500 S1
G1 F1000 X19.3000 Y19.3000 Z-0.3500 S1
G1 F1000 X55.7000 Y19.3000 Z-0.3500 S1
G1 F1000 X55.7000 Y55.7000 Z-0.3500 S1
G1 F100 Z-0.7000
G1 F1000 X19.3000 Y55.7000 Z-0.7000 S1
G1 F1000 X19.3000 Y19.3000 Z-0.7000 S1
G1 F1000 X55.7000 Y19.3000 Z-0.7000 S1
G1 F1000 X55.7000 Y55.7000 Z-0.7000 S1

G0 Z10; move to z-safe height
G0 X57.5000 Y57.5000

G0 Z0
G1 F100 Z-0.3500
G1 F1000 X17.5000 Y57.5000 Z-0.3500 S1
G1 F1000 X17.5000 Y17.5000 Z-0.3500 S1
G1 F1000 X57.5000 Y17.5000 Z-0.3500 S1
G1 F1000 X57.5000 Y57.5000 Z-0.3500 S1
G1 F100 Z-0.7000
G1 F1000 X17.5000 Y57.5000 Z-0.7000 S1
G1 F1000 X17.5000 Y17.5000 Z-0.7000 S1
G1 F1000 X57.5000 Y17.5000 Z-0.7000 S1
G1 F1000 X57.5000 Y57.5000 Z-0.7000 S1
; retracting back to z-safe
G0 Z10
; Operation 7: CNC: Vector (path outside)
; Endmill Diameter: 6

G0 Z10; move to z-safe height
G0 F1000 X75.0000 Y-3.0000

G0 Z0
G1 F100 Z-3.0000
G1 F1000 X0.0000 Y-3.0000 Z-3.0000 S1
G1 F1000 X-0.5500 Y-2.9491 Z-3.0000 S1
G1 F1000 X-1.2108 Y-2.7448 Z-3.0000 S1
G1 F1000 X-1.8072 Y-2.3946 Z-3.0000 S1
G1 F1000 X-2.3076 Y-1.9170 Z-3.0000 S1
G1 F1000 X-2.6853 Y-1.3376 Z-3.0000 S1
G1 F1000 X-2.9203 Y-0.6871 Z-3.0000 S1
G1 F1000 X-3.0000 Y0.0000 Z-3.0000 S1
G1 F1000 X-3.0000 Y75.0000 Z-3.0000 S1
G1 F1000 X-2.9491 Y75.5500 Z-3.0000 S1
G1 F1000 X-2.7448 Y76.2108 Z-3.0000 S1
G1 F1000 X-2.3946 Y76.8072 Z-3.0000 S1
G1 F1000 X-1.9170 Y77.3076 Z-3.0000 S1
G1 F1000 X-1.3376 Y77.6853 Z-3.0000 S1
G1 F1000 X-0.6871 Y77.9203 Z-3.0000 S1
G1 F1000 X0.0000 Y78.0000 Z-3.0000 S1
G1 F1000 X75.0000 Y78.0000 Z-3.0000 S1
G1 F1000 X75.5500 Y77.9491 Z-3.0000 S1
G1 F1000 X76.2108 Y77.7448 Z-3.0000 S1
G1 F1000 X76.8072 Y77.3946 Z-3.0000 S1
G1 F1000 X77.3076 Y76.9170 Z-3.0000 S1
G1 F1000 X77.6853 Y76.3376 Z-3.0000 S1
G1 F1000 X77.9203 Y75.6871 Z-3.0000 S1
G1 F1000 X78.0000 Y75.0000 Z-3.0000 S1
G1 F1000 X78.0000 Y0.0000 Z-3.0000 S1
G1 F1000 X77.9491 Y-0.5500 Z-3.0000 S1
G1 F1000 X77.7448 Y-1.2108 Z-3.0000 S1
G1 F1000 X77.3946 Y-1.8072 Z-3.0000 S1
G1 F1000 X76.9170 Y-2.3076 Z-3.0000 S1
G1 F1000 X76.3376 Y-2.6853 Z-3.0000 S1
G1 F1000 X75.6871 Y-2.9203 Z-3.0000 S1
G1 F1000 X75.0000 Y-3.0000 Z-3.0000 S1
G1 F100 Z-6.0000
G1 F1000 X43.0000 Y-3.0000 Z-6.0000 S1
G1 F1000 X43.0000 Y-3.0000 Z-5.6000 S1
G1 F1000 X32.0000 Y-3.0000 Z-5.6000 S1
G1 F1000 X32.0000 Y-3.0000 Z-6.0000 S1
G1 F1000 X0.0000 Y-3.0000 Z-6.0000 S1
G1 F1000 X0.0000 Y-3.0000 Z-6.0000 S1
G1 F1000 X-0.5500 Y-2.9491 Z-6.0000 S1
G1 F1000 X-1.2108 Y-2.7448 Z-6.0000 S1
G1 F1000 X-1.8072 Y-2.3946 Z-6.0000 S1
G1 F1000 X-2.3076 Y-1.9170 Z-6.0000 S1
G1 F1000 X-2.6853 Y-1.3376 Z-6.0000 S1
G1 F1000 X-2.9203 Y-0.6871 Z-6.0000 S1
G1 F1000 X-3.0000 Y0.0000 Z-6.0000 S1
G1 F1000 X-3.0000 Y75.0000 Z-6.0000 S1
G1 F1000 X-2.9491 Y75.5500 Z-6.0000 S1
G1 F1000 X-2.7448 Y76.2108 Z-6.0000 S1
G1 F1000 X-2.3946 Y76.8072 Z-6.0000 S1
G1 F1000 X-1.9170 Y77.3076 Z-6.0000 S1
G1 F1000 X-1.3376 Y77.6853 Z-6.0000 S1
G1 F1000 X-0.6871 Y77.9203 Z-6.0000 S1
G1 F1000 X0.0000 Y78.0000 Z-6.0000 S1
G1 F1000 X32.0000 Y78.0000 Z-6.0000 S1
G1 F1000 X32.0000 Y78.0000 Z-5.6000 S1
G1 F1000 X43.0000 Y78.0000 Z-5.6000 S1
G1 F1000 X43.0000 Y78.0000 Z-6.0000 S1
G1 F1000 X75.0000 Y78.0000 Z-6.0000 S1
G1 F1000 X75.0000 Y78.0000 Z-6.0000 S1
G1 F1000 X75.5500 Y77.9491 Z-6.0000 S1
G1 F1000 X76.2108 Y77.7448 Z-6.0000 S1
G1 F1000 X76.8072 Y77.3946 Z-6.0000 S1
G1 F1000 X77.3076 Y76.9170 Z-6.0000 S1
G1 F1000 X77.6853 Y76.3376 Z-6.0000 S1
G1 F1000 X77.9203 Y75.6871 Z-6.0000 S1
G1 F1000 X78.0000 Y75.0000 Z-6.0000 S1
G1 F1000 X78.0000 Y0.0000 Z-6.0000 S1
G1 F1000 X77.9491 Y-0.5500 Z-6.0000 S1
G1 F1000 X77.7448 Y-1.2108 Z-6.0000 S1
G1 F1000 X77.3946 Y-1.8072 Z-6.0000 S1
G1 F1000 X76.9170 Y-2.3076 Z-6.0000 S1
G1 F1000 X76.3376 Y-2.6853 Z-6.0000 S1
G1 F1000 X75.6871 Y-2.9203 Z-6.0000 S1
G1 F1000 X75.0000 Y-3.0000 Z-6.0000 S1
G1 F100 Z-8.6000
G1 F1000 X43.0000 Y-3.0000 Z-8.6000 S1
G1 F1000 X43.0000 Y-3.0000 Z-5.6000 S1
G1 F1000 X32.0000 Y-3.0000 Z-5.6000 S1
G1 F1000 X32.0000 Y-3.0000 Z-8.6000 S1
G1 F1000 X0.0000 Y-3.0000 Z-8.6000 S1
G1 F1000 X0.0000 Y-3.0000 Z-8.6000 S1
G1 F1000 X-0.5500 Y-2.9491 Z-8.6000 S1
G1 F1000 X-1.2108 Y-2.7448 Z-8.6000 S1
G1 F1000 X-1.8072 Y-2.3946 Z-8.6000 S1
G1 F1000 X-2.3076 Y-1.9170 Z-8.6000 S1
G1 F1000 X-2.6853 Y-1.3376 Z-8.6000 S1
G1 F1000 X-2.9203 Y-0.6871 Z-8.6000 S1
G1 F1000 X-3.0000 Y0.0000 Z-8.6000 S1
G1 F1000 X-3.0000 Y75.0000 Z-8.6000 S1
G1 F1000 X-2.9491 Y75.5500 Z-8.6000 S1
G1 F1000 X-2.7448 Y76.2108 Z-8.6000 S1
G1 F1000 X-2.3946 Y76.8072 Z-8.6000 S1
G1 F1000 X-1.9170 Y77.3076 Z-8.6000 S1
G1 F1000 X-1.3376 Y77.6853 Z-8.6000 S1
G1 F1000 X-0.6871 Y77.9203 Z-8.6000 S1
G1 F1000 X0.0000 Y78.0000 Z-8.6000 S1
G1 F1000 X32.0000 Y78.0000 Z-8.6000 S1
G1 F1000 X32.0000 Y78.0000 Z-5.6000 S1
G1 F1000 X43.0000 Y78.0000 Z-5.6000 S1
G1 F1000 X43.0000 Y78.0000 Z-8.6000 S1
G1 F1000 X75.0000 Y78.0000 Z-8.6000 S1
G1 F1000 X75.0000 Y78.0000 Z-8.6000 S1
G1 F1000 X75.5500 Y77.9491 Z-8.6000 S1
G1 F1000 X76.2108 Y77.7448 Z-8.6000 S1
G1 F1000 X76.8072 Y77.3946 Z-8.6000 S1
G1 F1000 X77.3076 Y76.9170 Z-8.6000 S1
G1 F1000 X77.6853 Y76.3376 Z-8.6000 S1
G1 F1000 X77.9203 Y75.6871 Z-8.6000 S1
G1 F1000 X78.0000 Y75.0000 Z-8.6000 S1
G1 F1000 X78.0000 Y0.0000 Z-8.6000 S1
G1 F1000 X77.9491 Y-0.5500 Z-8.6000 S1
G1 F1000 X77.7448 Y-1.2108 Z-8.6000 S1
G1 F1000 X77.3946 Y-1.8072 Z-8.6000 S1
G1 F1000 X76.9170 Y-2.3076 Z-8.6000 S1
G1 F1000 X76.3376 Y-2.6853 Z-8.6000 S1
G1 F1000 X75.6871 Y-2.9203 Z-8.6000 S1
G1 F1000 X75.0000 Y-3.0000 Z-8.6000 S1
; retracting back to z-safe
G0 Z10

M5 S0; Spindle Off
