; GCODE Generated by cam.openbuilds.com on 2021-04-26 
G21 ; mm-mode
G54; Work Coordinates
G21; mm-mode
G90; Absolute Positioning
M3 S1000; Spindle On

; Operation 0: Drill: Peck (Centered)
; Endmill Diameter: 6

G0 Z10; move to z-safe height
G0 F1000 X33.5000 Y33.5000

G0 Z0
G1 F60 Z0.0000
G1 F1000 X33.5000 Y33.5000 Z0.0000 S1000
G1 F1000 X33.5000 Y33.5000 Z0.0000 S1000
G1 F60 Z0.0000
G1 F1000 X33.5000 Y33.5000 Z-0.1000 S1000
G1 F1000 X33.5000 Y33.5000 Z0.0000 S1000
G1 F60 Z-0.1000
G1 F1000 X33.5000 Y33.5000 Z-0.2000 S1000
G1 F1000 X33.5000 Y33.5000 Z0.0000 S1000
G1 F60 Z-0.2000
G1 F1000 X33.5000 Y33.5000 Z-0.3000 S1000
G1 F1000 X33.5000 Y33.5000 Z0.0000 S1000

G0 Z10; move to z-safe height
G0 X26.1001 Y16.0003

G0 Z0
G1 F60 Z0.0000
G1 F1000 X26.1001 Y16.0003 Z0.0000 S1000
G1 F1000 X26.1001 Y16.0003 Z0.0000 S1000
G1 F60 Z0.0000
G1 F1000 X26.1001 Y16.0003 Z-0.1000 S1000
G1 F1000 X26.1001 Y16.0003 Z0.0000 S1000
G1 F60 Z-0.1000
G1 F1000 X26.1001 Y16.0003 Z-0.2000 S1000
G1 F1000 X26.1001 Y16.0003 Z0.0000 S1000
G1 F60 Z-0.2000
G1 F1000 X26.1001 Y16.0003 Z-0.3000 S1000
G1 F1000 X26.1001 Y16.0003 Z0.0000 S1000

G0 Z10; move to z-safe height
G0 X40.9002 Y16.0003

G0 Z0
G1 F60 Z0.0000
G1 F1000 X40.9002 Y16.0003 Z0.0000 S1000
G1 F1000 X40.9002 Y16.0003 Z0.0000 S1000
G1 F60 Z0.0000
G1 F1000 X40.9002 Y16.0003 Z-0.1000 S1000
G1 F1000 X40.9002 Y16.0003 Z0.0000 S1000
G1 F60 Z-0.1000
G1 F1000 X40.9002 Y16.0003 Z-0.2000 S1000
G1 F1000 X40.9002 Y16.0003 Z0.0000 S1000
G1 F60 Z-0.2000
G1 F1000 X40.9002 Y16.0003 Z-0.3000 S1000
G1 F1000 X40.9002 Y16.0003 Z0.0000 S1000
; retracting back to z-safe
G0 Z10
; Operation 1: CNC: Vector (path outside)
; Endmill Diameter: 6

G0 Z10; move to z-safe height
G0 F1000 X62.5000 Y1.5000

G0 Z0
G1 F60 Z-2.0000
G1 F1000 X4.5000 Y1.5000 Z-2.0000 S1000
G1 F1000 X3.9500 Y1.5509 Z-2.0000 S1000
G1 F1000 X3.2892 Y1.7552 Z-2.0000 S1000
G1 F1000 X2.6928 Y2.1054 Z-2.0000 S1000
G1 F1000 X2.1924 Y2.5830 Z-2.0000 S1000
G1 F1000 X1.8147 Y3.1624 Z-2.0000 S1000
G1 F1000 X1.5797 Y3.8129 Z-2.0000 S1000
G1 F1000 X1.5000 Y4.5000 Z-2.0000 S1000
G1 F1000 X1.5000 Y62.5000 Z-2.0000 S1000
G1 F1000 X1.5509 Y63.0500 Z-2.0000 S1000
G1 F1000 X1.7552 Y63.7108 Z-2.0000 S1000
G1 F1000 X2.1054 Y64.3072 Z-2.0000 S1000
G1 F1000 X2.5830 Y64.8076 Z-2.0000 S1000
G1 F1000 X3.1624 Y65.1853 Z-2.0000 S1000
G1 F1000 X3.8129 Y65.4203 Z-2.0000 S1000
G1 F1000 X4.5000 Y65.5000 Z-2.0000 S1000
G1 F1000 X62.5000 Y65.5000 Z-2.0000 S1000
G1 F1000 X63.0500 Y65.4491 Z-2.0000 S1000
G1 F1000 X63.7108 Y65.2448 Z-2.0000 S1000
G1 F1000 X64.3072 Y64.8946 Z-2.0000 S1000
G1 F1000 X64.8076 Y64.4170 Z-2.0000 S1000
G1 F1000 X65.1853 Y63.8376 Z-2.0000 S1000
G1 F1000 X65.4203 Y63.1871 Z-2.0000 S1000
G1 F1000 X65.5000 Y62.5000 Z-2.0000 S1000
G1 F1000 X65.5000 Y4.5000 Z-2.0000 S1000
G1 F1000 X65.4491 Y3.9500 Z-2.0000 S1000
G1 F1000 X65.2448 Y3.2892 Z-2.0000 S1000
G1 F1000 X64.8946 Y2.6928 Z-2.0000 S1000
G1 F1000 X64.4170 Y2.1924 Z-2.0000 S1000
G1 F1000 X63.8376 Y1.8147 Z-2.0000 S1000
G1 F1000 X63.1871 Y1.5797 Z-2.0000 S1000
G1 F1000 X62.5000 Y1.5000 Z-2.0000 S1000
G1 F60 Z-4.0000
G1 F1000 X4.5000 Y1.5000 Z-4.0000 S1000
G1 F1000 X3.9500 Y1.5509 Z-4.0000 S1000
G1 F1000 X3.2892 Y1.7552 Z-4.0000 S1000
G1 F1000 X2.6928 Y2.1054 Z-4.0000 S1000
G1 F1000 X2.1924 Y2.5830 Z-4.0000 S1000
G1 F1000 X1.8147 Y3.1624 Z-4.0000 S1000
G1 F1000 X1.5797 Y3.8129 Z-4.0000 S1000
G1 F1000 X1.5000 Y4.5000 Z-4.0000 S1000
G1 F1000 X1.5000 Y62.5000 Z-4.0000 S1000
G1 F1000 X1.5509 Y63.0500 Z-4.0000 S1000
G1 F1000 X1.7552 Y63.7108 Z-4.0000 S1000
G1 F1000 X2.1054 Y64.3072 Z-4.0000 S1000
G1 F1000 X2.5830 Y64.8076 Z-4.0000 S1000
G1 F1000 X3.1624 Y65.1853 Z-4.0000 S1000
G1 F1000 X3.8129 Y65.4203 Z-4.0000 S1000
G1 F1000 X4.5000 Y65.5000 Z-4.0000 S1000
G1 F1000 X62.5000 Y65.5000 Z-4.0000 S1000
G1 F1000 X63.0500 Y65.4491 Z-4.0000 S1000
G1 F1000 X63.7108 Y65.2448 Z-4.0000 S1000
G1 F1000 X64.3072 Y64.8946 Z-4.0000 S1000
G1 F1000 X64.8076 Y64.4170 Z-4.0000 S1000
G1 F1000 X65.1853 Y63.8376 Z-4.0000 S1000
G1 F1000 X65.4203 Y63.1871 Z-4.0000 S1000
G1 F1000 X65.5000 Y62.5000 Z-4.0000 S1000
G1 F1000 X65.5000 Y4.5000 Z-4.0000 S1000
G1 F1000 X65.4491 Y3.9500 Z-4.0000 S1000
G1 F1000 X65.2448 Y3.2892 Z-4.0000 S1000
G1 F1000 X64.8946 Y2.6928 Z-4.0000 S1000
G1 F1000 X64.4170 Y2.1924 Z-4.0000 S1000
G1 F1000 X63.8376 Y1.8147 Z-4.0000 S1000
G1 F1000 X63.1871 Y1.5797 Z-4.0000 S1000
G1 F1000 X62.5000 Y1.5000 Z-4.0000 S1000
; retracting back to z-safe
G0 Z10
; Operation 2: CNC: Vector (path outside)
; Endmill Diameter: 6

G0 Z10; move to z-safe height
G0 F1000 X67.0000 Y-3.0000

G0 Z0
G1 F60 Z-3.0000
G1 F1000 X0.0000 Y-3.0000 Z-3.0000 S1000
G1 F1000 X-0.5500 Y-2.9491 Z-3.0000 S1000
G1 F1000 X-1.2108 Y-2.7448 Z-3.0000 S1000
G1 F1000 X-1.8072 Y-2.3946 Z-3.0000 S1000
G1 F1000 X-2.3076 Y-1.9170 Z-3.0000 S1000
G1 F1000 X-2.6853 Y-1.3376 Z-3.0000 S1000
G1 F1000 X-2.9203 Y-0.6871 Z-3.0000 S1000
G1 F1000 X-3.0000 Y0.0000 Z-3.0000 S1000
G1 F1000 X-3.0000 Y67.0000 Z-3.0000 S1000
G1 F1000 X-2.9491 Y67.5500 Z-3.0000 S1000
G1 F1000 X-2.7448 Y68.2108 Z-3.0000 S1000
G1 F1000 X-2.3946 Y68.8072 Z-3.0000 S1000
G1 F1000 X-1.9170 Y69.3076 Z-3.0000 S1000
G1 F1000 X-1.3376 Y69.6853 Z-3.0000 S1000
G1 F1000 X-0.6871 Y69.9203 Z-3.0000 S1000
G1 F1000 X0.0000 Y70.0000 Z-3.0000 S1000
G1 F1000 X67.0000 Y70.0000 Z-3.0000 S1000
G1 F1000 X67.5500 Y69.9491 Z-3.0000 S1000
G1 F1000 X68.2108 Y69.7448 Z-3.0000 S1000
G1 F1000 X68.8072 Y69.3946 Z-3.0000 S1000
G1 F1000 X69.3076 Y68.9170 Z-3.0000 S1000
G1 F1000 X69.6853 Y68.3376 Z-3.0000 S1000
G1 F1000 X69.9203 Y67.6871 Z-3.0000 S1000
G1 F1000 X70.0000 Y67.0000 Z-3.0000 S1000
G1 F1000 X70.0000 Y0.0000 Z-3.0000 S1000
G1 F1000 X69.9491 Y-0.5500 Z-3.0000 S1000
G1 F1000 X69.7448 Y-1.2108 Z-3.0000 S1000
G1 F1000 X69.3946 Y-1.8072 Z-3.0000 S1000
G1 F1000 X68.9170 Y-2.3076 Z-3.0000 S1000
G1 F1000 X68.3376 Y-2.6853 Z-3.0000 S1000
G1 F1000 X67.6871 Y-2.9203 Z-3.0000 S1000
G1 F1000 X67.0000 Y-3.0000 Z-3.0000 S1000
G1 F60 Z-6.0000
G1 F1000 X39.0000 Y-3.0000 Z-6.0000 S1000
G1 F1000 X39.0000 Y-3.0000 Z-5.3000 S1000
G1 F1000 X28.0000 Y-3.0000 Z-5.3000 S1000
G1 F1000 X28.0000 Y-3.0000 Z-6.0000 S1000
G1 F1000 X0.0000 Y-3.0000 Z-6.0000 S1000
G1 F1000 X0.0000 Y-3.0000 Z-6.0000 S1000
G1 F1000 X-0.5500 Y-2.9491 Z-6.0000 S1000
G1 F1000 X-1.2108 Y-2.7448 Z-6.0000 S1000
G1 F1000 X-1.8072 Y-2.3946 Z-6.0000 S1000
G1 F1000 X-2.3076 Y-1.9170 Z-6.0000 S1000
G1 F1000 X-2.6853 Y-1.3376 Z-6.0000 S1000
G1 F1000 X-2.9203 Y-0.6871 Z-6.0000 S1000
G1 F1000 X-3.0000 Y0.0000 Z-6.0000 S1000
G1 F1000 X-3.0000 Y67.0000 Z-6.0000 S1000
G1 F1000 X-2.9491 Y67.5500 Z-6.0000 S1000
G1 F1000 X-2.7448 Y68.2108 Z-6.0000 S1000
G1 F1000 X-2.3946 Y68.8072 Z-6.0000 S1000
G1 F1000 X-1.9170 Y69.3076 Z-6.0000 S1000
G1 F1000 X-1.3376 Y69.6853 Z-6.0000 S1000
G1 F1000 X-0.6871 Y69.9203 Z-6.0000 S1000
G1 F1000 X0.0000 Y70.0000 Z-6.0000 S1000
G1 F1000 X28.0000 Y70.0000 Z-6.0000 S1000
G1 F1000 X28.0000 Y70.0000 Z-5.3000 S1000
G1 F1000 X39.0000 Y70.0000 Z-5.3000 S1000
G1 F1000 X39.0000 Y70.0000 Z-6.0000 S1000
G1 F1000 X67.0000 Y70.0000 Z-6.0000 S1000
G1 F1000 X67.0000 Y70.0000 Z-6.0000 S1000
G1 F1000 X67.5500 Y69.9491 Z-6.0000 S1000
G1 F1000 X68.2108 Y69.7448 Z-6.0000 S1000
G1 F1000 X68.8072 Y69.3946 Z-6.0000 S1000
G1 F1000 X69.3076 Y68.9170 Z-6.0000 S1000
G1 F1000 X69.6853 Y68.3376 Z-6.0000 S1000
G1 F1000 X69.9203 Y67.6871 Z-6.0000 S1000
G1 F1000 X70.0000 Y67.0000 Z-6.0000 S1000
G1 F1000 X70.0000 Y0.0000 Z-6.0000 S1000
G1 F1000 X69.9491 Y-0.5500 Z-6.0000 S1000
G1 F1000 X69.7448 Y-1.2108 Z-6.0000 S1000
G1 F1000 X69.3946 Y-1.8072 Z-6.0000 S1000
G1 F1000 X68.9170 Y-2.3076 Z-6.0000 S1000
G1 F1000 X68.3376 Y-2.6853 Z-6.0000 S1000
G1 F1000 X67.6871 Y-2.9203 Z-6.0000 S1000
G1 F1000 X67.0000 Y-3.0000 Z-6.0000 S1000
G1 F60 Z-8.8000
G1 F1000 X39.0000 Y-3.0000 Z-8.8000 S1000
G1 F1000 X39.0000 Y-3.0000 Z-5.3000 S1000
G1 F1000 X28.0000 Y-3.0000 Z-5.3000 S1000
G1 F1000 X28.0000 Y-3.0000 Z-8.8000 S1000
G1 F1000 X0.0000 Y-3.0000 Z-8.8000 S1000
G1 F1000 X0.0000 Y-3.0000 Z-8.8000 S1000
G1 F1000 X-0.5500 Y-2.9491 Z-8.8000 S1000
G1 F1000 X-1.2108 Y-2.7448 Z-8.8000 S1000
G1 F1000 X-1.8072 Y-2.3946 Z-8.8000 S1000
G1 F1000 X-2.3076 Y-1.9170 Z-8.8000 S1000
G1 F1000 X-2.6853 Y-1.3376 Z-8.8000 S1000
G1 F1000 X-2.9203 Y-0.6871 Z-8.8000 S1000
G1 F1000 X-3.0000 Y0.0000 Z-8.8000 S1000
G1 F1000 X-3.0000 Y67.0000 Z-8.8000 S1000
G1 F1000 X-2.9491 Y67.5500 Z-8.8000 S1000
G1 F1000 X-2.7448 Y68.2108 Z-8.8000 S1000
G1 F1000 X-2.3946 Y68.8072 Z-8.8000 S1000
G1 F1000 X-1.9170 Y69.3076 Z-8.8000 S1000
G1 F1000 X-1.3376 Y69.6853 Z-8.8000 S1000
G1 F1000 X-0.6871 Y69.9203 Z-8.8000 S1000
G1 F1000 X0.0000 Y70.0000 Z-8.8000 S1000
G1 F1000 X28.0000 Y70.0000 Z-8.8000 S1000
G1 F1000 X28.0000 Y70.0000 Z-5.3000 S1000
G1 F1000 X39.0000 Y70.0000 Z-5.3000 S1000
G1 F1000 X39.0000 Y70.0000 Z-8.8000 S1000
G1 F1000 X67.0000 Y70.0000 Z-8.8000 S1000
G1 F1000 X67.0000 Y70.0000 Z-8.8000 S1000
G1 F1000 X67.5500 Y69.9491 Z-8.8000 S1000
G1 F1000 X68.2108 Y69.7448 Z-8.8000 S1000
G1 F1000 X68.8072 Y69.3946 Z-8.8000 S1000
G1 F1000 X69.3076 Y68.9170 Z-8.8000 S1000
G1 F1000 X69.6853 Y68.3376 Z-8.8000 S1000
G1 F1000 X69.9203 Y67.6871 Z-8.8000 S1000
G1 F1000 X70.0000 Y67.0000 Z-8.8000 S1000
G1 F1000 X70.0000 Y0.0000 Z-8.8000 S1000
G1 F1000 X69.9491 Y-0.5500 Z-8.8000 S1000
G1 F1000 X69.7448 Y-1.2108 Z-8.8000 S1000
G1 F1000 X69.3946 Y-1.8072 Z-8.8000 S1000
G1 F1000 X68.9170 Y-2.3076 Z-8.8000 S1000
G1 F1000 X68.3376 Y-2.6853 Z-8.8000 S1000
G1 F1000 X67.6871 Y-2.9203 Z-8.8000 S1000
G1 F1000 X67.0000 Y-3.0000 Z-8.8000 S1000
; retracting back to z-safe
G0 Z10

M5 S0; Spindle Off
