; GCODE Generated by cam.openbuilds.com on 2021-04-26 
G21 ; mm-mode
G54; Work Coordinates
G21; mm-mode
G90; Absolute Positioning
M3 S1000; Spindle On

; Operation 0: CNC: Vector (path inside)
; Endmill Diameter: 3.17

G0 Z10; move to z-safe height
G0 F1000 X46.4817 Y27.0945

G0 Z0
G1 F60 Z-1.5000
G1 F1000 X36.0017 Y27.0945 Z-1.5000 S1000
G1 F1000 X36.0017 Y18.0145 Z-1.5000 S1000
G1 F1000 X46.4817 Y18.0145 Z-1.5000 S1000
G1 F1000 X46.4817 Y27.0945 Z-1.5000 S1000
G1 F60 Z-3.0000
G1 F1000 X36.0017 Y27.0945 Z-3.0000 S1000
G1 F1000 X36.0017 Y18.0145 Z-3.0000 S1000
G1 F1000 X46.4817 Y18.0145 Z-3.0000 S1000
G1 F1000 X46.4817 Y27.0945 Z-3.0000 S1000
G1 F60 Z-4.5000
G1 F1000 X36.0017 Y27.0945 Z-4.5000 S1000
G1 F1000 X36.0017 Y18.0145 Z-4.5000 S1000
G1 F1000 X46.4817 Y18.0145 Z-4.5000 S1000
G1 F1000 X46.4817 Y27.0945 Z-4.5000 S1000
G1 F60 Z-6.0000
G1 F1000 X36.0017 Y27.0945 Z-6.0000 S1000
G1 F1000 X36.0017 Y18.0145 Z-6.0000 S1000
G1 F1000 X46.4817 Y18.0145 Z-6.0000 S1000
G1 F1000 X46.4817 Y27.0945 Z-6.0000 S1000
G1 F60 Z-7.5000
G1 F1000 X36.0017 Y27.0945 Z-7.5000 S1000
G1 F1000 X36.0017 Y18.0145 Z-7.5000 S1000
G1 F1000 X46.4817 Y18.0145 Z-7.5000 S1000
G1 F1000 X46.4817 Y27.0945 Z-7.5000 S1000
G1 F60 Z-9.0000
G1 F1000 X36.0017 Y27.0945 Z-9.0000 S1000
G1 F1000 X36.0017 Y18.0145 Z-9.0000 S1000
G1 F1000 X46.4817 Y18.0145 Z-9.0000 S1000
G1 F1000 X46.4817 Y27.0945 Z-9.0000 S1000
; retracting back to z-safe
G0 Z10
; Operation 1: CNC: Pocket
; Endmill Diameter: 3.17

G0 Z10; move to z-safe height
G0 F1000 X50.6568 Y16.4636

G0 Z0
G1 F60 Z-1.0000
G1 F1000 X31.8268 Y16.4636 Z-1.0000 S1000
G1 F1000 X31.8268 Y16.4336 Z-1.0000 S1000
G1 F1000 X50.6568 Y16.4336 Z-1.0000 S1000
G1 F1000 X50.6568 Y16.4636 Z-1.0000 S1000
G1 F60 Z-2.0000
G1 F1000 X31.8268 Y16.4636 Z-2.0000 S1000
G1 F1000 X31.8268 Y16.4336 Z-2.0000 S1000
G1 F1000 X50.6568 Y16.4336 Z-2.0000 S1000
G1 F1000 X50.6568 Y16.4636 Z-2.0000 S1000
; retracting back to z-safe
G0 Z10

M5 S0; Spindle Off
