<?xml version="1.0" encoding="UTF-8" standalone="no"?>
<svg
   xmlns:dc="http://purl.org/dc/elements/1.1/"
   xmlns:cc="http://creativecommons.org/ns#"
   xmlns:rdf="http://www.w3.org/1999/02/22-rdf-syntax-ns#"
   xmlns:svg="http://www.w3.org/2000/svg"
   xmlns="http://www.w3.org/2000/svg"
   xmlns:sodipodi="http://sodipodi.sourceforge.net/DTD/sodipodi-0.dtd"
   xmlns:inkscape="http://www.inkscape.org/namespaces/inkscape"
   version="1.1"
   width="1060.5117"
   height="577.91339"
   viewBox="0 0 1060.5127 577.91387"
   id="svg7728"
   inkscape:version="0.91 r13725"
   sodipodi:docname="malinette-usb-box.svg">
  <metadata
     id="metadata7758">
    <rdf:RDF>
      <cc:Work
         rdf:about="">
        <dc:format>image/svg+xml</dc:format>
        <dc:type
           rdf:resource="http://purl.org/dc/dcmitype/StillImage" />
        <dc:title></dc:title>
      </cc:Work>
    </rdf:RDF>
  </metadata>
  <defs
     id="defs7756" />
  <sodipodi:namedview
     pagecolor="#ffffff"
     bordercolor="#666666"
     borderopacity="1"
     objecttolerance="10"
     gridtolerance="10"
     guidetolerance="10"
     inkscape:pageopacity="0"
     inkscape:pageshadow="2"
     inkscape:window-width="1920"
     inkscape:window-height="1028"
     id="namedview7754"
     showgrid="false"
     inkscape:zoom="0.99999999"
     inkscape:cx="320.23323"
     inkscape:cy="335.17768"
     inkscape:window-x="-8"
     inkscape:window-y="-8"
     inkscape:window-maximized="1"
     inkscape:current-layer="g9092"
     inkscape:document-units="mm"
     units="mm"
     showguides="true"
     inkscape:guide-bbox="true" />
  <!-- Front-->
  <g
     transform="translate(22.500018,22.499922)"
     id="g7730"
     style="stroke:none">
    <path
       style="fill:none;stroke:none;stroke-width:0.90000075"
       d="m 119.05522,10.984261 28.34648,0 0,-10.984261 28.34648,0 0,10.984261 28.34648,0 0,-10.984261 28.34648,0 0,10.984261 45.35436,0 0,-10.984261 45.35437,0 0,32.740184 -10.98426,0 0,32.740185 10.98426,0 0,32.740184 -10.98426,0 0,32.740187 10.98426,0 0,32.74018 -45.35437,0 0,-10.98426 -45.35436,0 0,10.98426 -28.34648,0 0,-10.98426 -28.34648,0 0,10.98426 -28.34648,0 0,-10.98426 -28.34648,0 0,10.98426 -28.346484,0 0,-10.98426 -45.354368,0 0,10.98426 -45.354368,0 0,-32.74018 10.984261,0 0,-32.740187 -10.984261,0 0,-32.740184 10.984261,0 0,-32.740185 L 0,32.740184 0,0 l 45.354368,0 0,10.984261 45.354368,0 0,-10.984261 28.346484,0 z"
       id="polygon7732" />
  </g>
  <!-- Back-->
  <g
     transform="translate(347.64989,22.499922)"
     id="g7734"
     style="stroke:none">
    <path
       style="fill:none;stroke:none;stroke-width:0.90000075"
       d="m 119.05522,10.984261 28.34648,0 0,-10.984261 28.34648,0 0,10.984261 28.34648,0 0,-10.984261 28.34648,0 0,10.984261 45.35436,0 0,-10.984261 45.35437,0 0,32.740184 -10.98426,0 0,32.740185 10.98426,0 0,32.740184 -10.98426,0 0,32.740187 10.98426,0 0,32.74018 -45.35437,0 0,-10.98426 -45.35436,0 0,10.98426 -28.34648,0 0,-10.98426 -28.34648,0 0,10.98426 -28.34648,0 0,-10.98426 -28.34648,0 0,10.98426 -28.346484,0 0,-10.98426 -45.354368,0 0,10.98426 -45.354368,0 0,-32.74018 10.984261,0 0,-32.740187 -10.984261,0 0,-32.740184 10.984261,0 0,-32.740185 L 0,32.740184 0,0 l 45.354368,0 0,10.984261 45.354368,0 0,-10.984261 28.346484,0 z"
       id="polygon7736"
       inkscape:connector-curvature="0" />
  </g>
  <!-- Left-->
  <g
     transform="translate(672.79976,22.499922)"
     id="g7738"
     style="stroke:none">
    <path
       style="fill:none;stroke:none;stroke-width:0.90000075"
       d="m 113.74025,10.984261 28.34648,0 0,-10.984261 28.34648,0 0,10.984261 28.34648,0 0,-10.984261 28.34648,0 0,10.984261 28.34648,0 0,-10.984261 28.34648,0 0,10.984261 42.69689,0 0,-10.984261 31.71262,0 0,32.740184 10.98426,0 0,32.740185 -10.98426,0 0,32.740184 10.98426,0 0,32.740187 -10.98426,0 0,32.74018 -31.71262,0 0,-10.98426 -42.69689,0 0,10.98426 -28.34648,0 0,-10.98426 -28.34648,0 0,10.98426 -28.34648,0 0,-10.98426 -28.34648,0 0,10.98426 -28.34648,0 0,-10.98426 -28.34648,0 0,10.98426 -28.346479,0 0,-10.98426 -42.696885,0 0,10.98426 -31.712625,0 0,-32.74018 -10.984261,0 0,-32.740187 10.984261,0 0,-32.740184 -10.984261,0 0,-32.740185 10.984261,0 0,-32.740184 31.712625,0 0,10.984261 42.696885,0 0,-10.984261 28.346479,0 z"
       id="polygon7740"
       inkscape:connector-curvature="0" />
  </g>
  <!-- Right-->
  <g
     transform="translate(672.79976,188.20082)"
     id="g7742"
     style="stroke:none">
    <path
       style="fill:none;stroke:none;stroke-width:0.90000075"
       d="m 113.74025,10.984261 28.34648,0 0,-10.984261 28.34648,0 0,10.984261 28.34648,0 0,-10.984261 28.34648,0 0,10.984261 28.34648,0 0,-10.984261 28.34648,0 0,10.984261 42.69689,0 0,-10.984261 31.71262,0 0,32.740184 10.98426,0 0,32.740185 -10.98426,0 0,32.740184 10.98426,0 0,32.740187 -10.98426,0 0,32.74018 -31.71262,0 0,-10.98426 -42.69689,0 0,10.98426 -28.34648,0 0,-10.98426 -28.34648,0 0,10.98426 -28.34648,0 0,-10.98426 -28.34648,0 0,10.98426 -28.34648,0 0,-10.98426 -28.34648,0 0,10.98426 -28.346479,0 0,-10.98426 -42.696885,0 0,10.98426 -31.712625,0 0,-32.74018 -10.984261,0 0,-32.740187 10.984261,0 0,-32.740184 -10.984261,0 0,-32.740185 10.984261,0 0,-32.740184 31.712625,0 0,10.984261 42.696885,0 0,-10.984261 28.346479,0 z"
       id="polygon7744"
       inkscape:connector-curvature="0" />
  </g>
  <!-- Top-->
  <g
     transform="translate(22.500018,188.20082)"
     id="g7746"
     style="stroke:none">
    <path
       style="fill:none;stroke:none;stroke-width:0.90000075"
       d="m 119.05522,0 28.34648,0 0,10.984261 28.34648,0 0,-10.984261 28.34648,0 0,10.984261 28.34648,0 0,-10.984261 45.35436,0 0,10.984261 34.37011,0 0,31.712625 10.98426,0 0,42.696885 -10.98426,0 0,28.346479 10.98426,0 0,28.34648 -10.98426,0 0,28.34648 10.98426,0 0,28.34648 -10.98426,0 0,28.34648 10.98426,0 0,28.34648 -10.98426,0 0,28.34648 10.98426,0 0,42.69689 -10.98426,0 0,31.71262 -34.37011,0 0,10.98426 -45.35436,0 0,-10.98426 -28.34648,0 0,10.98426 -28.34648,0 0,-10.98426 -28.34648,0 0,10.98426 -28.34648,0 0,-10.98426 -28.346484,0 0,10.98426 -45.354368,0 0,-10.98426 -34.370107,0 0,-31.71262 -10.984261,0 0,-42.69689 10.984261,0 0,-28.34648 -10.984261,0 0,-28.34648 10.984261,0 0,-28.34648 -10.984261,0 0,-28.34648 10.984261,0 0,-28.34648 -10.984261,0 0,-28.34648 10.984261,0 0,-28.346479 -10.984261,0 0,-42.696885 10.984261,0 0,-31.712625 34.370107,0 0,-10.984261 45.354368,0 0,10.984261 28.346484,0 z"
       id="polygon7748"
       inkscape:connector-curvature="0" />
  </g>
  <!-- Bottom-->
  <g
     transform="translate(347.64989,188.20082)"
     id="g7750"
     style="stroke:none">
    <path
       style="fill:none;stroke:none;stroke-width:0.90000075"
       d="m 119.05522,0 28.34648,0 0,10.984261 28.34648,0 0,-10.984261 28.34648,0 0,10.984261 28.34648,0 0,-10.984261 45.35436,0 0,10.984261 34.37011,0 0,31.712625 10.98426,0 0,42.696885 -10.98426,0 0,28.346479 10.98426,0 0,28.34648 -10.98426,0 0,28.34648 10.98426,0 0,28.34648 -10.98426,0 0,28.34648 10.98426,0 0,28.34648 -10.98426,0 0,28.34648 10.98426,0 0,42.69689 -10.98426,0 0,31.71262 -34.37011,0 0,10.98426 -45.35436,0 0,-10.98426 -28.34648,0 0,10.98426 -28.34648,0 0,-10.98426 -28.34648,0 0,10.98426 -28.34648,0 0,-10.98426 -28.346484,0 0,10.98426 -45.354368,0 0,-10.98426 -34.370107,0 0,-31.71262 -10.984261,0 0,-42.69689 10.984261,0 0,-28.34648 -10.984261,0 0,-28.34648 10.984261,0 0,-28.34648 -10.984261,0 0,-28.34648 10.984261,0 0,-28.34648 -10.984261,0 0,-28.34648 10.984261,0 0,-28.346479 -10.984261,0 0,-42.696885 10.984261,0 0,-31.712625 34.370107,0 0,-10.984261 45.354368,0 0,10.984261 28.346484,0 z"
       id="polygon7752"
       inkscape:connector-curvature="0" />
  </g>
  <path
     style="fill:none;stroke:none"
     d="m 705.65525,439.70929 191.33876,0 c 5.88898,0 10.62992,4.74094 10.62992,10.62992 l 0,21.25988 c 0,5.88897 -4.74094,10.62992 -10.62992,10.62992 l -191.33876,0 c -5.88898,0 -10.62992,-4.74095 -10.62992,-10.62992 l 0,-21.25988 c 0,-5.88898 4.74094,-10.62992 10.62992,-10.62992 z"
     id="rect4470"
     inkscape:connector-curvature="0" />
  <path
     style="fill:none;stroke:none"
     d="m 705.65525,499.70938 191.33876,0 c 5.88898,0 10.62992,4.74095 10.62992,10.62992 l 0,21.25988 c 0,5.88897 -4.74094,10.62992 -10.62992,10.62992 l -191.33876,0 c -5.88898,0 -10.62992,-4.74095 -10.62992,-10.62992 l 0,-21.25988 c 0,-5.88897 4.74094,-10.62992 10.62992,-10.62992 z"
     id="rect7032"
     inkscape:connector-curvature="0" />
  <g
     transform="translate(-12.299249,26.427988)"
     id="g8846"
     style="font-style:normal;font-variant:normal;font-weight:normal;font-stretch:normal;font-size:40px;line-height:125%;font-family:'Giddyup Std';-inkscape-font-specification:'Giddyup Std';letter-spacing:0px;word-spacing:0px;fill:#000000;fill-opacity:1;stroke:none">
    <path
       id="path8848"
       style="font-size:15.0000124px;font-family:'Courier 10 Pitch';-inkscape-font-specification:'Courier 10 Pitch'"
       d="m 723.40154,249.2487 1.38,-0.33 0,7.155 -1.215,0 c -0.69,0 -1.005,0.03 -1.005,0.51 0,0.345 0.195,0.525 0.585,0.525 l 4.38001,0 c 0.39,0 0.585,-0.18 0.585,-0.525 0,-0.48 -0.315,-0.51 -1.005,-0.51 l -1.17001,0 0,-7.92 c 0,-0.3 -0.12,-0.48 -0.3,-0.48 -0.09,0 -0.195,0.015 -0.315,0.045 l -2.175,0.585 c -0.315,0.09 -0.48,0.27 -0.48,0.51 0,0.27 0.195,0.465 0.51,0.465 0.075,0 0.15,-0.015 0.225,-0.03"
       inkscape:connector-curvature="0" />
    <path
       id="path8850"
       style="font-size:15.0000124px;font-family:'Courier 10 Pitch';-inkscape-font-specification:'Courier 10 Pitch'"
       d="m 735.31999,252.0687 c 1.02,-0.36 1.485,-1.02 1.485,-2.04 0,-1.305 -1.08,-2.4 -2.655,-2.4 -1.485,0 -2.64,0.84 -2.64,1.335 0,0.27 0.21,0.465 0.48,0.465 0.45,0 1.005,-0.78 2.085,-0.78 0.87,0 1.515,0.645 1.515,1.59 0,0.72 -0.51,1.275 -1.275,1.395 -0.765,0.12 -0.99,0.015 -0.99,0.555 0,0.645 0.39,0.435 1.14,0.57 0.885,0.165 1.41,0.81 1.41,1.68 0,1.035 -0.78,1.785 -1.965,1.785 -1.17,0 -1.92,-0.75 -2.355,-0.75 -0.3,0 -0.54,0.21 -0.54,0.51 0,0.66 1.29,1.365 2.85,1.365 1.965,0 3.255,-1.245 3.255,-2.91 0,-1.185 -0.645,-2.055 -1.8,-2.37"
       inkscape:connector-curvature="0" />
    <path
       id="path8852"
       style="font-size:15.0000124px;font-family:'Courier 10 Pitch';-inkscape-font-specification:'Courier 10 Pitch'"
       d="m 740.14343,254.4387 6.07501,0 c 0.18,0 0.345,-0.165 0.345,-0.345 l 0,-0.78 c 0,-0.18 -0.12,-0.3 -0.345,-0.3 l -6.07501,0 c -0.195,0 -0.315,0.12 -0.315,0.3 l 0,0.78 c 0,0.21 0.12,0.345 0.315,0.345"
       inkscape:connector-curvature="0" />
    <path
       id="path8854"
       style="font-size:15.0000124px;font-family:'Courier 10 Pitch';-inkscape-font-specification:'Courier 10 Pitch'"
       d="m 750.47188,249.2487 1.38,-0.33 0,7.155 -1.215,0 c -0.69,0 -1.005,0.03 -1.005,0.51 0,0.345 0.195,0.525 0.585,0.525 l 4.38,0 c 0.39,0 0.585,-0.18 0.585,-0.525 0,-0.48 -0.315,-0.51 -1.005,-0.51 l -1.17,0 0,-7.92 c 0,-0.3 -0.12,-0.48 -0.3,-0.48 -0.09,0 -0.195,0.015 -0.315,0.045 l -2.175,0.585 c -0.315,0.09 -0.48,0.27 -0.48,0.51 0,0.27 0.195,0.465 0.51,0.465 0.075,0 0.15,-0.015 0.225,-0.03"
       inkscape:connector-curvature="0" />
    <path
       id="path8856"
       style="font-size:15.0000124px;font-family:'Courier 10 Pitch';-inkscape-font-specification:'Courier 10 Pitch'"
       d="m 758.70032,257.1087 4.83001,0 c 0.225,0 0.39,-0.165 0.42,-0.48 l 0.075,-0.57 c 0,-0.045 0.015,-0.105 0.015,-0.15 0,-0.39 -0.21,-0.6 -0.525,-0.6 -0.315,0 -0.51,0.21 -0.555,0.645 l -3.34501,0 0.9,-0.87 c 1.905,-1.89 3.46501,-3 3.46501,-4.74 0,-1.53 -1.21501,-2.715 -2.85001,-2.715 -0.99,0 -1.965,0.39 -2.58,0.99 -0.225,0.225 -0.24,0.36 -0.24,0.645 0,0.51 0.075,0.765 0.435,0.765 0.51,0 0.615,-0.435 0.795,-0.675 0.33,-0.435 0.945,-0.705 1.56,-0.705 0.945,0 1.60501,0.705 1.60501,1.755 0,1.23 -1.23001,2.25 -3.15001,4.065 -1.035,0.99 -1.62,1.485 -1.62,1.995 0,0.45 0.255,0.645 0.765,0.645"
       inkscape:connector-curvature="0" />
    <path
       id="path8858"
       style="font-size:15.0000124px;font-family:'Courier 10 Pitch';-inkscape-font-specification:'Courier 10 Pitch'"
       d="m 767.21377,254.4387 6.075,0 c 0.18,0 0.345,-0.165 0.345,-0.345 l 0,-0.78 c 0,-0.18 -0.12,-0.3 -0.345,-0.3 l -6.075,0 c -0.195,0 -0.315,0.12 -0.315,0.3 l 0,0.78 c 0,0.21 0.12,0.345 0.315,0.345"
       inkscape:connector-curvature="0" />
    <path
       id="path8860"
       style="font-size:15.0000124px;font-family:'Courier 10 Pitch';-inkscape-font-specification:'Courier 10 Pitch'"
       d="m 777.82721,252.3687 c -0.975,0.42 -1.515,1.23 -1.515,2.22 0,1.62 1.20001,2.76 2.98501,2.76 1.76999,0 2.985,-1.125 2.985,-2.73 0,-1.035 -0.54,-1.845 -1.53,-2.25 0.945,-0.45 1.44,-1.185 1.44,-2.145 0,-1.44 -1.17001,-2.595 -2.895,-2.595 -1.725,0 -2.89501,1.11 -2.89501,2.595 0,0.96 0.465,1.665 1.425,2.145 m -0.24,-2.145 c 0,-0.945 0.69001,-1.635 1.71001,-1.635 1.03499,0 1.71,0.72 1.71,1.62 0,0.99 -0.72001,1.665 -1.71,1.665 -1.005,0 -1.71001,-0.69 -1.71001,-1.65 m -0.075,4.395 c 0,-1.05 0.73501,-1.71 1.78501,-1.71 1.04999,0 1.785,0.675 1.785,1.71 0,1.035 -0.70501,1.71 -1.785,1.71 -1.095,0 -1.78501,-0.735 -1.78501,-1.71"
       inkscape:connector-curvature="0" />
  </g>
  <g
     transform="translate(-10.527551,26.427988)"
     id="g8862"
     style="font-style:normal;font-variant:normal;font-weight:normal;font-stretch:normal;font-size:40px;line-height:125%;font-family:'Giddyup Std';-inkscape-font-specification:'Giddyup Std';letter-spacing:0px;word-spacing:0px;fill:#000000;fill-opacity:1;stroke:none">
    <path
       id="path8864"
       style="font-size:15.0000124px;font-family:'Courier 10 Pitch';-inkscape-font-specification:'Courier 10 Pitch'"
       d="m 812.53028,256.9587 2.595,-7.845 c 0.09,-0.27 0.15,-0.465 0.15,-0.615 l 0,-0.255 c 0,-0.27 -0.135,-0.375 -0.405,-0.375 l -4.845,0 c -0.285,0 -0.465,0.15 -0.495,0.42 l -0.075,0.66 c -0.015,0.075 -0.015,0.135 -0.015,0.195 0,0.33 0.15,0.495 0.495,0.495 0.345,0 0.51,-0.225 0.54,-0.675 l 3.72,0 -2.88,7.815 c -0.03,0.09 -0.045,0.18 -0.045,0.24 0,0.135 0.12,0.225 0.315,0.225 l 0.525,0 c 0.045,0 0.075,0 0.12,0 0.165,0 0.21,-0.015 0.3,-0.285"
       inkscape:connector-curvature="0" />
    <path
       id="path8866"
       style="font-size:15.0000124px;font-family:'Courier 10 Pitch';-inkscape-font-specification:'Courier 10 Pitch'"
       d="m 818.38872,254.4387 6.07501,0 c 0.18,0 0.345,-0.165 0.345,-0.345 l 0,-0.78 c 0,-0.18 -0.12,-0.3 -0.345,-0.3 l -6.07501,0 c -0.195,0 -0.315,0.12 -0.315,0.3 l 0,0.78 c 0,0.21 0.12,0.345 0.315,0.345"
       inkscape:connector-curvature="0" />
    <path
       id="path8868"
       style="font-size:15.0000124px;font-family:'Courier 10 Pitch';-inkscape-font-specification:'Courier 10 Pitch'"
       d="m 830.29217,257.1087 2.37,0 c 0.39,0 0.585,-0.18 0.585,-0.525 0,-0.405 -0.24,-0.51 -0.825,-0.51 -0.075,0 -0.165,0 -0.255,0 l 0,-1.23 0.615,0 c 0.315,0 0.405,-0.135 0.465,-0.45 l 0.06,-0.3 c 0.03,-0.12 0.03,-0.21 0.03,-0.255 0,-0.21 -0.15,-0.36 -0.345,-0.36 -0.24,0 -0.15,0.255 -0.45,0.255 l -0.375,0 0,-5.565 c 0,-0.225 -0.075,-0.345 -0.225,-0.375 l -0.75,-0.12 c -0.075,-0.015 -0.135,-0.015 -0.195,-0.015 -0.165,0 -0.24,0.06 -0.36,0.27 l -3.09,5.25 c -0.12,0.195 -0.27,0.36 -0.27,0.705 l 0,0.51 c 0,0.3 0.15,0.45 0.39,0.45 l 3.42,0 0,1.23 -0.855,0 c -0.375,0 -0.54,0.15 -0.54,0.51 0,0.42 0.165,0.525 0.6,0.525 m 0.795,-3.375 -2.775,0 2.775,-4.965 0,4.965"
       inkscape:connector-curvature="0" />
    <path
       id="path8870"
       style="font-size:15.0000124px;font-family:'Courier 10 Pitch';-inkscape-font-specification:'Courier 10 Pitch'"
       d="m 836.43561,254.4387 6.07501,0 c 0.18,0 0.345,-0.165 0.345,-0.345 l 0,-0.78 c 0,-0.18 -0.12,-0.3 -0.345,-0.3 l -6.07501,0 c -0.195,0 -0.315,0.12 -0.315,0.3 l 0,0.78 c 0,0.21 0.12,0.345 0.315,0.345"
       inkscape:connector-curvature="0" />
    <path
       id="path8872"
       style="font-size:15.0000124px;font-family:'Courier 10 Pitch';-inkscape-font-specification:'Courier 10 Pitch'"
       d="m 845.96906,257.1087 4.83,0 c 0.225,0 0.39,-0.165 0.42,-0.48 l 0.075,-0.57 c 0,-0.045 0.015,-0.105 0.015,-0.15 0,-0.39 -0.21,-0.6 -0.525,-0.6 -0.315,0 -0.51,0.21 -0.555,0.645 l -3.345,0 0.9,-0.87 c 1.905,-1.89 3.465,-3 3.465,-4.74 0,-1.53 -1.215,-2.715 -2.85,-2.715 -0.99,0 -1.965,0.39 -2.58,0.99 -0.225,0.225 -0.24,0.36 -0.24,0.645 0,0.51 0.075,0.765 0.435,0.765 0.51,0 0.615,-0.435 0.795,-0.675 0.33,-0.435 0.945,-0.705 1.56,-0.705 0.945,0 1.605,0.705 1.605,1.755 0,1.23 -1.23,2.25 -3.15,4.065 -1.035,0.99 -1.62,1.485 -1.62,1.995 0,0.45 0.255,0.645 0.765,0.645"
       inkscape:connector-curvature="0" />
  </g>
  <g
     transform="translate(-8.7559442,26.427988)"
     id="g8874"
     style="font-style:normal;font-variant:normal;font-weight:normal;font-stretch:normal;font-size:40px;line-height:125%;font-family:'Giddyup Std';-inkscape-font-specification:'Giddyup Std';letter-spacing:0px;word-spacing:0px;fill:#000000;fill-opacity:1;stroke:none">
    <path
       id="path8876"
       style="font-size:15.0000124px;font-family:'Courier 10 Pitch';-inkscape-font-specification:'Courier 10 Pitch'"
       d="m 888.57066,252.3087 c 0.255,-2.07 1.275,-3.345 2.79,-3.63 1.035,-0.195 1.785,0.135 1.785,-0.555 0,-0.42 -0.315,-0.495 -1.17,-0.495 -2.79,0 -4.665,2.175 -4.665,5.52 0,2.58 1.275,4.2 3.18,4.2 1.635,0 2.79,-1.275 2.79,-3.045 0,-1.74 -1.275,-3.015 -2.775,-3.015 -0.765,0 -1.41,0.345 -1.935,1.02 m 0.165,1.95 c 0,-1.125 0.705,-1.905 1.635,-1.905 0.96,0 1.665,0.81 1.665,2.01 0,1.185 -0.69,1.935 -1.605,1.935 -0.96,0 -1.695,-0.795 -1.695,-2.04"
       inkscape:connector-curvature="0" />
    <path
       id="path8878"
       style="font-size:15.0000124px;font-family:'Courier 10 Pitch';-inkscape-font-specification:'Courier 10 Pitch'"
       d="m 896.2741,254.4387 6.07501,0 c 0.18,0 0.345,-0.165 0.345,-0.345 l 0,-0.78 c 0,-0.18 -0.12,-0.3 -0.345,-0.3 l -6.07501,0 c -0.195,0 -0.315,0.12 -0.315,0.3 l 0,0.78 c 0,0.21 0.12,0.345 0.315,0.345"
       inkscape:connector-curvature="0" />
    <path
       id="path8880"
       style="font-size:15.0000124px;font-family:'Courier 10 Pitch';-inkscape-font-specification:'Courier 10 Pitch'"
       d="m 906.70755,251.3787 0,-2.37 3.315,0 c 0.45,0 0.705,-0.21 0.705,-0.57 0,-0.375 -0.225,-0.57 -0.705,-0.57 l -3.705,0 c -0.465,0 -0.675,0.105 -0.675,0.45 l 0,3.645 c 0,0.465 0.045,0.75 0.405,0.75 0.435,0 0.915,-0.66 2.055,-0.66 1.17,0 2.04,0.915 2.04,2.115 0,1.215 -0.87,2.115 -2.205,2.115 -1.14,0 -1.95,-0.57 -2.31,-0.57 -0.285,0 -0.51,0.24 -0.51,0.495 0,0.6 1.17,1.14 2.895,1.14 1.995,0 3.36,-1.395 3.36,-3.225 0,-1.74 -1.245,-3.09 -2.985,-3.09 -0.51,0 -1.065,0.12 -1.68,0.345"
       inkscape:connector-curvature="0" />
    <path
       id="path8882"
       style="font-size:15.0000124px;font-family:'Courier 10 Pitch';-inkscape-font-specification:'Courier 10 Pitch'"
       d="m 914.32099,254.4387 6.07501,0 c 0.18,0 0.345,-0.165 0.345,-0.345 l 0,-0.78 c 0,-0.18 -0.12,-0.3 -0.345,-0.3 l -6.07501,0 c -0.195,0 -0.315,0.12 -0.315,0.3 l 0,0.78 c 0,0.21 0.12,0.345 0.315,0.345"
       inkscape:connector-curvature="0" />
    <path
       id="path8884"
       style="font-size:15.0000124px;font-family:'Courier 10 Pitch';-inkscape-font-specification:'Courier 10 Pitch'"
       d="m 927.54444,252.0687 c 1.02,-0.36 1.485,-1.02 1.485,-2.04 0,-1.305 -1.08,-2.4 -2.655,-2.4 -1.485,0 -2.64,0.84 -2.64,1.335 0,0.27 0.21,0.465 0.48,0.465 0.45,0 1.005,-0.78 2.085,-0.78 0.87,0 1.515,0.645 1.515,1.59 0,0.72 -0.51,1.275 -1.275,1.395 -0.765,0.12 -0.99,0.015 -0.99,0.555 0,0.645 0.39,0.435 1.14,0.57 0.885,0.165 1.41,0.81 1.41,1.68 0,1.035 -0.78,1.785 -1.965,1.785 -1.17,0 -1.92,-0.75 -2.355,-0.75 -0.3,0 -0.54,0.21 -0.54,0.51 0,0.66 1.29,1.365 2.85,1.365 1.965,0 3.255,-1.245 3.255,-2.91 0,-1.185 -0.645,-2.055 -1.8,-2.37"
       inkscape:connector-curvature="0" />
  </g>
  <g
     transform="translate(-9.9196312,26.427988)"
     id="g8886"
     style="font-style:normal;font-variant:normal;font-weight:normal;font-stretch:normal;font-size:40px;line-height:125%;font-family:'Giddyup Std';-inkscape-font-specification:'Giddyup Std';letter-spacing:0px;word-spacing:0px;fill:#000000;fill-opacity:1;stroke:none">
    <path
       id="path8888"
       style="font-size:15.0000124px;font-family:'Courier 10 Pitch';-inkscape-font-specification:'Courier 10 Pitch'"
       d="m 957.28252,249.2487 1.38001,-0.33 0,7.155 -1.21501,0 c -0.69,0 -1.005,0.03 -1.005,0.51 0,0.345 0.195,0.525 0.585,0.525 l 4.38001,0 c 0.39,0 0.585,-0.18 0.585,-0.525 0,-0.48 -0.315,-0.51 -1.005,-0.51 l -1.17,0 0,-7.92 c 0,-0.3 -0.12,-0.48 -0.3,-0.48 -0.09,0 -0.195,0.015 -0.315,0.045 l -2.17501,0.585 c -0.315,0.09 -0.48,0.27 -0.48,0.51 0,0.27 0.195,0.465 0.51,0.465 0.075,0 0.15,-0.015 0.225,-0.03"
       inkscape:connector-curvature="0" />
    <path
       id="path8890"
       style="font-size:15.0000124px;font-family:'Courier 10 Pitch';-inkscape-font-specification:'Courier 10 Pitch'"
       d="m 966.30597,249.2487 1.38,-0.33 0,7.155 -1.215,0 c -0.69,0 -1.005,0.03 -1.005,0.51 0,0.345 0.195,0.525 0.585,0.525 l 4.38,0 c 0.39,0 0.585,-0.18 0.585,-0.525 0,-0.48 -0.315,-0.51 -1.005,-0.51 l -1.17,0 0,-7.92 c 0,-0.3 -0.12,-0.48 -0.3,-0.48 -0.09,0 -0.195,0.015 -0.315,0.045 l -2.175,0.585 c -0.315,0.09 -0.48,0.27 -0.48,0.51 0,0.27 0.195,0.465 0.51,0.465 0.075,0 0.15,-0.015 0.225,-0.03"
       inkscape:connector-curvature="0" />
    <path
       id="path8892"
       style="font-size:15.0000124px;font-family:'Courier 10 Pitch';-inkscape-font-specification:'Courier 10 Pitch'"
       d="m 974.02441,254.4387 6.07501,0 c 0.18,0 0.345,-0.165 0.345,-0.345 l 0,-0.78 c 0,-0.18 -0.12,-0.3 -0.345,-0.3 l -6.07501,0 c -0.195,0 -0.315,0.12 -0.315,0.3 l 0,0.78 c 0,0.21 0.12,0.345 0.315,0.345"
       inkscape:connector-curvature="0" />
    <path
       id="path8894"
       style="font-size:15.0000124px;font-family:'Courier 10 Pitch';-inkscape-font-specification:'Courier 10 Pitch'"
       d="m 984.35286,249.2487 1.38,-0.33 0,7.155 -1.215,0 c -0.69,0 -1.005,0.03 -1.005,0.51 0,0.345 0.195,0.525 0.585,0.525 l 4.38,0 c 0.39,0 0.585,-0.18 0.585,-0.525 0,-0.48 -0.315,-0.51 -1.005,-0.51 l -1.17,0 0,-7.92 c 0,-0.3 -0.12,-0.48 -0.3,-0.48 -0.09,0 -0.195,0.015 -0.315,0.045 l -2.175,0.585 c -0.315,0.09 -0.48,0.27 -0.48,0.51 0,0.27 0.195,0.465 0.51,0.465 0.075,0 0.15,-0.015 0.225,-0.03"
       inkscape:connector-curvature="0" />
    <path
       id="path8896"
       style="font-size:15.0000124px;font-family:'Courier 10 Pitch';-inkscape-font-specification:'Courier 10 Pitch'"
       d="m 995.13131,257.3487 c 1.785,0 3,-1.755 3,-4.86 0,-3.105 -1.215,-4.86 -3,-4.86 -1.785,0 -3.00001,1.755 -3.00001,4.86 0,3.105 1.21501,4.86 3.00001,4.86 m 0,-8.67 c 1.08,0 1.77,1.29 1.77,3.81 0,2.52 -0.69,3.825 -1.77,3.825 -1.08,0 -1.78501,-1.305 -1.78501,-3.825 0,-2.52 0.70501,-3.81 1.78501,-3.81"
       inkscape:connector-curvature="0" />
    <path
       id="path8898"
       style="font-size:15.0000124px;font-family:'Courier 10 Pitch';-inkscape-font-specification:'Courier 10 Pitch'"
       d="m 1001.0947,254.4387 6.0751,0 c 0.18,0 0.345,-0.165 0.345,-0.345 l 0,-0.78 c 0,-0.18 -0.12,-0.3 -0.345,-0.3 l -6.0751,0 c -0.195,0 -0.315,0.12 -0.315,0.3 l 0,0.78 c 0,0.21 0.12,0.345 0.315,0.345"
       inkscape:connector-curvature="0" />
    <path
       id="path8900"
       style="font-size:15.0000124px;font-family:'Courier 10 Pitch';-inkscape-font-specification:'Courier 10 Pitch'"
       d="m 1014.6932,250.7187 c 0,1.125 -0.735,1.905 -1.65,1.905 -0.96,0 -1.65,-0.81 -1.65,-2.01 0,-1.185 0.675,-1.935 1.59,-1.935 0.96,0 1.71,0.795 1.71,2.04 m 0.15,1.965 c -0.255,2.07 -1.26,3.315 -2.79,3.615 -1.02,0.195 -1.785,-0.135 -1.785,0.57 0,0.405 0.315,0.48 1.125,0.48 2.88,0 4.725,-2.16 4.725,-5.505 0,-2.595 -1.305,-4.215 -3.195,-4.215 -1.62,0 -2.775,1.275 -2.775,3.06 0,1.74 1.275,3 2.775,3 0.765,0 1.38,-0.33 1.92,-1.005"
       inkscape:connector-curvature="0" />
  </g>
  <g
     transform="translate(-8.7559442,26.427988)"
     id="g8902"
     style="font-style:normal;font-variant:normal;font-weight:normal;font-stretch:normal;font-size:40px;line-height:125%;font-family:'Giddyup Std';-inkscape-font-specification:'Giddyup Std';letter-spacing:0px;word-spacing:0px;fill:#000000;fill-opacity:1;stroke:none">
    <path
       id="path8904"
       style="font-size:40.00003433px;font-family:'Courier 10 Pitch';-inkscape-font-specification:'Courier 10 Pitch'"
       d="m 898.88754,269.10619 c 0,0.76 0.32,1.2 0.96,1.2 0.88,0 2.16,-1.44 4.4,-1.44 2.68,0 5.40001,1.68001 8.08001,1.68001 2.84,0 5.44001,-1.84001 5.44001,-3.16001 0,-0.76 -0.32001,-1.2 -0.96001,-1.2 -0.92,0 -2.16,1.44 -4.4,1.44 -2.64,0 -5.40001,-1.68 -8.08001,-1.68 -2.88,0 -5.44,1.84 -5.44,3.16"
       inkscape:connector-curvature="0" />
  </g>
  <g
     transform="translate(-9.9196362,26.427988)"
     id="g8906"
     style="font-style:normal;font-variant:normal;font-weight:normal;font-stretch:normal;font-size:40px;line-height:125%;font-family:'Giddyup Std';-inkscape-font-specification:'Giddyup Std';letter-spacing:0px;word-spacing:0px;fill:#000000;fill-opacity:1;stroke:none">
    <path
       id="path8908"
       style="font-size:40.00003433px;font-family:'Courier 10 Pitch';-inkscape-font-specification:'Courier 10 Pitch'"
       d="m 976.84036,269.10619 c 0,0.76 0.32,1.2 0.96,1.2 0.88,0 2.16,-1.44 4.4,-1.44 2.68,0 5.40001,1.68001 8.08001,1.68001 2.84,0 5.44,-1.84001 5.44,-3.16001 0,-0.76 -0.32,-1.2 -0.96,-1.2 -0.92,0 -2.16,1.44 -4.4,1.44 -2.64,0 -5.40001,-1.68 -8.08001,-1.68 -2.88,0 -5.44,1.84 -5.44,3.16"
       inkscape:connector-curvature="0" />
  </g>
  <g
     transform="translate(-12.299224,12.427975)"
     id="g8910"
     style="font-style:normal;font-variant:normal;font-weight:normal;font-stretch:normal;font-size:40px;line-height:125%;font-family:'Giddyup Std';-inkscape-font-specification:'Giddyup Std';letter-spacing:0px;word-spacing:0px;fill:#000000;fill-opacity:1;stroke:none">
    <path
       id="path8912"
       style="font-size:40.00003433px;font-family:'Courier 10 Pitch';-inkscape-font-specification:'Courier 10 Pitch'"
       d="m 739.35059,104.41117 -6.64,17.60001 c -0.16,0 -0.32,0 -0.48,0 -1.32,0 -1.84,0.32001 -1.84,1.36001 0,1.2 0.56,1.4 2.04,1.4 l 5.12,0 c 1.52,0 2.28,-0.12 2.28,-1.4 0,-1.12 -0.72,-1.36001 -2.24,-1.36001 l -1.88,0 1.68,-4.64 9.92001,0 1.88,4.64 -1.8,0 c -1.52,0 -2.2,0.24001 -2.2,1.36001 0,1.28 0.76,1.4 2.32,1.4 l 5.32001,0 c 1.28,0 1.76,-0.28 1.76,-1.4 0,-1.08 -0.48001,-1.36001 -1.84,-1.36001 -0.12,0 -0.20001,0 -0.32001,0 l -7.64,-19.08001 c -0.52,-1.28 -1.04,-1.32 -2.16,-1.32 l -5.56001,0 c -1.84,0 -2.72,0 -2.72,1.4 0,1.08 0.68,1.4 2.16,1.4 l 2.84,0 m -1,10.36001 3.76001,-10.36001 4.24,10.36001 -8.00001,0"
       inkscape:connector-curvature="0" />
    <path
       id="path8914"
       style="font-size:40.00003433px;font-family:'Courier 10 Pitch';-inkscape-font-specification:'Courier 10 Pitch'"
       d="m 766.45312,125.41119 c 4.76,0 8,-4.68001 8,-12.96001 0,-8.28 -3.24,-12.960015 -8,-12.960015 -4.76,0 -8.00001,4.680015 -8.00001,12.960015 0,8.28 3.24001,12.96001 8.00001,12.96001 m 0,-23.12002 c 2.88,0 4.72,3.44001 4.72,10.16001 0,6.72 -1.84,10.20001 -4.72,10.20001 -2.88,0 -4.76001,-3.48001 -4.76001,-10.20001 0,-6.72 1.88001,-10.16001 4.76001,-10.16001"
       inkscape:connector-curvature="0" />
  </g>
  <g
     transform="translate(-10.467556,12.427975)"
     id="g8916"
     style="font-style:normal;font-variant:normal;font-weight:normal;font-stretch:normal;font-size:40px;line-height:125%;font-family:'Giddyup Std';-inkscape-font-specification:'Giddyup Std';letter-spacing:0px;word-spacing:0px;fill:#000000;fill-opacity:1;stroke:none">
    <path
       id="path8918"
       style="font-size:40.00003433px;font-family:'Courier 10 Pitch';-inkscape-font-specification:'Courier 10 Pitch'"
       d="m 817.30341,104.41117 -6.64,17.60001 c -0.16,0 -0.32,0 -0.48,0 -1.32,0 -1.84,0.32001 -1.84,1.36001 0,1.2 0.56,1.4 2.04,1.4 l 5.12,0 c 1.52,0 2.28,-0.12 2.28,-1.4 0,-1.12 -0.72,-1.36001 -2.24,-1.36001 l -1.88,0 1.68,-4.64 9.92001,0 1.88,4.64 -1.8,0 c -1.52,0 -2.2,0.24001 -2.2,1.36001 0,1.28 0.76,1.4 2.32,1.4 l 5.32001,0 c 1.27999,0 1.76,-0.28 1.76,-1.4 0,-1.08 -0.48001,-1.36001 -1.84001,-1.36001 -0.11999,0 -0.2,0 -0.32,0 l -7.64,-19.08001 c -0.52,-1.28 -1.04,-1.32 -2.16,-1.32 l -5.56001,0 c -1.84,0 -2.72,0 -2.72,1.4 0,1.08 0.68,1.4 2.16,1.4 l 2.84,0 m -1,10.36001 3.76001,-10.36001 4.24,10.36001 -8.00001,0"
       inkscape:connector-curvature="0" />
    <path
       id="path8920"
       style="font-size:40.00003433px;font-family:'Courier 10 Pitch';-inkscape-font-specification:'Courier 10 Pitch'"
       d="m 839.72593,103.81117 3.68001,-0.88 0,19.08001 -3.24001,0 c -1.84,0 -2.68,0.08 -2.68,1.36001 0,0.92 0.52,1.4 1.56,1.4 l 11.68001,0 c 1.04,0 1.56,-0.48 1.56,-1.4 0,-1.28 -0.84,-1.36001 -2.68,-1.36001 l -3.12,0 0,-21.12001 c 0,-0.8 -0.32,-1.280005 -0.8,-1.280005 -0.24,0 -0.52,0.04 -0.84,0.12 l -5.80001,1.560005 c -0.84,0.24 -1.28,0.72 -1.28,1.36 0,0.72 0.52,1.24 1.36,1.24 0.2,0 0.4,-0.04 0.6,-0.08"
       inkscape:connector-curvature="0" />
  </g>
  <g
     transform="translate(-8.4759492,12.427975)"
     id="g8922"
     style="font-style:normal;font-variant:normal;font-weight:normal;font-stretch:normal;font-size:40px;line-height:125%;font-family:'Giddyup Std';-inkscape-font-specification:'Giddyup Std';letter-spacing:0px;word-spacing:0px;fill:#000000;fill-opacity:1;stroke:none">
    <path
       id="path8924"
       style="font-size:40.00003433px;font-family:'Courier 10 Pitch';-inkscape-font-specification:'Courier 10 Pitch'"
       d="m 895.25629,104.41117 -6.64,17.60001 c -0.16,0 -0.32,0 -0.48,0 -1.32,0 -1.84,0.32001 -1.84,1.36001 0,1.2 0.56,1.4 2.04,1.4 l 5.12,0 c 1.52,0 2.28,-0.12 2.28,-1.4 0,-1.12 -0.72,-1.36001 -2.24,-1.36001 l -1.88,0 1.68,-4.64 9.92001,0 1.88,4.64 -1.8,0 c -1.52,0 -2.2,0.24001 -2.2,1.36001 0,1.28 0.76,1.4 2.32,1.4 l 5.32001,0 c 1.28,0 1.76,-0.28 1.76,-1.4 0,-1.08 -0.48,-1.36001 -1.84,-1.36001 -0.12,0 -0.2,0 -0.32,0 l -7.64001,-19.08001 c -0.52,-1.28 -1.04,-1.32 -2.16,-1.32 l -5.56001,0 c -1.84,0 -2.72,0 -2.72,1.4 0,1.08 0.68,1.4 2.16,1.4 l 2.84,0 m -1,10.36001 3.76001,-10.36001 4.24,10.36001 -8.00001,0"
       inkscape:connector-curvature="0" />
    <path
       id="path8926"
       style="font-size:40.00003433px;font-family:'Courier 10 Pitch';-inkscape-font-specification:'Courier 10 Pitch'"
       d="m 915.55881,124.77119 12.88001,0 c 0.6,0 1.04,-0.44 1.12,-1.28 l 0.2,-1.52001 c 0,-0.12 0.04,-0.28 0.04,-0.4 0,-1.04 -0.56,-1.6 -1.4,-1.6 -0.84,0 -1.36,0.56 -1.48,1.72 l -8.92001,0 2.40001,-2.32 c 5.08,-5.04 9.24,-8.00001 9.24,-12.64001 0,-4.08 -3.24,-7.240005 -7.6,-7.240005 -2.64,0 -5.24001,1.040005 -6.88001,2.640005 -0.6,0.6 -0.64,0.96 -0.64,1.72 0,1.36 0.2,2.04 1.16,2.04 1.36,0 1.64,-1.16 2.12,-1.8 0.88,-1.16 2.52001,-1.88 4.16001,-1.88 2.52,0 4.28,1.88 4.28,4.68 0,3.28 -3.28001,6.00001 -8.40001,10.84001 -2.76,2.64 -4.32,3.96001 -4.32,5.32001 0,1.2 0.68,1.72 2.04,1.72"
       inkscape:connector-curvature="0" />
  </g>
  <g
     transform="translate(-9.8395962,12.427975)"
     id="g8928"
     style="font-style:normal;font-variant:normal;font-weight:normal;font-stretch:normal;font-size:40px;line-height:125%;font-family:'Giddyup Std';-inkscape-font-specification:'Giddyup Std';letter-spacing:0px;word-spacing:0px;fill:#000000;fill-opacity:1;stroke:none">
    <path
       id="path8930"
       style="font-size:40.00003433px;font-family:'Courier 10 Pitch';-inkscape-font-specification:'Courier 10 Pitch'"
       d="m 973.20905,104.41117 -6.64,17.60001 c -0.16,0 -0.32,0 -0.48,0 -1.32,0 -1.84,0.32001 -1.84,1.36001 0,1.2 0.56,1.4 2.04,1.4 l 5.12,0 c 1.52,0 2.28,-0.12 2.28,-1.4 0,-1.12 -0.72,-1.36001 -2.24,-1.36001 l -1.88,0 1.68,-4.64 9.92001,0 1.88,4.64 -1.8,0 c -1.52,0 -2.2,0.24001 -2.2,1.36001 0,1.28 0.76,1.4 2.32,1.4 l 5.32,0 c 1.28,0 1.76001,-0.28 1.76001,-1.4 0,-1.08 -0.48001,-1.36001 -1.84001,-1.36001 -0.12,0 -0.2,0 -0.32,0 l -7.64,-19.08001 c -0.52,-1.28 -1.04,-1.32 -2.16,-1.32 l -5.56001,0 c -1.84,0 -2.72,0 -2.72,1.4 0,1.08 0.68,1.4 2.16,1.4 l 2.84,0 m -1,10.36001 3.76001,-10.36001 4.24,10.36001 -8.00001,0"
       inkscape:connector-curvature="0" />
    <path
       id="path8932"
       style="font-size:40.00003433px;font-family:'Courier 10 Pitch';-inkscape-font-specification:'Courier 10 Pitch'"
       d="m 1003.3516,111.33118 c 2.72,-0.96 3.96,-2.72001 3.96,-5.44001 0,-3.48 -2.88,-6.400005 -7.08,-6.400005 -3.96002,0 -7.04003,2.240005 -7.04003,3.560005 0,0.72 0.56,1.24 1.28,1.24 1.2,0 2.68001,-2.08 5.56003,-2.08 2.32,0 4.04,1.72 4.04,4.24 0,1.92 -1.36,3.4 -3.4,3.72 -2.04002,0.32 -2.64003,0.04 -2.64003,1.48001 0,1.72 1.04001,1.16 3.04003,1.52 2.36,0.44 3.76,2.16 3.76,4.48 0,2.76 -2.08,4.76 -5.24002,4.76 -3.12,0 -5.12001,-2 -6.28001,-2 -0.8,0 -1.44,0.56 -1.44,1.36 0,1.76 3.44001,3.64001 7.60001,3.64001 5.24002,0 8.68002,-3.32001 8.68002,-7.76001 0,-3.16 -1.72,-5.48 -4.8,-6.32"
       inkscape:connector-curvature="0" />
  </g>
  <g
     id="g8934"
     style="font-style:normal;font-variant:normal;font-weight:normal;font-stretch:normal;font-size:40px;line-height:125%;font-family:'Giddyup Std';-inkscape-font-specification:'Giddyup Std';letter-spacing:0px;word-spacing:0px;fill:#000000;fill-opacity:1;stroke:none"
     transform="matrix(0,-1,1,0,-7.5669382,20.779467)">
    <path
       id="path8936"
       style="font-size:20.00001717px;font-family:'Courier 10 Pitch';-inkscape-font-specification:'Courier 10 Pitch'"
       d="m -405.77848,505.06175 -2.14,-6.12 c -0.18,-0.5 -0.5,-0.66 -1.06,-0.66 l -1.6,0 c -0.42,0 -0.64,0.24 -0.64,0.66 0,0.52 0.26,0.66 0.94,0.66 0.06,0 0.1,0 0.16,0 l -0.28,8.88 c -0.12,0 -0.22,0 -0.32,0 -0.7,0 -0.96,0.14 -0.96,0.68 0,0.46 0.22,0.70001 0.68,0.70001 l 2.74,0 c 0.68,0 0.98,-0.10001 0.98,-0.70001 0,-0.52 -0.32,-0.7 -1.04,-0.7 -0.44,0 -0.66,0.02 -0.66,0.02 l 0.18,-8.4 1.96,5.62 c 0.18,0.54 0.44,0.72 0.98,0.72 0.56,0 0.82,-0.18 1,-0.72 l 1.92001,-5.62 0.22,8.4 c -0.14,0 -0.28,0 -0.42,0 -0.82,0 -1.18001,0.12 -1.18001,0.68 0,0.6 0.30001,0.70001 0.98001,0.70001 l 2.74,0 c 0.46,0 0.68,-0.24001 0.68,-0.70001 0,-0.54 -0.26,-0.68 -0.96,-0.68 -0.1,0 -0.2,0 -0.32,0 l -0.28,-8.88 c 0.06,0 0.1,0 0.16,0 0.68,0 0.94,-0.14 0.94,-0.66 0,-0.42 -0.22,-0.66 -0.64,-0.66 l -1.62,0 c -0.56,0 -0.88,0.16 -1.06,0.66 l -2.08001,6.12"
       inkscape:connector-curvature="0" />
    <path
       id="path8938"
       style="font-size:20.00001717px;font-family:'Courier 10 Pitch';-inkscape-font-specification:'Courier 10 Pitch'"
       d="m -395.28722,499.68175 -3.32,8.8 c -0.08,0 -0.16,0 -0.24,0 -0.66,0 -0.92,0.16 -0.92,0.68 0,0.6 0.28,0.70001 1.02,0.70001 l 2.56,0 c 0.76,0 1.14,-0.06 1.14,-0.70001 0,-0.56 -0.36,-0.68 -1.12,-0.68 l -0.94,0 0.84,-2.32 4.96001,0 0.94,2.32 -0.9,0 c -0.76,0 -1.1,0.12 -1.1,0.68 0,0.64 0.38,0.70001 1.16,0.70001 l 2.66,0 c 0.64,0 0.88,-0.14001 0.88,-0.70001 0,-0.54 -0.24,-0.68 -0.92,-0.68 -0.06,0 -0.1,0 -0.16,0 l -3.82,-9.54 c -0.26,-0.64 -0.52001,-0.66 -1.08001,-0.66 l -2.78,0 c -0.92,0 -1.36,0 -1.36,0.7 0,0.54 0.34,0.7 1.08,0.7 l 1.42,0 m -0.5,5.18 1.88,-5.18 2.12001,5.18 -4.00001,0"
       inkscape:connector-curvature="0" />
    <path
       id="path8940"
       style="font-size:20.00001717px;font-family:'Courier 10 Pitch';-inkscape-font-specification:'Courier 10 Pitch'"
       d="m -378.05595,505.92175 0,2.56 -5.20001,0 0,-8.8 1.64,0 c 0.82,0 1.18001,-0.06 1.18001,-0.7 0,-0.46 -0.24,-0.7 -0.72,-0.7 -0.08,0 -0.24001,0 -0.46001,0 l -4.4,0 c -0.78,0 -1.16,0.04 -1.16,0.7 0,0.62 0.32,0.7 1.16,0.7 l 1.22,0 0,8.8 -1.22,0 c -0.84,0 -1.16,0.06 -1.16,0.68 0,0.46 0.22,0.70001 0.7,0.70001 0.2,0 0.36,0 0.46,0 l 8.66001,0 c 0.44,0 0.7,-0.26001 0.7,-0.72001 l 0,-3.22 c 0,-0.8 -0.04,-1.16 -0.7,-1.16 -0.62,0 -0.7,0.32 -0.7,1.16"
       inkscape:connector-curvature="0" />
    <path
       id="path8942"
       style="font-size:20.00001717px;font-family:'Courier 10 Pitch';-inkscape-font-specification:'Courier 10 Pitch'"
       d="m -366.74469,508.48175 -2.20001,0 0,-8.8 2.20001,0 c 0.84,0 1.18,-0.08 1.18,-0.7 0,-0.46 -0.24,-0.7 -0.72,-0.7 -0.22,0 -0.38,0 -0.46,0 l -5.92001,0 c -0.78,0 -1.18,0.04 -1.18,0.7 0,0.62 0.34,0.7 1.18,0.7 l 2.18,0 0,8.8 -2.18,0 c -0.84,0 -1.18,0.06 -1.18,0.68 0,0.46 0.24,0.70001 0.72,0.70001 0.12,0 0.28,0 0.46,0 l 5.92001,0 c 0.8,0 1.18,-0.04 1.18,-0.70001 0,-0.62 -0.34,-0.68 -1.18,-0.68"
       inkscape:connector-curvature="0" />
    <path
       id="path8944"
       style="font-size:20.00001717px;font-family:'Courier 10 Pitch';-inkscape-font-specification:'Courier 10 Pitch'"
       d="m -360.33344,508.48175 0,-7.98 5.20001,8.96001 c 0.32,0.53999 0.3,0.56 0.84,0.56 0.04,0 0.08,0 0.12,0 0.48,0 0.72,-0.02 0.72,-0.5 l 0,-9.84001 c 0.04,0 0.1,0 0.14,0 0.72,0 0.98,-0.16 0.98,-0.7 0,-0.46 -0.22,-0.7 -0.7,-0.7 -0.22,0 -0.38,0 -0.46,0 l -2.34,0 c -0.72,0 -1.06,0.08 -1.06,0.7 0,0.5 0.32,0.7 1,0.7 0.36,0 0.58,0 0.7,0 l 0.38,0 0,7.72 -4.92001,-8.5 c -0.3,-0.54 -0.42,-0.62 -1.06,-0.62 l -0.92,0 c -1.08,0 -1.64,0.02 -1.64,0.7 0,0.62 0.5,0.7 1.64,0.7 l 0,8.8 c -0.06,0 -0.12,0 -0.18,0 -0.7,0 -0.98,0.12 -0.98,0.68 0,0.46 0.22,0.70001 0.7,0.70001 0.08,0 0.24,0 0.46,0 l 2.44,0 c 0.78,0 1.14001,-0.06 1.14001,-0.70001 0,-0.5 -0.32001,-0.68 -1.00001,-0.68 -0.12,0 -0.34,0 -0.7,0 l -0.5,0"
       inkscape:connector-curvature="0" />
    <path
       id="path8946"
       style="font-size:20.00001717px;font-family:'Courier 10 Pitch';-inkscape-font-specification:'Courier 10 Pitch'"
       d="m -349.82218,509.86176 8.06001,0 c 0.44,0 0.68,-0.26001 0.68,-0.72001 l 0,-2.46 c 0,-0.66 -0.12,-0.96 -0.68,-0.96 -0.64,0 -0.7,0.36 -0.7,1.18 l 0,1.58 -5.2,0 0,-4.32 2.56,0 c 0,0.1 0,0.2 0,0.28 0,0.84 0.1,1.2 0.62,1.2 0.58,0 0.62,-0.36 0.62,-1.14 l 0,-1.82 c 0,-0.8 -0.08,-1.16 -0.62,-1.16 -0.5,0 -0.64,0.28 -0.64,0.94 0,0.04 0.02,0.22 0.02,0.52 l -2.56,0 0,-3.3 5.2,0 0,1.4 c 0,0.18 0,0.28 0,0.32 0,0.6 0.18,0.86 0.7,0.86 0.54,0 0.68,-0.28 0.68,-0.9 l 0,-2.3 c 0,-0.52 -0.24,-0.78 -0.68,-0.78 l -8.06001,0 c -0.78,0 -1.18,0.04 -1.18,0.7 0,0.62 0.34,0.7 1.18,0.7 l 0.62,0 0,8.8 -0.62,0 c -0.84,0 -1.18,0.06 -1.18,0.68 0,0.46 0.24,0.70001 0.72,0.70001 0.2,0 0.36,0 0.46,0"
       inkscape:connector-curvature="0" />
    <path
       id="path8948"
       style="font-size:20.00001717px;font-family:'Courier 10 Pitch';-inkscape-font-specification:'Courier 10 Pitch'"
       d="m -337.27092,502.22175 0.08,-2.54 2.8,0 0,8.8 -1.48,0 c -0.18,0 -0.28,0 -0.32,0 -0.6,0 -0.84,0.16 -0.84,0.68 0,0.46 0.24,0.70001 0.68,0.70001 l 5.48001,0 c 0.44,0 0.68,-0.24001 0.68,-0.70001 0,-0.48 -0.24,-0.68 -0.78,-0.68 -0.06,0 -0.18,0 -0.38,0 l -1.5,0 0,-8.8 2.8,0 0.1,2.54 c 0.02,0.84 0.08,1.14 0.76,1.14 0.44,0 0.68,-0.24 0.68,-0.7 0,-0.04 -0.02,-0.18 -0.02,-0.48 l -0.1,-3.22 c -0.02,-0.48 -0.24,-0.68 -0.74,-0.68 l -8.48001,0 c -0.5,0 -0.72,0.2 -0.74,0.68 l -0.1,3.22 c -0.02,0.3 -0.02,0.46 -0.02,0.46 0,0.48 0.24,0.72 0.68,0.72 0.68,0 0.74,-0.3 0.76,-1.14"
       inkscape:connector-curvature="0" />
    <path
       id="path8950"
       style="font-size:20.00001717px;font-family:'Courier 10 Pitch';-inkscape-font-specification:'Courier 10 Pitch'"
       d="m -325.23965,502.22175 0.08,-2.54 2.8,0 0,8.8 -1.48,0 c -0.18,0 -0.28,0 -0.32,0 -0.6,0 -0.84,0.16 -0.84,0.68 0,0.46 0.24,0.70001 0.68,0.70001 l 5.48,0 c 0.44,0 0.68,-0.24001 0.68,-0.70001 0,-0.48 -0.24,-0.68 -0.78,-0.68 -0.06,0 -0.18,0 -0.38,0 l -1.5,0 0,-8.8 2.8,0 0.1,2.54 c 0.02,0.84 0.08,1.14 0.76,1.14 0.44,0 0.68,-0.24 0.68,-0.7 0,-0.04 -0.02,-0.18 -0.02,-0.48 l -0.1,-3.22 c -0.02,-0.48 -0.24,-0.68 -0.74,-0.68 l -8.48,0 c -0.5,0 -0.72,0.2 -0.74,0.68 l -0.1,3.22 c -0.02,0.3 -0.02,0.46 -0.02,0.46 0,0.48 0.24,0.72 0.68,0.72 0.68,0 0.74,-0.3 0.76,-1.14"
       inkscape:connector-curvature="0" />
    <path
       id="path8952"
       style="font-size:20.00001717px;font-family:'Courier 10 Pitch';-inkscape-font-specification:'Courier 10 Pitch'"
       d="m -313.7284,509.86176 8.06001,0 c 0.44,0 0.68,-0.26001 0.68,-0.72001 l 0,-2.46 c 0,-0.66 -0.12,-0.96 -0.68,-0.96 -0.64,0 -0.7,0.36 -0.7,1.18 l 0,1.58 -5.2,0 0,-4.32 2.56,0 c 0,0.1 0,0.2 0,0.28 0,0.84 0.1,1.2 0.62,1.2 0.58,0 0.62,-0.36 0.62,-1.14 l 0,-1.82 c 0,-0.8 -0.08,-1.16 -0.62,-1.16 -0.5,0 -0.64,0.28 -0.64,0.94 0,0.04 0.02,0.22 0.02,0.52 l -2.56,0 0,-3.3 5.2,0 0,1.4 c 0,0.18 0,0.28 0,0.32 0,0.6 0.18,0.86 0.7,0.86 0.54,0 0.68,-0.28 0.68,-0.9 l 0,-2.3 c 0,-0.52 -0.24,-0.78 -0.68,-0.78 l -8.06001,0 c -0.78,0 -1.18,0.04 -1.18,0.7 0,0.62 0.34,0.7 1.18,0.7 l 0.62,0 0,8.8 -0.62,0 c -0.84,0 -1.18,0.06 -1.18,0.68 0,0.46 0.24,0.70001 0.72,0.70001 0.2,0 0.36,0 0.46,0"
       inkscape:connector-curvature="0" />
    <path
       id="path8954"
       style="font-size:20.00001717px;font-family:'Courier 10 Pitch';-inkscape-font-specification:'Courier 10 Pitch'"
       d="m -410.01848,524.68177 0,6.12 c 0,2.74 1.7,4.38001 4.22,4.38001 2.84,0 4.24001,-1.56001 4.24001,-4.74001 l 0,-5.76 c 0.04,0 0.1,0 0.14,0 0.72,0 0.98,-0.16 0.98,-0.7 0,-0.46 -0.22,-0.7 -0.7,-0.7 -0.16,0 -0.3,0 -0.46,0 l -2.16,0 c -0.72,0 -1.06001,0.08 -1.06001,0.7 0,0.58 0.38001,0.7 1.28001,0.7 0.16,0 0.34,0 0.52,0 l 0,5.54 c 0,2.38 -0.72001,3.56001 -2.68001,3.56001 -0.98,0 -1.84,-0.46001 -2.3,-1.26001 -0.44,-0.78 -0.44,-1.56 -0.44,-2.48 l 0,-5.36 c 0.16,0 0.3,0 0.42,0 0.86,0 1.22,-0.12 1.22,-0.7 0,-0.68 -0.4,-0.7 -1.22,-0.7 l -2,0 c -0.78,0 -1.18,0.04 -1.18,0.7 0,0.54 0.28,0.7 0.94,0.7 0.08,0 0.16,0 0.24,0"
       inkscape:connector-curvature="0" />
    <path
       id="path8956"
       style="font-size:20.00001717px;font-family:'Courier 10 Pitch';-inkscape-font-specification:'Courier 10 Pitch'"
       d="m -396.62722,534.52178 c 0.98,0.44 1.88,0.68 2.88,0.68 2.74,0 4.50001,-1.46001 4.50001,-3.62001 0,-1.84 -1.16001,-2.94 -3.44,-3.24 l -1.56001,-0.2 c -1.5,-0.2 -2.24,-0.78 -2.24,-1.76 0,-1.24 1.06,-2.12 2.66,-2.12 1.04,0 1.88001,0.4 2.30001,1.02 0.42,0.62 0.3,1.34 1.08,1.34 0.46,0 0.74,-0.26 0.74,-0.72 0,-0.04 0,-0.06 0,-0.1 l -0.14,-2.04 c -0.04,-0.52 -0.1,-0.74 -0.8,-0.74 -0.44,0 -0.62,0.12 -0.62,0.5 -0.9,-0.36 -1.68001,-0.58 -2.48001,-0.58 -2.52,0 -4.32,1.58 -4.32,3.52 0,1.96 1.28,2.9 3.88,3.26 l 1.44001,0.2 c 1.23999,0.18 1.9,0.82 1.9,1.84 0,1.2 -1.10001,2.12001 -2.84001,2.12001 -1.4,0 -2.42,-0.56001 -2.84,-1.42001 -0.36,-0.72 -0.26,-1.48 -1.08,-1.48 -0.6,0 -0.76,0.28 -0.76,0.84 0,0.06 0,0.12 0,0.2 l 0.12,2.26001 c 0.04,0.7 0.28,1.02 0.84,1.02 0.54,0 0.72,-0.2 0.78,-0.78"
       inkscape:connector-curvature="0" />
    <path
       id="path8958"
       style="font-size:20.00001717px;font-family:'Courier 10 Pitch';-inkscape-font-specification:'Courier 10 Pitch'"
       d="m -381.85596,534.86178 c 0.24,0 0.48001,0 0.70001,0 1.22,0 2.28,-0.06 3.26,-0.78 0.82,-0.62 1.28,-1.54001 1.28,-2.56001 0,-1.4 -0.66,-2.3 -2.08,-2.8 0.88,-0.5 1.32,-1.28 1.32,-2.3 0,-2 -1.42001,-3.14 -4.24001,-3.14 l -4.56,0 c -0.44,0 -0.68,0.24 -0.68,0.7 0,0.64 0.34,0.7 1.18,0.7 l 0.32,0 0,8.80001 -0.34,0 c -0.86,0 -1.22,0.02 -1.22,0.68 0,0.46 0.22,0.7 0.68,0.7 l 4.38,0 m -1.96,-6.58001 0,-3.6 2.42,0 c 1.54,0 2.34001,0.66 2.34001,1.8 0,1.24 -0.90001,1.8 -2.72001,1.8 l -2.04,0 m 0,5.20001 0,-4.00001 2.26,0 c 2.14,0 3.24001,0.4 3.24001,2 0,1.56 -1.10001,2.00001 -3.34001,2.00001 l -2.16,0"
       inkscape:connector-curvature="0" />
    <path
       id="path8960"
       style="font-size:20.00001717px;font-family:'Courier 10 Pitch';-inkscape-font-specification:'Courier 10 Pitch'"
       d="m -360.53344,534.52178 c 0.98,0.44 1.88001,0.68 2.88001,0.68 2.74,0 4.5,-1.46001 4.5,-3.62001 0,-1.84 -1.16,-2.94 -3.44,-3.24 l -1.56,-0.2 c -1.5,-0.2 -2.24001,-0.78 -2.24001,-1.76 0,-1.24 1.06001,-2.12 2.66001,-2.12 1.04,0 1.88,0.4 2.3,1.02 0.42,0.62 0.3,1.34 1.08,1.34 0.46,0 0.74,-0.26 0.74,-0.72 0,-0.04 0,-0.06 0,-0.1 l -0.14,-2.04 c -0.04,-0.52 -0.1,-0.74 -0.8,-0.74 -0.44,0 -0.62,0.12 -0.62,0.5 -0.9,-0.36 -1.68,-0.58 -2.48,-0.58 -2.52,0 -4.32001,1.58 -4.32001,3.52 0,1.96 1.28001,2.9 3.88001,3.26 l 1.44,0.2 c 1.24,0.18 1.9,0.82 1.9,1.84 0,1.2 -1.1,2.12001 -2.84,2.12001 -1.4,0 -2.42001,-0.56001 -2.84001,-1.42001 -0.36,-0.72 -0.26,-1.48 -1.08,-1.48 -0.6,0 -0.76,0.28 -0.76,0.84 0,0.06 0,0.12 0,0.2 l 0.12,2.26001 c 0.04,0.7 0.28,1.02 0.84,1.02 0.54,0 0.72,-0.2 0.78,-0.78"
       inkscape:connector-curvature="0" />
    <path
       id="path8962"
       style="font-size:20.00001717px;font-family:'Courier 10 Pitch';-inkscape-font-specification:'Courier 10 Pitch'"
       d="m -347.98217,533.48178 0,-4.06001 4.68,0 0,4.06001 c -0.18,0 -0.34,0 -0.48,0 -0.86,0 -1.22,0.12 -1.22,0.68 0,0.66 0.4,0.7 1.22,0.7 l 2,0 c 0.8,0 1.18,-0.04 1.18,-0.7 0,-0.54 -0.26,-0.68 -0.92,-0.68 -0.08,0 -0.16,0 -0.26,0 l 0,-8.80001 c 0.08,0 0.16,0 0.24,0 0.66,0 0.94,-0.16 0.94,-0.7 0,-0.46 -0.24,-0.7 -0.72,-0.7 -0.22,0 -0.38,0 -0.46,0 l -1.92,0 c -0.88,0 -1.3,0 -1.3,0.7 0,0.52 0.32,0.7 1.04,0.7 0.44,0 0.66,0 0.66,0 l 0,3.4 -4.68,0 0,-3.4 c 0.16,0 0.3,0 0.44,0 0.88,0 1.26,-0.12 1.26,-0.7 0,-0.66 -0.38,-0.7 -1.2,-0.7 l -2.04001,0 c -0.78,0 -1.16,0.04 -1.16,0.7 0,0.54 0.28,0.7 0.94,0.7 0.08,0 0.16,0 0.24,0 l 0,8.80001 c -0.1,0 -0.18,0 -0.26,0 -0.66,0 -0.92,0.14 -0.92,0.68 0,0.46 0.24,0.7 0.72,0.7 0.2,0 0.32,0 0.44,0 l 2.14001,0 c 0.74,0 1.1,-0.08 1.1,-0.7 0,-0.52 -0.32,-0.7 -1.04,-0.7 -0.44,0 -0.66,0.02 -0.66,0.02"
       inkscape:connector-curvature="0" />
    <path
       id="path8964"
       style="font-size:20.00001717px;font-family:'Courier 10 Pitch';-inkscape-font-specification:'Courier 10 Pitch'"
       d="m -330.65091,533.48178 -2.2,0 0,-8.80001 2.2,0 c 0.84,0 1.18,-0.08 1.18,-0.7 0,-0.46 -0.24,-0.7 -0.72,-0.7 -0.22,0 -0.38,0 -0.46,0 l -5.92001,0 c -0.78,0 -1.18,0.04 -1.18,0.7 0,0.62 0.34,0.7 1.18,0.7 l 2.18,0 0,8.80001 -2.18,0 c -0.84,0 -1.18,0.06 -1.18,0.68 0,0.46 0.24,0.7 0.72,0.7 0.12,0 0.28,0 0.46,0 l 5.92001,0 c 0.8,0 1.18,-0.04 1.18,-0.7 0,-0.62 -0.34,-0.68 -1.18,-0.68"
       inkscape:connector-curvature="0" />
    <path
       id="path8966"
       style="font-size:20.00001717px;font-family:'Courier 10 Pitch';-inkscape-font-specification:'Courier 10 Pitch'"
       d="m -325.75965,534.86178 8.06,0 c 0.44,0 0.68,-0.26 0.68,-0.72 l 0,-2.46001 c 0,-0.66 -0.12,-0.96 -0.68,-0.96 -0.64,0 -0.7,0.36 -0.7,1.18 l 0,1.58001 -5.2,0 0,-4.32001 2.56,0 c 0,0.1 0,0.2 0,0.28 0,0.84 0.1,1.2 0.62,1.2 0.58,0 0.62,-0.36 0.62,-1.14 l 0,-1.82 c 0,-0.8 -0.08,-1.16 -0.62,-1.16 -0.5,0 -0.64,0.28 -0.64,0.94 0,0.04 0.02,0.22 0.02,0.52 l -2.56,0 0,-3.3 5.2,0 0,1.4 c 0,0.18 0,0.28 0,0.32 0,0.6 0.18,0.86 0.7,0.86 0.54,0 0.68,-0.28 0.68,-0.9 l 0,-2.3 c 0,-0.52 -0.24,-0.78 -0.68,-0.78 l -8.06,0 c -0.78,0 -1.18,0.04 -1.18,0.7 0,0.62 0.34,0.7 1.18,0.7 l 0.62,0 0,8.80001 -0.62,0 c -0.84,0 -1.18,0.06 -1.18,0.68 0,0.46 0.24,0.7 0.72,0.7 0.2,0 0.36,0 0.46,0"
       inkscape:connector-curvature="0" />
    <path
       id="path8968"
       style="font-size:20.00001717px;font-family:'Courier 10 Pitch';-inkscape-font-specification:'Courier 10 Pitch'"
       d="m -305.86839,530.92177 0,2.56001 -5.2,0 0,-8.80001 1.64,0 c 0.82,0 1.18,-0.06 1.18,-0.7 0,-0.46 -0.24,-0.7 -0.72,-0.7 -0.08,0 -0.24,0 -0.46,0 l -4.40001,0 c -0.78,0 -1.16,0.04 -1.16,0.7 0,0.62 0.32,0.7 1.16,0.7 l 1.22001,0 0,8.80001 -1.22001,0 c -0.84,0 -1.16,0.06 -1.16,0.68 0,0.46 0.22,0.7 0.7,0.7 0.2,0 0.36,0 0.46,0 l 8.66001,0 c 0.44,0 0.7,-0.26 0.7,-0.72 l 0,-3.22001 c 0,-0.8 -0.04,-1.16 -0.7,-1.16 -0.62,0 -0.7,0.32 -0.7,1.16"
       inkscape:connector-curvature="0" />
    <path
       id="path8970"
       style="font-size:20.00001717px;font-family:'Courier 10 Pitch';-inkscape-font-specification:'Courier 10 Pitch'"
       d="m -299.85714,534.86178 c 0.5,0 0.96,0.04 1.38,0.04 2.04,0 3.44001,-0.38 4.48001,-1.46 1.04,-1.08 1.62,-2.60001 1.62,-4.36001 0,-3.6 -2.12001,-5.8 -5.32,-5.8 -0.38,0 -1.10001,0 -2.16001,0 l -1.54,0 c -0.78,0 -1.16,0.04 -1.16,0.7 0,0.54 0.28,0.7 0.94,0.7 0.08,0 0.16,0 0.24,0 l 0,8.80001 c -0.1,0 -0.18,0 -0.26,0 -0.66,0 -0.92,0.14 -0.92,0.68 0,0.46 0.24,0.7 0.72,0.7 0.2,0 0.32,0 0.44,0 l 1.54,0 m 0,-1.38 0,-8.80001 c 0.4,-0.04 0.78,-0.04 1.14,-0.04 3.28,0 4.72001,1.32 4.72001,4.44 0,3.08 -1.44001,4.46001 -4.64001,4.46001 -0.38,0 -0.8,-0.02 -1.22,-0.06"
       inkscape:connector-curvature="0" />
  </g>
  <g
     id="g8972"
     style="font-style:normal;font-variant:normal;font-weight:normal;font-stretch:normal;font-size:40px;line-height:125%;font-family:'Giddyup Std';-inkscape-font-specification:'Giddyup Std';letter-spacing:0px;word-spacing:0px;fill:#000000;fill-opacity:1;stroke:none"
     transform="matrix(0,-1,1,0,-5.9135646,21.866465)">
    <path
       id="path8974"
       style="font-size:8.00000668px;font-family:'Courier 10 Pitch';-inkscape-font-specification:'Courier 10 Pitch'"
       d="m -410.02271,549.48584 c -0.032,0 -0.056,0 -0.08,0 -0.32,0 -0.456,0.048 -0.456,0.272 0,0.184 0.104,0.28 0.312,0.28 l 1.04,0 c 0.232,0 0.312,-0.056 0.312,-0.28 0,-0.216 -0.104,-0.28 -0.376,-0.28 -0.048,0 -0.104,0.008 -0.168,0.008 l 0,-1.624 c 0,-0.584 0.544,-0.936 1.016,-0.936 0.512,0 0.824,0.312 0.824,0.936 l 0,1.624 c -0.072,0 -0.112,0 -0.152,0 -0.28,0 -0.384,0.056 -0.384,0.272 0,0.224 0.08,0.28 0.312,0.28 l 1.04,0 c 0.208,0 0.312,-0.096 0.312,-0.28 0,-0.2 -0.12,-0.272 -0.368,-0.272 -0.056,0 -0.112,0 -0.168,0 l 0,-1.768 c 0,-0.904 -0.536,-1.392 -1.28,-1.392 -0.408,0 -0.768,0.176 -1.144,0.528 l 0,-1.768 c 0,-0.096 -0.072,-0.16 -0.224,-0.16 l -0.592,0 c -0.208,0 -0.312,0.096 -0.312,0.28 0,0.2 0.112,0.272 0.36,0.272 0.056,0 0.12,0.008 0.176,0.008 l 0,4"
       inkscape:connector-curvature="0" />
    <path
       id="path8976"
       style="font-size:8.00000668px;font-family:'Courier 10 Pitch';-inkscape-font-specification:'Courier 10 Pitch'"
       d="m -402.6742,546.64584 -1.536,0 0,-0.792 c 0,-0.384 -0.032,-0.544 -0.312,-0.544 -0.208,0 -0.304,0.112 -0.304,0.328 0,0.104 0,0.176 0,0.208 l 0,0.8 -0.43201,0 c -0.376,0 -0.536,0.024 -0.536,0.28 0,0.192 0.096,0.272 0.312,0.272 l 0.65601,0 0,1.304 c 0,0.04 0,0.08 0,0.12 0,0.36 0.008,0.672 0.144,0.904 0.224,0.392 0.64,0.584 1.24,0.584 0.368,0 0.776,-0.104 1.264,-0.296 0.288,-0.112 0.432,-0.224 0.432,-0.408 0,-0.144 -0.128,-0.28 -0.272,-0.28 -0.312,0 -0.832,0.416 -1.464,0.416 -0.688,0 -0.736,-0.416 -0.736,-1.04 l 0,-1.304 1.584,0 c 0.216,0 0.328,-0.088 0.328,-0.272 0,-0.2 -0.12,-0.28 -0.368,-0.28"
       inkscape:connector-curvature="0" />
    <path
       id="path8978"
       style="font-size:8.00000668px;font-family:'Courier 10 Pitch';-inkscape-font-specification:'Courier 10 Pitch'"
       d="m -397.8617,546.64584 -1.536,0 0,-0.792 c 0,-0.384 -0.032,-0.544 -0.312,-0.544 -0.208,0 -0.304,0.112 -0.304,0.328 0,0.104 0,0.176 0,0.208 l 0,0.8 -0.432,0 c -0.376,0 -0.536,0.024 -0.536,0.28 0,0.192 0.096,0.272 0.312,0.272 l 0.656,0 0,1.304 c 0,0.04 0,0.08 0,0.12 0,0.36 0.008,0.672 0.144,0.904 0.224,0.392 0.64,0.584 1.24,0.584 0.368,0 0.776,-0.104 1.264,-0.296 0.288,-0.112 0.432,-0.224 0.432,-0.408 0,-0.144 -0.128,-0.28 -0.272,-0.28 -0.312,0 -0.832,0.416 -1.464,0.416 -0.688,0 -0.736,-0.416 -0.736,-1.04 l 0,-1.304 1.584,0 c 0.216,0 0.328,-0.088 0.328,-0.272 0,-0.2 -0.12,-0.28 -0.368,-0.28"
       inkscape:connector-curvature="0" />
    <path
       id="path8980"
       style="font-size:8.00000668px;font-family:'Courier 10 Pitch';-inkscape-font-specification:'Courier 10 Pitch'"
       d="m -393.9132,549.46984 c -0.728,0 -1.232,-0.52 -1.232,-1.224 0,-0.704 0.504,-1.224 1.232,-1.224 0.736,0 1.24,0.52 1.24,1.224 0,0.728 -0.52,1.224 -1.24,1.224 m -1.216,1.568 0,-1.56 c 0.32,0.368 0.8,0.568 1.352,0.568 1.024,0 1.77601,-0.72 1.77601,-1.76 0,-1.096 -0.81601,-1.864 -1.84001,-1.864 -0.496,0 -0.928,0.184 -1.28,0.544 l 0,-0.376 c 0,-0.112 -0.072,-0.16 -0.224,-0.16 l -0.6,0 c -0.208,0 -0.312,0.088 -0.312,0.272 0,0.2 0.12,0.28 0.368,0.28 0.056,0 0.12,0 0.176,0 l 0,4.056 c -0.024,0 -0.048,0 -0.072,0 -0.328,0 -0.472,0.056 -0.472,0.28 0,0.184 0.104,0.28 0.312,0.28 l 1.728,0 c 0.232,0 0.328,-0.064 0.328,-0.28 0,-0.184 -0.096,-0.28 -0.296,-0.28 l -0.944,0"
       inkscape:connector-curvature="0" />
    <path
       id="path8982"
       style="font-size:8.00000668px;font-family:'Courier 10 Pitch';-inkscape-font-specification:'Courier 10 Pitch'"
       d="m -390.06869,549.39784 c 0,0.4 0.304,0.696 0.768,0.696 0.464,0 0.768,-0.288 0.768,-0.696 0,-0.408 -0.304,-0.696 -0.768,-0.696 -0.464,0 -0.768,0.296 -0.768,0.696 m 0,-2.16 c 0,0.4 0.304,0.696 0.768,0.696 0.464,0 0.768,-0.288 0.768,-0.696 0,-0.408 -0.304,-0.696 -0.768,-0.696 -0.464,0 -0.768,0.296 -0.768,0.696"
       inkscape:connector-curvature="0" />
    <path
       id="path8984"
       style="font-size:8.00000668px;font-family:'Courier 10 Pitch';-inkscape-font-specification:'Courier 10 Pitch'"
       d="m -385.36819,550.14184 2.456,-5.288 c 0.024,-0.048 0.04,-0.096 0.04,-0.144 0,-0.152 -0.136,-0.264 -0.28,-0.264 -0.16,0 -0.24,0.112 -0.352,0.344 l -2.44,5.256 c -0.024,0.056 -0.04,0.112 -0.04,0.16 0,0.152 0.128,0.272 0.272,0.272 0.168,0 0.248,-0.12 0.344,-0.336"
       inkscape:connector-curvature="0" />
    <path
       id="path8986"
       style="font-size:8.00000668px;font-family:'Courier 10 Pitch';-inkscape-font-specification:'Courier 10 Pitch'"
       d="m -380.55569,550.14184 2.45601,-5.288 c 0.024,-0.048 0.04,-0.096 0.04,-0.144 0,-0.152 -0.136,-0.264 -0.28,-0.264 -0.16,0 -0.24,0.112 -0.352,0.344 l -2.44001,5.256 c -0.024,0.056 -0.04,0.112 -0.04,0.16 0,0.152 0.128,0.272 0.272,0.272 0.168,0 0.248,-0.12 0.344,-0.336"
       inkscape:connector-curvature="0" />
    <path
       id="path8988"
       style="font-size:8.00000668px;font-family:'Courier 10 Pitch';-inkscape-font-specification:'Courier 10 Pitch'"
       d="m -373.43918,547.86184 0,1.784 c 0,0.256 0.112,0.392 0.328,0.392 l 0.472,0 c 0.184,0 0.28,-0.096 0.28,-0.28 0,-0.224 -0.112,-0.272 -0.408,-0.272 -0.024,0 -0.048,0 -0.072,0 l 0,-1.768 c 0,-0.912 -0.24,-1.392 -0.96,-1.392 -0.376,0 -0.656,0.16 -0.872,0.48 -0.112,-0.32 -0.352,-0.48 -0.712,-0.48 -0.304,0 -0.544,0.104 -0.752,0.336 -0.016,-0.192 -0.056,-0.232 -0.224,-0.232 l -0.6,0 c -0.208,0 -0.304,0.088 -0.304,0.272 0,0.2 0.112,0.28 0.36,0.28 0.056,0 0.12,0 0.176,0 l 0,2.504 c -0.032,0 -0.056,0 -0.08,0 -0.32,0 -0.456,0.048 -0.456,0.272 0,0.184 0.096,0.28 0.304,0.28 l 1.04,0 c 0.232,0 0.32,-0.056 0.32,-0.28 0,-0.216 -0.104,-0.28 -0.376,-0.28 -0.048,0 -0.104,0.008 -0.168,0.008 l 0,-2.152 c 0.144,-0.272 0.336,-0.408 0.576,-0.408 0.296,0 0.512,0.232 0.512,0.632 0,0.048 0,0.152 0,0.304 l 0,1.648 c 0,0.04 0,0.072 0,0.104 0,0.304 0.016,0.424 0.272,0.424 l 0.496,0 c 0.184,0 0.272,-0.096 0.272,-0.28 0,-0.224 -0.112,-0.272 -0.408,-0.272 -0.024,0 -0.048,0 -0.072,0 l 0,-1.624 c 0,-0.624 0.272,-0.936 0.632,-0.936 0.392,0 0.424,0.344 0.424,0.936"
       inkscape:connector-curvature="0" />
    <path
       id="path8990"
       style="font-size:8.00000668px;font-family:'Courier 10 Pitch';-inkscape-font-specification:'Courier 10 Pitch'"
       d="m -369.16268,549.54184 0.04,0.24 c 0.032,0.168 0.128,0.256 0.272,0.256 l 0.616,0 c 0.208,0 0.312,-0.096 0.312,-0.28 0,-0.232 -0.136,-0.272 -0.464,-0.272 l -0.2,0 0,-1.768 c 0,-0.944 -0.464,-1.384 -1.464,-1.384 -0.88,0 -1.456,0.28 -1.456,0.552 0,0.2 0.12,0.328 0.264,0.328 0.304,0 0.624,-0.328 1.176,-0.328 0.6,0 0.88,0.28 0.88,0.88 0,0.008 0,0.016 0,0.024 -0.32,-0.08 -0.624,-0.12 -0.928,-0.12 -1.16,0 -1.808,0.488 -1.808,1.296 0,0.688 0.512,1.168 1.296,1.168 0.536,0 1.04,-0.208 1.464,-0.592 m -0.024,-1.232 0,0.424 c 0,0.352 -0.64,0.8 -1.344,0.8 -0.456,0 -0.768,-0.264 -0.768,-0.608 0,-0.44 0.456,-0.752 1.288,-0.752 0.288,0 0.56,0.048 0.824,0.136"
       inkscape:connector-curvature="0" />
    <path
       id="path8992"
       style="font-size:8.00000668px;font-family:'Courier 10 Pitch';-inkscape-font-specification:'Courier 10 Pitch'"
       d="m -365.50217,545.48584 0,4 -1.08,0 c -0.216,0 -0.328,0.088 -0.328,0.272 0,0.184 0.104,0.28 0.312,0.28 l 2.88,0 c 0.232,0 0.32,-0.056 0.32,-0.28 0,-0.192 -0.096,-0.272 -0.296,-0.272 l -1.216,0 0,-4.4 c 0,-0.096 -0.072,-0.16 -0.224,-0.16 l -1.288,0 c -0.208,0 -0.312,0.096 -0.312,0.28 0,0.2 0.112,0.272 0.368,0.272 0.04,0 0.112,0.008 0.2,0.008 l 0.664,0"
       inkscape:connector-curvature="0" />
    <path
       id="path8994"
       style="font-size:8.00000668px;font-family:'Courier 10 Pitch';-inkscape-font-specification:'Courier 10 Pitch'"
       d="m -360.06567,549.48584 0,-2.896 c 0,-0.096 -0.072,-0.16 -0.224,-0.16 l -1.144,0 c -0.208,0 -0.312,0.088 -0.312,0.272 0,0.184 0.112,0.28 0.328,0.28 l 0.76,0 0,2.504 -1.192,0 c -0.216,0 -0.328,0.088 -0.328,0.272 0,0.184 0.104,0.28 0.312,0.28 l 3.032,0 c 0.232,0 0.32,-0.056 0.32,-0.28 0,-0.192 -0.096,-0.272 -0.296,-0.272 l -1.256,0 m -0.728,-4.184 c 0,0.32 0.08,0.384 0.408,0.384 0.376,0 0.4,-0.088 0.4,-0.496 0,-0.408 -0.04,-0.528 -0.4,-0.528 -0.36,0 -0.408,0.12 -0.408,0.64"
       inkscape:connector-curvature="0" />
    <path
       id="path8996"
       style="font-size:8.00000668px;font-family:'Courier 10 Pitch';-inkscape-font-specification:'Courier 10 Pitch'"
       d="m -357.06917,549.48584 c -0.032,0 -0.056,0 -0.08,0 -0.32,0 -0.456,0.048 -0.456,0.272 0,0.184 0.104,0.28 0.328,0.28 0.104,0 0.176,0 0.208,0 l 0.712,0 c 0.296,0 0.416,-0.016 0.416,-0.28 0,-0.216 -0.104,-0.28 -0.376,-0.28 -0.048,0 -0.104,0.008 -0.168,0.008 l 0,-1.624 c 0,-0.584 0.544,-0.936 1.016,-0.936 0.512,0 0.80001,0.312 0.80001,0.936 l 0,1.624 c -0.048,0 -0.088,0 -0.12801,0 -0.28,0 -0.392,0.056 -0.392,0.272 0,0.256 0.112,0.28 0.392,0.28 l 0.86401,0 c 0.28,0 0.416,-0.056 0.416,-0.28 0,-0.2 -0.12,-0.272 -0.368,-0.272 -0.056,0 -0.12,0 -0.176,0 l 0,-1.768 c 0,-0.904 -0.52801,-1.392 -1.27201,-1.392 -0.408,0 -0.768,0.176 -1.144,0.528 l 0,-0.264 c 0,-0.096 -0.072,-0.16 -0.224,-0.16 l -0.368,0 c -0.36,0 -0.536,0 -0.536,0.272 0,0.2 0.112,0.28 0.36,0.28 0.056,0 0.12,0 0.176,0 l 0,2.504"
       inkscape:connector-curvature="0" />
    <path
       id="path8998"
       style="font-size:8.00000668px;font-family:'Courier 10 Pitch';-inkscape-font-specification:'Courier 10 Pitch'"
       d="m -352.10466,547.89384 c 0.152,-0.648 0.656,-1.032 1.344,-1.032 0.632,0 1.128,0.408 1.2,1.032 l -2.544,0 m -0.016,0.512 2.624,0 c 0.48,0 0.648,0 0.648,-0.368 0,-0.872 -0.728,-1.712 -1.912,-1.712 -1.208,0 -2.04,0.776 -2.04,1.896 0,1.168 0.752,1.912 1.96,1.912 0.528,0 1.096,-0.128 1.632,-0.392 0.232,-0.112 0.344,-0.232 0.344,-0.392 0,-0.144 -0.12,-0.256 -0.272,-0.256 -0.352,0 -0.856,0.488 -1.648,0.488 -0.808,0 -1.296,-0.424 -1.336,-1.176"
       inkscape:connector-curvature="0" />
    <path
       id="path9000"
       style="font-size:8.00000668px;font-family:'Courier 10 Pitch';-inkscape-font-specification:'Courier 10 Pitch'"
       d="m -344.92416,546.64584 -1.536,0 0,-0.792 c 0,-0.384 -0.032,-0.544 -0.312,-0.544 -0.208,0 -0.304,0.112 -0.304,0.328 0,0.104 0,0.176 0,0.208 l 0,0.8 -0.432,0 c -0.376,0 -0.536,0.024 -0.536,0.28 0,0.192 0.096,0.272 0.312,0.272 l 0.656,0 0,1.304 c 0,0.04 0,0.08 0,0.12 0,0.36 0.008,0.672 0.144,0.904 0.224,0.392 0.64,0.584 1.24,0.584 0.368,0 0.776,-0.104 1.264,-0.296 0.288,-0.112 0.432,-0.224 0.432,-0.408 0,-0.144 -0.128,-0.28 -0.272,-0.28 -0.312,0 -0.832,0.416 -1.464,0.416 -0.688,0 -0.736,-0.416 -0.736,-1.04 l 0,-1.304 1.584,0 c 0.216,0 0.328,-0.088 0.328,-0.272 0,-0.2 -0.12,-0.28 -0.368,-0.28"
       inkscape:connector-curvature="0" />
    <path
       id="path9002"
       style="font-size:8.00000668px;font-family:'Courier 10 Pitch';-inkscape-font-specification:'Courier 10 Pitch'"
       d="m -340.11165,546.64584 -1.536,0 0,-0.792 c 0,-0.384 -0.032,-0.544 -0.312,-0.544 -0.208,0 -0.30401,0.112 -0.30401,0.328 0,0.104 0,0.176 0,0.208 l 0,0.8 -0.432,0 c -0.376,0 -0.536,0.024 -0.536,0.28 0,0.192 0.096,0.272 0.312,0.272 l 0.656,0 0,1.304 c 0,0.04 0,0.08 0,0.12 0,0.36 0.008,0.672 0.144,0.904 0.224,0.392 0.64001,0.584 1.24001,0.584 0.368,0 0.776,-0.104 1.264,-0.296 0.288,-0.112 0.432,-0.224 0.432,-0.408 0,-0.144 -0.128,-0.28 -0.272,-0.28 -0.312,0 -0.832,0.416 -1.464,0.416 -0.688,0 -0.736,-0.416 -0.736,-1.04 l 0,-1.304 1.584,0 c 0.216,0 0.328,-0.088 0.328,-0.272 0,-0.2 -0.12,-0.28 -0.368,-0.28"
       inkscape:connector-curvature="0" />
    <path
       id="path9004"
       style="font-size:8.00000668px;font-family:'Courier 10 Pitch';-inkscape-font-specification:'Courier 10 Pitch'"
       d="m -337.66715,547.89384 c 0.152,-0.648 0.656,-1.032 1.344,-1.032 0.632,0 1.128,0.408 1.2,1.032 l -2.544,0 m -0.016,0.512 2.624,0 c 0.48,0 0.648,0 0.648,-0.368 0,-0.872 -0.728,-1.712 -1.912,-1.712 -1.208,0 -2.04,0.776 -2.04,1.896 0,1.168 0.752,1.912 1.96,1.912 0.528,0 1.096,-0.128 1.632,-0.392 0.232,-0.112 0.344,-0.232 0.344,-0.392 0,-0.144 -0.12,-0.256 -0.272,-0.256 -0.352,0 -0.856,0.488 -1.648,0.488 -0.808,0 -1.296,-0.424 -1.336,-1.176"
       inkscape:connector-curvature="0" />
    <path
       id="path9006"
       style="font-size:8.00000668px;font-family:'Courier 10 Pitch';-inkscape-font-specification:'Courier 10 Pitch'"
       d="m -332.31865,549.39784 c 0,0.4 0.304,0.696 0.768,0.696 0.464,0 0.768,-0.288 0.768,-0.696 0,-0.408 -0.304,-0.696 -0.768,-0.696 -0.464,0 -0.768,0.296 -0.768,0.696"
       inkscape:connector-curvature="0" />
    <path
       id="path9008"
       style="font-size:8.00000668px;font-family:'Courier 10 Pitch';-inkscape-font-specification:'Courier 10 Pitch'"
       d="m -326.37815,549.48584 0,-2.896 c 0,-0.096 -0.072,-0.16 -0.224,-0.16 l -1.144,0 c -0.208,0 -0.312,0.088 -0.312,0.272 0,0.184 0.112,0.28 0.328,0.28 l 0.76,0 0,2.504 -1.192,0 c -0.216,0 -0.328,0.088 -0.328,0.272 0,0.184 0.104,0.28 0.312,0.28 l 3.032,0 c 0.232,0 0.32,-0.056 0.32,-0.28 0,-0.192 -0.096,-0.272 -0.296,-0.272 l -1.256,0 m -0.728,-4.184 c 0,0.32 0.08,0.384 0.408,0.384 0.376,0 0.4,-0.088 0.4,-0.496 0,-0.408 -0.04,-0.528 -0.4,-0.528 -0.36,0 -0.408,0.12 -0.408,0.64"
       inkscape:connector-curvature="0" />
    <path
       id="path9010"
       style="font-size:8.00000668px;font-family:'Courier 10 Pitch';-inkscape-font-specification:'Courier 10 Pitch'"
       d="m -323.38164,549.48584 c -0.032,0 -0.056,0 -0.08,0 -0.32,0 -0.456,0.048 -0.456,0.272 0,0.184 0.104,0.28 0.328,0.28 0.104,0 0.176,0 0.208,0 l 0.712,0 c 0.296,0 0.416,-0.016 0.416,-0.28 0,-0.216 -0.104,-0.28 -0.376,-0.28 -0.048,0 -0.104,0.008 -0.168,0.008 l 0,-1.624 c 0,-0.584 0.544,-0.936 1.016,-0.936 0.512,0 0.8,0.312 0.8,0.936 l 0,1.624 c -0.048,0 -0.088,0 -0.128,0 -0.28,0 -0.392,0.056 -0.392,0.272 0,0.256 0.112,0.28 0.392,0.28 l 0.864,0 c 0.28,0 0.416,-0.056 0.416,-0.28 0,-0.2 -0.12,-0.272 -0.368,-0.272 -0.056,0 -0.12,0 -0.176,0 l 0,-1.768 c 0,-0.904 -0.528,-1.392 -1.272,-1.392 -0.408,0 -0.768,0.176 -1.144,0.528 l 0,-0.264 c 0,-0.096 -0.072,-0.16 -0.224,-0.16 l -0.368,0 c -0.36,0 -0.536,0 -0.536,0.272 0,0.2 0.112,0.28 0.36,0.28 0.056,0 0.12,0 0.176,0 l 0,2.504"
       inkscape:connector-curvature="0" />
    <path
       id="path9012"
       style="font-size:8.00000668px;font-family:'Courier 10 Pitch';-inkscape-font-specification:'Courier 10 Pitch'"
       d="m -315.91313,549.47784 -1.28,0 0,-2.384 1.36,0 c 0.2,0 0.312,-0.104 0.312,-0.288 0,-0.184 -0.112,-0.28 -0.328,-0.28 l -1.368,0 c -0.008,-0.08 -0.008,-0.152 -0.008,-0.224 0,-0.56 0.232,-0.8 0.824,-0.8 0.344,0 0.608,0.096 0.8,0.096 0.184,0 0.32,-0.112 0.32,-0.28 0,-0.28 -0.288,-0.4 -0.856,-0.4 -1.192,0 -1.712,0.392 -1.712,1.328 0,0.088 0.008,0.184 0.016,0.28 l -0.624,0 c -0.208,0 -0.312,0.096 -0.312,0.28 0,0.184 0.104,0.288 0.32,0.288 l 0.648,0 0,2.384 -0.664,0 c -0.2,0 -0.312,0.096 -0.312,0.28 0,0.184 0.112,0.28 0.328,0.28 l 2.552,0 c 0.208,0 0.312,-0.096 0.312,-0.28 0,-0.184 -0.112,-0.28 -0.328,-0.28"
       inkscape:connector-curvature="0" />
    <path
       id="path9014"
       style="font-size:8.00000668px;font-family:'Courier 10 Pitch';-inkscape-font-specification:'Courier 10 Pitch'"
       d="m -310.26063,548.23784 c 0,-1.08 -0.8,-1.896 -2.04,-1.896 -1.24,0 -2.048,0.808 -2.048,1.896 0,1.088 0.808,1.896 2.048,1.896 1.24,0 2.04,-0.808 2.04,-1.896 m -2.04,1.352 c -0.808,0 -1.368,-0.576 -1.368,-1.352 0,-0.776 0.56,-1.36 1.368,-1.36 0.808,0 1.368,0.584 1.368,1.36 0,0.784 -0.56,1.352 -1.368,1.352"
       inkscape:connector-curvature="0" />
    <path
       id="path9016"
       style="font-size:8.00000668px;font-family:'Courier 10 Pitch';-inkscape-font-specification:'Courier 10 Pitch'"
       d="m -407.35071,559.50185 0,-2.648 0,-0.264 c 0,-0.096 -0.072,-0.16 -0.224,-0.16 l -2.152,0 c -0.208,0 -0.312,0.088 -0.312,0.272 0,0.2 0.112,0.28 0.368,0.28 0.04,0 0.112,0 0.2,0 l 1.528,0 0,2.808 c 0,0.808 -0.248,1.176 -1.064,1.176 -0.208,0 -0.424,-0.056 -0.656,-0.056 -0.184,0 -0.336,0.144 -0.336,0.304 0,0.256 0.28,0.368 0.856,0.368 0.888,0 1.48,-0.328 1.68,-0.84 0.104,-0.264 0.112,-0.664 0.112,-1.24 m -1.056,-4.2 c 0,0.32 0.072,0.384 0.4,0.384 0.376,0 0.4,-0.088 0.4,-0.496 0,-0.408 -0.032,-0.528 -0.392,-0.528 -0.36,0 -0.408,0.12 -0.408,0.64"
       inkscape:connector-curvature="0" />
    <path
       id="path9018"
       style="font-size:8.00000668px;font-family:'Courier 10 Pitch';-inkscape-font-specification:'Courier 10 Pitch'"
       d="m -404.7302,558.59785 0,-1.872 c 0,-0.016 0,-0.024 0,-0.04 0,-0.176 -0.008,-0.256 -0.224,-0.256 l -0.59201,0 c -0.208,0 -0.312,0.088 -0.312,0.272 0,0.2 0.112,0.28 0.36,0.28 0.056,0 0.12,0 0.176,0 l 0,1.76 c 0,0.912 0.43201,1.376 1.28801,1.376 0.472,0 0.808,-0.184 1.216,-0.504 l 0,0.264 c 0,0.096 0.072,0.16 0.224,0.16 l 0.592,0 c 0.208,0 0.312,-0.096 0.312,-0.28 0,-0.2 -0.112,-0.272 -0.36,-0.272 -0.056,0 -0.12,0 -0.176,0 l 0,-2.68 c 0,-0.232 0,-0.376 -0.272,-0.376 l -0.832,0 c -0.216,0 -0.312,0.08 -0.312,0.272 0,0.192 0.08,0.28 0.288,0.28 l 0.536,0 0,1.616 c 0,0.576 -0.504,0.944 -1.032,0.944 -0.608,0 -0.88,-0.304 -0.88,-0.944"
       inkscape:connector-curvature="0" />
    <path
       id="path9020"
       style="font-size:8.00000668px;font-family:'Courier 10 Pitch';-inkscape-font-specification:'Courier 10 Pitch'"
       d="m -398.5657,559.48585 0,-2.896 c 0,-0.096 -0.072,-0.16 -0.224,-0.16 l -1.144,0 c -0.208,0 -0.312,0.088 -0.312,0.272 0,0.184 0.112,0.28 0.328,0.28 l 0.76,0 0,2.504 -1.192,0 c -0.216,0 -0.328,0.088 -0.328,0.272 0,0.184 0.104,0.28 0.312,0.28 l 3.032,0 c 0.232,0 0.32,-0.056 0.32,-0.28 0,-0.192 -0.096,-0.272 -0.296,-0.272 l -1.256,0 m -0.728,-4.184 c 0,0.32 0.08,0.384 0.408,0.384 0.376,0 0.4,-0.088 0.4,-0.496 0,-0.408 -0.04,-0.528 -0.4,-0.528 -0.36,0 -0.408,0.12 -0.408,0.64"
       inkscape:connector-curvature="0" />
    <path
       id="path9022"
       style="font-size:8.00000668px;font-family:'Courier 10 Pitch';-inkscape-font-specification:'Courier 10 Pitch'"
       d="m -395.5692,559.48585 c -0.032,0 -0.056,0 -0.08,0 -0.32,0 -0.456,0.048 -0.456,0.272 0,0.184 0.104,0.28 0.328,0.28 0.104,0 0.176,0 0.208,0 l 0.712,0 c 0.296,0 0.416,-0.016 0.416,-0.28 0,-0.216 -0.104,-0.28 -0.376,-0.28 -0.048,0 -0.104,0.008 -0.168,0.008 l 0,-1.624 c 0,-0.584 0.544,-0.936 1.016,-0.936 0.512,0 0.8,0.312 0.8,0.936 l 0,1.624 c -0.048,0 -0.088,0 -0.128,0 -0.28,0 -0.392,0.056 -0.392,0.272 0,0.256 0.112,0.28 0.392,0.28 l 0.86401,0 c 0.28,0 0.416,-0.056 0.416,-0.28 0,-0.2 -0.12,-0.272 -0.368,-0.272 -0.056,0 -0.12,0 -0.176,0 l 0,-1.768 c 0,-0.904 -0.52801,-1.392 -1.27201,-1.392 -0.408,0 -0.768,0.176 -1.144,0.528 l 0,-0.264 c 0,-0.096 -0.072,-0.16 -0.224,-0.16 l -0.368,0 c -0.36,0 -0.536,0 -0.536,0.272 0,0.2 0.112,0.28 0.36,0.28 0.056,0 0.12,0 0.176,0 l 0,2.504"
       inkscape:connector-curvature="0" />
    <path
       id="path9024"
       style="font-size:8.00000668px;font-family:'Courier 10 Pitch';-inkscape-font-specification:'Courier 10 Pitch'"
       d="m -385.84819,560.03785 2.576,0 c 0.12,0 0.208,-0.088 0.224,-0.256 l 0.04,-0.304 c 0,-0.024 0.008,-0.056 0.008,-0.08 0,-0.208 -0.112,-0.32 -0.28,-0.32 -0.168,0 -0.272,0.112 -0.296,0.344 l -1.784,0 0.48,-0.464 c 1.016,-1.008 1.848,-1.6 1.848,-2.528 0,-0.816 -0.648,-1.448 -1.52,-1.448 -0.528,0 -1.048,0.208 -1.376,0.528 -0.12,0.12 -0.128,0.192 -0.128,0.344 0,0.272 0.04,0.408 0.232,0.408 0.272,0 0.328,-0.232 0.424,-0.36 0.176,-0.232 0.504,-0.376 0.832,-0.376 0.504,0 0.856,0.376 0.856,0.936 0,0.656 -0.656,1.2 -1.68,2.168 -0.552,0.528 -0.864,0.792 -0.864,1.064 0,0.24 0.136,0.344 0.408,0.344"
       inkscape:connector-curvature="0" />
    <path
       id="path9026"
       style="font-size:8.00000668px;font-family:'Courier 10 Pitch';-inkscape-font-specification:'Courier 10 Pitch'"
       d="m -379.67568,560.16585 c 0.952,0 1.6,-0.936 1.6,-2.592 0,-1.656 -0.648,-2.592 -1.6,-2.592 -0.952,0 -1.60001,0.936 -1.60001,2.592 0,1.656 0.64801,2.592 1.60001,2.592 m 0,-4.624 c 0.576,0 0.944,0.688 0.944,2.032 0,1.344 -0.368,2.04 -0.944,2.04 -0.576,0 -0.95201,-0.696 -0.95201,-2.04 0,-1.344 0.37601,-2.032 0.95201,-2.032"
       inkscape:connector-curvature="0" />
    <path
       id="path9028"
       style="font-size:8.00000668px;font-family:'Courier 10 Pitch';-inkscape-font-specification:'Courier 10 Pitch'"
       d="m -375.79918,555.84585 0.736,-0.176 0,3.816 -0.648,0 c -0.368,0 -0.536,0.016 -0.536,0.272 0,0.184 0.104,0.28 0.312,0.28 l 2.336,0 c 0.208,0 0.312,-0.096 0.312,-0.28 0,-0.256 -0.168,-0.272 -0.536,-0.272 l -0.624,0 0,-4.224 c 0,-0.16 -0.064,-0.256 -0.16,-0.256 -0.048,0 -0.104,0.008 -0.168,0.024 l -1.16,0.312 c -0.168,0.048 -0.256,0.144 -0.256,0.272 0,0.144 0.104,0.248 0.272,0.248 0.04,0 0.08,-0.008 0.12,-0.016"
       inkscape:connector-curvature="0" />
    <path
       id="path9030"
       style="font-size:8.00000668px;font-family:'Courier 10 Pitch';-inkscape-font-specification:'Courier 10 Pitch'"
       d="m -370.97868,557.47785 c 0.136,-1.104 0.68,-1.784 1.488,-1.936 0.552,-0.104 0.952,0.072 0.952,-0.296 0,-0.224 -0.168,-0.264 -0.624,-0.264 -1.488,0 -2.488,1.16 -2.488,2.944 0,1.376 0.68,2.24 1.696,2.24 0.872,0 1.488,-0.68 1.488,-1.624 0,-0.928 -0.68,-1.608 -1.48,-1.608 -0.408,0 -0.752,0.184 -1.032,0.544 m 0.088,1.04 c 0,-0.6 0.376,-1.016 0.872,-1.016 0.512,0 0.888,0.432 0.888,1.072 0,0.632 -0.368,1.032 -0.856,1.032 -0.512,0 -0.904,-0.424 -0.904,-1.088"
       inkscape:connector-curvature="0" />
  </g>
  <g
     id="g9092"
     transform="translate(16.046136,-674.1592)">
    <g
       transform="matrix(0,-1,1,0,-21.173801,692.42865)"
       style="font-style:normal;font-variant:normal;font-weight:normal;font-stretch:normal;font-size:40px;line-height:125%;font-family:'Giddyup Std';-inkscape-font-specification:'Giddyup Std';letter-spacing:0px;word-spacing:0px;fill:#000000;fill-opacity:1;stroke:none"
       id="g9094">
      <path
         inkscape:connector-curvature="0"
         d="m -390.94159,66.602497 c 0.98,0.44 1.88,0.680001 2.88,0.680001 2.74,0 4.50001,-1.460004 4.50001,-3.620004 0,-1.839999 -1.16001,-2.940002 -3.44001,-3.240002 l -1.56,-0.200001 c -1.5,-0.199999 -2.24,-0.780001 -2.24,-1.760001 0,-1.24 1.06,-2.120002 2.66,-2.120002 1.04,0 1.88,0.400001 2.3,1.020001 0.42,0.62 0.30001,1.340001 1.08,1.340001 0.46,0 0.74001,-0.260001 0.74001,-0.72 0,-0.04 0,-0.06 0,-0.100001 l -0.14,-2.040001 c -0.04,-0.52 -0.10001,-0.740001 -0.80001,-0.740001 -0.44,0 -0.62,0.120001 -0.62,0.500001 -0.9,-0.36 -1.68,-0.580001 -2.48,-0.580001 -2.52,0 -4.32,1.580003 -4.32,3.520003 0,1.96 1.28,2.900003 3.88,3.260003 l 1.44,0.2 c 1.24,0.18 1.9,0.820002 1.9,1.840002 0,1.199999 -1.1,2.120001 -2.84,2.120001 -1.4,0 -2.42,-0.560001 -2.84,-1.420001 -0.36,-0.72 -0.26,-1.480001 -1.08,-1.480001 -0.6,0 -0.76,0.280001 -0.76,0.840001 0,0.06 0,0.12 0,0.2 l 0.12,2.260002 c 0.04,0.7 0.28,1.020001 0.84,1.020001 0.54,0 0.72,-0.200001 0.78,-0.780001"
         style="font-size:20.00001717px;font-family:'Courier 10 Pitch';-inkscape-font-specification:'Courier 10 Pitch'"
         id="path9096" />
      <path
         inkscape:connector-curvature="0"
         d="m -376.05033,65.862496 c -2.1,0 -3.52,-1.680004 -3.52,-4.720004 0,-3.039999 1.36,-4.720004 3.52,-4.720004 2.1,0 3.52001,1.680005 3.52001,4.720004 0,3.04 -1.42001,4.720004 -3.52001,4.720004 m 5.28001,-4.720004 c 0,-3.599999 -2.22001,-6.100005 -5.28001,-6.100005 -3.1,0 -5.28,2.500006 -5.28,6.100005 0,3.58 2.26,6.100006 5.28,6.100006 3.06,0 5.28001,-2.500006 5.28001,-6.100006"
         style="font-size:20.00001717px;font-family:'Courier 10 Pitch';-inkscape-font-specification:'Courier 10 Pitch'"
         id="path9098" />
      <path
         inkscape:connector-curvature="0"
         d="m -366.19907,65.562496 0,-3.640003 1.28,0 c 0.9,0 1.24,0.320001 1.94,1.380001 l 1.90001,2.840003 c 0.34,0.499999 0.5,0.8 1.02,0.8 l 1.08,0 c 0.46,0 0.68,-0.24 0.68,-0.7 0,-0.54 -0.26,-0.680001 -0.94,-0.680001 -0.1,0 -0.2,0 -0.32,0 l -1.96,-3.000003 c -0.22,-0.319999 -0.46001,-0.58 -0.84001,-0.82 1.66,-0.42 2.60001,-1.560003 2.60001,-3.040003 0,-0.98 -0.42,-1.900002 -1.1,-2.500002 -0.9,-0.78 -2.12001,-0.840001 -3.78001,-0.840001 l -4.12,0 c -0.44,0 -0.68,0.220001 -0.68,0.660001 0,0.46 0.24,0.66 0.8,0.66 0.08,0 0.18,0 0.36,0 l 0.56,0 0,8.880008 -0.56,0 c -0.18,0 -0.28,0 -0.32,0 -0.6,0 -0.84,0.160001 -0.84,0.680001 0,0.46 0.24,0.7 0.68,0.7 l 3.28,0 c 0.68,0 0.98,-0.1 0.98,-0.7 0,-0.52 -0.32,-0.700001 -1.04,-0.700001 -0.44,0 -0.66,0.02 -0.66,0.02 m 0,-8.880008 2.08,0 c 1.8,0 2.68001,0.660002 2.68001,1.980002 0,1.28 -0.92001,1.960002 -2.74001,1.960002 l -2.02,0 0,-3.940004"
         style="font-size:20.00001717px;font-family:'Courier 10 Pitch';-inkscape-font-specification:'Courier 10 Pitch'"
         id="path9100" />
      <path
         inkscape:connector-curvature="0"
         d="m -355.64781,59.302491 0.08,-2.540002 2.8,0 0,8.800007 -1.48,0 c -0.18,0 -0.28,0 -0.32,0 -0.6,0 -0.84,0.160001 -0.84,0.680001 0,0.46 0.24,0.7 0.68,0.7 l 5.48001,0 c 0.43999,0 0.68,-0.24 0.68,-0.7 0,-0.48 -0.24001,-0.680001 -0.78001,-0.680001 -0.06,0 -0.18,0 -0.38,0 l -1.5,0 0,-8.800007 2.80001,0 0.1,2.540002 c 0.02,0.84 0.08,1.140001 0.76,1.140001 0.44,0 0.68,-0.240001 0.68,-0.700001 0,-0.04 -0.02,-0.18 -0.02,-0.48 l -0.1,-3.220003 c -0.02,-0.48 -0.24,-0.680001 -0.74,-0.680001 l -8.48001,0 c -0.5,0 -0.72,0.200001 -0.74,0.680001 l -0.1,3.220003 c -0.02,0.3 -0.02,0.46 -0.02,0.46 0,0.48 0.24,0.720001 0.68,0.720001 0.68,0 0.74,-0.300001 0.76,-1.140001"
         style="font-size:20.00001717px;font-family:'Courier 10 Pitch';-inkscape-font-specification:'Courier 10 Pitch'"
         id="path9102" />
      <path
         inkscape:connector-curvature="0"
         d="m -336.99654,65.562496 -2.20001,0 0,-8.800007 2.20001,0 c 0.84,0 1.18,-0.08 1.18,-0.700001 0,-0.46 -0.24,-0.700001 -0.72,-0.700001 -0.22,0 -0.38,0 -0.46,0 l -5.92001,0 c -0.78,0 -1.18,0.04 -1.18,0.700001 0,0.62 0.34,0.700001 1.18,0.700001 l 2.18,0 0,8.800007 -2.18,0 c -0.84,0 -1.18,0.06 -1.18,0.680001 0,0.46 0.24,0.7 0.72,0.7 0.12,0 0.28,0 0.46,0 l 5.92001,0 c 0.8,0 1.18,-0.04 1.18,-0.7 0,-0.62 -0.34,-0.680001 -1.18,-0.680001"
         style="font-size:20.00001717px;font-family:'Courier 10 Pitch';-inkscape-font-specification:'Courier 10 Pitch'"
         id="path9104" />
      <path
         inkscape:connector-curvature="0"
         d="m -332.10529,66.942497 8.06001,0 c 0.44,0 0.68,-0.26 0.68,-0.72 l 0,-2.460002 c 0,-0.66 -0.12,-0.960001 -0.68,-0.960001 -0.64,0 -0.7,0.360001 -0.7,1.180001 l 0,1.580001 -5.20001,0 0,-4.320004 2.56001,0 c 0,0.1 0,0.200001 0,0.280001 0,0.839999 0.1,1.200001 0.62,1.200001 0.58,0 0.62,-0.360001 0.62,-1.140001 l 0,-1.820002 c 0,-0.8 -0.08,-1.160001 -0.62,-1.160001 -0.5,0 -0.64,0.280001 -0.64,0.940001 0,0.04 0.02,0.22 0.02,0.52 l -2.56001,0 0,-3.300002 5.20001,0 0,1.400001 c 0,0.18 0,0.28 0,0.32 0,0.6 0.18,0.860001 0.7,0.860001 0.54,0 0.68,-0.280001 0.68,-0.900001 l 0,-2.300002 c 0,-0.52 -0.24,-0.780001 -0.68,-0.780001 l -8.06001,0 c -0.78,0 -1.18,0.04 -1.18,0.700001 0,0.62 0.34,0.700001 1.18,0.700001 l 0.62,0 0,8.800007 -0.62,0 c -0.84,0 -1.18,0.06 -1.18,0.680001 0,0.46 0.24,0.7 0.72,0.7 0.2,0 0.36,0 0.46,0"
         style="font-size:20.00001717px;font-family:'Courier 10 Pitch';-inkscape-font-specification:'Courier 10 Pitch'"
         id="path9106" />
      <path
         inkscape:connector-curvature="0"
         d="m -318.75403,66.602497 c 0.98,0.44 1.88,0.680001 2.88,0.680001 2.74,0 4.50001,-1.460004 4.50001,-3.620004 0,-1.839999 -1.16001,-2.940002 -3.44001,-3.240002 l -1.56,-0.200001 c -1.5,-0.199999 -2.24,-0.780001 -2.24,-1.760001 0,-1.24 1.06,-2.120002 2.66,-2.120002 1.04,0 1.88001,0.400001 2.30001,1.020001 0.42,0.62 0.3,1.340001 1.08,1.340001 0.46,0 0.74,-0.260001 0.74,-0.72 0,-0.04 0,-0.06 0,-0.100001 l -0.14,-2.040001 c -0.04,-0.52 -0.1,-0.740001 -0.8,-0.740001 -0.44,0 -0.62,0.120001 -0.62,0.500001 -0.9,-0.36 -1.68001,-0.580001 -2.48001,-0.580001 -2.52,0 -4.32,1.580003 -4.32,3.520003 0,1.96 1.28,2.900003 3.88,3.260003 l 1.44,0.2 c 1.24,0.18 1.90001,0.820002 1.90001,1.840002 0,1.199999 -1.10001,2.120001 -2.84001,2.120001 -1.4,0 -2.42,-0.560001 -2.84,-1.420001 -0.36,-0.72 -0.26,-1.480001 -1.08,-1.480001 -0.6,0 -0.76,0.280001 -0.76,0.840001 0,0.06 0,0.12 0,0.2 l 0.12,2.260002 c 0.04,0.7 0.28,1.020001 0.84,1.020001 0.54,0 0.72,-0.200001 0.78,-0.780001"
         style="font-size:20.00001717px;font-family:'Courier 10 Pitch';-inkscape-font-specification:'Courier 10 Pitch'"
         id="path9108" />
    </g>
    <g
       transform="matrix(0,-1,1,0,-21.173801,692.42865)"
       style="font-style:normal;font-variant:normal;font-weight:normal;font-stretch:normal;font-size:40px;line-height:125%;font-family:'Giddyup Std';-inkscape-font-specification:'Giddyup Std';letter-spacing:0px;word-spacing:0px;fill:#000000;fill-opacity:1;stroke:none"
       id="g9110">
      <path
         inkscape:connector-curvature="0"
         d="m -391.88162,322.94275 8.06001,0 c 0.44,0 0.68,-0.26 0.68,-0.72 l 0,-2.46 c 0,-0.66 -0.12,-0.96 -0.68,-0.96 -0.64,0 -0.7,0.36 -0.7,1.18 l 0,1.58 -5.20001,0 0,-4.32001 2.56001,0 c 0,0.1 0,0.2 0,0.28 0,0.84 0.1,1.20001 0.62,1.20001 0.58,0 0.62,-0.36001 0.62,-1.14001 l 0,-1.82 c 0,-0.8 -0.08,-1.16 -0.62,-1.16 -0.5,0 -0.64,0.28 -0.64,0.94 0,0.04 0.02,0.22 0.02,0.52 l -2.56001,0 0,-3.3 5.20001,0 0,1.4 c 0,0.18 0,0.28 0,0.32 0,0.6 0.18,0.86 0.7,0.86 0.54,0 0.68,-0.28 0.68,-0.9 l 0,-2.3 c 0,-0.52 -0.24,-0.78 -0.68,-0.78 l -8.06001,0 c -0.78,0 -1.18,0.04 -1.18,0.7 0,0.62 0.34,0.7 1.18,0.7 l 0.62,0 0,8.80001 -0.62,0 c -0.84,0 -1.18,0.06 -1.18,0.68 0,0.46 0.24,0.7 0.72,0.7 0.2,0 0.36,0 0.46,0"
         style="font-size:20.00001717px;font-family:'Courier 10 Pitch';-inkscape-font-specification:'Courier 10 Pitch'"
         id="path9112" />
      <path
         inkscape:connector-curvature="0"
         d="m -378.33036,321.56275 0,-7.98001 5.20001,8.96001 c 0.32,0.54 0.3,0.56 0.84,0.56 0.04,0 0.08,0 0.12,0 0.48,0 0.72,-0.02 0.72,-0.5 l 0,-9.84001 c 0.04,0 0.1,0 0.14,0 0.72,0 0.98,-0.16 0.98,-0.7 0,-0.46 -0.22,-0.7 -0.7,-0.7 -0.22,0 -0.38,0 -0.46,0 l -2.34,0 c -0.72,0 -1.06,0.08 -1.06,0.7 0,0.5 0.32,0.7 1,0.7 0.36,0 0.58,0 0.7,0 l 0.38,0 0,7.72001 -4.92,-8.50001 c -0.3,-0.54 -0.42001,-0.62 -1.06001,-0.62 l -0.92,0 c -1.08,0 -1.64,0.02 -1.64,0.7 0,0.62 0.5,0.7 1.64,0.7 l 0,8.80001 c -0.06,0 -0.12,0 -0.18,0 -0.7,0 -0.98,0.12 -0.98,0.68 0,0.46 0.22,0.7 0.7,0.7 0.08,0 0.24,0 0.46,0 l 2.44001,0 c 0.78,0 1.14,-0.06 1.14,-0.7 0,-0.5 -0.32,-0.68 -1,-0.68 -0.12,0 -0.34,0 -0.7,0 l -0.50001,0"
         style="font-size:20.00001717px;font-family:'Courier 10 Pitch';-inkscape-font-specification:'Courier 10 Pitch'"
         id="path9114" />
      <path
         inkscape:connector-curvature="0"
         d="m -367.2991,315.30274 0.08,-2.54 2.80001,0 0,8.80001 -1.48,0 c -0.18,0 -0.28,0 -0.32,0 -0.6,0 -0.84001,0.16 -0.84001,0.68 0,0.46 0.24001,0.7 0.68001,0.7 l 5.48,0 c 0.44,0 0.68,-0.24 0.68,-0.7 0,-0.48 -0.24,-0.68 -0.78,-0.68 -0.06,0 -0.18,0 -0.38,0 l -1.5,0 0,-8.80001 2.8,0 0.1,2.54 c 0.02,0.84 0.08,1.14 0.76,1.14 0.44,0 0.68,-0.24 0.68,-0.7 0,-0.04 -0.02,-0.18 -0.02,-0.48 l -0.1,-3.22 c -0.02,-0.48 -0.24,-0.68 -0.74,-0.68 l -8.48001,0 c -0.5,0 -0.72,0.2 -0.74,0.68 l -0.1,3.22 c -0.02,0.3 -0.02,0.46 -0.02,0.46 0,0.48 0.24,0.72 0.68,0.72 0.68,0 0.74,-0.3 0.76,-1.14"
         style="font-size:20.00001717px;font-family:'Courier 10 Pitch';-inkscape-font-specification:'Courier 10 Pitch'"
         id="path9116" />
      <path
         inkscape:connector-curvature="0"
         d="m -353.78783,321.56275 0,-3.64001 1.28,0 c 0.9,0 1.24,0.32001 1.94,1.38001 l 1.9,2.84 c 0.34,0.5 0.5,0.8 1.02,0.8 l 1.08,0 c 0.46,0 0.68,-0.24 0.68,-0.7 0,-0.54 -0.26,-0.68 -0.94,-0.68 -0.1,0 -0.2,0 -0.32,0 l -1.96,-3 c -0.22,-0.32 -0.46,-0.58001 -0.84,-0.82001 1.66,-0.42 2.6,-1.56 2.6,-3.04 0,-0.98 -0.42,-1.9 -1.1,-2.5 -0.9,-0.78 -2.12,-0.84 -3.78,-0.84 l -4.12001,0 c -0.44,0 -0.68,0.22 -0.68,0.66 0,0.46 0.24,0.66 0.8,0.66 0.08,0 0.18,0 0.36,0 l 0.56,0 0,8.88001 -0.56,0 c -0.18,0 -0.28,0 -0.32,0 -0.6,0 -0.84,0.16 -0.84,0.68 0,0.46 0.24,0.7 0.68,0.7 l 3.28001,0 c 0.68,0 0.98,-0.1 0.98,-0.7 0,-0.52 -0.32,-0.7 -1.04,-0.7 -0.44,0 -0.66,0.02 -0.66,0.02 m 0,-8.88001 2.08,0 c 1.8,0 2.68,0.66 2.68,1.98 0,1.28 -0.92,1.96 -2.74,1.96 l -2.02,0 0,-3.94"
         style="font-size:20.00001717px;font-family:'Courier 10 Pitch';-inkscape-font-specification:'Courier 10 Pitch'"
         id="path9118" />
      <path
         inkscape:connector-curvature="0"
         d="m -343.75658,322.94275 8.06001,0 c 0.44,0 0.68,-0.26 0.68,-0.72 l 0,-2.46 c 0,-0.66 -0.12,-0.96 -0.68,-0.96 -0.64,0 -0.7,0.36 -0.7,1.18 l 0,1.58 -5.2,0 0,-4.32001 2.56,0 c 0,0.1 0,0.2 0,0.28 0,0.84 0.1,1.20001 0.62,1.20001 0.58,0 0.62,-0.36001 0.62,-1.14001 l 0,-1.82 c 0,-0.8 -0.08,-1.16 -0.62,-1.16 -0.5,0 -0.64,0.28 -0.64,0.94 0,0.04 0.02,0.22 0.02,0.52 l -2.56,0 0,-3.3 5.2,0 0,1.4 c 0,0.18 0,0.28 0,0.32 0,0.6 0.18,0.86 0.7,0.86 0.54,0 0.68,-0.28 0.68,-0.9 l 0,-2.3 c 0,-0.52 -0.24,-0.78 -0.68,-0.78 l -8.06001,0 c -0.78,0 -1.18,0.04 -1.18,0.7 0,0.62 0.34001,0.7 1.18,0.7 l 0.62001,0 0,8.80001 -0.62001,0 c -0.83999,0 -1.18,0.06 -1.18,0.68 0,0.46 0.24,0.7 0.72,0.7 0.2,0 0.36,0 0.46,0 m 2.08001,-13.26001 0.26,0.52 5.1,-1.8 c 0.16,-0.06 0.26,-0.22 0.26,-0.38 0,-0.06 0,-0.16 -0.04,-0.22 l -0.32,-0.58 c -0.1,-0.2 -0.26,-0.3 -0.46,-0.3 -0.04,0 -0.12,0.02 -0.16,0.04 l -4.64,2.72"
         style="font-size:20.00001717px;font-family:'Courier 10 Pitch';-inkscape-font-specification:'Courier 10 Pitch'"
         id="path9120" />
      <path
         inkscape:connector-curvature="0"
         d="m -331.72531,322.94275 8.06,0 c 0.44,0 0.68,-0.26 0.68,-0.72 l 0,-2.46 c 0,-0.66 -0.12,-0.96 -0.68,-0.96 -0.64,0 -0.7,0.36 -0.7,1.18 l 0,1.58 -5.2,0 0,-4.32001 2.56,0 c 0,0.1 0,0.2 0,0.28 0,0.84 0.1,1.20001 0.62,1.20001 0.58,0 0.62,-0.36001 0.62,-1.14001 l 0,-1.82 c 0,-0.8 -0.08,-1.16 -0.62,-1.16 -0.5,0 -0.64,0.28 -0.64,0.94 0,0.04 0.02,0.22 0.02,0.52 l -2.56,0 0,-3.3 5.2,0 0,1.4 c 0,0.18 0,0.28 0,0.32 0,0.6 0.18,0.86 0.7,0.86 0.54,0 0.68,-0.28 0.68,-0.9 l 0,-2.3 c 0,-0.52 -0.24,-0.78 -0.68,-0.78 l -8.06,0 c -0.78,0 -1.18,0.04 -1.18,0.7 0,0.62 0.34,0.7 1.18,0.7 l 0.62,0 0,8.80001 -0.62,0 c -0.84,0 -1.18,0.06 -1.18,0.68 0,0.46 0.24,0.7 0.72,0.7 0.2,0 0.36,0 0.46,0"
         style="font-size:20.00001717px;font-family:'Courier 10 Pitch';-inkscape-font-specification:'Courier 10 Pitch'"
         id="path9122" />
      <path
         inkscape:connector-curvature="0"
         d="m -318.37405,322.60275 c 0.97999,0.44 1.88,0.68 2.88,0.68 2.74,0 4.5,-1.46 4.5,-3.62 0,-1.84 -1.16,-2.94001 -3.44,-3.24001 l -1.56,-0.2 c -1.5,-0.2 -2.24,-0.78 -2.24,-1.76 0,-1.24 1.06,-2.12 2.66,-2.12 1.04,0 1.88,0.4 2.3,1.02 0.42,0.62 0.3,1.34 1.08,1.34 0.46,0 0.74,-0.26 0.74,-0.72 0,-0.04 0,-0.06 0,-0.1 l -0.14,-2.04 c -0.04,-0.52 -0.1,-0.74 -0.8,-0.74 -0.44,0 -0.62,0.12 -0.62,0.5 -0.9,-0.36 -1.68,-0.58 -2.48,-0.58 -2.52,0 -4.32001,1.58 -4.32001,3.52 0,1.96 1.28001,2.9 3.88001,3.26 l 1.44,0.2 c 1.24,0.18 1.9,0.82001 1.9,1.84001 0,1.2 -1.1,2.12 -2.84,2.12 -1.4,0 -2.42,-0.56 -2.84,-1.42 -0.36,-0.72 -0.26001,-1.48 -1.08001,-1.48 -0.6,0 -0.76,0.28 -0.76,0.84 0,0.06 0,0.12 0,0.2 l 0.12,2.26 c 0.04,0.7 0.28,1.02 0.84,1.02 0.54,0 0.72001,-0.2 0.78001,-0.78"
         style="font-size:20.00001717px;font-family:'Courier 10 Pitch';-inkscape-font-specification:'Courier 10 Pitch'"
         id="path9124" />
    </g>
    <g
       id="g9126"
       transform="matrix(0,-0.5863346,0.5863346,0,151.67389,1212.7864)">
      <path
         style="fill:none;stroke:#ee7437;stroke-miterlimit:10"
         d="m 230.55901,101.685 -61.211,-34.152003"
         id="line9128"
         inkscape:connector-curvature="0" />
      <path
         style="fill:none;stroke:#ee7437;stroke-miterlimit:10"
         d="M 230.457,93.073997 169.246,58.921001"
         id="line9130"
         inkscape:connector-curvature="0" />
      <path
         style="fill:none;stroke:#ee7437;stroke-miterlimit:10"
         d="M 230.354,84.462997 169.144,50.311001"
         id="line9132"
         inkscape:connector-curvature="0" />
      <path
         style="fill:none;stroke:#ee7437;stroke-miterlimit:10"
         d="M 230.252,75.851997 169.04201,41.696999"
         id="line9134"
         inkscape:connector-curvature="0" />
      <path
         style="fill:none;stroke:#ee7437;stroke-miterlimit:10"
         d="M 230.14799,67.239998 168.939,33.088001"
         id="line9136"
         inkscape:connector-curvature="0" />
      <path
         style="fill:none;stroke:#ee7437;stroke-miterlimit:10"
         d="M 230.048,58.630001 168.839,24.476"
         id="line9138"
         inkscape:connector-curvature="0" />
      <path
         style="fill:none;stroke:#ee7437;stroke-miterlimit:10"
         d="M 229.94501,50.018002 168.73599,15.865"
         id="line9140"
         inkscape:connector-curvature="0" />
      <path
         style="fill:none;stroke:#ee7437;stroke-miterlimit:10"
         d="M 229.843,41.405998 168.63499,7.2540002"
         id="line9142"
         inkscape:connector-curvature="0" />
      <path
         style="fill:none;stroke:#ee7437;stroke-miterlimit:10"
         d="M 229.741,32.797001 168.534,-1.357"
         id="line9144"
         inkscape:connector-curvature="0" />
      <path
         style="fill:none;stroke:#ee7437;stroke-miterlimit:10"
         d="M 229.63901,24.186001 168.431,-9.9680004"
         id="line9146"
         inkscape:connector-curvature="0" />
      <path
         style="fill:none;stroke:#ee7437;stroke-miterlimit:10"
         d="M 229.63901,24.186001 289.42499,-11.745"
         id="line9148"
         inkscape:connector-curvature="0" />
      <path
         style="fill:none;stroke:#ee7437;stroke-miterlimit:10"
         d="M 229.709,30.146999 289.495,-5.783"
         id="line9150"
         inkscape:connector-curvature="0" />
      <path
         style="fill:none;stroke:#ee7437;stroke-miterlimit:10"
         d="M 229.77901,36.109001 289.56601,0.177"
         id="line9152"
         inkscape:connector-curvature="0" />
      <path
         style="fill:none;stroke:#ee7437;stroke-miterlimit:10"
         d="M 229.849,42.07 289.638,6.1389999"
         id="line9154"
         inkscape:connector-curvature="0" />
      <path
         style="fill:none;stroke:#ee7437;stroke-miterlimit:10"
         d="M 229.92101,48.030998 289.70801,12.101"
         id="line9156"
         inkscape:connector-curvature="0" />
      <path
         style="fill:none;stroke:#ee7437;stroke-miterlimit:10"
         d="M 229.991,53.992001 289.77899,18.062"
         id="line9158"
         inkscape:connector-curvature="0" />
      <path
         style="fill:none;stroke:#ee7437;stroke-miterlimit:10"
         d="M 230.062,59.955002 289.849,24.021999"
         id="line9160"
         inkscape:connector-curvature="0" />
      <path
         style="fill:none;stroke:#ee7437;stroke-miterlimit:10"
         d="M 230.133,65.916 289.92099,29.983999"
         id="line9162"
         inkscape:connector-curvature="0" />
      <path
         style="fill:none;stroke:#ee7437;stroke-miterlimit:10"
         d="M 230.20399,71.877998 289.992,35.946999"
         id="line9164"
         inkscape:connector-curvature="0" />
      <path
         style="fill:none;stroke:#ee7437;stroke-miterlimit:10"
         d="M 230.27299,77.838997 290.06201,41.908001"
         id="line9166"
         inkscape:connector-curvature="0" />
      <path
         style="fill:none;stroke:#ee7437;stroke-miterlimit:10"
         d="M 230.34599,83.800003 290.13501,47.868999"
         id="line9168"
         inkscape:connector-curvature="0" />
      <path
         style="fill:none;stroke:#ee7437;stroke-miterlimit:10"
         d="m 230.41499,89.761002 59.79,-35.931"
         id="line9170"
         inkscape:connector-curvature="0" />
      <path
         style="fill:none;stroke:#ee7437;stroke-miterlimit:10"
         d="m 230.48599,95.723 59.789,-35.930001"
         id="line9172"
         inkscape:connector-curvature="0" />
      <path
         style="fill:none;stroke:#ee7437;stroke-miterlimit:10"
         d="M 290.34698,65.753998 230.556,101.685"
         id="line9174"
         inkscape:connector-curvature="0" />
      <path
         style="fill:none;stroke:#ee7437;stroke-miterlimit:10"
         d="M 178.48199,-15.958 239.689,18.197001"
         id="line9176"
         inkscape:connector-curvature="0" />
      <path
         style="fill:none;stroke:#ee7437;stroke-miterlimit:10"
         d="M 188.446,-21.945999 249.65401,12.207"
         id="line9178"
         inkscape:connector-curvature="0" />
      <path
         style="fill:none;stroke:#ee7437;stroke-miterlimit:10"
         d="M 198.409,-27.936001 259.61801,6.2179999"
         id="line9180"
         inkscape:connector-curvature="0" />
      <path
         style="fill:none;stroke:#ee7437;stroke-miterlimit:10"
         d="M 208.373,-33.922001 269.58401,0.229"
         id="line9182"
         inkscape:connector-curvature="0" />
      <path
         style="fill:none;stroke:#ee7437;stroke-miterlimit:10"
         d="m 218.33701,-39.91 61.212,34.1520001"
         id="line9184"
         inkscape:connector-curvature="0" />
      <path
         style="fill:none;stroke:#ee7437;stroke-miterlimit:10"
         d="M 228.302,-45.897999 289.513,-11.746"
         id="line9186"
         inkscape:connector-curvature="0" />
      <path
         id="path9188"
         d="m 299.821,29.201 5.398,0 0,2.808 -5.398,0 0,-2.808 z m -2.7,-16.853 2.7,0 0,16.852 -2.7,0 0,-16.852 z"
         stroke-miterlimit="10"
         inkscape:connector-curvature="0"
         style="fill:none;stroke:#ee7437;stroke-miterlimit:10" />
      <path
         id="path9190"
         d="m 316.023,32.008 2.698,0 0,-2.809 -2.698,0 0,2.809 z m -2.7,-11.236 2.699,0 0,8.429 -2.699,0 0,-8.429 z m -5.4,11.236 5.401,0 0,-2.809 -5.401,0 0,2.809 z m 5.4,-14.041 -5.401,0 0,2.809 5.401,0 0,-2.809 z m -8.101,2.805 2.699,0 0,8.429 -2.699,0 0,-8.429 z"
         stroke-miterlimit="10"
         inkscape:connector-curvature="0"
         style="fill:none;stroke:#ee7437;stroke-miterlimit:10" />
      <path
         id="path9192"
         d="m 310.623,52.933 2.7,0 0,-2.81 -2.7,0 0,2.81 z m -2.7,-11.234 2.7,0 0,11.233 -2.7,0 0,-11.233 z m -2.701,0 2.699,0 0,-2.81 -2.699,0 0,2.81 z m -2.701,-0.021 2.698,0 0,11.234 -2.698,0 0,-11.234 z m -5.4,0 2.7,0 0,11.234 -2.7,0 0,-11.234 z m 0,-2.788 5.4,0 0,2.81 -5.4,0 0,-2.81 z"
         stroke-miterlimit="10"
         inkscape:connector-curvature="0"
         style="fill:none;stroke:#ee7437;stroke-miterlimit:10" />
      <path
         id="path9194"
         d="m 324.125,52.933 2.7,0 0,-2.81 -2.7,0 0,2.81 z m -2.7,-11.234 2.7,0 0,8.426 -2.7,0 0,-8.426 z m -5.402,11.234 5.399,0 0,-2.81 -5.399,0 0,2.81 z m 5.402,-14.043 -5.399,0 0,2.81 5.399,0 0,-2.81 z m -8.102,2.809 2.699,0 0,8.426 -2.699,0 0,-8.426 z"
         stroke-miterlimit="10"
         inkscape:connector-curvature="0"
         style="fill:none;stroke:#ee7437;stroke-miterlimit:10" />
      <path
         id="path9196"
         d="m 329.505,50.125 5.401,0 0,2.809 -5.401,0 0,-2.809 z m -2.7,-16.853 2.7,0 0,16.853 -2.7,0 0,-16.853 z"
         stroke-miterlimit="10"
         inkscape:connector-curvature="0"
         style="fill:none;stroke:#ee7437;stroke-miterlimit:10" />
      <path
         id="path9198"
         d="m 337.605,52.933 2.698,0 0,-2.81 -2.698,0 0,2.81 z m -2.699,-14.064 2.699,0 0,11.231 -2.699,0 0,-11.231 z m 0,-4.946 2.699,0 0,2.808 -2.699,0 0,-2.808 z"
         stroke-miterlimit="10"
         inkscape:connector-curvature="0"
         style="fill:none;stroke:#ee7437;stroke-miterlimit:10" />
      <path
         id="path9200"
         d="m 351.085,52.933 2.7,0 0,-2.81 -2.7,0 0,2.81 z m -2.7,-11.234 2.7,0 0,11.233 -2.7,0 0,-11.233 z m -5.402,-2.809 5.399,0 0,2.81 -5.399,0 0,-2.81 z m -2.699,0 2.7,0 0,14.043 -2.7,0 0,-14.043 z"
         stroke-miterlimit="10"
         inkscape:connector-curvature="0"
         style="fill:none;stroke:#ee7437;stroke-miterlimit:10" />
      <path
         id="path9202"
         d="m 361.866,41.699 2.7,0 0,2.809 -2.7,0 0,-2.809 z m -5.401,8.426 10.804,0 0,2.809 -10.804,0 0,-2.809 z m 0,-5.617 5.401,0 0,2.809 -5.401,0 0,-2.809 z m 0,-5.618 5.401,0 0,2.81 -5.401,0 0,-2.81 z m -2.701,2.809 2.7,0 0,8.426 -2.7,0 0,-8.426 z"
         stroke-miterlimit="10"
         inkscape:connector-curvature="0"
         style="fill:none;stroke:#ee7437;stroke-miterlimit:10" />
      <path
         id="path9204"
         d="m 372.624,47.315 2.7,0 0,2.81 -2.7,0 0,-2.81 z m -2.701,2.81 2.7,0 0,2.809 -2.7,0 0,-2.809 z m 0,-11.235 2.7,0 0,2.81 -2.7,0 0,-2.81 z m -2.701,-2.808 2.699,0 0,14.043 -2.699,0 0,-14.043 z"
         stroke-miterlimit="10"
         inkscape:connector-curvature="0"
         style="fill:none;stroke:#ee7437;stroke-miterlimit:10" />
      <path
         id="path9206"
         d="m 380.725,47.315 2.698,0 0,2.81 -2.698,0 0,-2.81 z m -2.702,2.81 2.698,0 0,2.809 -2.698,0 0,-2.809 z m 0,-11.235 2.698,0 0,2.81 -2.698,0 0,-2.81 z m -2.699,-2.808 2.699,0 0,14.043 -2.699,0 0,-14.043 z"
         stroke-miterlimit="10"
         inkscape:connector-curvature="0"
         style="fill:none;stroke:#ee7437;stroke-miterlimit:10" />
      <path
         id="path9208"
         d="m 391.526,41.699 2.699,0 0,2.809 -2.699,0 0,-2.809 z m -5.4,8.426 10.802,0 0,2.809 -10.802,0 0,-2.809 0,0 z m 0,-5.617 5.4,0 0,2.809 -5.4,0 0,-2.809 0,0 z m 0,-5.618 5.4,0 0,2.81 -5.4,0 0,-2.81 0,0 z m -2.701,2.809 2.7,0 0,8.426 -2.7,0 0,-8.426 z"
         stroke-miterlimit="10"
         inkscape:connector-curvature="0"
         style="fill:none;stroke:#ee7437;stroke-miterlimit:10" />
    </g>
  </g>
  <path
     style="fill:none;stroke:none"
     d="m 203.56315,54.389716 42.87405,0 0,39.330746 -42.87405,0 z"
     id="rect9210"
     inkscape:connector-curvature="0" />
  <g
     id="g4417"
     transform="translate(4.0000036,0)">
    <path
       inkscape:connector-curvature="0"
       id="rect4476"
       d="m 714.86278,69.271593 46.06303,0 0,21.259863 -46.06303,0 z"
       style="fill:none;stroke:none" />
    <path
       inkscape:connector-curvature="0"
       id="rect8736"
       d="m 870.76843,69.271694 46.06303,0 0,21.259863 -46.06303,0 z"
       style="fill:none;stroke:none" />
    <path
       inkscape:connector-curvature="0"
       id="rect8738"
       d="m 947.55756,69.271694 46.06303,0 0,21.259863 -46.06303,0 z"
       style="fill:none;stroke:none" />
    <path
       style="fill:none;stroke:none"
       d="m 792.81561,69.271593 46.06303,0 0,21.259863 -46.06303,0 z"
       id="path4337"
       inkscape:connector-curvature="0" />
    <path
       sodipodi:nodetypes="cc"
       inkscape:connector-curvature="0"
       id="path4388"
       d="m 679.76114,55.22556 35.10164,14.046033"
       style="fill:none;fill-rule:evenodd;stroke:none;stroke-width:1px;stroke-linecap:butt;stroke-linejoin:miter;stroke-opacity:1" />
    <path
       style="fill:none;fill-rule:evenodd;stroke:none;stroke-width:1px;stroke-linecap:butt;stroke-linejoin:miter;stroke-opacity:1"
       d="M 760.92274,90.532653 792.81783,69.274174"
       id="path4390"
       inkscape:connector-curvature="0"
       sodipodi:nodetypes="cc" />
    <path
       sodipodi:nodetypes="cc"
       inkscape:connector-curvature="0"
       id="path4392"
       d="M 838.87476,90.537029 870.76594,69.27855"
       style="fill:none;fill-rule:evenodd;stroke:none;stroke-width:1px;stroke-linecap:butt;stroke-linejoin:miter;stroke-opacity:1" />
    <path
       style="fill:none;fill-rule:evenodd;stroke:none;stroke-width:1px;stroke-linecap:butt;stroke-linejoin:miter;stroke-opacity:1"
       d="M 916.83146,90.531557 947.55863,69.273078"
       id="path4394"
       inkscape:connector-curvature="0"
       sodipodi:nodetypes="cc" />
    <path
       style="fill:none;fill-rule:evenodd;stroke:none;stroke-width:1px;stroke-linecap:butt;stroke-linejoin:miter;stroke-opacity:1"
       d="m 993.62059,90.531557 33.43151,-35.30133"
       id="path4396"
       inkscape:connector-curvature="0"
       sodipodi:nodetypes="cc" />
  </g>
  <g
     id="g4428"
     transform="translate(4.0000036,165.69547)">
    <path
       style="fill:none;stroke:none"
       d="m 714.86278,69.271593 46.06303,0 0,21.259863 -46.06303,0 z"
       id="path4430"
       inkscape:connector-curvature="0" />
    <path
       style="fill:none;stroke:none"
       d="m 870.76843,69.271694 46.06303,0 0,21.259863 -46.06303,0 z"
       id="path4432"
       inkscape:connector-curvature="0" />
    <path
       style="fill:none;stroke:none"
       d="m 947.55756,69.271694 46.06303,0 0,21.259863 -46.06303,0 z"
       id="path4434"
       inkscape:connector-curvature="0" />
    <path
       inkscape:connector-curvature="0"
       id="path4436"
       d="m 792.81561,69.271593 46.06303,0 0,21.259863 -46.06303,0 z"
       style="fill:none;stroke:none" />
    <path
       sodipodi:nodetypes="cc"
       inkscape:connector-curvature="0"
       id="path4440"
       d="M 760.92274,90.532653 792.81783,69.274174"
       style="fill:none;fill-rule:evenodd;stroke:none;stroke-width:1px;stroke-linecap:butt;stroke-linejoin:miter;stroke-opacity:1" />
    <path
       style="fill:none;fill-rule:evenodd;stroke:none;stroke-width:1px;stroke-linecap:butt;stroke-linejoin:miter;stroke-opacity:1"
       d="M 838.87476,90.537029 870.76594,69.27855"
       id="path4442"
       inkscape:connector-curvature="0"
       sodipodi:nodetypes="cc" />
    <path
       sodipodi:nodetypes="cc"
       inkscape:connector-curvature="0"
       id="path4444"
       d="M 916.83146,90.531557 947.55863,69.273078"
       style="fill:none;fill-rule:evenodd;stroke:none;stroke-width:1px;stroke-linecap:butt;stroke-linejoin:miter;stroke-opacity:1" />
    <path
       sodipodi:nodetypes="cc"
       inkscape:connector-curvature="0"
       id="path4446"
       d="m 993.62059,90.531557 33.43151,-35.30133"
       style="fill:none;fill-rule:evenodd;stroke:none;stroke-width:1px;stroke-linecap:butt;stroke-linejoin:miter;stroke-opacity:1" />
    <path
       sodipodi:nodetypes="cc"
       inkscape:connector-curvature="0"
       id="path4388-3"
       d="m 679.7611,55.225543 35.10168,14.04605"
       style="fill:none;fill-rule:evenodd;stroke:none;stroke-width:1px;stroke-linecap:butt;stroke-linejoin:miter;stroke-opacity:1" />
  </g>
  <path
     inkscape:connector-curvature="0"
     id="path5102"
     d="m 101.87017,56.870811 32.59844,0 0,39.685077 -32.59844,0 z"
     style="fill:none;stroke:none" />
</svg>
