; GCODE Generated by cam.openbuilds.com on 2021-05-04 
G21 ; mm-mode
G54; Work Coordinates
G21; mm-mode
G90; Absolute Positioning
M3 S1000; Spindle On

; Operation 0: CNC: Vector (path inside)
; Endmill Diameter: 6

G0 Z10; move to z-safe height
G0 F1000 X281.3370 Y135.4000

G0 Z0
G1 F300 Z-3.0000
G1 F1000 X210.5370 Y135.4000 Z-3.0000 S1000
G1 F1000 X210.5370 Y64.6000 Z-3.0000 S1000
G1 F1000 X281.3370 Y64.6000 Z-3.0000 S1000
G1 F1000 X281.3370 Y135.4000 Z-3.0000 S1000
G1 F300 Z-6.0000
G1 F1000 X210.5370 Y135.4000 Z-6.0000 S1000
G1 F1000 X210.5370 Y64.6000 Z-6.0000 S1000
G1 F1000 X281.3370 Y64.6000 Z-6.0000 S1000
G1 F1000 X281.3370 Y135.4000 Z-6.0000 S1000
G1 F300 Z-9.0000
G1 F1000 X210.5370 Y135.4000 Z-9.0000 S1000
G1 F1000 X210.5370 Y64.6000 Z-9.0000 S1000
G1 F1000 X281.3370 Y64.6000 Z-9.0000 S1000
G1 F1000 X281.3370 Y135.4000 Z-9.0000 S1000
G1 F300 Z-12.0000
G1 F1000 X210.5370 Y135.4000 Z-12.0000 S1000
G1 F1000 X210.5370 Y64.6000 Z-12.0000 S1000
G1 F1000 X281.3370 Y64.6000 Z-12.0000 S1000
G1 F1000 X281.3370 Y135.4000 Z-12.0000 S1000
G1 F300 Z-15.0000
G1 F1000 X210.5370 Y135.4000 Z-15.0000 S1000
G1 F1000 X210.5370 Y64.6000 Z-15.0000 S1000
G1 F1000 X281.3370 Y64.6000 Z-15.0000 S1000
G1 F1000 X281.3370 Y135.4000 Z-15.0000 S1000
G1 F300 Z-16.0000
G1 F1000 X210.5370 Y135.4000 Z-16.0000 S1000
G1 F1000 X210.5370 Y64.6000 Z-16.0000 S1000
G1 F1000 X281.3370 Y64.6000 Z-16.0000 S1000
G1 F1000 X281.3370 Y135.4000 Z-16.0000 S1000

G0 Z10; move to z-safe height
G0 X373.2120 Y135.4000

G0 Z0
G1 F300 Z-3.0000
G1 F1000 X302.4120 Y135.4000 Z-3.0000 S1000
G1 F1000 X302.4120 Y64.6000 Z-3.0000 S1000
G1 F1000 X373.2120 Y64.6000 Z-3.0000 S1000
G1 F1000 X373.2120 Y135.4000 Z-3.0000 S1000
G1 F300 Z-6.0000
G1 F1000 X302.4120 Y135.4000 Z-6.0000 S1000
G1 F1000 X302.4120 Y64.6000 Z-6.0000 S1000
G1 F1000 X373.2120 Y64.6000 Z-6.0000 S1000
G1 F1000 X373.2120 Y135.4000 Z-6.0000 S1000
G1 F300 Z-9.0000
G1 F1000 X302.4120 Y135.4000 Z-9.0000 S1000
G1 F1000 X302.4120 Y64.6000 Z-9.0000 S1000
G1 F1000 X373.2120 Y64.6000 Z-9.0000 S1000
G1 F1000 X373.2120 Y135.4000 Z-9.0000 S1000
G1 F300 Z-12.0000
G1 F1000 X302.4120 Y135.4000 Z-12.0000 S1000
G1 F1000 X302.4120 Y64.6000 Z-12.0000 S1000
G1 F1000 X373.2120 Y64.6000 Z-12.0000 S1000
G1 F1000 X373.2120 Y135.4000 Z-12.0000 S1000
G1 F300 Z-15.0000
G1 F1000 X302.4120 Y135.4000 Z-15.0000 S1000
G1 F1000 X302.4120 Y64.6000 Z-15.0000 S1000
G1 F1000 X373.2120 Y64.6000 Z-15.0000 S1000
G1 F1000 X373.2120 Y135.4000 Z-15.0000 S1000
G1 F300 Z-16.0000
G1 F1000 X302.4120 Y135.4000 Z-16.0000 S1000
G1 F1000 X302.4120 Y64.6000 Z-16.0000 S1000
G1 F1000 X373.2120 Y64.6000 Z-16.0000 S1000
G1 F1000 X373.2120 Y135.4000 Z-16.0000 S1000
; retracting back to z-safe
G0 Z10
; Operation 1: CNC: Vector (path outside)
; Endmill Diameter: 6

G0 Z10; move to z-safe height
G0 F1000 X400.6871 Y-2.9203

G0 Z0
G1 F300 Z-3.0000
G1 F1000 X401.3376 Y-2.6853 Z-3.0000 S1000
G1 F1000 X401.9170 Y-2.3076 Z-3.0000 S1000
G1 F1000 X402.3946 Y-1.8072 Z-3.0000 S1000
G1 F1000 X402.7448 Y-1.2108 Z-3.0000 S1000
G1 F1000 X402.9491 Y-0.5500 Z-3.0000 S1000
G1 F1000 X403.0000 Y0.0000 Z-3.0000 S1000
G1 F1000 X403.0000 Y200.0000 Z-3.0000 S1000
G1 F1000 X402.9203 Y200.6871 Z-3.0000 S1000
G1 F1000 X402.6853 Y201.3376 Z-3.0000 S1000
G1 F1000 X402.3076 Y201.9170 Z-3.0000 S1000
G1 F1000 X401.8072 Y202.3946 Z-3.0000 S1000
G1 F1000 X401.2108 Y202.7448 Z-3.0000 S1000
G1 F1000 X400.5500 Y202.9491 Z-3.0000 S1000
G1 F1000 X400.0000 Y203.0000 Z-3.0000 S1000
G1 F1000 X0.0000 Y203.0000 Z-3.0000 S1000
G1 F1000 X-0.6871 Y202.9203 Z-3.0000 S1000
G1 F1000 X-1.3376 Y202.6853 Z-3.0000 S1000
G1 F1000 X-1.9170 Y202.3076 Z-3.0000 S1000
G1 F1000 X-2.3946 Y201.8072 Z-3.0000 S1000
G1 F1000 X-2.7448 Y201.2108 Z-3.0000 S1000
G1 F1000 X-2.9491 Y200.5500 Z-3.0000 S1000
G1 F1000 X-3.0000 Y200.0000 Z-3.0000 S1000
G1 F1000 X-3.0000 Y0.0000 Z-3.0000 S1000
G1 F1000 X-2.9203 Y-0.6871 Z-3.0000 S1000
G1 F1000 X-2.6853 Y-1.3376 Z-3.0000 S1000
G1 F1000 X-2.3076 Y-1.9170 Z-3.0000 S1000
G1 F1000 X-1.8072 Y-2.3946 Z-3.0000 S1000
G1 F1000 X-1.2108 Y-2.7448 Z-3.0000 S1000
G1 F1000 X-0.5500 Y-2.9491 Z-3.0000 S1000
G1 F1000 X0.0000 Y-3.0000 Z-3.0000 S1000
G1 F1000 X400.0000 Y-3.0000 Z-3.0000 S1000
G1 F1000 X400.6871 Y-2.9203 Z-3.0000 S1000
G1 F300 Z-6.0000
G1 F1000 X401.3376 Y-2.6853 Z-6.0000 S1000
G1 F1000 X401.9170 Y-2.3076 Z-6.0000 S1000
G1 F1000 X402.3946 Y-1.8072 Z-6.0000 S1000
G1 F1000 X402.7448 Y-1.2108 Z-6.0000 S1000
G1 F1000 X402.9491 Y-0.5500 Z-6.0000 S1000
G1 F1000 X403.0000 Y0.0000 Z-6.0000 S1000
G1 F1000 X403.0000 Y200.0000 Z-6.0000 S1000
G1 F1000 X402.9203 Y200.6871 Z-6.0000 S1000
G1 F1000 X402.6853 Y201.3376 Z-6.0000 S1000
G1 F1000 X402.3076 Y201.9170 Z-6.0000 S1000
G1 F1000 X401.8072 Y202.3946 Z-6.0000 S1000
G1 F1000 X401.2108 Y202.7448 Z-6.0000 S1000
G1 F1000 X400.5500 Y202.9491 Z-6.0000 S1000
G1 F1000 X400.0000 Y203.0000 Z-6.0000 S1000
G1 F1000 X0.0000 Y203.0000 Z-6.0000 S1000
G1 F1000 X-0.6871 Y202.9203 Z-6.0000 S1000
G1 F1000 X-1.3376 Y202.6853 Z-6.0000 S1000
G1 F1000 X-1.9170 Y202.3076 Z-6.0000 S1000
G1 F1000 X-2.3946 Y201.8072 Z-6.0000 S1000
G1 F1000 X-2.7448 Y201.2108 Z-6.0000 S1000
G1 F1000 X-2.9491 Y200.5500 Z-6.0000 S1000
G1 F1000 X-3.0000 Y200.0000 Z-6.0000 S1000
G1 F1000 X-3.0000 Y0.0000 Z-6.0000 S1000
G1 F1000 X-2.9203 Y-0.6871 Z-6.0000 S1000
G1 F1000 X-2.6853 Y-1.3376 Z-6.0000 S1000
G1 F1000 X-2.3076 Y-1.9170 Z-6.0000 S1000
G1 F1000 X-1.8072 Y-2.3946 Z-6.0000 S1000
G1 F1000 X-1.2108 Y-2.7448 Z-6.0000 S1000
G1 F1000 X-0.5500 Y-2.9491 Z-6.0000 S1000
G1 F1000 X0.0000 Y-3.0000 Z-6.0000 S1000
G1 F1000 X400.0000 Y-3.0000 Z-6.0000 S1000
G1 F1000 X400.6871 Y-2.9203 Z-6.0000 S1000
G1 F300 Z-9.0000
G1 F1000 X401.3376 Y-2.6853 Z-9.0000 S1000
G1 F1000 X401.9170 Y-2.3076 Z-9.0000 S1000
G1 F1000 X402.3946 Y-1.8072 Z-9.0000 S1000
G1 F1000 X402.7448 Y-1.2108 Z-9.0000 S1000
G1 F1000 X402.9491 Y-0.5500 Z-9.0000 S1000
G1 F1000 X403.0000 Y0.0000 Z-9.0000 S1000
G1 F1000 X403.0000 Y200.0000 Z-9.0000 S1000
G1 F1000 X402.9203 Y200.6871 Z-9.0000 S1000
G1 F1000 X402.6853 Y201.3376 Z-9.0000 S1000
G1 F1000 X402.3076 Y201.9170 Z-9.0000 S1000
G1 F1000 X401.8072 Y202.3946 Z-9.0000 S1000
G1 F1000 X401.2108 Y202.7448 Z-9.0000 S1000
G1 F1000 X400.5500 Y202.9491 Z-9.0000 S1000
G1 F1000 X400.0000 Y203.0000 Z-9.0000 S1000
G1 F1000 X0.0000 Y203.0000 Z-9.0000 S1000
G1 F1000 X-0.6871 Y202.9203 Z-9.0000 S1000
G1 F1000 X-1.3376 Y202.6853 Z-9.0000 S1000
G1 F1000 X-1.9170 Y202.3076 Z-9.0000 S1000
G1 F1000 X-2.3946 Y201.8072 Z-9.0000 S1000
G1 F1000 X-2.7448 Y201.2108 Z-9.0000 S1000
G1 F1000 X-2.9491 Y200.5500 Z-9.0000 S1000
G1 F1000 X-3.0000 Y200.0000 Z-9.0000 S1000
G1 F1000 X-3.0000 Y0.0000 Z-9.0000 S1000
G1 F1000 X-2.9203 Y-0.6871 Z-9.0000 S1000
G1 F1000 X-2.6853 Y-1.3376 Z-9.0000 S1000
G1 F1000 X-2.3076 Y-1.9170 Z-9.0000 S1000
G1 F1000 X-1.8072 Y-2.3946 Z-9.0000 S1000
G1 F1000 X-1.2108 Y-2.7448 Z-9.0000 S1000
G1 F1000 X-0.5500 Y-2.9491 Z-9.0000 S1000
G1 F1000 X0.0000 Y-3.0000 Z-9.0000 S1000
G1 F1000 X400.0000 Y-3.0000 Z-9.0000 S1000
G1 F1000 X400.6871 Y-2.9203 Z-9.0000 S1000
G1 F300 Z-12.0000
G1 F1000 X401.3376 Y-2.6853 Z-12.0000 S1000
G1 F1000 X401.9170 Y-2.3076 Z-12.0000 S1000
G1 F1000 X402.3946 Y-1.8072 Z-12.0000 S1000
G1 F1000 X402.7448 Y-1.2108 Z-12.0000 S1000
G1 F1000 X402.9491 Y-0.5500 Z-12.0000 S1000
G1 F1000 X403.0000 Y0.0000 Z-12.0000 S1000
G1 F1000 X403.0000 Y200.0000 Z-12.0000 S1000
G1 F1000 X402.9203 Y200.6871 Z-12.0000 S1000
G1 F1000 X402.6853 Y201.3376 Z-12.0000 S1000
G1 F1000 X402.3076 Y201.9170 Z-12.0000 S1000
G1 F1000 X401.8072 Y202.3946 Z-12.0000 S1000
G1 F1000 X401.2108 Y202.7448 Z-12.0000 S1000
G1 F1000 X400.5500 Y202.9491 Z-12.0000 S1000
G1 F1000 X400.0000 Y203.0000 Z-12.0000 S1000
G1 F1000 X0.0000 Y203.0000 Z-12.0000 S1000
G1 F1000 X-0.6871 Y202.9203 Z-12.0000 S1000
G1 F1000 X-1.3376 Y202.6853 Z-12.0000 S1000
G1 F1000 X-1.9170 Y202.3076 Z-12.0000 S1000
G1 F1000 X-2.3946 Y201.8072 Z-12.0000 S1000
G1 F1000 X-2.7448 Y201.2108 Z-12.0000 S1000
G1 F1000 X-2.9491 Y200.5500 Z-12.0000 S1000
G1 F1000 X-3.0000 Y200.0000 Z-12.0000 S1000
G1 F1000 X-3.0000 Y0.0000 Z-12.0000 S1000
G1 F1000 X-2.9203 Y-0.6871 Z-12.0000 S1000
G1 F1000 X-2.6853 Y-1.3376 Z-12.0000 S1000
G1 F1000 X-2.3076 Y-1.9170 Z-12.0000 S1000
G1 F1000 X-1.8072 Y-2.3946 Z-12.0000 S1000
G1 F1000 X-1.2108 Y-2.7448 Z-12.0000 S1000
G1 F1000 X-0.5500 Y-2.9491 Z-12.0000 S1000
G1 F1000 X0.0000 Y-3.0000 Z-12.0000 S1000
G1 F1000 X400.0000 Y-3.0000 Z-12.0000 S1000
G1 F1000 X400.6871 Y-2.9203 Z-12.0000 S1000
G1 F300 Z-15.0000
G1 F1000 X401.3376 Y-2.6853 Z-15.0000 S1000
G1 F1000 X401.9170 Y-2.3076 Z-15.0000 S1000
G1 F1000 X402.3946 Y-1.8072 Z-15.0000 S1000
G1 F1000 X402.7448 Y-1.2108 Z-15.0000 S1000
G1 F1000 X402.9491 Y-0.5500 Z-15.0000 S1000
G1 F1000 X403.0000 Y0.0000 Z-15.0000 S1000
G1 F1000 X403.0000 Y94.5000 Z-15.0000 S1000
G1 F1000 X403.0000 Y94.5000 Z-13.5000 S1000
G1 F1000 X403.0000 Y105.5000 Z-13.5000 S1000
G1 F1000 X403.0000 Y105.5000 Z-15.0000 S1000
G1 F1000 X403.0000 Y200.0000 Z-15.0000 S1000
G1 F1000 X403.0000 Y200.0000 Z-15.0000 S1000
G1 F1000 X402.9203 Y200.6871 Z-15.0000 S1000
G1 F1000 X402.6853 Y201.3376 Z-15.0000 S1000
G1 F1000 X402.3076 Y201.9170 Z-15.0000 S1000
G1 F1000 X401.8072 Y202.3946 Z-15.0000 S1000
G1 F1000 X401.2108 Y202.7448 Z-15.0000 S1000
G1 F1000 X400.5500 Y202.9491 Z-15.0000 S1000
G1 F1000 X400.0000 Y203.0000 Z-15.0000 S1000
G1 F1000 X0.0000 Y203.0000 Z-15.0000 S1000
G1 F1000 X-0.6871 Y202.9203 Z-15.0000 S1000
G1 F1000 X-1.3376 Y202.6853 Z-15.0000 S1000
G1 F1000 X-1.9170 Y202.3076 Z-15.0000 S1000
G1 F1000 X-2.3946 Y201.8072 Z-15.0000 S1000
G1 F1000 X-2.7448 Y201.2108 Z-15.0000 S1000
G1 F1000 X-2.9491 Y200.5500 Z-15.0000 S1000
G1 F1000 X-3.0000 Y200.0000 Z-15.0000 S1000
G1 F1000 X-3.0000 Y105.5000 Z-15.0000 S1000
G1 F1000 X-3.0000 Y105.5000 Z-13.5000 S1000
G1 F1000 X-3.0000 Y94.5000 Z-13.5000 S1000
G1 F1000 X-3.0000 Y94.5000 Z-15.0000 S1000
G1 F1000 X-3.0000 Y0.0000 Z-15.0000 S1000
G1 F1000 X-3.0000 Y0.0000 Z-15.0000 S1000
G1 F1000 X-2.9203 Y-0.6871 Z-15.0000 S1000
G1 F1000 X-2.6853 Y-1.3376 Z-15.0000 S1000
G1 F1000 X-2.3076 Y-1.9170 Z-15.0000 S1000
G1 F1000 X-1.8072 Y-2.3946 Z-15.0000 S1000
G1 F1000 X-1.2108 Y-2.7448 Z-15.0000 S1000
G1 F1000 X-0.5500 Y-2.9491 Z-15.0000 S1000
G1 F1000 X0.0000 Y-3.0000 Z-15.0000 S1000
G1 F1000 X400.0000 Y-3.0000 Z-15.0000 S1000
G1 F1000 X400.6871 Y-2.9203 Z-15.0000 S1000
G1 F300 Z-16.0000
G1 F1000 X401.3376 Y-2.6853 Z-16.0000 S1000
G1 F1000 X401.9170 Y-2.3076 Z-16.0000 S1000
G1 F1000 X402.3946 Y-1.8072 Z-16.0000 S1000
G1 F1000 X402.7448 Y-1.2108 Z-16.0000 S1000
G1 F1000 X402.9491 Y-0.5500 Z-16.0000 S1000
G1 F1000 X403.0000 Y0.0000 Z-16.0000 S1000
G1 F1000 X403.0000 Y94.5000 Z-16.0000 S1000
G1 F1000 X403.0000 Y94.5000 Z-13.5000 S1000
G1 F1000 X403.0000 Y105.5000 Z-13.5000 S1000
G1 F1000 X403.0000 Y105.5000 Z-16.0000 S1000
G1 F1000 X403.0000 Y200.0000 Z-16.0000 S1000
G1 F1000 X403.0000 Y200.0000 Z-16.0000 S1000
G1 F1000 X402.9203 Y200.6871 Z-16.0000 S1000
G1 F1000 X402.6853 Y201.3376 Z-16.0000 S1000
G1 F1000 X402.3076 Y201.9170 Z-16.0000 S1000
G1 F1000 X401.8072 Y202.3946 Z-16.0000 S1000
G1 F1000 X401.2108 Y202.7448 Z-16.0000 S1000
G1 F1000 X400.5500 Y202.9491 Z-16.0000 S1000
G1 F1000 X400.0000 Y203.0000 Z-16.0000 S1000
G1 F1000 X0.0000 Y203.0000 Z-16.0000 S1000
G1 F1000 X-0.6871 Y202.9203 Z-16.0000 S1000
G1 F1000 X-1.3376 Y202.6853 Z-16.0000 S1000
G1 F1000 X-1.9170 Y202.3076 Z-16.0000 S1000
G1 F1000 X-2.3946 Y201.8072 Z-16.0000 S1000
G1 F1000 X-2.7448 Y201.2108 Z-16.0000 S1000
G1 F1000 X-2.9491 Y200.5500 Z-16.0000 S1000
G1 F1000 X-3.0000 Y200.0000 Z-16.0000 S1000
G1 F1000 X-3.0000 Y105.5000 Z-16.0000 S1000
G1 F1000 X-3.0000 Y105.5000 Z-13.5000 S1000
G1 F1000 X-3.0000 Y94.5000 Z-13.5000 S1000
G1 F1000 X-3.0000 Y94.5000 Z-16.0000 S1000
G1 F1000 X-3.0000 Y0.0000 Z-16.0000 S1000
G1 F1000 X-3.0000 Y0.0000 Z-16.0000 S1000
G1 F1000 X-2.9203 Y-0.6871 Z-16.0000 S1000
G1 F1000 X-2.6853 Y-1.3376 Z-16.0000 S1000
G1 F1000 X-2.3076 Y-1.9170 Z-16.0000 S1000
G1 F1000 X-1.8072 Y-2.3946 Z-16.0000 S1000
G1 F1000 X-1.2108 Y-2.7448 Z-16.0000 S1000
G1 F1000 X-0.5500 Y-2.9491 Z-16.0000 S1000
G1 F1000 X0.0000 Y-3.0000 Z-16.0000 S1000
G1 F1000 X400.0000 Y-3.0000 Z-16.0000 S1000
G1 F1000 X400.6871 Y-2.9203 Z-16.0000 S1000
; retracting back to z-safe
G0 Z10

M5 S0; Spindle Off
