; GCODE Generated by cam.openbuilds.com on 2021-04-16 
G21 ; mm-mode
G54; Work Coordinates
G21; mm-mode
G90; Absolute Positioning
M3 S1000; Spindle On

; Operation 0: Drill: Continuous (Centered)
; Endmill Diameter: 6

G0 Z10; move to z-safe height
G0 F1000 X11.5000 Y188.5000

G0 Z0
G1 F80 Z0.0000
G1 F750 X11.5000 Y188.5000 Z-2.0000 S1000
G1 F750 X11.5000 Y188.5000 Z0.0000 S1000

G0 Z10; move to z-safe height
G0 X11.5000 Y11.5000

G0 Z0
G1 F80 Z0.0000
G1 F750 X11.5000 Y11.5000 Z-2.0000 S1000
G1 F750 X11.5000 Y11.5000 Z0.0000 S1000

G0 Z10; move to z-safe height
G0 X388.5000 Y11.5000

G0 Z0
G1 F80 Z0.0000
G1 F750 X388.5000 Y11.5000 Z-2.0000 S1000
G1 F750 X388.5000 Y11.5000 Z0.0000 S1000

G0 Z10; move to z-safe height
G0 X388.5000 Y188.5000

G0 Z0
G1 F80 Z0.0000
G1 F750 X388.5000 Y188.5000 Z-2.0000 S1000
G1 F750 X388.5000 Y188.5000 Z0.0000 S1000
; retracting back to z-safe
G0 Z10
; Operation 1: Drill: Continuous (Centered)
; Endmill Diameter: 6

G0 Z10; move to z-safe height
G0 F1000 X244.8416 Y136.4500

G0 Z0
G1 F80 Z0.0000
G1 F750 X244.8416 Y136.4500 Z-15.7500 S1000
G1 F750 X244.8416 Y136.4500 Z0.0000 S1000

G0 Z10; move to z-safe height
G0 X317.7417 Y136.4500

G0 Z0
G1 F80 Z0.0000
G1 F750 X317.7417 Y136.4500 Z-15.7500 S1000
G1 F750 X317.7417 Y136.4500 Z0.0000 S1000

G0 Z10; move to z-safe height
G0 X82.2583 Y136.4500

G0 Z0
G1 F80 Z0.0000
G1 F750 X82.2583 Y136.4500 Z-15.7500 S1000
G1 F750 X82.2583 Y136.4500 Z0.0000 S1000

G0 Z10; move to z-safe height
G0 X244.8416 Y63.5500

G0 Z0
G1 F80 Z0.0000
G1 F750 X244.8416 Y63.5500 Z-15.7500 S1000
G1 F750 X244.8416 Y63.5500 Z0.0000 S1000

G0 Z10; move to z-safe height
G0 X82.2583 Y63.5500

G0 Z0
G1 F80 Z0.0000
G1 F750 X82.2583 Y63.5500 Z-15.7500 S1000
G1 F750 X82.2583 Y63.5500 Z0.0000 S1000

G0 Z10; move to z-safe height
G0 X317.7417 Y63.5500

G0 Z0
G1 F80 Z0.0000
G1 F750 X317.7417 Y63.5500 Z-15.7500 S1000
G1 F750 X317.7417 Y63.5500 Z0.0000 S1000

G0 Z10; move to z-safe height
G0 X155.1583 Y63.5500

G0 Z0
G1 F80 Z0.0000
G1 F750 X155.1583 Y63.5500 Z-15.7500 S1000
G1 F750 X155.1583 Y63.5500 Z0.0000 S1000

G0 Z10; move to z-safe height
G0 X155.1583 Y136.4500

G0 Z0
G1 F80 Z0.0000
G1 F750 X155.1583 Y136.4500 Z-15.7500 S1000
G1 F750 X155.1583 Y136.4500 Z0.0000 S1000
; retracting back to z-safe
G0 Z10
; Operation 2: CNC: Vector (path inside)
; Endmill Diameter: 6

G0 Z10; move to z-safe height
G0 F1000 X316.6907 Y135.4000

G0 Z0
G1 F80 Z-2.2500
G1 F750 X245.8907 Y135.4000 Z-2.2500 S1000
G1 F750 X245.8907 Y64.6000 Z-2.2500 S1000
G1 F750 X316.6907 Y64.6000 Z-2.2500 S1000
G1 F750 X316.6907 Y135.4000 Z-2.2500 S1000
G1 F80 Z-4.5000
G1 F750 X245.8907 Y135.4000 Z-4.5000 S1000
G1 F750 X245.8907 Y64.6000 Z-4.5000 S1000
G1 F750 X316.6907 Y64.6000 Z-4.5000 S1000
G1 F750 X316.6907 Y135.4000 Z-4.5000 S1000
G1 F80 Z-6.7500
G1 F750 X245.8907 Y135.4000 Z-6.7500 S1000
G1 F750 X245.8907 Y64.6000 Z-6.7500 S1000
G1 F750 X316.6907 Y64.6000 Z-6.7500 S1000
G1 F750 X316.6907 Y135.4000 Z-6.7500 S1000
G1 F80 Z-9.0000
G1 F750 X245.8907 Y135.4000 Z-9.0000 S1000
G1 F750 X245.8907 Y64.6000 Z-9.0000 S1000
G1 F750 X316.6907 Y64.6000 Z-9.0000 S1000
G1 F750 X316.6907 Y135.4000 Z-9.0000 S1000
G1 F80 Z-11.2500
G1 F750 X245.8907 Y135.4000 Z-11.2500 S1000
G1 F750 X245.8907 Y64.6000 Z-11.2500 S1000
G1 F750 X316.6907 Y64.6000 Z-11.2500 S1000
G1 F750 X316.6907 Y135.4000 Z-11.2500 S1000
G1 F80 Z-13.5000
G1 F750 X245.8907 Y135.4000 Z-13.5000 S1000
G1 F750 X245.8907 Y64.6000 Z-13.5000 S1000
G1 F750 X316.6907 Y64.6000 Z-13.5000 S1000
G1 F750 X316.6907 Y135.4000 Z-13.5000 S1000
G1 F80 Z-15.7500
G1 F750 X245.8907 Y135.4000 Z-15.7500 S1000
G1 F750 X245.8907 Y64.6000 Z-15.7500 S1000
G1 F750 X316.6907 Y64.6000 Z-15.7500 S1000
G1 F750 X316.6907 Y135.4000 Z-15.7500 S1000

G0 Z10; move to z-safe height
G0 X154.1074 Y135.4000

G0 Z0
G1 F80 Z-2.2500
G1 F750 X83.3074 Y135.4000 Z-2.2500 S1000
G1 F750 X83.3074 Y64.6000 Z-2.2500 S1000
G1 F750 X154.1074 Y64.6000 Z-2.2500 S1000
G1 F750 X154.1074 Y135.4000 Z-2.2500 S1000
G1 F80 Z-4.5000
G1 F750 X83.3074 Y135.4000 Z-4.5000 S1000
G1 F750 X83.3074 Y64.6000 Z-4.5000 S1000
G1 F750 X154.1074 Y64.6000 Z-4.5000 S1000
G1 F750 X154.1074 Y135.4000 Z-4.5000 S1000
G1 F80 Z-6.7500
G1 F750 X83.3074 Y135.4000 Z-6.7500 S1000
G1 F750 X83.3074 Y64.6000 Z-6.7500 S1000
G1 F750 X154.1074 Y64.6000 Z-6.7500 S1000
G1 F750 X154.1074 Y135.4000 Z-6.7500 S1000
G1 F80 Z-9.0000
G1 F750 X83.3074 Y135.4000 Z-9.0000 S1000
G1 F750 X83.3074 Y64.6000 Z-9.0000 S1000
G1 F750 X154.1074 Y64.6000 Z-9.0000 S1000
G1 F750 X154.1074 Y135.4000 Z-9.0000 S1000
G1 F80 Z-11.2500
G1 F750 X83.3074 Y135.4000 Z-11.2500 S1000
G1 F750 X83.3074 Y64.6000 Z-11.2500 S1000
G1 F750 X154.1074 Y64.6000 Z-11.2500 S1000
G1 F750 X154.1074 Y135.4000 Z-11.2500 S1000
G1 F80 Z-13.5000
G1 F750 X83.3074 Y135.4000 Z-13.5000 S1000
G1 F750 X83.3074 Y64.6000 Z-13.5000 S1000
G1 F750 X154.1074 Y64.6000 Z-13.5000 S1000
G1 F750 X154.1074 Y135.4000 Z-13.5000 S1000
G1 F80 Z-15.7500
G1 F750 X83.3074 Y135.4000 Z-15.7500 S1000
G1 F750 X83.3074 Y64.6000 Z-15.7500 S1000
G1 F750 X154.1074 Y64.6000 Z-15.7500 S1000
G1 F750 X154.1074 Y135.4000 Z-15.7500 S1000
; retracting back to z-safe
G0 Z10
; Operation 3: CNC: Vector (path outside)
; Endmill Diameter: 6

G0 Z10; move to z-safe height
G0 F1000 X400.0000 Y-3.0000

G0 Z0
G1 F80 Z-2.2500
G1 F750 X0.0000 Y-3.0000 Z-2.2500 S1000
G1 F750 X-0.5500 Y-2.9491 Z-2.2500 S1000
G1 F750 X-1.2108 Y-2.7448 Z-2.2500 S1000
G1 F750 X-1.8072 Y-2.3946 Z-2.2500 S1000
G1 F750 X-2.3076 Y-1.9170 Z-2.2500 S1000
G1 F750 X-2.6853 Y-1.3376 Z-2.2500 S1000
G1 F750 X-2.9203 Y-0.6871 Z-2.2500 S1000
G1 F750 X-3.0000 Y0.0000 Z-2.2500 S1000
G1 F750 X-3.0000 Y200.0000 Z-2.2500 S1000
G1 F750 X-2.9491 Y200.5500 Z-2.2500 S1000
G1 F750 X-2.7448 Y201.2108 Z-2.2500 S1000
G1 F750 X-2.3946 Y201.8072 Z-2.2500 S1000
G1 F750 X-1.9170 Y202.3076 Z-2.2500 S1000
G1 F750 X-1.3376 Y202.6853 Z-2.2500 S1000
G1 F750 X-0.6871 Y202.9203 Z-2.2500 S1000
G1 F750 X0.0000 Y203.0000 Z-2.2500 S1000
G1 F750 X400.0000 Y203.0000 Z-2.2500 S1000
G1 F750 X400.5500 Y202.9491 Z-2.2500 S1000
G1 F750 X401.2108 Y202.7448 Z-2.2500 S1000
G1 F750 X401.8072 Y202.3946 Z-2.2500 S1000
G1 F750 X402.3076 Y201.9170 Z-2.2500 S1000
G1 F750 X402.6853 Y201.3376 Z-2.2500 S1000
G1 F750 X402.9203 Y200.6871 Z-2.2500 S1000
G1 F750 X403.0000 Y200.0000 Z-2.2500 S1000
G1 F750 X403.0000 Y0.0000 Z-2.2500 S1000
G1 F750 X402.9491 Y-0.5500 Z-2.2500 S1000
G1 F750 X402.7448 Y-1.2108 Z-2.2500 S1000
G1 F750 X402.3946 Y-1.8072 Z-2.2500 S1000
G1 F750 X401.9170 Y-2.3076 Z-2.2500 S1000
G1 F750 X401.3376 Y-2.6853 Z-2.2500 S1000
G1 F750 X400.6871 Y-2.9203 Z-2.2500 S1000
G1 F750 X400.0000 Y-3.0000 Z-2.2500 S1000
G1 F80 Z-4.5000
G1 F750 X0.0000 Y-3.0000 Z-4.5000 S1000
G1 F750 X-0.5500 Y-2.9491 Z-4.5000 S1000
G1 F750 X-1.2108 Y-2.7448 Z-4.5000 S1000
G1 F750 X-1.8072 Y-2.3946 Z-4.5000 S1000
G1 F750 X-2.3076 Y-1.9170 Z-4.5000 S1000
G1 F750 X-2.6853 Y-1.3376 Z-4.5000 S1000
G1 F750 X-2.9203 Y-0.6871 Z-4.5000 S1000
G1 F750 X-3.0000 Y0.0000 Z-4.5000 S1000
G1 F750 X-3.0000 Y200.0000 Z-4.5000 S1000
G1 F750 X-2.9491 Y200.5500 Z-4.5000 S1000
G1 F750 X-2.7448 Y201.2108 Z-4.5000 S1000
G1 F750 X-2.3946 Y201.8072 Z-4.5000 S1000
G1 F750 X-1.9170 Y202.3076 Z-4.5000 S1000
G1 F750 X-1.3376 Y202.6853 Z-4.5000 S1000
G1 F750 X-0.6871 Y202.9203 Z-4.5000 S1000
G1 F750 X0.0000 Y203.0000 Z-4.5000 S1000
G1 F750 X400.0000 Y203.0000 Z-4.5000 S1000
G1 F750 X400.5500 Y202.9491 Z-4.5000 S1000
G1 F750 X401.2108 Y202.7448 Z-4.5000 S1000
G1 F750 X401.8072 Y202.3946 Z-4.5000 S1000
G1 F750 X402.3076 Y201.9170 Z-4.5000 S1000
G1 F750 X402.6853 Y201.3376 Z-4.5000 S1000
G1 F750 X402.9203 Y200.6871 Z-4.5000 S1000
G1 F750 X403.0000 Y200.0000 Z-4.5000 S1000
G1 F750 X403.0000 Y0.0000 Z-4.5000 S1000
G1 F750 X402.9491 Y-0.5500 Z-4.5000 S1000
G1 F750 X402.7448 Y-1.2108 Z-4.5000 S1000
G1 F750 X402.3946 Y-1.8072 Z-4.5000 S1000
G1 F750 X401.9170 Y-2.3076 Z-4.5000 S1000
G1 F750 X401.3376 Y-2.6853 Z-4.5000 S1000
G1 F750 X400.6871 Y-2.9203 Z-4.5000 S1000
G1 F750 X400.0000 Y-3.0000 Z-4.5000 S1000
G1 F80 Z-6.7500
G1 F750 X0.0000 Y-3.0000 Z-6.7500 S1000
G1 F750 X-0.5500 Y-2.9491 Z-6.7500 S1000
G1 F750 X-1.2108 Y-2.7448 Z-6.7500 S1000
G1 F750 X-1.8072 Y-2.3946 Z-6.7500 S1000
G1 F750 X-2.3076 Y-1.9170 Z-6.7500 S1000
G1 F750 X-2.6853 Y-1.3376 Z-6.7500 S1000
G1 F750 X-2.9203 Y-0.6871 Z-6.7500 S1000
G1 F750 X-3.0000 Y0.0000 Z-6.7500 S1000
G1 F750 X-3.0000 Y200.0000 Z-6.7500 S1000
G1 F750 X-2.9491 Y200.5500 Z-6.7500 S1000
G1 F750 X-2.7448 Y201.2108 Z-6.7500 S1000
G1 F750 X-2.3946 Y201.8072 Z-6.7500 S1000
G1 F750 X-1.9170 Y202.3076 Z-6.7500 S1000
G1 F750 X-1.3376 Y202.6853 Z-6.7500 S1000
G1 F750 X-0.6871 Y202.9203 Z-6.7500 S1000
G1 F750 X0.0000 Y203.0000 Z-6.7500 S1000
G1 F750 X400.0000 Y203.0000 Z-6.7500 S1000
G1 F750 X400.5500 Y202.9491 Z-6.7500 S1000
G1 F750 X401.2108 Y202.7448 Z-6.7500 S1000
G1 F750 X401.8072 Y202.3946 Z-6.7500 S1000
G1 F750 X402.3076 Y201.9170 Z-6.7500 S1000
G1 F750 X402.6853 Y201.3376 Z-6.7500 S1000
G1 F750 X402.9203 Y200.6871 Z-6.7500 S1000
G1 F750 X403.0000 Y200.0000 Z-6.7500 S1000
G1 F750 X403.0000 Y0.0000 Z-6.7500 S1000
G1 F750 X402.9491 Y-0.5500 Z-6.7500 S1000
G1 F750 X402.7448 Y-1.2108 Z-6.7500 S1000
G1 F750 X402.3946 Y-1.8072 Z-6.7500 S1000
G1 F750 X401.9170 Y-2.3076 Z-6.7500 S1000
G1 F750 X401.3376 Y-2.6853 Z-6.7500 S1000
G1 F750 X400.6871 Y-2.9203 Z-6.7500 S1000
G1 F750 X400.0000 Y-3.0000 Z-6.7500 S1000
G1 F80 Z-9.0000
G1 F750 X0.0000 Y-3.0000 Z-9.0000 S1000
G1 F750 X-0.5500 Y-2.9491 Z-9.0000 S1000
G1 F750 X-1.2108 Y-2.7448 Z-9.0000 S1000
G1 F750 X-1.8072 Y-2.3946 Z-9.0000 S1000
G1 F750 X-2.3076 Y-1.9170 Z-9.0000 S1000
G1 F750 X-2.6853 Y-1.3376 Z-9.0000 S1000
G1 F750 X-2.9203 Y-0.6871 Z-9.0000 S1000
G1 F750 X-3.0000 Y0.0000 Z-9.0000 S1000
G1 F750 X-3.0000 Y200.0000 Z-9.0000 S1000
G1 F750 X-2.9491 Y200.5500 Z-9.0000 S1000
G1 F750 X-2.7448 Y201.2108 Z-9.0000 S1000
G1 F750 X-2.3946 Y201.8072 Z-9.0000 S1000
G1 F750 X-1.9170 Y202.3076 Z-9.0000 S1000
G1 F750 X-1.3376 Y202.6853 Z-9.0000 S1000
G1 F750 X-0.6871 Y202.9203 Z-9.0000 S1000
G1 F750 X0.0000 Y203.0000 Z-9.0000 S1000
G1 F750 X400.0000 Y203.0000 Z-9.0000 S1000
G1 F750 X400.5500 Y202.9491 Z-9.0000 S1000
G1 F750 X401.2108 Y202.7448 Z-9.0000 S1000
G1 F750 X401.8072 Y202.3946 Z-9.0000 S1000
G1 F750 X402.3076 Y201.9170 Z-9.0000 S1000
G1 F750 X402.6853 Y201.3376 Z-9.0000 S1000
G1 F750 X402.9203 Y200.6871 Z-9.0000 S1000
G1 F750 X403.0000 Y200.0000 Z-9.0000 S1000
G1 F750 X403.0000 Y0.0000 Z-9.0000 S1000
G1 F750 X402.9491 Y-0.5500 Z-9.0000 S1000
G1 F750 X402.7448 Y-1.2108 Z-9.0000 S1000
G1 F750 X402.3946 Y-1.8072 Z-9.0000 S1000
G1 F750 X401.9170 Y-2.3076 Z-9.0000 S1000
G1 F750 X401.3376 Y-2.6853 Z-9.0000 S1000
G1 F750 X400.6871 Y-2.9203 Z-9.0000 S1000
G1 F750 X400.0000 Y-3.0000 Z-9.0000 S1000
G1 F80 Z-11.2500
G1 F750 X0.0000 Y-3.0000 Z-11.2500 S1000
G1 F750 X-0.5500 Y-2.9491 Z-11.2500 S1000
G1 F750 X-1.2108 Y-2.7448 Z-11.2500 S1000
G1 F750 X-1.8072 Y-2.3946 Z-11.2500 S1000
G1 F750 X-2.3076 Y-1.9170 Z-11.2500 S1000
G1 F750 X-2.6853 Y-1.3376 Z-11.2500 S1000
G1 F750 X-2.9203 Y-0.6871 Z-11.2500 S1000
G1 F750 X-3.0000 Y0.0000 Z-11.2500 S1000
G1 F750 X-3.0000 Y200.0000 Z-11.2500 S1000
G1 F750 X-2.9491 Y200.5500 Z-11.2500 S1000
G1 F750 X-2.7448 Y201.2108 Z-11.2500 S1000
G1 F750 X-2.3946 Y201.8072 Z-11.2500 S1000
G1 F750 X-1.9170 Y202.3076 Z-11.2500 S1000
G1 F750 X-1.3376 Y202.6853 Z-11.2500 S1000
G1 F750 X-0.6871 Y202.9203 Z-11.2500 S1000
G1 F750 X0.0000 Y203.0000 Z-11.2500 S1000
G1 F750 X400.0000 Y203.0000 Z-11.2500 S1000
G1 F750 X400.5500 Y202.9491 Z-11.2500 S1000
G1 F750 X401.2108 Y202.7448 Z-11.2500 S1000
G1 F750 X401.8072 Y202.3946 Z-11.2500 S1000
G1 F750 X402.3076 Y201.9170 Z-11.2500 S1000
G1 F750 X402.6853 Y201.3376 Z-11.2500 S1000
G1 F750 X402.9203 Y200.6871 Z-11.2500 S1000
G1 F750 X403.0000 Y200.0000 Z-11.2500 S1000
G1 F750 X403.0000 Y0.0000 Z-11.2500 S1000
G1 F750 X402.9491 Y-0.5500 Z-11.2500 S1000
G1 F750 X402.7448 Y-1.2108 Z-11.2500 S1000
G1 F750 X402.3946 Y-1.8072 Z-11.2500 S1000
G1 F750 X401.9170 Y-2.3076 Z-11.2500 S1000
G1 F750 X401.3376 Y-2.6853 Z-11.2500 S1000
G1 F750 X400.6871 Y-2.9203 Z-11.2500 S1000
G1 F750 X400.0000 Y-3.0000 Z-11.2500 S1000
G1 F80 Z-13.5000
G1 F750 X306.0000 Y-3.0000 Z-13.5000 S1000
G1 F750 X306.0000 Y-3.0000 Z-12.7500 S1000
G1 F750 X294.0000 Y-3.0000 Z-12.7500 S1000
G1 F750 X294.0000 Y-3.0000 Z-13.5000 S1000
G1 F750 X200.0000 Y-3.0000 Z-13.5000 S1000
G1 F750 X106.0000 Y-3.0000 Z-13.5000 S1000
G1 F750 X106.0000 Y-3.0000 Z-12.7500 S1000
G1 F750 X94.0000 Y-3.0000 Z-12.7500 S1000
G1 F750 X94.0000 Y-3.0000 Z-13.5000 S1000
G1 F750 X0.0000 Y-3.0000 Z-13.5000 S1000
G1 F750 X0.0000 Y-3.0000 Z-13.5000 S1000
G1 F750 X-0.5500 Y-2.9491 Z-13.5000 S1000
G1 F750 X-1.2108 Y-2.7448 Z-13.5000 S1000
G1 F750 X-1.8072 Y-2.3946 Z-13.5000 S1000
G1 F750 X-2.3076 Y-1.9170 Z-13.5000 S1000
G1 F750 X-2.6853 Y-1.3376 Z-13.5000 S1000
G1 F750 X-2.9203 Y-0.6871 Z-13.5000 S1000
G1 F750 X-3.0000 Y0.0000 Z-13.5000 S1000
G1 F750 X-3.0000 Y94.0000 Z-13.5000 S1000
G1 F750 X-3.0000 Y94.0000 Z-12.7500 S1000
G1 F750 X-3.0000 Y106.0000 Z-12.7500 S1000
G1 F750 X-3.0000 Y106.0000 Z-13.5000 S1000
G1 F750 X-3.0000 Y200.0000 Z-13.5000 S1000
G1 F750 X-3.0000 Y200.0000 Z-13.5000 S1000
G1 F750 X-2.9491 Y200.5500 Z-13.5000 S1000
G1 F750 X-2.7448 Y201.2108 Z-13.5000 S1000
G1 F750 X-2.3946 Y201.8072 Z-13.5000 S1000
G1 F750 X-1.9170 Y202.3076 Z-13.5000 S1000
G1 F750 X-1.3376 Y202.6853 Z-13.5000 S1000
G1 F750 X-0.6871 Y202.9203 Z-13.5000 S1000
G1 F750 X0.0000 Y203.0000 Z-13.5000 S1000
G1 F750 X94.0000 Y203.0000 Z-13.5000 S1000
G1 F750 X94.0000 Y203.0000 Z-12.7500 S1000
G1 F750 X106.0000 Y203.0000 Z-12.7500 S1000
G1 F750 X106.0000 Y203.0000 Z-13.5000 S1000
G1 F750 X200.0000 Y203.0000 Z-13.5000 S1000
G1 F750 X294.0000 Y203.0000 Z-13.5000 S1000
G1 F750 X294.0000 Y203.0000 Z-12.7500 S1000
G1 F750 X306.0000 Y203.0000 Z-12.7500 S1000
G1 F750 X306.0000 Y203.0000 Z-13.5000 S1000
G1 F750 X400.0000 Y203.0000 Z-13.5000 S1000
G1 F750 X400.0000 Y203.0000 Z-13.5000 S1000
G1 F750 X400.5500 Y202.9491 Z-13.5000 S1000
G1 F750 X401.2108 Y202.7448 Z-13.5000 S1000
G1 F750 X401.8072 Y202.3946 Z-13.5000 S1000
G1 F750 X402.3076 Y201.9170 Z-13.5000 S1000
G1 F750 X402.6853 Y201.3376 Z-13.5000 S1000
G1 F750 X402.9203 Y200.6871 Z-13.5000 S1000
G1 F750 X403.0000 Y200.0000 Z-13.5000 S1000
G1 F750 X403.0000 Y106.0000 Z-13.5000 S1000
G1 F750 X403.0000 Y106.0000 Z-12.7500 S1000
G1 F750 X403.0000 Y94.0000 Z-12.7500 S1000
G1 F750 X403.0000 Y94.0000 Z-13.5000 S1000
G1 F750 X403.0000 Y0.0000 Z-13.5000 S1000
G1 F750 X403.0000 Y0.0000 Z-13.5000 S1000
G1 F750 X402.9491 Y-0.5500 Z-13.5000 S1000
G1 F750 X402.7448 Y-1.2108 Z-13.5000 S1000
G1 F750 X402.3946 Y-1.8072 Z-13.5000 S1000
G1 F750 X401.9170 Y-2.3076 Z-13.5000 S1000
G1 F750 X401.3376 Y-2.6853 Z-13.5000 S1000
G1 F750 X400.6871 Y-2.9203 Z-13.5000 S1000
G1 F750 X400.0000 Y-3.0000 Z-13.5000 S1000
G1 F80 Z-15.7500
G1 F750 X306.0000 Y-3.0000 Z-15.7500 S1000
G1 F750 X306.0000 Y-3.0000 Z-12.7500 S1000
G1 F750 X294.0000 Y-3.0000 Z-12.7500 S1000
G1 F750 X294.0000 Y-3.0000 Z-15.7500 S1000
G1 F750 X200.0000 Y-3.0000 Z-15.7500 S1000
G1 F750 X106.0000 Y-3.0000 Z-15.7500 S1000
G1 F750 X106.0000 Y-3.0000 Z-12.7500 S1000
G1 F750 X94.0000 Y-3.0000 Z-12.7500 S1000
G1 F750 X94.0000 Y-3.0000 Z-15.7500 S1000
G1 F750 X0.0000 Y-3.0000 Z-15.7500 S1000
G1 F750 X0.0000 Y-3.0000 Z-15.7500 S1000
G1 F750 X-0.5500 Y-2.9491 Z-15.7500 S1000
G1 F750 X-1.2108 Y-2.7448 Z-15.7500 S1000
G1 F750 X-1.8072 Y-2.3946 Z-15.7500 S1000
G1 F750 X-2.3076 Y-1.9170 Z-15.7500 S1000
G1 F750 X-2.6853 Y-1.3376 Z-15.7500 S1000
G1 F750 X-2.9203 Y-0.6871 Z-15.7500 S1000
G1 F750 X-3.0000 Y0.0000 Z-15.7500 S1000
G1 F750 X-3.0000 Y94.0000 Z-15.7500 S1000
G1 F750 X-3.0000 Y94.0000 Z-12.7500 S1000
G1 F750 X-3.0000 Y106.0000 Z-12.7500 S1000
G1 F750 X-3.0000 Y106.0000 Z-15.7500 S1000
G1 F750 X-3.0000 Y200.0000 Z-15.7500 S1000
G1 F750 X-3.0000 Y200.0000 Z-15.7500 S1000
G1 F750 X-2.9491 Y200.5500 Z-15.7500 S1000
G1 F750 X-2.7448 Y201.2108 Z-15.7500 S1000
G1 F750 X-2.3946 Y201.8072 Z-15.7500 S1000
G1 F750 X-1.9170 Y202.3076 Z-15.7500 S1000
G1 F750 X-1.3376 Y202.6853 Z-15.7500 S1000
G1 F750 X-0.6871 Y202.9203 Z-15.7500 S1000
G1 F750 X0.0000 Y203.0000 Z-15.7500 S1000
G1 F750 X94.0000 Y203.0000 Z-15.7500 S1000
G1 F750 X94.0000 Y203.0000 Z-12.7500 S1000
G1 F750 X106.0000 Y203.0000 Z-12.7500 S1000
G1 F750 X106.0000 Y203.0000 Z-15.7500 S1000
G1 F750 X200.0000 Y203.0000 Z-15.7500 S1000
G1 F750 X294.0000 Y203.0000 Z-15.7500 S1000
G1 F750 X294.0000 Y203.0000 Z-12.7500 S1000
G1 F750 X306.0000 Y203.0000 Z-12.7500 S1000
G1 F750 X306.0000 Y203.0000 Z-15.7500 S1000
G1 F750 X400.0000 Y203.0000 Z-15.7500 S1000
G1 F750 X400.0000 Y203.0000 Z-15.7500 S1000
G1 F750 X400.5500 Y202.9491 Z-15.7500 S1000
G1 F750 X401.2108 Y202.7448 Z-15.7500 S1000
G1 F750 X401.8072 Y202.3946 Z-15.7500 S1000
G1 F750 X402.3076 Y201.9170 Z-15.7500 S1000
G1 F750 X402.6853 Y201.3376 Z-15.7500 S1000
G1 F750 X402.9203 Y200.6871 Z-15.7500 S1000
G1 F750 X403.0000 Y200.0000 Z-15.7500 S1000
G1 F750 X403.0000 Y106.0000 Z-15.7500 S1000
G1 F750 X403.0000 Y106.0000 Z-12.7500 S1000
G1 F750 X403.0000 Y94.0000 Z-12.7500 S1000
G1 F750 X403.0000 Y94.0000 Z-15.7500 S1000
G1 F750 X403.0000 Y0.0000 Z-15.7500 S1000
G1 F750 X403.0000 Y0.0000 Z-15.7500 S1000
G1 F750 X402.9491 Y-0.5500 Z-15.7500 S1000
G1 F750 X402.7448 Y-1.2108 Z-15.7500 S1000
G1 F750 X402.3946 Y-1.8072 Z-15.7500 S1000
G1 F750 X401.9170 Y-2.3076 Z-15.7500 S1000
G1 F750 X401.3376 Y-2.6853 Z-15.7500 S1000
G1 F750 X400.6871 Y-2.9203 Z-15.7500 S1000
G1 F750 X400.0000 Y-3.0000 Z-15.7500 S1000
; retracting back to z-safe
G0 Z10

M5 S0; Spindle Off
