<?xml version="1.0" encoding="UTF-8" standalone="no"?>
<!-- Created with Inkscape (http://www.inkscape.org/) -->

<svg
   xmlns:dc="http://purl.org/dc/elements/1.1/"
   xmlns:cc="http://creativecommons.org/ns#"
   xmlns:rdf="http://www.w3.org/1999/02/22-rdf-syntax-ns#"
   xmlns:svg="http://www.w3.org/2000/svg"
   xmlns="http://www.w3.org/2000/svg"
   xmlns:sodipodi="http://sodipodi.sourceforge.net/DTD/sodipodi-0.dtd"
   xmlns:inkscape="http://www.inkscape.org/namespaces/inkscape"
   width="160mm"
   height="26mm"
   viewBox="0 0 160 25.999999"
   version="1.1"
   id="svg1408"
   inkscape:version="0.92.5 (2060ec1f9f, 2020-04-08)"
   sodipodi:docname="interface_usb.svg">
  <defs
     id="defs1402">
    <inkscape:path-effect
       effect="bspline"
       id="path-effect3971"
       is_visible="true"
       weight="33.333333"
       steps="2"
       helper_size="0"
       apply_no_weight="true"
       apply_with_weight="true"
       only_selected="false" />
    <marker
       inkscape:stockid="Arrow1Lend"
       orient="auto"
       refY="0"
       refX="0"
       id="Arrow1Lend"
       style="overflow:visible">
      <path
         inkscape:connector-curvature="0"
         id="path4521"
         d="M 0,0 5,-5 -12.5,0 5,5 Z"
         style="fill-rule:evenodd;stroke:#000000;stroke-width:1.00000003pt;marker-start:none"
         transform="matrix(-0.8,0,0,-0.8,-10,0)" />
    </marker>
  </defs>
  <sodipodi:namedview
     id="base"
     pagecolor="#ffffff"
     bordercolor="#666666"
     borderopacity="1.0"
     inkscape:pageopacity="0.0"
     inkscape:pageshadow="2"
     inkscape:zoom="0.35355339"
     inkscape:cx="831.22249"
     inkscape:cy="1016.0831"
     inkscape:document-units="mm"
     inkscape:current-layer="layer1"
     showgrid="false"
     fit-margin-top="0"
     fit-margin-left="0"
     fit-margin-right="0"
     fit-margin-bottom="0"
     inkscape:showpageshadow="false"
     inkscape:window-width="1920"
     inkscape:window-height="1029"
     inkscape:window-x="0"
     inkscape:window-y="0"
     inkscape:window-maximized="1"
     showguides="true"
     inkscape:guide-bbox="true"
     showborder="false" />
  <metadata
     id="metadata1405">
    <rdf:RDF>
      <cc:Work
         rdf:about="">
        <dc:format>image/svg+xml</dc:format>
        <dc:type
           rdf:resource="http://purl.org/dc/dcmitype/StillImage" />
        <dc:title></dc:title>
      </cc:Work>
    </rdf:RDF>
  </metadata>
  <g
     inkscape:label="Calque 1"
     inkscape:groupmode="layer"
     id="layer1"
     transform="translate(-2297.438,335.06525)">
    <rect
       y="-335.06525"
       x="2297.438"
       height="26"
       width="160"
       id="rect2778"
       style="opacity:1;vector-effect:none;fill:#e6e6e6;fill-opacity:1;stroke:none;stroke-width:3.25398731;stroke-linecap:square;stroke-linejoin:bevel;stroke-miterlimit:4;stroke-dasharray:3.25398718, 13.0159489;stroke-dashoffset:0;stroke-opacity:1;paint-order:stroke fill markers" />
    <circle
       r="1.6"
       cy="-321.10046"
       cx="2416.2664"
       id="circle2780"
       style="opacity:1;vector-effect:none;fill:#ff00ff;fill-opacity:1;stroke:none;stroke-width:1.20944917;stroke-linecap:square;stroke-linejoin:bevel;stroke-miterlimit:4;stroke-dasharray:1.20944883, 4.83779537;stroke-dashoffset:0;stroke-opacity:1;paint-order:stroke fill markers" />
    <circle
       style="opacity:1;vector-effect:none;fill:#ff00ff;fill-opacity:1;stroke:none;stroke-width:1.20944917;stroke-linecap:square;stroke-linejoin:bevel;stroke-miterlimit:4;stroke-dasharray:1.20944883, 4.83779537;stroke-dashoffset:0;stroke-opacity:1;paint-order:stroke fill markers"
       id="circle2782"
       cx="2428.4663"
       cy="-321.10046"
       r="1.6" />
    <circle
       style="opacity:1;vector-effect:none;fill:#ff00ff;fill-opacity:1;stroke:none;stroke-width:1.20944917;stroke-linecap:square;stroke-linejoin:bevel;stroke-miterlimit:4;stroke-dasharray:1.20944883, 4.83779537;stroke-dashoffset:0;stroke-opacity:1;paint-order:stroke fill markers"
       id="circle2784"
       cx="2434.238"
       cy="-321.10046"
       r="1.6" />
    <circle
       r="1.6"
       cy="-321.10046"
       cx="2446.438"
       id="circle2786"
       style="opacity:1;vector-effect:none;fill:#ff00ff;fill-opacity:1;stroke:none;stroke-width:1.20944917;stroke-linecap:square;stroke-linejoin:bevel;stroke-miterlimit:4;stroke-dasharray:1.20944883, 4.83779537;stroke-dashoffset:0;stroke-opacity:1;paint-order:stroke fill markers" />
    <circle
       style="opacity:1;vector-effect:none;fill:#ff00ff;fill-opacity:1;stroke:none;stroke-width:1.20944917;stroke-linecap:square;stroke-linejoin:bevel;stroke-miterlimit:4;stroke-dasharray:1.20944883, 4.83779537;stroke-dashoffset:0;stroke-opacity:1;paint-order:stroke fill markers"
       id="circle2788"
       cx="2308.438"
       cy="-321.10046"
       r="1.6" />
    <circle
       r="1.6"
       cy="-321.10046"
       cx="2320.6379"
       id="circle2790"
       style="opacity:1;vector-effect:none;fill:#ff00ff;fill-opacity:1;stroke:none;stroke-width:1.20944917;stroke-linecap:square;stroke-linejoin:bevel;stroke-miterlimit:4;stroke-dasharray:1.20944883, 4.83779537;stroke-dashoffset:0;stroke-opacity:1;paint-order:stroke fill markers" />
    <circle
       style="opacity:1;vector-effect:none;fill:#ff00ff;fill-opacity:1;stroke:none;stroke-width:1.20944917;stroke-linecap:square;stroke-linejoin:bevel;stroke-miterlimit:4;stroke-dasharray:1.20944883, 4.83779537;stroke-dashoffset:0;stroke-opacity:1;paint-order:stroke fill markers"
       id="circle2794"
       cx="2398.2952"
       cy="-321.10046"
       r="1.6" />
    <circle
       r="1.6"
       cy="-321.10046"
       cx="2410.4951"
       id="circle2796"
       style="opacity:1;vector-effect:none;fill:#ff00ff;fill-opacity:1;stroke:none;stroke-width:1.20944917;stroke-linecap:square;stroke-linejoin:bevel;stroke-miterlimit:4;stroke-dasharray:1.20944883, 4.83779537;stroke-dashoffset:0;stroke-opacity:1;paint-order:stroke fill markers" />
    <circle
       r="1.6"
       cy="-321.10046"
       cx="2380.323"
       id="circle2798"
       style="opacity:1;vector-effect:none;fill:#ff00ff;fill-opacity:1;stroke:none;stroke-width:1.20944917;stroke-linecap:square;stroke-linejoin:bevel;stroke-miterlimit:4;stroke-dasharray:1.20944883, 4.83779537;stroke-dashoffset:0;stroke-opacity:1;paint-order:stroke fill markers" />
    <circle
       style="opacity:1;vector-effect:none;fill:#ff00ff;fill-opacity:1;stroke:none;stroke-width:1.20944917;stroke-linecap:square;stroke-linejoin:bevel;stroke-miterlimit:4;stroke-dasharray:1.20944883, 4.83779537;stroke-dashoffset:0;stroke-opacity:1;paint-order:stroke fill markers"
       id="circle2800"
       cx="2392.5229"
       cy="-321.10046"
       r="1.6" />
    <circle
       r="1.6"
       cy="-321.10046"
       cx="2326.4089"
       id="circle2802"
       style="opacity:1;vector-effect:none;fill:#ff00ff;fill-opacity:1;stroke:none;stroke-width:1.20944917;stroke-linecap:square;stroke-linejoin:bevel;stroke-miterlimit:4;stroke-dasharray:1.20944883, 4.83779537;stroke-dashoffset:0;stroke-opacity:1;paint-order:stroke fill markers" />
    <circle
       style="opacity:1;vector-effect:none;fill:#ff00ff;fill-opacity:1;stroke:none;stroke-width:1.20944917;stroke-linecap:square;stroke-linejoin:bevel;stroke-miterlimit:4;stroke-dasharray:1.20944883, 4.83779537;stroke-dashoffset:0;stroke-opacity:1;paint-order:stroke fill markers"
       id="circle2804"
       cx="2338.6089"
       cy="-321.10046"
       r="1.6" />
    <circle
       style="opacity:1;vector-effect:none;fill:#ff00ff;fill-opacity:1;stroke:none;stroke-width:1.20944917;stroke-linecap:square;stroke-linejoin:bevel;stroke-miterlimit:4;stroke-dasharray:1.20944883, 4.83779537;stroke-dashoffset:0;stroke-opacity:1;paint-order:stroke fill markers"
       id="circle2808"
       cx="2344.3799"
       cy="-321.10046"
       r="1.6" />
    <circle
       r="1.6"
       cy="-321.10046"
       cx="2356.5798"
       id="circle2810"
       style="opacity:1;vector-effect:none;fill:#ff00ff;fill-opacity:1;stroke:none;stroke-width:1.20944917;stroke-linecap:square;stroke-linejoin:bevel;stroke-miterlimit:4;stroke-dasharray:1.20944883, 4.83779537;stroke-dashoffset:0;stroke-opacity:1;paint-order:stroke fill markers" />
    <circle
       r="1.6"
       cy="-321.10046"
       cx="2362.3518"
       id="circle2814"
       style="opacity:1;vector-effect:none;fill:#ff00ff;fill-opacity:1;stroke:none;stroke-width:1.20944917;stroke-linecap:square;stroke-linejoin:bevel;stroke-miterlimit:4;stroke-dasharray:1.20944883, 4.83779537;stroke-dashoffset:0;stroke-opacity:1;paint-order:stroke fill markers" />
    <circle
       style="opacity:1;vector-effect:none;fill:#ff00ff;fill-opacity:1;stroke:none;stroke-width:1.20944917;stroke-linecap:square;stroke-linejoin:bevel;stroke-miterlimit:4;stroke-dasharray:1.20944883, 4.83779537;stroke-dashoffset:0;stroke-opacity:1;paint-order:stroke fill markers"
       id="circle2816"
       cx="2374.5518"
       cy="-321.10046"
       r="1.6" />
    <circle
       r="1.6"
       cy="-330.21326"
       cx="2301.813"
       id="circle2820"
       style="opacity:1;vector-effect:none;fill:#ff00ff;fill-opacity:1;stroke:none;stroke-width:1.20944917;stroke-linecap:square;stroke-linejoin:bevel;stroke-miterlimit:4;stroke-dasharray:1.20944883, 4.83779537;stroke-dashoffset:0;stroke-opacity:1;paint-order:stroke fill markers" />
    <circle
       style="opacity:1;vector-effect:none;fill:#ff00ff;fill-opacity:1;stroke:none;stroke-width:1.20944917;stroke-linecap:square;stroke-linejoin:bevel;stroke-miterlimit:4;stroke-dasharray:1.20944883, 4.83779537;stroke-dashoffset:0;stroke-opacity:1;paint-order:stroke fill markers"
       id="circle2822"
       cx="2301.813"
       cy="-313.9173"
       r="1.6" />
    <circle
       style="opacity:1;vector-effect:none;fill:#ff00ff;fill-opacity:1;stroke:none;stroke-width:1.20944917;stroke-linecap:square;stroke-linejoin:bevel;stroke-miterlimit:4;stroke-dasharray:1.20944883, 4.83779537;stroke-dashoffset:0;stroke-opacity:1;paint-order:stroke fill markers"
       id="circle2824"
       cx="2453.0627"
       cy="-330.21326"
       r="1.6" />
    <circle
       r="1.6"
       cy="-313.9173"
       cx="2453.0627"
       id="circle2826"
       style="opacity:1;vector-effect:none;fill:#ff00ff;fill-opacity:1;stroke:none;stroke-width:1.20944917;stroke-linecap:square;stroke-linejoin:bevel;stroke-miterlimit:4;stroke-dasharray:1.20944883, 4.83779537;stroke-dashoffset:0;stroke-opacity:1;paint-order:stroke fill markers" />
    <path
       style="opacity:1;vector-effect:none;fill:#999999;fill-opacity:1;stroke:none;stroke-width:1.88037145;stroke-linecap:square;stroke-linejoin:bevel;stroke-miterlimit:4;stroke-dasharray:1.88037196, 7.52148784;stroke-dashoffset:0;stroke-opacity:1;paint-order:stroke fill markers"
       d="m 2292.6736,-405.41137 v 63.46693 h 9.0124 171.4996 9.0124 v -63.46693 h -9.0124 -171.4996 z m 21.9124,12.86279 h 145.6996 v 8.09976 h 12.9 v 14.19396 H 2301.686 v -14.19396 h 12.9 z"
       id="path5673"
       inkscape:connector-curvature="0"
       sodipodi:nodetypes="cccccccccccccccccc" />
    <rect
       y="-400.64856"
       x="2297.438"
       height="55"
       width="180"
       id="rect5675"
       style="opacity:1;vector-effect:none;fill:#ff7f2a;fill-opacity:1;stroke:none;stroke-width:5.01980448;stroke-linecap:square;stroke-linejoin:bevel;stroke-miterlimit:4;stroke-dasharray:5.01980413, 20.07921672;stroke-dashoffset:0;stroke-opacity:1;paint-order:stroke fill markers" />
    <rect
       y="-376.80865"
       x="2335.2959"
       height="7.3200002"
       width="14.42"
       id="rect5677"
       style="opacity:1;vector-effect:none;fill:#0000ff;fill-opacity:1;stroke:none;stroke-width:0.51833117;stroke-linecap:square;stroke-linejoin:bevel;stroke-miterlimit:4;stroke-dasharray:0.51833123, 2.07332484;stroke-dashoffset:0;stroke-opacity:1;paint-order:stroke fill markers" />
    <rect
       style="opacity:1;vector-effect:none;fill:#0000ff;fill-opacity:1;stroke:none;stroke-width:0.51833117;stroke-linecap:square;stroke-linejoin:bevel;stroke-miterlimit:4;stroke-dasharray:0.51833123, 2.07332484;stroke-dashoffset:0;stroke-opacity:1;paint-order:stroke fill markers"
       id="rect5679"
       width="14.42"
       height="7.3200002"
       x="2353.2668"
       y="-376.80865" />
    <rect
       y="-376.80865"
       x="2371.2388"
       height="7.3200002"
       width="14.42"
       id="rect5681"
       style="opacity:1;vector-effect:none;fill:#0000ff;fill-opacity:1;stroke:none;stroke-width:0.51833117;stroke-linecap:square;stroke-linejoin:bevel;stroke-miterlimit:4;stroke-dasharray:0.51833123, 2.07332484;stroke-dashoffset:0;stroke-opacity:1;paint-order:stroke fill markers" />
    <rect
       style="opacity:1;vector-effect:none;fill:#0000ff;fill-opacity:1;stroke:none;stroke-width:0.51833117;stroke-linecap:square;stroke-linejoin:bevel;stroke-miterlimit:4;stroke-dasharray:0.51833123, 2.07332484;stroke-dashoffset:0;stroke-opacity:1;paint-order:stroke fill markers"
       id="rect5683"
       width="14.42"
       height="7.3200002"
       x="2389.2097"
       y="-376.80865" />
    <rect
       y="-376.80865"
       x="2407.1819"
       height="7.3200002"
       width="14.42"
       id="rect5685"
       style="opacity:1;vector-effect:none;fill:#0000ff;fill-opacity:1;stroke:none;stroke-width:0.51833117;stroke-linecap:square;stroke-linejoin:bevel;stroke-miterlimit:4;stroke-dasharray:0.51833123, 2.07332484;stroke-dashoffset:0;stroke-opacity:1;paint-order:stroke fill markers" />
    <rect
       style="opacity:1;vector-effect:none;fill:#0000ff;fill-opacity:1;stroke:none;stroke-width:0.51833117;stroke-linecap:square;stroke-linejoin:bevel;stroke-miterlimit:4;stroke-dasharray:0.51833123, 2.07332484;stroke-dashoffset:0;stroke-opacity:1;paint-order:stroke fill markers"
       id="rect5687"
       width="14.42"
       height="7.3200002"
       x="2425.1533"
       y="-376.80865" />
    <rect
       y="-376.80865"
       x="2443.125"
       height="7.3200002"
       width="14.42"
       id="rect5689"
       style="opacity:1;vector-effect:none;fill:#0000ff;fill-opacity:1;stroke:none;stroke-width:0.51833117;stroke-linecap:square;stroke-linejoin:bevel;stroke-miterlimit:4;stroke-dasharray:0.51833123, 2.07332484;stroke-dashoffset:0;stroke-opacity:1;paint-order:stroke fill markers" />
    <rect
       style="opacity:1;vector-effect:none;fill:#0000ff;fill-opacity:1;stroke:none;stroke-width:0.51833117;stroke-linecap:square;stroke-linejoin:bevel;stroke-miterlimit:4;stroke-dasharray:0.51833123, 2.07332484;stroke-dashoffset:0;stroke-opacity:1;paint-order:stroke fill markers"
       id="rect5691"
       width="14.42"
       height="7.3200002"
       x="2317.325"
       y="-376.80865" />
    <circle
       style="opacity:1;vector-effect:none;fill:#ff00ff;fill-opacity:1;stroke:none;stroke-width:1.20944917;stroke-linecap:square;stroke-linejoin:bevel;stroke-miterlimit:4;stroke-dasharray:1.20944883, 4.83779537;stroke-dashoffset:0;stroke-opacity:1;paint-order:stroke fill markers"
       id="circle5697"
       cx="2314.4692"
       cy="-384.73282"
       r="1.6" />
    <circle
       style="opacity:1;vector-effect:none;fill:#ff00ff;fill-opacity:1;stroke:none;stroke-width:1.20944917;stroke-linecap:square;stroke-linejoin:bevel;stroke-miterlimit:4;stroke-dasharray:1.20944883, 4.83779537;stroke-dashoffset:0;stroke-opacity:1;paint-order:stroke fill markers"
       id="circle5699"
       cx="2460.2546"
       cy="-384.86508"
       r="1.6" />
    <rect
       transform="scale(1,-1)"
       y="586.3114"
       x="2301.4358"
       height="92"
       width="172"
       id="rect5838"
       style="opacity:1;vector-effect:none;fill:#999999;fill-opacity:1;stroke:none;stroke-width:6.3463974;stroke-linecap:square;stroke-linejoin:bevel;stroke-miterlimit:4;stroke-dasharray:6.3463986, 25.38559459;stroke-dashoffset:0;stroke-opacity:1;paint-order:stroke fill markers" />
    <circle
       style="opacity:1;vector-effect:none;fill:#ff00ff;fill-opacity:1;stroke:none;stroke-width:1.20944917;stroke-linecap:square;stroke-linejoin:bevel;stroke-miterlimit:4;stroke-dasharray:1.20944883, 4.83779537;stroke-dashoffset:0;stroke-opacity:1;paint-order:stroke fill markers"
       id="circle5880"
       cx="2311.8108"
       cy="-607.45953"
       r="1.6" />
    <circle
       r="1.6"
       cy="-591.16351"
       cx="2311.8108"
       id="circle5882"
       style="opacity:1;vector-effect:none;fill:#ff00ff;fill-opacity:1;stroke:none;stroke-width:1.20944917;stroke-linecap:square;stroke-linejoin:bevel;stroke-miterlimit:4;stroke-dasharray:1.20944883, 4.83779537;stroke-dashoffset:0;stroke-opacity:1;paint-order:stroke fill markers" />
    <circle
       r="1.6"
       cy="-607.45953"
       cx="2463.0605"
       id="circle5886"
       style="opacity:1;vector-effect:none;fill:#ff00ff;fill-opacity:1;stroke:none;stroke-width:1.20944917;stroke-linecap:square;stroke-linejoin:bevel;stroke-miterlimit:4;stroke-dasharray:1.20944883, 4.83779537;stroke-dashoffset:0;stroke-opacity:1;paint-order:stroke fill markers" />
    <circle
       style="opacity:1;vector-effect:none;fill:#ff00ff;fill-opacity:1;stroke:none;stroke-width:1.20944917;stroke-linecap:square;stroke-linejoin:bevel;stroke-miterlimit:4;stroke-dasharray:1.20944883, 4.83779537;stroke-dashoffset:0;stroke-opacity:1;paint-order:stroke fill markers"
       id="circle5888"
       cx="2463.0605"
       cy="-591.16351"
       r="1.6" />
    <rect
       y="-437.64008"
       x="2441.5378"
       height="12.2"
       width="13.6"
       id="rect7329"
       style="opacity:1;vector-effect:none;fill:#000080;fill-opacity:1;stroke:none;stroke-width:0.64985818;stroke-linecap:square;stroke-linejoin:bevel;stroke-miterlimit:4;stroke-dasharray:0.64985809, 2.59943239;stroke-dashoffset:0;stroke-opacity:1;paint-order:stroke fill markers" />
    <circle
       r="1.5"
       cy="-431.5401"
       cx="2433.8379"
       id="circle7331"
       style="opacity:1;vector-effect:none;fill:#ff00ff;fill-opacity:1;stroke:none;stroke-width:1.13385856;stroke-linecap:square;stroke-linejoin:bevel;stroke-miterlimit:4;stroke-dasharray:1.13385828, 4.53543317;stroke-dashoffset:0;stroke-opacity:1;paint-order:stroke fill markers" />
    <circle
       style="opacity:1;vector-effect:none;fill:#ff00ff;fill-opacity:1;stroke:none;stroke-width:1.13385856;stroke-linecap:square;stroke-linejoin:bevel;stroke-miterlimit:4;stroke-dasharray:1.13385828, 4.53543317;stroke-dashoffset:0;stroke-opacity:1;paint-order:stroke fill markers"
       id="circle7333"
       cx="2462.8379"
       cy="-431.5401"
       r="1.5" />
    <path
       sodipodi:nodetypes="cccccccccccccccccccc"
       inkscape:connector-curvature="0"
       id="path7337"
       d="m 2292.6736,-473.14474 v 62.40859 h 9.0124 171.4996 9.0124 v -62.40859 h -9.0124 -171.4996 z m 21.9124,12.00986 h 145.6996 v 8.2407 h 12.9 v 13.095 l -45.8477,-0.17357 v 17.25488 l -125.6519,-0.10408 v -30.07223 h 12.9 z"
       style="opacity:1;vector-effect:none;fill:#999999;fill-opacity:1;stroke:none;stroke-width:1.8966608;stroke-linecap:square;stroke-linejoin:bevel;stroke-miterlimit:4;stroke-dasharray:1.89666136, 7.58664543;stroke-dashoffset:0;stroke-opacity:1;paint-order:stroke fill markers" />
    <rect
       style="opacity:1;vector-effect:none;fill:#ff7f2a;fill-opacity:1;stroke:none;stroke-width:5.01980448;stroke-linecap:square;stroke-linejoin:bevel;stroke-miterlimit:4;stroke-dasharray:5.01980413, 20.07921672;stroke-dashoffset:0;stroke-opacity:1;paint-order:stroke fill markers"
       id="rect7339"
       width="180"
       height="55"
       x="2297.438"
       y="-469.44009" />
    <circle
       r="1.6"
       cy="-453.52435"
       cx="2314.4692"
       id="circle7359"
       style="opacity:1;vector-effect:none;fill:#ff00ff;fill-opacity:1;stroke:none;stroke-width:1.20944917;stroke-linecap:square;stroke-linejoin:bevel;stroke-miterlimit:4;stroke-dasharray:1.20944883, 4.83779537;stroke-dashoffset:0;stroke-opacity:1;paint-order:stroke fill markers" />
    <circle
       r="1.6"
       cy="-453.65662"
       cx="2460.2546"
       id="circle7361"
       style="opacity:1;vector-effect:none;fill:#ff00ff;fill-opacity:1;stroke:none;stroke-width:1.20944917;stroke-linecap:square;stroke-linejoin:bevel;stroke-miterlimit:4;stroke-dasharray:1.20944883, 4.83779537;stroke-dashoffset:0;stroke-opacity:1;paint-order:stroke fill markers" />
    <rect
       y="-370.81558"
       x="2498.3943"
       height="18"
       width="42"
       id="rect7369"
       style="opacity:1;vector-effect:none;fill:#999999;fill-opacity:1;stroke:none;stroke-width:1.38717115;stroke-linecap:square;stroke-linejoin:bevel;stroke-miterlimit:4;stroke-dasharray:1.38717124, 5.54868493;stroke-dashoffset:0;stroke-opacity:1;paint-order:stroke fill markers" />
    <rect
       style="opacity:1;vector-effect:none;fill:#000080;fill-opacity:1;stroke:none;stroke-width:0.64985818;stroke-linecap:square;stroke-linejoin:bevel;stroke-miterlimit:4;stroke-dasharray:0.64985809, 2.59943239;stroke-dashoffset:0;stroke-opacity:1;paint-order:stroke fill markers"
       id="rect7371"
       width="13.6"
       height="12.2"
       x="2512.5942"
       y="-367.91556" />
    <circle
       style="opacity:1;vector-effect:none;fill:#ff00ff;fill-opacity:1;stroke:none;stroke-width:1.13385856;stroke-linecap:square;stroke-linejoin:bevel;stroke-miterlimit:4;stroke-dasharray:1.13385828, 4.53543317;stroke-dashoffset:0;stroke-opacity:1;paint-order:stroke fill markers"
       id="circle7373"
       cx="2504.8943"
       cy="-361.81558"
       r="1.5" />
    <circle
       r="1.5"
       cy="-361.81558"
       cx="2533.8943"
       id="circle7375"
       style="opacity:1;vector-effect:none;fill:#ff00ff;fill-opacity:1;stroke:none;stroke-width:1.13385856;stroke-linecap:square;stroke-linejoin:bevel;stroke-miterlimit:4;stroke-dasharray:1.13385828, 4.53543317;stroke-dashoffset:0;stroke-opacity:1;paint-order:stroke fill markers" />
    <path
       d="m 27.98216,-373.00394 -2.95,1.70318 -2.95,-1.70318 0,-3.40637 2.95,-1.70318 2.95,1.70318 z"
       inkscape:randomized="0"
       inkscape:rounded="0"
       inkscape:flatsided="true"
       sodipodi:arg2="1.0471976"
       sodipodi:arg1="0.52359878"
       sodipodi:r2="2.9500003"
       sodipodi:r1="3.4063668"
       sodipodi:cy="-374.70712"
       sodipodi:cx="25.03216"
       sodipodi:sides="6"
       id="path3034"
       style="opacity:1;vector-effect:none;fill:#ff00ff;fill-opacity:1;stroke:none;stroke-width:0.80163687;stroke-linecap:square;stroke-linejoin:bevel;stroke-miterlimit:4;stroke-dasharray:0.80163689, 3.20654754;stroke-dashoffset:0;stroke-opacity:1;paint-order:stroke fill markers"
       sodipodi:type="star"
       transform="rotate(120,1280.1057,341.3683)" />
    <rect
       style="opacity:1;vector-effect:none;fill:#999999;fill-opacity:1;stroke:none;stroke-width:0.4412654;stroke-linecap:square;stroke-linejoin:bevel;stroke-miterlimit:4;stroke-dasharray:0.4412654, 1.76506163;stroke-dashoffset:0;stroke-opacity:1;paint-order:stroke fill markers"
       id="rect3036"
       width="12.75"
       height="6"
       x="2521.4065"
       y="-387.14481" />
    <circle
       r="6.375"
       cy="387.51968"
       cx="2527.7815"
       id="circle3038"
       style="opacity:1;vector-effect:none;fill:#ff8080;fill-opacity:1;stroke:none;stroke-width:3.07159019;stroke-linecap:square;stroke-linejoin:bevel;stroke-miterlimit:4;stroke-dasharray:3.07159074, 12.28636304;stroke-dashoffset:0;stroke-opacity:1;paint-order:stroke fill markers"
       transform="scale(1,-1)" />
    <rect
       y="-473.14474"
       x="2521.4065"
       height="92"
       width="6.375"
       id="rect3040"
       style="opacity:1;vector-effect:none;fill:#999999;fill-opacity:1;stroke:none;stroke-width:1.22180867;stroke-linecap:square;stroke-linejoin:bevel;stroke-miterlimit:4;stroke-dasharray:1.2218086, 4.88723442;stroke-dashoffset:0;stroke-opacity:1;paint-order:stroke fill markers" />
    <path
       transform="matrix(-0.5,-0.8660254,-0.8660254,0.5,2215.7916,-257.73727)"
       sodipodi:type="star"
       style="opacity:1;vector-effect:none;fill:#ff00ff;fill-opacity:1;stroke:none;stroke-width:0.80163687;stroke-linecap:square;stroke-linejoin:bevel;stroke-miterlimit:4;stroke-dasharray:0.80163689, 3.20654754;stroke-dashoffset:0;stroke-opacity:1;paint-order:stroke fill markers"
       id="path3042"
       sodipodi:sides="6"
       sodipodi:cx="25.03216"
       sodipodi:cy="-374.70712"
       sodipodi:r1="3.4063668"
       sodipodi:r2="2.9500003"
       sodipodi:arg1="0.52359878"
       sodipodi:arg2="1.0471976"
       inkscape:flatsided="true"
       inkscape:rounded="0"
       inkscape:randomized="0"
       d="m 27.98216,-373.00394 -2.95,1.70318 -2.95,-1.70318 0,-3.40637 2.95,-1.70318 2.95,1.70318 z" />
    <rect
       transform="scale(1,-1)"
       y="467.14462"
       x="2521.4065"
       height="6"
       width="12.75"
       id="rect3044"
       style="opacity:1;vector-effect:none;fill:#999999;fill-opacity:1;stroke:none;stroke-width:0.4412654;stroke-linecap:square;stroke-linejoin:bevel;stroke-miterlimit:4;stroke-dasharray:0.4412654, 1.76506163;stroke-dashoffset:0;stroke-opacity:1;paint-order:stroke fill markers" />
    <circle
       style="opacity:1;vector-effect:none;fill:#ff8080;fill-opacity:1;stroke:none;stroke-width:3.07159019;stroke-linecap:square;stroke-linejoin:bevel;stroke-miterlimit:4;stroke-dasharray:3.07159074, 12.28636304;stroke-dashoffset:0;stroke-opacity:1;paint-order:stroke fill markers"
       id="circle3046"
       cx="2527.7815"
       cy="-466.76974"
       r="6.375" />
    <rect
       y="-294.77744"
       x="-2393.1865"
       height="55"
       width="92"
       id="rect9740"
       style="opacity:1;vector-effect:none;fill:#ff7f2a;fill-opacity:1;stroke:none;stroke-width:3.58876085;stroke-linecap:square;stroke-linejoin:bevel;stroke-miterlimit:4;stroke-dasharray:3.5887602, 14.35504108;stroke-dashoffset:0;stroke-opacity:1;paint-order:stroke fill markers"
       transform="scale(-1,1)" />
    <rect
       transform="scale(-1,1)"
       style="opacity:1;vector-effect:none;fill:#ff7f2a;fill-opacity:1;stroke:none;stroke-width:2.54602361;stroke-linecap:square;stroke-linejoin:bevel;stroke-miterlimit:4;stroke-dasharray:2.5460231, 10.18409257;stroke-dashoffset:0;stroke-opacity:1;paint-order:stroke fill markers"
       id="rect9742"
       width="83.5"
       height="30.5"
       x="-2388.9365"
       y="-278.52744" />
    <rect
       transform="scale(-1,1)"
       style="opacity:1;vector-effect:none;fill:#ff7f2a;fill-opacity:1;stroke:none;stroke-width:3.97555017;stroke-linecap:square;stroke-linejoin:bevel;stroke-miterlimit:4;stroke-dasharray:3.97554938, 15.90219782;stroke-dashoffset:0;stroke-opacity:1;paint-order:stroke fill markers"
       id="rect9744"
       width="99.496712"
       height="62.409"
       x="-2396.9348"
       y="-298.48193" />
    <circle
       r="1.6"
       cy="-490.10306"
       cx="2307.8115"
       id="circle7405-7"
       style="opacity:1;vector-effect:none;fill:#ff00ff;fill-opacity:1;stroke:none;stroke-width:1.20944917;stroke-linecap:square;stroke-linejoin:bevel;stroke-miterlimit:4;stroke-dasharray:1.20944884, 4.83779542;stroke-dashoffset:0;stroke-opacity:1;paint-order:stroke fill markers" />
    <circle
       style="opacity:1;vector-effect:none;fill:#ff00ff;fill-opacity:1;stroke:none;stroke-width:1.20944917;stroke-linecap:square;stroke-linejoin:bevel;stroke-miterlimit:4;stroke-dasharray:1.20944884, 4.83779542;stroke-dashoffset:0;stroke-opacity:1;paint-order:stroke fill markers"
       id="circle9728"
       cx="2307.8115"
       cy="-569.35278"
       r="1.6" />
    <rect
       style="opacity:1;vector-effect:none;fill:#999999;fill-opacity:1;stroke:none;stroke-width:6.3463974;stroke-linecap:square;stroke-linejoin:bevel;stroke-miterlimit:4;stroke-dasharray:6.3463986, 25.38559459;stroke-dashoffset:0;stroke-opacity:1;paint-order:stroke fill markers"
       id="rect9818"
       width="172"
       height="92"
       x="2301.4358"
       y="483.72809"
       transform="scale(1,-1)" />
    <circle
       style="opacity:1;vector-effect:none;fill:#ff00ff;fill-opacity:1;stroke:none;stroke-width:1.20944917;stroke-linecap:square;stroke-linejoin:bevel;stroke-miterlimit:4;stroke-dasharray:1.20944884, 4.83779542;stroke-dashoffset:0;stroke-opacity:1;paint-order:stroke fill markers"
       id="circle9857"
       cx="-2467.0601"
       cy="-490.10306"
       r="1.6"
       transform="scale(-1,1)" />
    <circle
       r="1.6"
       cy="-569.35278"
       cx="-2467.0601"
       id="circle9859"
       style="opacity:1;vector-effect:none;fill:#ff00ff;fill-opacity:1;stroke:none;stroke-width:1.20944917;stroke-linecap:square;stroke-linejoin:bevel;stroke-miterlimit:4;stroke-dasharray:1.20944884, 4.83779542;stroke-dashoffset:0;stroke-opacity:1;paint-order:stroke fill markers"
       transform="scale(-1,1)" />
    <path
       d="m 27.98216,-373.00394 -2.95,1.70318 -2.95,-1.70318 0,-3.40637 2.95,-1.70318 2.95,1.70318 z"
       inkscape:randomized="0"
       inkscape:rounded="0"
       inkscape:flatsided="true"
       sodipodi:arg2="1.0471976"
       sodipodi:arg1="0.52359878"
       sodipodi:r2="2.9500003"
       sodipodi:r1="3.4063668"
       sodipodi:cy="-374.70712"
       sodipodi:cx="25.03216"
       sodipodi:sides="6"
       id="path9863"
       style="opacity:1;vector-effect:none;fill:#ff00ff;fill-opacity:1;stroke:none;stroke-width:0.80163687;stroke-linecap:square;stroke-linejoin:bevel;stroke-miterlimit:4;stroke-dasharray:0.80163689, 3.20654754;stroke-dashoffset:0;stroke-opacity:1;paint-order:stroke fill markers"
       sodipodi:type="star"
       transform="rotate(120,1268.4387,334.63245)" />
    <path
       inkscape:connector-curvature="0"
       id="path9865"
       d="m 2498.0731,-473.14474 v 6.00015 0.37466 79.25045 0.37466 6.00015 h 6.3748 6.3753 v -6.00015 h -0.013 a 6.3749999,6.3749999 0 0 0 0.013,-0.37466 6.3749999,6.3749999 0 0 0 -6.3753,-6.37532 v -66.49981 a 6.3749999,6.3749999 0 0 0 6.3753,-6.37532 6.3749999,6.3749999 0 0 0 -0.019,-0.37466 h 0.019 v -6.00015 h -6.3753 z"
       style="opacity:1;vector-effect:none;fill:#999999;fill-opacity:1;stroke:none;stroke-width:0.4412654;stroke-linecap:square;stroke-linejoin:bevel;stroke-miterlimit:4;stroke-dasharray:0.44126539, 1.76506161;stroke-dashoffset:0;stroke-opacity:1;paint-order:stroke fill markers" />
    <path
       transform="matrix(-0.5,-0.8660254,-0.8660254,0.5,2192.4583,-257.73731)"
       sodipodi:type="star"
       style="opacity:1;vector-effect:none;fill:#ff00ff;fill-opacity:1;stroke:none;stroke-width:0.80163687;stroke-linecap:square;stroke-linejoin:bevel;stroke-miterlimit:4;stroke-dasharray:0.80163689, 3.20654754;stroke-dashoffset:0;stroke-opacity:1;paint-order:stroke fill markers"
       id="path9867"
       sodipodi:sides="6"
       sodipodi:cx="25.03216"
       sodipodi:cy="-374.70712"
       sodipodi:r1="3.4063668"
       sodipodi:r2="2.9500003"
       sodipodi:arg1="0.52359878"
       sodipodi:arg2="1.0471976"
       inkscape:flatsided="true"
       inkscape:rounded="0"
       inkscape:randomized="0"
       d="m 27.98216,-373.00394 -2.95,1.70318 -2.95,-1.70318 0,-3.40637 2.95,-1.70318 2.95,1.70318 z" />
    <circle
       style="opacity:1;vector-effect:none;fill:#ff00ff;fill-opacity:1;stroke:none;stroke-width:1.20944917;stroke-linecap:square;stroke-linejoin:bevel;stroke-miterlimit:4;stroke-dasharray:1.20944884, 4.83779542;stroke-dashoffset:0;stroke-opacity:1;paint-order:stroke fill markers"
       id="circle9869"
       cx="2504.449"
       cy="-387.51968"
       r="1.6" />
    <circle
       r="1.6"
       cy="-466.76938"
       cx="2504.449"
       id="circle9871"
       style="opacity:1;vector-effect:none;fill:#ff00ff;fill-opacity:1;stroke:none;stroke-width:1.20944917;stroke-linecap:square;stroke-linejoin:bevel;stroke-miterlimit:4;stroke-dasharray:1.20944884, 4.83779542;stroke-dashoffset:0;stroke-opacity:1;paint-order:stroke fill markers" />
    <rect
       y="-678.3114"
       x="2301.4358"
       height="4.8000002"
       width="4.8000002"
       id="rect9942"
       style="opacity:1;vector-effect:none;fill:#e6e6e6;fill-opacity:1;stroke:none;stroke-width:0.24216443;stroke-linecap:square;stroke-linejoin:bevel;stroke-miterlimit:4;stroke-dasharray:0.24216446, 0.96865783;stroke-dashoffset:0;stroke-opacity:1;paint-order:stroke fill markers" />
    <rect
       style="opacity:1;vector-effect:none;fill:#e6e6e6;fill-opacity:1;stroke:none;stroke-width:3.60432911;stroke-linecap:square;stroke-linejoin:bevel;stroke-miterlimit:4;stroke-dasharray:3.60432956, 14.41731833;stroke-dashoffset:0;stroke-opacity:1;paint-order:stroke fill markers"
       id="rect1144-6"
       width="88"
       height="58"
       x="2306.9634"
       y="-673.0155" />
    <circle
       cy="-668.46552"
       cx="2311.5134"
       id="circle1146-1"
       style="opacity:1;vector-effect:none;fill:#ff00ff;fill-opacity:1;stroke:none;stroke-width:1.5496068;stroke-linecap:square;stroke-linejoin:bevel;stroke-miterlimit:4;stroke-dasharray:1.54960631, 6.19842532;stroke-dashoffset:0;stroke-opacity:1;paint-order:stroke fill markers"
       r="2.05" />
    <circle
       r="2.05"
       style="opacity:1;vector-effect:none;fill:#ff00ff;fill-opacity:1;stroke:none;stroke-width:1.5496068;stroke-linecap:square;stroke-linejoin:bevel;stroke-miterlimit:4;stroke-dasharray:1.54960631, 6.19842532;stroke-dashoffset:0;stroke-opacity:1;paint-order:stroke fill markers"
       id="circle9946"
       cx="2390.4133"
       cy="-668.46552" />
    <circle
       r="1.6"
       cy="-616.11963"
       cx="2307.8357"
       id="circle9950"
       style="opacity:1;vector-effect:none;fill:#ff00ff;fill-opacity:1;stroke:none;stroke-width:1.20944917;stroke-linecap:square;stroke-linejoin:bevel;stroke-miterlimit:4;stroke-dasharray:1.20944883, 4.83779537;stroke-dashoffset:0;stroke-opacity:1;paint-order:stroke fill markers" />
    <circle
       style="opacity:1;vector-effect:none;fill:#ff00ff;fill-opacity:1;stroke:none;stroke-width:1.20944917;stroke-linecap:square;stroke-linejoin:bevel;stroke-miterlimit:4;stroke-dasharray:1.20944883, 4.83779537;stroke-dashoffset:0;stroke-opacity:1;paint-order:stroke fill markers"
       id="circle9952"
       cx="2394.0908"
       cy="-616.11963"
       r="1.6" />
    <circle
       style="opacity:1;vector-effect:none;fill:#ff00ff;fill-opacity:1;stroke:none;stroke-width:1.20944917;stroke-linecap:square;stroke-linejoin:bevel;stroke-miterlimit:4;stroke-dasharray:1.20944883, 4.83779537;stroke-dashoffset:0;stroke-opacity:1;paint-order:stroke fill markers"
       id="circle9958"
       cx="2307.8357"
       cy="-671.91138"
       r="1.6" />
    <circle
       r="1.6"
       cy="-671.91138"
       cx="2394.0908"
       id="circle9960"
       style="opacity:1;vector-effect:none;fill:#ff00ff;fill-opacity:1;stroke:none;stroke-width:1.20944917;stroke-linecap:square;stroke-linejoin:bevel;stroke-miterlimit:4;stroke-dasharray:1.20944883, 4.83779537;stroke-dashoffset:0;stroke-opacity:1;paint-order:stroke fill markers" />
    <circle
       r="2.05"
       style="opacity:1;vector-effect:none;fill:#ff00ff;fill-opacity:1;stroke:none;stroke-width:1.5496068;stroke-linecap:square;stroke-linejoin:bevel;stroke-miterlimit:4;stroke-dasharray:1.54960631, 6.19842532;stroke-dashoffset:0;stroke-opacity:1;paint-order:stroke fill markers"
       id="circle10065"
       cx="2311.5134"
       cy="-619.56549" />
    <circle
       cy="-619.56549"
       cx="2390.4133"
       id="circle10067"
       style="opacity:1;vector-effect:none;fill:#ff00ff;fill-opacity:1;stroke:none;stroke-width:1.5496068;stroke-linecap:square;stroke-linejoin:bevel;stroke-miterlimit:4;stroke-dasharray:1.54960631, 6.19842532;stroke-dashoffset:0;stroke-opacity:1;paint-order:stroke fill markers"
       r="2.05" />
    <text
       xml:space="preserve"
       style="font-style:normal;font-variant:normal;font-weight:normal;font-stretch:normal;font-size:10.58333302px;line-height:1.25;font-family:'Signika Negative';-inkscape-font-specification:'Signika Negative';letter-spacing:0px;word-spacing:0px;fill:#000000;fill-opacity:1;stroke:none;stroke-width:0.26458332"
       x="2335.8911"
       y="-681.82764"
       id="text10667"><tspan
         sodipodi:role="line"
         id="tspan10665"
         x="2335.8911"
         y="-681.82764"
         style="stroke-width:0.26458332">3mm</tspan></text>
    <rect
       style="opacity:1;vector-effect:none;fill:#000080;fill-opacity:1;stroke:none;stroke-width:0.26633531;stroke-linecap:square;stroke-linejoin:bevel;stroke-miterlimit:4;stroke-dasharray:0.26633529, 1.06534116;stroke-dashoffset:0;stroke-opacity:1;paint-order:stroke fill markers"
       id="rect10695"
       width="5.5737705"
       height="5"
       x="2262.4719"
       y="-419.44009" />
    <rect
       y="-424.44009"
       x="2262.4719"
       height="5"
       width="5.5737705"
       id="rect10697"
       style="opacity:1;vector-effect:none;fill:#000080;fill-opacity:1;stroke:none;stroke-width:0.26633531;stroke-linecap:square;stroke-linejoin:bevel;stroke-miterlimit:4;stroke-dasharray:0.26633529, 1.06534116;stroke-dashoffset:0;stroke-opacity:1;paint-order:stroke fill markers" />
    <rect
       style="opacity:1;vector-effect:none;fill:#000080;fill-opacity:1;stroke:none;stroke-width:0.16844524;stroke-linecap:square;stroke-linejoin:bevel;stroke-miterlimit:4;stroke-dasharray:0.16844523, 0.67378091;stroke-dashoffset:0;stroke-opacity:1;paint-order:stroke fill markers"
       id="rect10699"
       width="5.5737705"
       height="2"
       x="2262.4719"
       y="-426.44009" />
    <rect
       y="-456.44009"
       x="2262.4719"
       height="30"
       width="5.5737705"
       id="rect10701"
       style="opacity:1;vector-effect:none;fill:#000080;fill-opacity:1;stroke:none;stroke-width:0.65238565;stroke-linecap:square;stroke-linejoin:bevel;stroke-miterlimit:4;stroke-dasharray:0.65238557, 2.60954224;stroke-dashoffset:0;stroke-opacity:1;paint-order:stroke fill markers" />
    <rect
       y="-417.69055"
       x="2578.74"
       height="8"
       width="22.719656"
       id="rect10796"
       style="opacity:1;vector-effect:none;fill:#000080;fill-opacity:1;stroke:none;stroke-width:0.68016624;stroke-linecap:square;stroke-linejoin:bevel;stroke-miterlimit:4;stroke-dasharray:0.68016617, 2.72066474;stroke-dashoffset:0;stroke-opacity:1;paint-order:stroke fill markers" />
    <rect
       style="opacity:1;vector-effect:none;fill:#000080;fill-opacity:1;stroke:none;stroke-width:0.2781508;stroke-linecap:square;stroke-linejoin:bevel;stroke-miterlimit:4;stroke-dasharray:0.27815075, 1.11260304;stroke-dashoffset:0;stroke-opacity:1;paint-order:stroke fill markers"
       id="rect10798"
       width="5.0660667"
       height="6"
       x="2587.5669"
       y="-423.69055" />
    <rect
       y="-425.29056"
       x="2582.8997"
       height="1.6"
       width="14.400386"
       id="rect10800"
       style="opacity:1;vector-effect:none;fill:#000080;fill-opacity:1;stroke:none;stroke-width:0.24216774;stroke-linecap:square;stroke-linejoin:bevel;stroke-miterlimit:4;stroke-dasharray:0.24216769, 0.96867083;stroke-dashoffset:0;stroke-opacity:1;paint-order:stroke fill markers" />
    <rect
       y="-428.29056"
       x="2587.0999"
       height="3"
       width="6"
       id="rect10802"
       style="opacity:1;vector-effect:none;fill:#000080;fill-opacity:1;stroke:none;stroke-width:0.2140452;stroke-linecap:square;stroke-linejoin:bevel;stroke-miterlimit:4;stroke-dasharray:0.21404516, 0.85618067;stroke-dashoffset:0;stroke-opacity:1;paint-order:stroke fill markers" />
    <rect
       style="opacity:1;vector-effect:none;fill:#000080;fill-opacity:1;stroke:none;stroke-width:0.17476717;stroke-linecap:square;stroke-linejoin:bevel;stroke-miterlimit:4;stroke-dasharray:0.17476714, 0.69906859;stroke-dashoffset:0;stroke-opacity:1;paint-order:stroke fill markers"
       id="rect10804"
       width="3"
       height="4"
       x="2588.5999"
       y="-425.29056" />
    <rect
       style="opacity:1;vector-effect:none;fill:#000080;fill-opacity:1;stroke:none;stroke-width:0.2140452;stroke-linecap:square;stroke-linejoin:bevel;stroke-miterlimit:4;stroke-dasharray:0.21404516, 0.85618067;stroke-dashoffset:0;stroke-opacity:1;paint-order:stroke fill markers"
       id="rect10806"
       width="6"
       height="3"
       x="2587.0999"
       y="410.7489"
       transform="scale(1,-1)" />
    <rect
       y="413.7489"
       x="2588.5999"
       height="6"
       width="3"
       id="rect10808"
       style="opacity:1;vector-effect:none;fill:#000080;fill-opacity:1;stroke:none;stroke-width:0.2140452;stroke-linecap:square;stroke-linejoin:bevel;stroke-miterlimit:4;stroke-dasharray:0.21404516, 0.85618067;stroke-dashoffset:0;stroke-opacity:1;paint-order:stroke fill markers"
       transform="scale(1,-1)" />
    <rect
       style="opacity:1;vector-effect:none;fill:#e6e6e6;fill-opacity:1;stroke:none;stroke-width:3.52696705;stroke-linecap:square;stroke-linejoin:bevel;stroke-miterlimit:4;stroke-dasharray:3.52696734, 14.10786945;stroke-dashoffset:0;stroke-opacity:1;paint-order:stroke fill markers"
       id="rect10712"
       width="86.5"
       height="56.5"
       x="2308.3586"
       y="-769.86426" />
    <text
       xml:space="preserve"
       style="font-style:normal;font-variant:normal;font-weight:normal;font-stretch:normal;font-size:10.58333302px;line-height:1.25;font-family:'Signika Negative';-inkscape-font-specification:'Signika Negative';letter-spacing:0px;word-spacing:0px;fill:#000000;fill-opacity:1;stroke:none;stroke-width:0.26458332"
       x="2399.3982"
       y="-742.146"
       id="text10730"><tspan
         sodipodi:role="line"
         id="tspan10728"
         x="2399.3982"
         y="-742.146"
         style="stroke-width:0.26458332">3mm</tspan></text>
    <circle
       cy="-766.61426"
       cx="2311.6086"
       id="circle10714"
       style="opacity:1;vector-effect:none;fill:#ff00ff;fill-opacity:1;stroke:none;stroke-width:1.13385868;stroke-linecap:square;stroke-linejoin:bevel;stroke-miterlimit:4;stroke-dasharray:1.13385832, 4.53543337;stroke-dashoffset:0;stroke-opacity:1;paint-order:stroke fill markers"
       r="1.5" />
    <circle
       r="1.5"
       style="opacity:1;vector-effect:none;fill:#ff00ff;fill-opacity:1;stroke:none;stroke-width:1.13385868;stroke-linecap:square;stroke-linejoin:bevel;stroke-miterlimit:4;stroke-dasharray:1.13385832, 4.53543337;stroke-dashoffset:0;stroke-opacity:1;paint-order:stroke fill markers"
       id="circle10732"
       cx="2391.6086"
       cy="-766.61426" />
    <circle
       r="1.5"
       style="opacity:1;vector-effect:none;fill:#ff00ff;fill-opacity:1;stroke:none;stroke-width:1.13385868;stroke-linecap:square;stroke-linejoin:bevel;stroke-miterlimit:4;stroke-dasharray:1.13385832, 4.53543337;stroke-dashoffset:0;stroke-opacity:1;paint-order:stroke fill markers"
       id="circle10734"
       cx="2311.6086"
       cy="-716.61426" />
    <circle
       cy="-716.61426"
       cx="2391.6086"
       id="circle10736"
       style="opacity:1;vector-effect:none;fill:#ff00ff;fill-opacity:1;stroke:none;stroke-width:1.13385868;stroke-linecap:square;stroke-linejoin:bevel;stroke-miterlimit:4;stroke-dasharray:1.13385832, 4.53543337;stroke-dashoffset:0;stroke-opacity:1;paint-order:stroke fill markers"
       r="1.5" />
    <path
       style="fill:#c3d6eb;fill-opacity:1;stroke:#000000;stroke-width:0.06614582;stroke-linecap:round;stroke-linejoin:round;stroke-miterlimit:4;stroke-dasharray:none;stroke-opacity:1"
       d="m 2385.8954,-768.30446 h -66.0335 v 2.54191 l -2.5398,2.54194 v 33.04501 l 2.5398,2.54192 v 11.43866 l 1.2699,1.27097 64.7636,-1e-5 z"
       id="path10748"
       inkscape:connector-curvature="0"
       sodipodi:nodetypes="cccccccccc" />
    <circle
       transform="scale(-1)"
       id="ellipse1066"
       style="fill:#ffffff;fill-opacity:1;stroke:#000000;stroke-width:0.0858147;stroke-linecap:round;stroke-linejoin:round;stroke-miterlimit:4;stroke-dasharray:none;stroke-dashoffset:0;stroke-opacity:1"
       cx="-2323.6086"
       cy="759.61426"
       r="2.0570927" />
    <circle
       r="2.0570927"
       cy="760.67871"
       cx="-2319.8618"
       style="fill:#ffffff;fill-opacity:1;stroke:#000000;stroke-width:0.0858147;stroke-linecap:round;stroke-linejoin:round;stroke-miterlimit:4;stroke-dasharray:none;stroke-dashoffset:0;stroke-opacity:1"
       id="circle1068"
       transform="scale(-1)" />
    <circle
       r="2.0570927"
       cy="732.71753"
       cx="-2319.8618"
       style="fill:#ffffff;fill-opacity:1;stroke:#000000;stroke-width:0.0858147;stroke-linecap:round;stroke-linejoin:round;stroke-miterlimit:4;stroke-dasharray:none;stroke-dashoffset:0;stroke-opacity:1"
       id="circle1070"
       transform="scale(-1)" />
    <circle
       transform="scale(-1)"
       id="circle1072"
       style="fill:#ffffff;fill-opacity:1;stroke:#000000;stroke-width:0.0858147;stroke-linecap:round;stroke-linejoin:round;stroke-miterlimit:4;stroke-dasharray:none;stroke-dashoffset:0;stroke-opacity:1"
       cx="-2323.6086"
       cy="723.61426"
       r="2.0570927" />
    <circle
       r="2.0570927"
       cy="717.466"
       cx="-2370.6567"
       style="fill:#ffffff;fill-opacity:1;stroke:#000000;stroke-width:0.0858147;stroke-linecap:round;stroke-linejoin:round;stroke-miterlimit:4;stroke-dasharray:none;stroke-dashoffset:0;stroke-opacity:1"
       id="circle1074"
       transform="scale(-1)" />
    <circle
       transform="scale(-1)"
       id="circle1076"
       style="fill:#ffffff;fill-opacity:1;stroke:#000000;stroke-width:0.0858147;stroke-linecap:round;stroke-linejoin:round;stroke-miterlimit:4;stroke-dasharray:none;stroke-dashoffset:0;stroke-opacity:1"
       cx="-2379.6086"
       cy="723.61426"
       r="2.0570927" />
    <circle
       r="2.0570927"
       cy="759.61426"
       cx="-2379.6086"
       style="fill:#ffffff;fill-opacity:1;stroke:#000000;stroke-width:0.0858147;stroke-linecap:round;stroke-linejoin:round;stroke-miterlimit:4;stroke-dasharray:none;stroke-dashoffset:0;stroke-opacity:1"
       id="circle1078"
       transform="scale(-1)" />
    <circle
       transform="scale(-1)"
       id="circle1080"
       style="fill:#ffffff;fill-opacity:1;stroke:#000000;stroke-width:0.0858147;stroke-linecap:round;stroke-linejoin:round;stroke-miterlimit:4;stroke-dasharray:none;stroke-dashoffset:0;stroke-opacity:1"
       cx="-2371.9268"
       cy="765.76251"
       r="2.0570927" />
  </g>
</svg>
