; GCODE Generated by cam.openbuilds.com on 2021-05-04 
G21 ; mm-mode
G54; Work Coordinates
G21; mm-mode
G90; Absolute Positioning
M3 S1000; Spindle On

; Operation 0: CNC: Vector (path inside)
; Endmill Diameter: 6

G0 Z10; move to z-safe height
G0 F1000 X25.5000 Y20.1305

G0 Z0
G1 F100 Z-3.0000
G1 F1000 X24.8534 Y20.1696 Z-3.0000 S1000
G1 F1000 X24.2143 Y20.2867 Z-3.0000 S1000
G1 F1000 X23.5963 Y20.4793 Z-3.0000 S1000
G1 F1000 X23.0046 Y20.7456 Z-3.0000 S1000
G1 F1000 X22.4499 Y21.0809 Z-3.0000 S1000
G1 F1000 X21.9389 Y21.4812 Z-3.0000 S1000
G1 F1000 X21.4812 Y21.9389 Z-3.0000 S1000
G1 F1000 X21.0809 Y22.4499 Z-3.0000 S1000
G1 F1000 X20.7456 Y23.0046 Z-3.0000 S1000
G1 F1000 X20.4793 Y23.5963 Z-3.0000 S1000
G1 F1000 X20.2867 Y24.2143 Z-3.0000 S1000
G1 F1000 X20.1696 Y24.8534 Z-3.0000 S1000
G1 F1000 X20.1305 Y25.5000 Z-3.0000 S1000
G1 F1000 X20.1696 Y26.1466 Z-3.0000 S1000
G1 F1000 X20.2867 Y26.7857 Z-3.0000 S1000
G1 F1000 X20.4793 Y27.4037 Z-3.0000 S1000
G1 F1000 X20.7456 Y27.9954 Z-3.0000 S1000
G1 F1000 X21.0809 Y28.5501 Z-3.0000 S1000
G1 F1000 X21.4812 Y29.0611 Z-3.0000 S1000
G1 F1000 X21.9389 Y29.5188 Z-3.0000 S1000
G1 F1000 X22.4499 Y29.9191 Z-3.0000 S1000
G1 F1000 X23.0046 Y30.2544 Z-3.0000 S1000
G1 F1000 X23.5963 Y30.5207 Z-3.0000 S1000
G1 F1000 X24.2143 Y30.7133 Z-3.0000 S1000
G1 F1000 X24.8534 Y30.8304 Z-3.0000 S1000
G1 F1000 X25.5000 Y30.8695 Z-3.0000 S1000
G1 F1000 X26.1466 Y30.8304 Z-3.0000 S1000
G1 F1000 X26.7857 Y30.7133 Z-3.0000 S1000
G1 F1000 X27.4037 Y30.5207 Z-3.0000 S1000
G1 F1000 X27.9954 Y30.2544 Z-3.0000 S1000
G1 F1000 X28.5502 Y29.9191 Z-3.0000 S1000
G1 F1000 X29.0604 Y29.5193 Z-3.0000 S1000
G1 F1000 X29.5193 Y29.0605 Z-3.0000 S1000
G1 F1000 X29.9191 Y28.5501 Z-3.0000 S1000
G1 F1000 X30.2544 Y27.9954 Z-3.0000 S1000
G1 F1000 X30.5207 Y27.4037 Z-3.0000 S1000
G1 F1000 X30.7133 Y26.7857 Z-3.0000 S1000
G1 F1000 X30.8304 Y26.1466 Z-3.0000 S1000
G1 F1000 X30.8695 Y25.5000 Z-3.0000 S1000
G1 F1000 X30.8304 Y24.8534 Z-3.0000 S1000
G1 F1000 X30.7133 Y24.2143 Z-3.0000 S1000
G1 F1000 X30.5207 Y23.5963 Z-3.0000 S1000
G1 F1000 X30.2544 Y23.0046 Z-3.0000 S1000
G1 F1000 X29.9191 Y22.4499 Z-3.0000 S1000
G1 F1000 X29.5193 Y21.9395 Z-3.0000 S1000
G1 F1000 X29.0604 Y21.4807 Z-3.0000 S1000
G1 F1000 X28.5502 Y21.0809 Z-3.0000 S1000
G1 F1000 X27.9954 Y20.7456 Z-3.0000 S1000
G1 F1000 X27.4037 Y20.4793 Z-3.0000 S1000
G1 F1000 X26.7857 Y20.2867 Z-3.0000 S1000
G1 F1000 X26.1466 Y20.1696 Z-3.0000 S1000
G1 F1000 X25.5000 Y20.1305 Z-3.0000 S1000
G1 F100 Z-6.0000
G1 F1000 X24.8534 Y20.1696 Z-6.0000 S1000
G1 F1000 X24.2143 Y20.2867 Z-6.0000 S1000
G1 F1000 X23.5963 Y20.4793 Z-6.0000 S1000
G1 F1000 X23.0046 Y20.7456 Z-6.0000 S1000
G1 F1000 X22.4499 Y21.0809 Z-6.0000 S1000
G1 F1000 X21.9389 Y21.4812 Z-6.0000 S1000
G1 F1000 X21.4812 Y21.9389 Z-6.0000 S1000
G1 F1000 X21.0809 Y22.4499 Z-6.0000 S1000
G1 F1000 X20.7456 Y23.0046 Z-6.0000 S1000
G1 F1000 X20.4793 Y23.5963 Z-6.0000 S1000
G1 F1000 X20.2867 Y24.2143 Z-6.0000 S1000
G1 F1000 X20.1696 Y24.8534 Z-6.0000 S1000
G1 F1000 X20.1305 Y25.5000 Z-6.0000 S1000
G1 F1000 X20.1696 Y26.1466 Z-6.0000 S1000
G1 F1000 X20.2867 Y26.7857 Z-6.0000 S1000
G1 F1000 X20.4793 Y27.4037 Z-6.0000 S1000
G1 F1000 X20.7456 Y27.9954 Z-6.0000 S1000
G1 F1000 X21.0809 Y28.5501 Z-6.0000 S1000
G1 F1000 X21.4812 Y29.0611 Z-6.0000 S1000
G1 F1000 X21.9389 Y29.5188 Z-6.0000 S1000
G1 F1000 X22.4499 Y29.9191 Z-6.0000 S1000
G1 F1000 X23.0046 Y30.2544 Z-6.0000 S1000
G1 F1000 X23.5963 Y30.5207 Z-6.0000 S1000
G1 F1000 X24.2143 Y30.7133 Z-6.0000 S1000
G1 F1000 X24.8534 Y30.8304 Z-6.0000 S1000
G1 F1000 X25.5000 Y30.8695 Z-6.0000 S1000
G1 F1000 X26.1466 Y30.8304 Z-6.0000 S1000
G1 F1000 X26.7857 Y30.7133 Z-6.0000 S1000
G1 F1000 X27.4037 Y30.5207 Z-6.0000 S1000
G1 F1000 X27.9954 Y30.2544 Z-6.0000 S1000
G1 F1000 X28.5502 Y29.9191 Z-6.0000 S1000
G1 F1000 X29.0604 Y29.5193 Z-6.0000 S1000
G1 F1000 X29.5193 Y29.0605 Z-6.0000 S1000
G1 F1000 X29.9191 Y28.5501 Z-6.0000 S1000
G1 F1000 X30.2544 Y27.9954 Z-6.0000 S1000
G1 F1000 X30.5207 Y27.4037 Z-6.0000 S1000
G1 F1000 X30.7133 Y26.7857 Z-6.0000 S1000
G1 F1000 X30.8304 Y26.1466 Z-6.0000 S1000
G1 F1000 X30.8695 Y25.5000 Z-6.0000 S1000
G1 F1000 X30.8304 Y24.8534 Z-6.0000 S1000
G1 F1000 X30.7133 Y24.2143 Z-6.0000 S1000
G1 F1000 X30.5207 Y23.5963 Z-6.0000 S1000
G1 F1000 X30.2544 Y23.0046 Z-6.0000 S1000
G1 F1000 X29.9191 Y22.4499 Z-6.0000 S1000
G1 F1000 X29.5193 Y21.9395 Z-6.0000 S1000
G1 F1000 X29.0604 Y21.4807 Z-6.0000 S1000
G1 F1000 X28.5502 Y21.0809 Z-6.0000 S1000
G1 F1000 X27.9954 Y20.7456 Z-6.0000 S1000
G1 F1000 X27.4037 Y20.4793 Z-6.0000 S1000
G1 F1000 X26.7857 Y20.2867 Z-6.0000 S1000
G1 F1000 X26.1466 Y20.1696 Z-6.0000 S1000
G1 F1000 X25.5000 Y20.1305 Z-6.0000 S1000
G1 F100 Z-9.0000
G1 F1000 X24.8534 Y20.1696 Z-9.0000 S1000
G1 F1000 X24.2143 Y20.2867 Z-9.0000 S1000
G1 F1000 X23.5963 Y20.4793 Z-9.0000 S1000
G1 F1000 X23.0046 Y20.7456 Z-9.0000 S1000
G1 F1000 X22.4499 Y21.0809 Z-9.0000 S1000
G1 F1000 X21.9389 Y21.4812 Z-9.0000 S1000
G1 F1000 X21.4812 Y21.9389 Z-9.0000 S1000
G1 F1000 X21.0809 Y22.4499 Z-9.0000 S1000
G1 F1000 X20.7456 Y23.0046 Z-9.0000 S1000
G1 F1000 X20.4793 Y23.5963 Z-9.0000 S1000
G1 F1000 X20.2867 Y24.2143 Z-9.0000 S1000
G1 F1000 X20.1696 Y24.8534 Z-9.0000 S1000
G1 F1000 X20.1305 Y25.5000 Z-9.0000 S1000
G1 F1000 X20.1696 Y26.1466 Z-9.0000 S1000
G1 F1000 X20.2867 Y26.7857 Z-9.0000 S1000
G1 F1000 X20.4793 Y27.4037 Z-9.0000 S1000
G1 F1000 X20.7456 Y27.9954 Z-9.0000 S1000
G1 F1000 X21.0809 Y28.5501 Z-9.0000 S1000
G1 F1000 X21.4812 Y29.0611 Z-9.0000 S1000
G1 F1000 X21.9389 Y29.5188 Z-9.0000 S1000
G1 F1000 X22.4499 Y29.9191 Z-9.0000 S1000
G1 F1000 X23.0046 Y30.2544 Z-9.0000 S1000
G1 F1000 X23.5963 Y30.5207 Z-9.0000 S1000
G1 F1000 X24.2143 Y30.7133 Z-9.0000 S1000
G1 F1000 X24.8534 Y30.8304 Z-9.0000 S1000
G1 F1000 X25.5000 Y30.8695 Z-9.0000 S1000
G1 F1000 X26.1466 Y30.8304 Z-9.0000 S1000
G1 F1000 X26.7857 Y30.7133 Z-9.0000 S1000
G1 F1000 X27.4037 Y30.5207 Z-9.0000 S1000
G1 F1000 X27.9954 Y30.2544 Z-9.0000 S1000
G1 F1000 X28.5502 Y29.9191 Z-9.0000 S1000
G1 F1000 X29.0604 Y29.5193 Z-9.0000 S1000
G1 F1000 X29.5193 Y29.0605 Z-9.0000 S1000
G1 F1000 X29.9191 Y28.5501 Z-9.0000 S1000
G1 F1000 X30.2544 Y27.9954 Z-9.0000 S1000
G1 F1000 X30.5207 Y27.4037 Z-9.0000 S1000
G1 F1000 X30.7133 Y26.7857 Z-9.0000 S1000
G1 F1000 X30.8304 Y26.1466 Z-9.0000 S1000
G1 F1000 X30.8695 Y25.5000 Z-9.0000 S1000
G1 F1000 X30.8304 Y24.8534 Z-9.0000 S1000
G1 F1000 X30.7133 Y24.2143 Z-9.0000 S1000
G1 F1000 X30.5207 Y23.5963 Z-9.0000 S1000
G1 F1000 X30.2544 Y23.0046 Z-9.0000 S1000
G1 F1000 X29.9191 Y22.4499 Z-9.0000 S1000
G1 F1000 X29.5193 Y21.9395 Z-9.0000 S1000
G1 F1000 X29.0604 Y21.4807 Z-9.0000 S1000
G1 F1000 X28.5502 Y21.0809 Z-9.0000 S1000
G1 F1000 X27.9954 Y20.7456 Z-9.0000 S1000
G1 F1000 X27.4037 Y20.4793 Z-9.0000 S1000
G1 F1000 X26.7857 Y20.2867 Z-9.0000 S1000
G1 F1000 X26.1466 Y20.1696 Z-9.0000 S1000
G1 F1000 X25.5000 Y20.1305 Z-9.0000 S1000
G1 F100 Z-12.0000
G1 F1000 X24.8534 Y20.1696 Z-12.0000 S1000
G1 F1000 X24.2143 Y20.2867 Z-12.0000 S1000
G1 F1000 X23.5963 Y20.4793 Z-12.0000 S1000
G1 F1000 X23.0046 Y20.7456 Z-12.0000 S1000
G1 F1000 X22.4499 Y21.0809 Z-12.0000 S1000
G1 F1000 X21.9389 Y21.4812 Z-12.0000 S1000
G1 F1000 X21.4812 Y21.9389 Z-12.0000 S1000
G1 F1000 X21.0809 Y22.4499 Z-12.0000 S1000
G1 F1000 X20.7456 Y23.0046 Z-12.0000 S1000
G1 F1000 X20.4793 Y23.5963 Z-12.0000 S1000
G1 F1000 X20.2867 Y24.2143 Z-12.0000 S1000
G1 F1000 X20.1696 Y24.8534 Z-12.0000 S1000
G1 F1000 X20.1305 Y25.5000 Z-12.0000 S1000
G1 F1000 X20.1696 Y26.1466 Z-12.0000 S1000
G1 F1000 X20.2867 Y26.7857 Z-12.0000 S1000
G1 F1000 X20.4793 Y27.4037 Z-12.0000 S1000
G1 F1000 X20.7456 Y27.9954 Z-12.0000 S1000
G1 F1000 X21.0809 Y28.5501 Z-12.0000 S1000
G1 F1000 X21.4812 Y29.0611 Z-12.0000 S1000
G1 F1000 X21.9389 Y29.5188 Z-12.0000 S1000
G1 F1000 X22.4499 Y29.9191 Z-12.0000 S1000
G1 F1000 X23.0046 Y30.2544 Z-12.0000 S1000
G1 F1000 X23.5963 Y30.5207 Z-12.0000 S1000
G1 F1000 X24.2143 Y30.7133 Z-12.0000 S1000
G1 F1000 X24.8534 Y30.8304 Z-12.0000 S1000
G1 F1000 X25.5000 Y30.8695 Z-12.0000 S1000
G1 F1000 X26.1466 Y30.8304 Z-12.0000 S1000
G1 F1000 X26.7857 Y30.7133 Z-12.0000 S1000
G1 F1000 X27.4037 Y30.5207 Z-12.0000 S1000
G1 F1000 X27.9954 Y30.2544 Z-12.0000 S1000
G1 F1000 X28.5502 Y29.9191 Z-12.0000 S1000
G1 F1000 X29.0604 Y29.5193 Z-12.0000 S1000
G1 F1000 X29.5193 Y29.0605 Z-12.0000 S1000
G1 F1000 X29.9191 Y28.5501 Z-12.0000 S1000
G1 F1000 X30.2544 Y27.9954 Z-12.0000 S1000
G1 F1000 X30.5207 Y27.4037 Z-12.0000 S1000
G1 F1000 X30.7133 Y26.7857 Z-12.0000 S1000
G1 F1000 X30.8304 Y26.1466 Z-12.0000 S1000
G1 F1000 X30.8695 Y25.5000 Z-12.0000 S1000
G1 F1000 X30.8304 Y24.8534 Z-12.0000 S1000
G1 F1000 X30.7133 Y24.2143 Z-12.0000 S1000
G1 F1000 X30.5207 Y23.5963 Z-12.0000 S1000
G1 F1000 X30.2544 Y23.0046 Z-12.0000 S1000
G1 F1000 X29.9191 Y22.4499 Z-12.0000 S1000
G1 F1000 X29.5193 Y21.9395 Z-12.0000 S1000
G1 F1000 X29.0604 Y21.4807 Z-12.0000 S1000
G1 F1000 X28.5502 Y21.0809 Z-12.0000 S1000
G1 F1000 X27.9954 Y20.7456 Z-12.0000 S1000
G1 F1000 X27.4037 Y20.4793 Z-12.0000 S1000
G1 F1000 X26.7857 Y20.2867 Z-12.0000 S1000
G1 F1000 X26.1466 Y20.1696 Z-12.0000 S1000
G1 F1000 X25.5000 Y20.1305 Z-12.0000 S1000
G1 F100 Z-15.0000
G1 F1000 X24.8534 Y20.1696 Z-15.0000 S1000
G1 F1000 X24.2143 Y20.2867 Z-15.0000 S1000
G1 F1000 X23.5963 Y20.4793 Z-15.0000 S1000
G1 F1000 X23.0046 Y20.7456 Z-15.0000 S1000
G1 F1000 X22.4499 Y21.0809 Z-15.0000 S1000
G1 F1000 X21.9389 Y21.4812 Z-15.0000 S1000
G1 F1000 X21.4812 Y21.9389 Z-15.0000 S1000
G1 F1000 X21.0809 Y22.4499 Z-15.0000 S1000
G1 F1000 X20.7456 Y23.0046 Z-15.0000 S1000
G1 F1000 X20.4793 Y23.5963 Z-15.0000 S1000
G1 F1000 X20.2867 Y24.2143 Z-15.0000 S1000
G1 F1000 X20.1696 Y24.8534 Z-15.0000 S1000
G1 F1000 X20.1305 Y25.5000 Z-15.0000 S1000
G1 F1000 X20.1696 Y26.1466 Z-15.0000 S1000
G1 F1000 X20.2867 Y26.7857 Z-15.0000 S1000
G1 F1000 X20.4793 Y27.4037 Z-15.0000 S1000
G1 F1000 X20.7456 Y27.9954 Z-15.0000 S1000
G1 F1000 X21.0809 Y28.5501 Z-15.0000 S1000
G1 F1000 X21.4812 Y29.0611 Z-15.0000 S1000
G1 F1000 X21.9389 Y29.5188 Z-15.0000 S1000
G1 F1000 X22.4499 Y29.9191 Z-15.0000 S1000
G1 F1000 X23.0046 Y30.2544 Z-15.0000 S1000
G1 F1000 X23.5963 Y30.5207 Z-15.0000 S1000
G1 F1000 X24.2143 Y30.7133 Z-15.0000 S1000
G1 F1000 X24.8534 Y30.8304 Z-15.0000 S1000
G1 F1000 X25.5000 Y30.8695 Z-15.0000 S1000
G1 F1000 X26.1466 Y30.8304 Z-15.0000 S1000
G1 F1000 X26.7857 Y30.7133 Z-15.0000 S1000
G1 F1000 X27.4037 Y30.5207 Z-15.0000 S1000
G1 F1000 X27.9954 Y30.2544 Z-15.0000 S1000
G1 F1000 X28.5502 Y29.9191 Z-15.0000 S1000
G1 F1000 X29.0604 Y29.5193 Z-15.0000 S1000
G1 F1000 X29.5193 Y29.0605 Z-15.0000 S1000
G1 F1000 X29.9191 Y28.5501 Z-15.0000 S1000
G1 F1000 X30.2544 Y27.9954 Z-15.0000 S1000
G1 F1000 X30.5207 Y27.4037 Z-15.0000 S1000
G1 F1000 X30.7133 Y26.7857 Z-15.0000 S1000
G1 F1000 X30.8304 Y26.1466 Z-15.0000 S1000
G1 F1000 X30.8695 Y25.5000 Z-15.0000 S1000
G1 F1000 X30.8304 Y24.8534 Z-15.0000 S1000
G1 F1000 X30.7133 Y24.2143 Z-15.0000 S1000
G1 F1000 X30.5207 Y23.5963 Z-15.0000 S1000
G1 F1000 X30.2544 Y23.0046 Z-15.0000 S1000
G1 F1000 X29.9191 Y22.4499 Z-15.0000 S1000
G1 F1000 X29.5193 Y21.9395 Z-15.0000 S1000
G1 F1000 X29.0604 Y21.4807 Z-15.0000 S1000
G1 F1000 X28.5502 Y21.0809 Z-15.0000 S1000
G1 F1000 X27.9954 Y20.7456 Z-15.0000 S1000
G1 F1000 X27.4037 Y20.4793 Z-15.0000 S1000
G1 F1000 X26.7857 Y20.2867 Z-15.0000 S1000
G1 F1000 X26.1466 Y20.1696 Z-15.0000 S1000
G1 F1000 X25.5000 Y20.1305 Z-15.0000 S1000
G1 F100 Z-18.0000
G1 F1000 X24.8534 Y20.1696 Z-18.0000 S1000
G1 F1000 X24.2143 Y20.2867 Z-18.0000 S1000
G1 F1000 X23.5963 Y20.4793 Z-18.0000 S1000
G1 F1000 X23.0046 Y20.7456 Z-18.0000 S1000
G1 F1000 X22.4499 Y21.0809 Z-18.0000 S1000
G1 F1000 X21.9389 Y21.4812 Z-18.0000 S1000
G1 F1000 X21.4812 Y21.9389 Z-18.0000 S1000
G1 F1000 X21.0809 Y22.4499 Z-18.0000 S1000
G1 F1000 X20.7456 Y23.0046 Z-18.0000 S1000
G1 F1000 X20.4793 Y23.5963 Z-18.0000 S1000
G1 F1000 X20.2867 Y24.2143 Z-18.0000 S1000
G1 F1000 X20.1696 Y24.8534 Z-18.0000 S1000
G1 F1000 X20.1305 Y25.5000 Z-18.0000 S1000
G1 F1000 X20.1696 Y26.1466 Z-18.0000 S1000
G1 F1000 X20.2867 Y26.7857 Z-18.0000 S1000
G1 F1000 X20.4793 Y27.4037 Z-18.0000 S1000
G1 F1000 X20.7456 Y27.9954 Z-18.0000 S1000
G1 F1000 X21.0809 Y28.5501 Z-18.0000 S1000
G1 F1000 X21.4812 Y29.0611 Z-18.0000 S1000
G1 F1000 X21.9389 Y29.5188 Z-18.0000 S1000
G1 F1000 X22.4499 Y29.9191 Z-18.0000 S1000
G1 F1000 X23.0046 Y30.2544 Z-18.0000 S1000
G1 F1000 X23.5963 Y30.5207 Z-18.0000 S1000
G1 F1000 X24.2143 Y30.7133 Z-18.0000 S1000
G1 F1000 X24.8534 Y30.8304 Z-18.0000 S1000
G1 F1000 X25.5000 Y30.8695 Z-18.0000 S1000
G1 F1000 X26.1466 Y30.8304 Z-18.0000 S1000
G1 F1000 X26.7857 Y30.7133 Z-18.0000 S1000
G1 F1000 X27.4037 Y30.5207 Z-18.0000 S1000
G1 F1000 X27.9954 Y30.2544 Z-18.0000 S1000
G1 F1000 X28.5502 Y29.9191 Z-18.0000 S1000
G1 F1000 X29.0604 Y29.5193 Z-18.0000 S1000
G1 F1000 X29.5193 Y29.0605 Z-18.0000 S1000
G1 F1000 X29.9191 Y28.5501 Z-18.0000 S1000
G1 F1000 X30.2544 Y27.9954 Z-18.0000 S1000
G1 F1000 X30.5207 Y27.4037 Z-18.0000 S1000
G1 F1000 X30.7133 Y26.7857 Z-18.0000 S1000
G1 F1000 X30.8304 Y26.1466 Z-18.0000 S1000
G1 F1000 X30.8695 Y25.5000 Z-18.0000 S1000
G1 F1000 X30.8304 Y24.8534 Z-18.0000 S1000
G1 F1000 X30.7133 Y24.2143 Z-18.0000 S1000
G1 F1000 X30.5207 Y23.5963 Z-18.0000 S1000
G1 F1000 X30.2544 Y23.0046 Z-18.0000 S1000
G1 F1000 X29.9191 Y22.4499 Z-18.0000 S1000
G1 F1000 X29.5193 Y21.9395 Z-18.0000 S1000
G1 F1000 X29.0604 Y21.4807 Z-18.0000 S1000
G1 F1000 X28.5502 Y21.0809 Z-18.0000 S1000
G1 F1000 X27.9954 Y20.7456 Z-18.0000 S1000
G1 F1000 X27.4037 Y20.4793 Z-18.0000 S1000
G1 F1000 X26.7857 Y20.2867 Z-18.0000 S1000
G1 F1000 X26.1466 Y20.1696 Z-18.0000 S1000
G1 F1000 X25.5000 Y20.1305 Z-18.0000 S1000
G1 F100 Z-20.0000
G1 F1000 X24.8534 Y20.1696 Z-20.0000 S1000
G1 F1000 X24.2143 Y20.2867 Z-20.0000 S1000
G1 F1000 X23.5963 Y20.4793 Z-20.0000 S1000
G1 F1000 X23.0046 Y20.7456 Z-20.0000 S1000
G1 F1000 X22.4499 Y21.0809 Z-20.0000 S1000
G1 F1000 X21.9389 Y21.4812 Z-20.0000 S1000
G1 F1000 X21.4812 Y21.9389 Z-20.0000 S1000
G1 F1000 X21.0809 Y22.4499 Z-20.0000 S1000
G1 F1000 X20.7456 Y23.0046 Z-20.0000 S1000
G1 F1000 X20.4793 Y23.5963 Z-20.0000 S1000
G1 F1000 X20.2867 Y24.2143 Z-20.0000 S1000
G1 F1000 X20.1696 Y24.8534 Z-20.0000 S1000
G1 F1000 X20.1305 Y25.5000 Z-20.0000 S1000
G1 F1000 X20.1696 Y26.1466 Z-20.0000 S1000
G1 F1000 X20.2867 Y26.7857 Z-20.0000 S1000
G1 F1000 X20.4793 Y27.4037 Z-20.0000 S1000
G1 F1000 X20.7456 Y27.9954 Z-20.0000 S1000
G1 F1000 X21.0809 Y28.5501 Z-20.0000 S1000
G1 F1000 X21.4812 Y29.0611 Z-20.0000 S1000
G1 F1000 X21.9389 Y29.5188 Z-20.0000 S1000
G1 F1000 X22.4499 Y29.9191 Z-20.0000 S1000
G1 F1000 X23.0046 Y30.2544 Z-20.0000 S1000
G1 F1000 X23.5963 Y30.5207 Z-20.0000 S1000
G1 F1000 X24.2143 Y30.7133 Z-20.0000 S1000
G1 F1000 X24.8534 Y30.8304 Z-20.0000 S1000
G1 F1000 X25.5000 Y30.8695 Z-20.0000 S1000
G1 F1000 X26.1466 Y30.8304 Z-20.0000 S1000
G1 F1000 X26.7857 Y30.7133 Z-20.0000 S1000
G1 F1000 X27.4037 Y30.5207 Z-20.0000 S1000
G1 F1000 X27.9954 Y30.2544 Z-20.0000 S1000
G1 F1000 X28.5502 Y29.9191 Z-20.0000 S1000
G1 F1000 X29.0604 Y29.5193 Z-20.0000 S1000
G1 F1000 X29.5193 Y29.0605 Z-20.0000 S1000
G1 F1000 X29.9191 Y28.5501 Z-20.0000 S1000
G1 F1000 X30.2544 Y27.9954 Z-20.0000 S1000
G1 F1000 X30.5207 Y27.4037 Z-20.0000 S1000
G1 F1000 X30.7133 Y26.7857 Z-20.0000 S1000
G1 F1000 X30.8304 Y26.1466 Z-20.0000 S1000
G1 F1000 X30.8695 Y25.5000 Z-20.0000 S1000
G1 F1000 X30.8304 Y24.8534 Z-20.0000 S1000
G1 F1000 X30.7133 Y24.2143 Z-20.0000 S1000
G1 F1000 X30.5207 Y23.5963 Z-20.0000 S1000
G1 F1000 X30.2544 Y23.0046 Z-20.0000 S1000
G1 F1000 X29.9191 Y22.4499 Z-20.0000 S1000
G1 F1000 X29.5193 Y21.9395 Z-20.0000 S1000
G1 F1000 X29.0604 Y21.4807 Z-20.0000 S1000
G1 F1000 X28.5502 Y21.0809 Z-20.0000 S1000
G1 F1000 X27.9954 Y20.7456 Z-20.0000 S1000
G1 F1000 X27.4037 Y20.4793 Z-20.0000 S1000
G1 F1000 X26.7857 Y20.2867 Z-20.0000 S1000
G1 F1000 X26.1466 Y20.1696 Z-20.0000 S1000
G1 F1000 X25.5000 Y20.1305 Z-20.0000 S1000
; retracting back to z-safe
G0 Z10
; Operation 1: CNC: Vector (path outside)
; Endmill Diameter: 6

G0 Z10; move to z-safe height
G0 F1000 X40.0001 Y-3.0000

G0 Z0
G1 F100 Z-3.0000
G1 F1000 X10.9998 Y-3.0000 Z-3.0000 S1000
G1 F1000 X10.4498 Y-2.9491 Z-3.0000 S1000
G1 F1000 X9.7890 Y-2.7448 Z-3.0000 S1000
G1 F1000 X9.1926 Y-2.3946 Z-3.0000 S1000
G1 F1000 X8.6922 Y-1.9170 Z-3.0000 S1000
G1 F1000 X8.3145 Y-1.3376 Z-3.0000 S1000
G1 F1000 X8.0795 Y-0.6871 Z-3.0000 S1000
G1 F1000 X7.9998 Y0.0000 Z-3.0000 S1000
G1 F1000 X7.9998 Y7.9999 Z-3.0000 S1000
G1 F1000 X0.0000 Y7.9999 Z-3.0000 S1000
G1 F1000 X-0.5500 Y8.0508 Z-3.0000 S1000
G1 F1000 X-1.2108 Y8.2551 Z-3.0000 S1000
G1 F1000 X-1.8072 Y8.6053 Z-3.0000 S1000
G1 F1000 X-2.3076 Y9.0829 Z-3.0000 S1000
G1 F1000 X-2.6853 Y9.6623 Z-3.0000 S1000
G1 F1000 X-2.9203 Y10.3128 Z-3.0000 S1000
G1 F1000 X-3.0000 Y10.9999 Z-3.0000 S1000
G1 F1000 X-3.0000 Y40.0002 Z-3.0000 S1000
G1 F1000 X-2.9491 Y40.5502 Z-3.0000 S1000
G1 F1000 X-2.7448 Y41.2110 Z-3.0000 S1000
G1 F1000 X-2.3946 Y41.8074 Z-3.0000 S1000
G1 F1000 X-1.9170 Y42.3078 Z-3.0000 S1000
G1 F1000 X-1.3376 Y42.6855 Z-3.0000 S1000
G1 F1000 X-0.6871 Y42.9205 Z-3.0000 S1000
G1 F1000 X0.0000 Y43.0002 Z-3.0000 S1000
G1 F1000 X7.9998 Y43.0002 Z-3.0000 S1000
G1 F1000 X7.9998 Y51.0000 Z-3.0000 S1000
G1 F1000 X8.0507 Y51.5500 Z-3.0000 S1000
G1 F1000 X8.2550 Y52.2108 Z-3.0000 S1000
G1 F1000 X8.6052 Y52.8072 Z-3.0000 S1000
G1 F1000 X9.0828 Y53.3076 Z-3.0000 S1000
G1 F1000 X9.6622 Y53.6853 Z-3.0000 S1000
G1 F1000 X10.3127 Y53.9203 Z-3.0000 S1000
G1 F1000 X10.9998 Y54.0000 Z-3.0000 S1000
G1 F1000 X40.0001 Y54.0000 Z-3.0000 S1000
G1 F1000 X40.5501 Y53.9491 Z-3.0000 S1000
G1 F1000 X41.2109 Y53.7448 Z-3.0000 S1000
G1 F1000 X41.8073 Y53.3946 Z-3.0000 S1000
G1 F1000 X42.3077 Y52.9170 Z-3.0000 S1000
G1 F1000 X42.6854 Y52.3376 Z-3.0000 S1000
G1 F1000 X42.9204 Y51.6871 Z-3.0000 S1000
G1 F1000 X43.0001 Y51.0000 Z-3.0000 S1000
G1 F1000 X43.0001 Y43.0002 Z-3.0000 S1000
G1 F1000 X51.0000 Y43.0002 Z-3.0000 S1000
G1 F1000 X51.5500 Y42.9493 Z-3.0000 S1000
G1 F1000 X52.2108 Y42.7450 Z-3.0000 S1000
G1 F1000 X52.8072 Y42.3948 Z-3.0000 S1000
G1 F1000 X53.3076 Y41.9172 Z-3.0000 S1000
G1 F1000 X53.6853 Y41.3378 Z-3.0000 S1000
G1 F1000 X53.9203 Y40.6873 Z-3.0000 S1000
G1 F1000 X54.0000 Y40.0002 Z-3.0000 S1000
G1 F1000 X54.0000 Y10.9999 Z-3.0000 S1000
G1 F1000 X53.9491 Y10.4499 Z-3.0000 S1000
G1 F1000 X53.7448 Y9.7891 Z-3.0000 S1000
G1 F1000 X53.3946 Y9.1927 Z-3.0000 S1000
G1 F1000 X52.9170 Y8.6923 Z-3.0000 S1000
G1 F1000 X52.3376 Y8.3146 Z-3.0000 S1000
G1 F1000 X51.6871 Y8.0796 Z-3.0000 S1000
G1 F1000 X51.0000 Y7.9999 Z-3.0000 S1000
G1 F1000 X43.0001 Y7.9999 Z-3.0000 S1000
G1 F1000 X43.0001 Y0.0000 Z-3.0000 S1000
G1 F1000 X42.9492 Y-0.5500 Z-3.0000 S1000
G1 F1000 X42.7449 Y-1.2108 Z-3.0000 S1000
G1 F1000 X42.3947 Y-1.8072 Z-3.0000 S1000
G1 F1000 X41.9171 Y-2.3076 Z-3.0000 S1000
G1 F1000 X41.3377 Y-2.6853 Z-3.0000 S1000
G1 F1000 X40.6872 Y-2.9203 Z-3.0000 S1000
G1 F1000 X40.0001 Y-3.0000 Z-3.0000 S1000
G1 F100 Z-6.0000
G1 F1000 X10.9998 Y-3.0000 Z-6.0000 S1000
G1 F1000 X10.4498 Y-2.9491 Z-6.0000 S1000
G1 F1000 X9.7890 Y-2.7448 Z-6.0000 S1000
G1 F1000 X9.1926 Y-2.3946 Z-6.0000 S1000
G1 F1000 X8.6922 Y-1.9170 Z-6.0000 S1000
G1 F1000 X8.3145 Y-1.3376 Z-6.0000 S1000
G1 F1000 X8.0795 Y-0.6871 Z-6.0000 S1000
G1 F1000 X7.9998 Y0.0000 Z-6.0000 S1000
G1 F1000 X7.9998 Y7.9999 Z-6.0000 S1000
G1 F1000 X0.0000 Y7.9999 Z-6.0000 S1000
G1 F1000 X-0.5500 Y8.0508 Z-6.0000 S1000
G1 F1000 X-1.2108 Y8.2551 Z-6.0000 S1000
G1 F1000 X-1.8072 Y8.6053 Z-6.0000 S1000
G1 F1000 X-2.3076 Y9.0829 Z-6.0000 S1000
G1 F1000 X-2.6853 Y9.6623 Z-6.0000 S1000
G1 F1000 X-2.9203 Y10.3128 Z-6.0000 S1000
G1 F1000 X-3.0000 Y10.9999 Z-6.0000 S1000
G1 F1000 X-3.0000 Y40.0002 Z-6.0000 S1000
G1 F1000 X-2.9491 Y40.5502 Z-6.0000 S1000
G1 F1000 X-2.7448 Y41.2110 Z-6.0000 S1000
G1 F1000 X-2.3946 Y41.8074 Z-6.0000 S1000
G1 F1000 X-1.9170 Y42.3078 Z-6.0000 S1000
G1 F1000 X-1.3376 Y42.6855 Z-6.0000 S1000
G1 F1000 X-0.6871 Y42.9205 Z-6.0000 S1000
G1 F1000 X0.0000 Y43.0002 Z-6.0000 S1000
G1 F1000 X7.9998 Y43.0002 Z-6.0000 S1000
G1 F1000 X7.9998 Y51.0000 Z-6.0000 S1000
G1 F1000 X8.0507 Y51.5500 Z-6.0000 S1000
G1 F1000 X8.2550 Y52.2108 Z-6.0000 S1000
G1 F1000 X8.6052 Y52.8072 Z-6.0000 S1000
G1 F1000 X9.0828 Y53.3076 Z-6.0000 S1000
G1 F1000 X9.6622 Y53.6853 Z-6.0000 S1000
G1 F1000 X10.3127 Y53.9203 Z-6.0000 S1000
G1 F1000 X10.9998 Y54.0000 Z-6.0000 S1000
G1 F1000 X40.0001 Y54.0000 Z-6.0000 S1000
G1 F1000 X40.5501 Y53.9491 Z-6.0000 S1000
G1 F1000 X41.2109 Y53.7448 Z-6.0000 S1000
G1 F1000 X41.8073 Y53.3946 Z-6.0000 S1000
G1 F1000 X42.3077 Y52.9170 Z-6.0000 S1000
G1 F1000 X42.6854 Y52.3376 Z-6.0000 S1000
G1 F1000 X42.9204 Y51.6871 Z-6.0000 S1000
G1 F1000 X43.0001 Y51.0000 Z-6.0000 S1000
G1 F1000 X43.0001 Y43.0002 Z-6.0000 S1000
G1 F1000 X51.0000 Y43.0002 Z-6.0000 S1000
G1 F1000 X51.5500 Y42.9493 Z-6.0000 S1000
G1 F1000 X52.2108 Y42.7450 Z-6.0000 S1000
G1 F1000 X52.8072 Y42.3948 Z-6.0000 S1000
G1 F1000 X53.3076 Y41.9172 Z-6.0000 S1000
G1 F1000 X53.6853 Y41.3378 Z-6.0000 S1000
G1 F1000 X53.9203 Y40.6873 Z-6.0000 S1000
G1 F1000 X54.0000 Y40.0002 Z-6.0000 S1000
G1 F1000 X54.0000 Y10.9999 Z-6.0000 S1000
G1 F1000 X53.9491 Y10.4499 Z-6.0000 S1000
G1 F1000 X53.7448 Y9.7891 Z-6.0000 S1000
G1 F1000 X53.3946 Y9.1927 Z-6.0000 S1000
G1 F1000 X52.9170 Y8.6923 Z-6.0000 S1000
G1 F1000 X52.3376 Y8.3146 Z-6.0000 S1000
G1 F1000 X51.6871 Y8.0796 Z-6.0000 S1000
G1 F1000 X51.0000 Y7.9999 Z-6.0000 S1000
G1 F1000 X43.0001 Y7.9999 Z-6.0000 S1000
G1 F1000 X43.0001 Y0.0000 Z-6.0000 S1000
G1 F1000 X42.9492 Y-0.5500 Z-6.0000 S1000
G1 F1000 X42.7449 Y-1.2108 Z-6.0000 S1000
G1 F1000 X42.3947 Y-1.8072 Z-6.0000 S1000
G1 F1000 X41.9171 Y-2.3076 Z-6.0000 S1000
G1 F1000 X41.3377 Y-2.6853 Z-6.0000 S1000
G1 F1000 X40.6872 Y-2.9203 Z-6.0000 S1000
G1 F1000 X40.0001 Y-3.0000 Z-6.0000 S1000
G1 F100 Z-9.0000
G1 F1000 X10.9998 Y-3.0000 Z-9.0000 S1000
G1 F1000 X10.4498 Y-2.9491 Z-9.0000 S1000
G1 F1000 X9.7890 Y-2.7448 Z-9.0000 S1000
G1 F1000 X9.1926 Y-2.3946 Z-9.0000 S1000
G1 F1000 X8.6922 Y-1.9170 Z-9.0000 S1000
G1 F1000 X8.3145 Y-1.3376 Z-9.0000 S1000
G1 F1000 X8.0795 Y-0.6871 Z-9.0000 S1000
G1 F1000 X7.9998 Y0.0000 Z-9.0000 S1000
G1 F1000 X7.9998 Y7.9999 Z-9.0000 S1000
G1 F1000 X0.0000 Y7.9999 Z-9.0000 S1000
G1 F1000 X-0.5500 Y8.0508 Z-9.0000 S1000
G1 F1000 X-1.2108 Y8.2551 Z-9.0000 S1000
G1 F1000 X-1.8072 Y8.6053 Z-9.0000 S1000
G1 F1000 X-2.3076 Y9.0829 Z-9.0000 S1000
G1 F1000 X-2.6853 Y9.6623 Z-9.0000 S1000
G1 F1000 X-2.9203 Y10.3128 Z-9.0000 S1000
G1 F1000 X-3.0000 Y10.9999 Z-9.0000 S1000
G1 F1000 X-3.0000 Y40.0002 Z-9.0000 S1000
G1 F1000 X-2.9491 Y40.5502 Z-9.0000 S1000
G1 F1000 X-2.7448 Y41.2110 Z-9.0000 S1000
G1 F1000 X-2.3946 Y41.8074 Z-9.0000 S1000
G1 F1000 X-1.9170 Y42.3078 Z-9.0000 S1000
G1 F1000 X-1.3376 Y42.6855 Z-9.0000 S1000
G1 F1000 X-0.6871 Y42.9205 Z-9.0000 S1000
G1 F1000 X0.0000 Y43.0002 Z-9.0000 S1000
G1 F1000 X7.9998 Y43.0002 Z-9.0000 S1000
G1 F1000 X7.9998 Y51.0000 Z-9.0000 S1000
G1 F1000 X8.0507 Y51.5500 Z-9.0000 S1000
G1 F1000 X8.2550 Y52.2108 Z-9.0000 S1000
G1 F1000 X8.6052 Y52.8072 Z-9.0000 S1000
G1 F1000 X9.0828 Y53.3076 Z-9.0000 S1000
G1 F1000 X9.6622 Y53.6853 Z-9.0000 S1000
G1 F1000 X10.3127 Y53.9203 Z-9.0000 S1000
G1 F1000 X10.9998 Y54.0000 Z-9.0000 S1000
G1 F1000 X40.0001 Y54.0000 Z-9.0000 S1000
G1 F1000 X40.5501 Y53.9491 Z-9.0000 S1000
G1 F1000 X41.2109 Y53.7448 Z-9.0000 S1000
G1 F1000 X41.8073 Y53.3946 Z-9.0000 S1000
G1 F1000 X42.3077 Y52.9170 Z-9.0000 S1000
G1 F1000 X42.6854 Y52.3376 Z-9.0000 S1000
G1 F1000 X42.9204 Y51.6871 Z-9.0000 S1000
G1 F1000 X43.0001 Y51.0000 Z-9.0000 S1000
G1 F1000 X43.0001 Y43.0002 Z-9.0000 S1000
G1 F1000 X51.0000 Y43.0002 Z-9.0000 S1000
G1 F1000 X51.5500 Y42.9493 Z-9.0000 S1000
G1 F1000 X52.2108 Y42.7450 Z-9.0000 S1000
G1 F1000 X52.8072 Y42.3948 Z-9.0000 S1000
G1 F1000 X53.3076 Y41.9172 Z-9.0000 S1000
G1 F1000 X53.6853 Y41.3378 Z-9.0000 S1000
G1 F1000 X53.9203 Y40.6873 Z-9.0000 S1000
G1 F1000 X54.0000 Y40.0002 Z-9.0000 S1000
G1 F1000 X54.0000 Y10.9999 Z-9.0000 S1000
G1 F1000 X53.9491 Y10.4499 Z-9.0000 S1000
G1 F1000 X53.7448 Y9.7891 Z-9.0000 S1000
G1 F1000 X53.3946 Y9.1927 Z-9.0000 S1000
G1 F1000 X52.9170 Y8.6923 Z-9.0000 S1000
G1 F1000 X52.3376 Y8.3146 Z-9.0000 S1000
G1 F1000 X51.6871 Y8.0796 Z-9.0000 S1000
G1 F1000 X51.0000 Y7.9999 Z-9.0000 S1000
G1 F1000 X43.0001 Y7.9999 Z-9.0000 S1000
G1 F1000 X43.0001 Y0.0000 Z-9.0000 S1000
G1 F1000 X42.9492 Y-0.5500 Z-9.0000 S1000
G1 F1000 X42.7449 Y-1.2108 Z-9.0000 S1000
G1 F1000 X42.3947 Y-1.8072 Z-9.0000 S1000
G1 F1000 X41.9171 Y-2.3076 Z-9.0000 S1000
G1 F1000 X41.3377 Y-2.6853 Z-9.0000 S1000
G1 F1000 X40.6872 Y-2.9203 Z-9.0000 S1000
G1 F1000 X40.0001 Y-3.0000 Z-9.0000 S1000
G1 F100 Z-12.0000
G1 F1000 X10.9998 Y-3.0000 Z-12.0000 S1000
G1 F1000 X10.4498 Y-2.9491 Z-12.0000 S1000
G1 F1000 X9.7890 Y-2.7448 Z-12.0000 S1000
G1 F1000 X9.1926 Y-2.3946 Z-12.0000 S1000
G1 F1000 X8.6922 Y-1.9170 Z-12.0000 S1000
G1 F1000 X8.3145 Y-1.3376 Z-12.0000 S1000
G1 F1000 X8.0795 Y-0.6871 Z-12.0000 S1000
G1 F1000 X7.9998 Y0.0000 Z-12.0000 S1000
G1 F1000 X7.9998 Y7.9999 Z-12.0000 S1000
G1 F1000 X0.0000 Y7.9999 Z-12.0000 S1000
G1 F1000 X-0.5500 Y8.0508 Z-12.0000 S1000
G1 F1000 X-1.2108 Y8.2551 Z-12.0000 S1000
G1 F1000 X-1.8072 Y8.6053 Z-12.0000 S1000
G1 F1000 X-2.3076 Y9.0829 Z-12.0000 S1000
G1 F1000 X-2.6853 Y9.6623 Z-12.0000 S1000
G1 F1000 X-2.9203 Y10.3128 Z-12.0000 S1000
G1 F1000 X-3.0000 Y10.9999 Z-12.0000 S1000
G1 F1000 X-3.0000 Y40.0002 Z-12.0000 S1000
G1 F1000 X-2.9491 Y40.5502 Z-12.0000 S1000
G1 F1000 X-2.7448 Y41.2110 Z-12.0000 S1000
G1 F1000 X-2.3946 Y41.8074 Z-12.0000 S1000
G1 F1000 X-1.9170 Y42.3078 Z-12.0000 S1000
G1 F1000 X-1.3376 Y42.6855 Z-12.0000 S1000
G1 F1000 X-0.6871 Y42.9205 Z-12.0000 S1000
G1 F1000 X0.0000 Y43.0002 Z-12.0000 S1000
G1 F1000 X7.9998 Y43.0002 Z-12.0000 S1000
G1 F1000 X7.9998 Y51.0000 Z-12.0000 S1000
G1 F1000 X8.0507 Y51.5500 Z-12.0000 S1000
G1 F1000 X8.2550 Y52.2108 Z-12.0000 S1000
G1 F1000 X8.6052 Y52.8072 Z-12.0000 S1000
G1 F1000 X9.0828 Y53.3076 Z-12.0000 S1000
G1 F1000 X9.6622 Y53.6853 Z-12.0000 S1000
G1 F1000 X10.3127 Y53.9203 Z-12.0000 S1000
G1 F1000 X10.9998 Y54.0000 Z-12.0000 S1000
G1 F1000 X40.0001 Y54.0000 Z-12.0000 S1000
G1 F1000 X40.5501 Y53.9491 Z-12.0000 S1000
G1 F1000 X41.2109 Y53.7448 Z-12.0000 S1000
G1 F1000 X41.8073 Y53.3946 Z-12.0000 S1000
G1 F1000 X42.3077 Y52.9170 Z-12.0000 S1000
G1 F1000 X42.6854 Y52.3376 Z-12.0000 S1000
G1 F1000 X42.9204 Y51.6871 Z-12.0000 S1000
G1 F1000 X43.0001 Y51.0000 Z-12.0000 S1000
G1 F1000 X43.0001 Y43.0002 Z-12.0000 S1000
G1 F1000 X51.0000 Y43.0002 Z-12.0000 S1000
G1 F1000 X51.5500 Y42.9493 Z-12.0000 S1000
G1 F1000 X52.2108 Y42.7450 Z-12.0000 S1000
G1 F1000 X52.8072 Y42.3948 Z-12.0000 S1000
G1 F1000 X53.3076 Y41.9172 Z-12.0000 S1000
G1 F1000 X53.6853 Y41.3378 Z-12.0000 S1000
G1 F1000 X53.9203 Y40.6873 Z-12.0000 S1000
G1 F1000 X54.0000 Y40.0002 Z-12.0000 S1000
G1 F1000 X54.0000 Y10.9999 Z-12.0000 S1000
G1 F1000 X53.9491 Y10.4499 Z-12.0000 S1000
G1 F1000 X53.7448 Y9.7891 Z-12.0000 S1000
G1 F1000 X53.3946 Y9.1927 Z-12.0000 S1000
G1 F1000 X52.9170 Y8.6923 Z-12.0000 S1000
G1 F1000 X52.3376 Y8.3146 Z-12.0000 S1000
G1 F1000 X51.6871 Y8.0796 Z-12.0000 S1000
G1 F1000 X51.0000 Y7.9999 Z-12.0000 S1000
G1 F1000 X43.0001 Y7.9999 Z-12.0000 S1000
G1 F1000 X43.0001 Y0.0000 Z-12.0000 S1000
G1 F1000 X42.9492 Y-0.5500 Z-12.0000 S1000
G1 F1000 X42.7449 Y-1.2108 Z-12.0000 S1000
G1 F1000 X42.3947 Y-1.8072 Z-12.0000 S1000
G1 F1000 X41.9171 Y-2.3076 Z-12.0000 S1000
G1 F1000 X41.3377 Y-2.6853 Z-12.0000 S1000
G1 F1000 X40.6872 Y-2.9203 Z-12.0000 S1000
G1 F1000 X40.0001 Y-3.0000 Z-12.0000 S1000
G1 F100 Z-15.0000
G1 F1000 X10.9998 Y-3.0000 Z-15.0000 S1000
G1 F1000 X10.4498 Y-2.9491 Z-15.0000 S1000
G1 F1000 X9.7890 Y-2.7448 Z-15.0000 S1000
G1 F1000 X9.1926 Y-2.3946 Z-15.0000 S1000
G1 F1000 X8.6922 Y-1.9170 Z-15.0000 S1000
G1 F1000 X8.3145 Y-1.3376 Z-15.0000 S1000
G1 F1000 X8.0795 Y-0.6871 Z-15.0000 S1000
G1 F1000 X7.9998 Y0.0000 Z-15.0000 S1000
G1 F1000 X7.9998 Y7.9999 Z-15.0000 S1000
G1 F1000 X0.0000 Y7.9999 Z-15.0000 S1000
G1 F1000 X-0.5500 Y8.0508 Z-15.0000 S1000
G1 F1000 X-1.2108 Y8.2551 Z-15.0000 S1000
G1 F1000 X-1.8072 Y8.6053 Z-15.0000 S1000
G1 F1000 X-2.3076 Y9.0829 Z-15.0000 S1000
G1 F1000 X-2.6853 Y9.6623 Z-15.0000 S1000
G1 F1000 X-2.9203 Y10.3128 Z-15.0000 S1000
G1 F1000 X-3.0000 Y10.9999 Z-15.0000 S1000
G1 F1000 X-3.0000 Y40.0002 Z-15.0000 S1000
G1 F1000 X-2.9491 Y40.5502 Z-15.0000 S1000
G1 F1000 X-2.7448 Y41.2110 Z-15.0000 S1000
G1 F1000 X-2.3946 Y41.8074 Z-15.0000 S1000
G1 F1000 X-1.9170 Y42.3078 Z-15.0000 S1000
G1 F1000 X-1.3376 Y42.6855 Z-15.0000 S1000
G1 F1000 X-0.6871 Y42.9205 Z-15.0000 S1000
G1 F1000 X0.0000 Y43.0002 Z-15.0000 S1000
G1 F1000 X7.9998 Y43.0002 Z-15.0000 S1000
G1 F1000 X7.9998 Y51.0000 Z-15.0000 S1000
G1 F1000 X8.0507 Y51.5500 Z-15.0000 S1000
G1 F1000 X8.2550 Y52.2108 Z-15.0000 S1000
G1 F1000 X8.6052 Y52.8072 Z-15.0000 S1000
G1 F1000 X9.0828 Y53.3076 Z-15.0000 S1000
G1 F1000 X9.6622 Y53.6853 Z-15.0000 S1000
G1 F1000 X10.3127 Y53.9203 Z-15.0000 S1000
G1 F1000 X10.9998 Y54.0000 Z-15.0000 S1000
G1 F1000 X40.0001 Y54.0000 Z-15.0000 S1000
G1 F1000 X40.5501 Y53.9491 Z-15.0000 S1000
G1 F1000 X41.2109 Y53.7448 Z-15.0000 S1000
G1 F1000 X41.8073 Y53.3946 Z-15.0000 S1000
G1 F1000 X42.3077 Y52.9170 Z-15.0000 S1000
G1 F1000 X42.6854 Y52.3376 Z-15.0000 S1000
G1 F1000 X42.9204 Y51.6871 Z-15.0000 S1000
G1 F1000 X43.0001 Y51.0000 Z-15.0000 S1000
G1 F1000 X43.0001 Y43.0002 Z-15.0000 S1000
G1 F1000 X51.0000 Y43.0002 Z-15.0000 S1000
G1 F1000 X51.5500 Y42.9493 Z-15.0000 S1000
G1 F1000 X52.2108 Y42.7450 Z-15.0000 S1000
G1 F1000 X52.8072 Y42.3948 Z-15.0000 S1000
G1 F1000 X53.3076 Y41.9172 Z-15.0000 S1000
G1 F1000 X53.6853 Y41.3378 Z-15.0000 S1000
G1 F1000 X53.9203 Y40.6873 Z-15.0000 S1000
G1 F1000 X54.0000 Y40.0002 Z-15.0000 S1000
G1 F1000 X54.0000 Y10.9999 Z-15.0000 S1000
G1 F1000 X53.9491 Y10.4499 Z-15.0000 S1000
G1 F1000 X53.7448 Y9.7891 Z-15.0000 S1000
G1 F1000 X53.3946 Y9.1927 Z-15.0000 S1000
G1 F1000 X52.9170 Y8.6923 Z-15.0000 S1000
G1 F1000 X52.3376 Y8.3146 Z-15.0000 S1000
G1 F1000 X51.6871 Y8.0796 Z-15.0000 S1000
G1 F1000 X51.0000 Y7.9999 Z-15.0000 S1000
G1 F1000 X43.0001 Y7.9999 Z-15.0000 S1000
G1 F1000 X43.0001 Y0.0000 Z-15.0000 S1000
G1 F1000 X42.9492 Y-0.5500 Z-15.0000 S1000
G1 F1000 X42.7449 Y-1.2108 Z-15.0000 S1000
G1 F1000 X42.3947 Y-1.8072 Z-15.0000 S1000
G1 F1000 X41.9171 Y-2.3076 Z-15.0000 S1000
G1 F1000 X41.3377 Y-2.6853 Z-15.0000 S1000
G1 F1000 X40.6872 Y-2.9203 Z-15.0000 S1000
G1 F1000 X40.0001 Y-3.0000 Z-15.0000 S1000
G1 F100 Z-18.0000
G1 F1000 X31.0000 Y-3.0000 Z-18.0000 S1000
G1 F1000 X31.0000 Y-3.0000 Z-17.5000 S1000
G1 F1000 X20.0000 Y-3.0000 Z-17.5000 S1000
G1 F1000 X20.0000 Y-3.0000 Z-18.0000 S1000
G1 F1000 X10.9998 Y-3.0000 Z-18.0000 S1000
G1 F1000 X10.9998 Y-3.0000 Z-18.0000 S1000
G1 F1000 X10.4498 Y-2.9491 Z-18.0000 S1000
G1 F1000 X9.7890 Y-2.7448 Z-18.0000 S1000
G1 F1000 X9.1926 Y-2.3946 Z-18.0000 S1000
G1 F1000 X8.6922 Y-1.9170 Z-18.0000 S1000
G1 F1000 X8.3145 Y-1.3376 Z-18.0000 S1000
G1 F1000 X8.0795 Y-0.6871 Z-18.0000 S1000
G1 F1000 X7.9998 Y0.0000 Z-18.0000 S1000
G1 F1000 X7.9998 Y7.9999 Z-18.0000 S1000
G1 F1000 X0.0000 Y7.9999 Z-18.0000 S1000
G1 F1000 X-0.5500 Y8.0508 Z-18.0000 S1000
G1 F1000 X-1.2108 Y8.2551 Z-18.0000 S1000
G1 F1000 X-1.8072 Y8.6053 Z-18.0000 S1000
G1 F1000 X-2.3076 Y9.0829 Z-18.0000 S1000
G1 F1000 X-2.6853 Y9.6623 Z-18.0000 S1000
G1 F1000 X-2.9203 Y10.3128 Z-18.0000 S1000
G1 F1000 X-3.0000 Y10.9999 Z-18.0000 S1000
G1 F1000 X-3.0000 Y20.0001 Z-18.0000 S1000
G1 F1000 X-3.0000 Y20.0001 Z-17.5000 S1000
G1 F1000 X-3.0000 Y31.0001 Z-17.5000 S1000
G1 F1000 X-3.0000 Y31.0001 Z-18.0000 S1000
G1 F1000 X-3.0000 Y40.0002 Z-18.0000 S1000
G1 F1000 X-3.0000 Y40.0002 Z-18.0000 S1000
G1 F1000 X-2.9491 Y40.5502 Z-18.0000 S1000
G1 F1000 X-2.7448 Y41.2110 Z-18.0000 S1000
G1 F1000 X-2.3946 Y41.8074 Z-18.0000 S1000
G1 F1000 X-1.9170 Y42.3078 Z-18.0000 S1000
G1 F1000 X-1.3376 Y42.6855 Z-18.0000 S1000
G1 F1000 X-0.6871 Y42.9205 Z-18.0000 S1000
G1 F1000 X0.0000 Y43.0002 Z-18.0000 S1000
G1 F1000 X7.9998 Y43.0002 Z-18.0000 S1000
G1 F1000 X7.9998 Y51.0000 Z-18.0000 S1000
G1 F1000 X8.0507 Y51.5500 Z-18.0000 S1000
G1 F1000 X8.2550 Y52.2108 Z-18.0000 S1000
G1 F1000 X8.6052 Y52.8072 Z-18.0000 S1000
G1 F1000 X9.0828 Y53.3076 Z-18.0000 S1000
G1 F1000 X9.6622 Y53.6853 Z-18.0000 S1000
G1 F1000 X10.3127 Y53.9203 Z-18.0000 S1000
G1 F1000 X10.9998 Y54.0000 Z-18.0000 S1000
G1 F1000 X20.0000 Y54.0000 Z-18.0000 S1000
G1 F1000 X20.0000 Y54.0000 Z-17.5000 S1000
G1 F1000 X31.0000 Y54.0000 Z-17.5000 S1000
G1 F1000 X31.0000 Y54.0000 Z-18.0000 S1000
G1 F1000 X40.0001 Y54.0000 Z-18.0000 S1000
G1 F1000 X40.0001 Y54.0000 Z-18.0000 S1000
G1 F1000 X40.5501 Y53.9491 Z-18.0000 S1000
G1 F1000 X41.2109 Y53.7448 Z-18.0000 S1000
G1 F1000 X41.8073 Y53.3946 Z-18.0000 S1000
G1 F1000 X42.3077 Y52.9170 Z-18.0000 S1000
G1 F1000 X42.6854 Y52.3376 Z-18.0000 S1000
G1 F1000 X42.9204 Y51.6871 Z-18.0000 S1000
G1 F1000 X43.0001 Y51.0000 Z-18.0000 S1000
G1 F1000 X43.0001 Y43.0002 Z-18.0000 S1000
G1 F1000 X51.0000 Y43.0002 Z-18.0000 S1000
G1 F1000 X51.5500 Y42.9493 Z-18.0000 S1000
G1 F1000 X52.2108 Y42.7450 Z-18.0000 S1000
G1 F1000 X52.8072 Y42.3948 Z-18.0000 S1000
G1 F1000 X53.3076 Y41.9172 Z-18.0000 S1000
G1 F1000 X53.6853 Y41.3378 Z-18.0000 S1000
G1 F1000 X53.9203 Y40.6873 Z-18.0000 S1000
G1 F1000 X54.0000 Y40.0002 Z-18.0000 S1000
G1 F1000 X54.0000 Y31.0001 Z-18.0000 S1000
G1 F1000 X54.0000 Y31.0001 Z-17.5000 S1000
G1 F1000 X54.0000 Y20.0001 Z-17.5000 S1000
G1 F1000 X54.0000 Y20.0001 Z-18.0000 S1000
G1 F1000 X54.0000 Y10.9999 Z-18.0000 S1000
G1 F1000 X54.0000 Y10.9999 Z-18.0000 S1000
G1 F1000 X53.9491 Y10.4499 Z-18.0000 S1000
G1 F1000 X53.7448 Y9.7891 Z-18.0000 S1000
G1 F1000 X53.3946 Y9.1927 Z-18.0000 S1000
G1 F1000 X52.9170 Y8.6923 Z-18.0000 S1000
G1 F1000 X52.3376 Y8.3146 Z-18.0000 S1000
G1 F1000 X51.6871 Y8.0796 Z-18.0000 S1000
G1 F1000 X51.0000 Y7.9999 Z-18.0000 S1000
G1 F1000 X43.0001 Y7.9999 Z-18.0000 S1000
G1 F1000 X43.0001 Y0.0000 Z-18.0000 S1000
G1 F1000 X42.9492 Y-0.5500 Z-18.0000 S1000
G1 F1000 X42.7449 Y-1.2108 Z-18.0000 S1000
G1 F1000 X42.3947 Y-1.8072 Z-18.0000 S1000
G1 F1000 X41.9171 Y-2.3076 Z-18.0000 S1000
G1 F1000 X41.3377 Y-2.6853 Z-18.0000 S1000
G1 F1000 X40.6872 Y-2.9203 Z-18.0000 S1000
G1 F1000 X40.0001 Y-3.0000 Z-18.0000 S1000
G1 F100 Z-20.0000
G1 F1000 X31.0000 Y-3.0000 Z-20.0000 S1000
G1 F1000 X31.0000 Y-3.0000 Z-17.5000 S1000
G1 F1000 X20.0000 Y-3.0000 Z-17.5000 S1000
G1 F1000 X20.0000 Y-3.0000 Z-20.0000 S1000
G1 F1000 X10.9998 Y-3.0000 Z-20.0000 S1000
G1 F1000 X10.9998 Y-3.0000 Z-20.0000 S1000
G1 F1000 X10.4498 Y-2.9491 Z-20.0000 S1000
G1 F1000 X9.7890 Y-2.7448 Z-20.0000 S1000
G1 F1000 X9.1926 Y-2.3946 Z-20.0000 S1000
G1 F1000 X8.6922 Y-1.9170 Z-20.0000 S1000
G1 F1000 X8.3145 Y-1.3376 Z-20.0000 S1000
G1 F1000 X8.0795 Y-0.6871 Z-20.0000 S1000
G1 F1000 X7.9998 Y0.0000 Z-20.0000 S1000
G1 F1000 X7.9998 Y7.9999 Z-20.0000 S1000
G1 F1000 X0.0000 Y7.9999 Z-20.0000 S1000
G1 F1000 X-0.5500 Y8.0508 Z-20.0000 S1000
G1 F1000 X-1.2108 Y8.2551 Z-20.0000 S1000
G1 F1000 X-1.8072 Y8.6053 Z-20.0000 S1000
G1 F1000 X-2.3076 Y9.0829 Z-20.0000 S1000
G1 F1000 X-2.6853 Y9.6623 Z-20.0000 S1000
G1 F1000 X-2.9203 Y10.3128 Z-20.0000 S1000
G1 F1000 X-3.0000 Y10.9999 Z-20.0000 S1000
G1 F1000 X-3.0000 Y20.0001 Z-20.0000 S1000
G1 F1000 X-3.0000 Y20.0001 Z-17.5000 S1000
G1 F1000 X-3.0000 Y31.0001 Z-17.5000 S1000
G1 F1000 X-3.0000 Y31.0001 Z-20.0000 S1000
G1 F1000 X-3.0000 Y40.0002 Z-20.0000 S1000
G1 F1000 X-3.0000 Y40.0002 Z-20.0000 S1000
G1 F1000 X-2.9491 Y40.5502 Z-20.0000 S1000
G1 F1000 X-2.7448 Y41.2110 Z-20.0000 S1000
G1 F1000 X-2.3946 Y41.8074 Z-20.0000 S1000
G1 F1000 X-1.9170 Y42.3078 Z-20.0000 S1000
G1 F1000 X-1.3376 Y42.6855 Z-20.0000 S1000
G1 F1000 X-0.6871 Y42.9205 Z-20.0000 S1000
G1 F1000 X0.0000 Y43.0002 Z-20.0000 S1000
G1 F1000 X7.9998 Y43.0002 Z-20.0000 S1000
G1 F1000 X7.9998 Y51.0000 Z-20.0000 S1000
G1 F1000 X8.0507 Y51.5500 Z-20.0000 S1000
G1 F1000 X8.2550 Y52.2108 Z-20.0000 S1000
G1 F1000 X8.6052 Y52.8072 Z-20.0000 S1000
G1 F1000 X9.0828 Y53.3076 Z-20.0000 S1000
G1 F1000 X9.6622 Y53.6853 Z-20.0000 S1000
G1 F1000 X10.3127 Y53.9203 Z-20.0000 S1000
G1 F1000 X10.9998 Y54.0000 Z-20.0000 S1000
G1 F1000 X20.0000 Y54.0000 Z-20.0000 S1000
G1 F1000 X20.0000 Y54.0000 Z-17.5000 S1000
G1 F1000 X31.0000 Y54.0000 Z-17.5000 S1000
G1 F1000 X31.0000 Y54.0000 Z-20.0000 S1000
G1 F1000 X40.0001 Y54.0000 Z-20.0000 S1000
G1 F1000 X40.0001 Y54.0000 Z-20.0000 S1000
G1 F1000 X40.5501 Y53.9491 Z-20.0000 S1000
G1 F1000 X41.2109 Y53.7448 Z-20.0000 S1000
G1 F1000 X41.8073 Y53.3946 Z-20.0000 S1000
G1 F1000 X42.3077 Y52.9170 Z-20.0000 S1000
G1 F1000 X42.6854 Y52.3376 Z-20.0000 S1000
G1 F1000 X42.9204 Y51.6871 Z-20.0000 S1000
G1 F1000 X43.0001 Y51.0000 Z-20.0000 S1000
G1 F1000 X43.0001 Y43.0002 Z-20.0000 S1000
G1 F1000 X51.0000 Y43.0002 Z-20.0000 S1000
G1 F1000 X51.5500 Y42.9493 Z-20.0000 S1000
G1 F1000 X52.2108 Y42.7450 Z-20.0000 S1000
G1 F1000 X52.8072 Y42.3948 Z-20.0000 S1000
G1 F1000 X53.3076 Y41.9172 Z-20.0000 S1000
G1 F1000 X53.6853 Y41.3378 Z-20.0000 S1000
G1 F1000 X53.9203 Y40.6873 Z-20.0000 S1000
G1 F1000 X54.0000 Y40.0002 Z-20.0000 S1000
G1 F1000 X54.0000 Y31.0001 Z-20.0000 S1000
G1 F1000 X54.0000 Y31.0001 Z-17.5000 S1000
G1 F1000 X54.0000 Y20.0001 Z-17.5000 S1000
G1 F1000 X54.0000 Y20.0001 Z-20.0000 S1000
G1 F1000 X54.0000 Y10.9999 Z-20.0000 S1000
G1 F1000 X54.0000 Y10.9999 Z-20.0000 S1000
G1 F1000 X53.9491 Y10.4499 Z-20.0000 S1000
G1 F1000 X53.7448 Y9.7891 Z-20.0000 S1000
G1 F1000 X53.3946 Y9.1927 Z-20.0000 S1000
G1 F1000 X52.9170 Y8.6923 Z-20.0000 S1000
G1 F1000 X52.3376 Y8.3146 Z-20.0000 S1000
G1 F1000 X51.6871 Y8.0796 Z-20.0000 S1000
G1 F1000 X51.0000 Y7.9999 Z-20.0000 S1000
G1 F1000 X43.0001 Y7.9999 Z-20.0000 S1000
G1 F1000 X43.0001 Y0.0000 Z-20.0000 S1000
G1 F1000 X42.9492 Y-0.5500 Z-20.0000 S1000
G1 F1000 X42.7449 Y-1.2108 Z-20.0000 S1000
G1 F1000 X42.3947 Y-1.8072 Z-20.0000 S1000
G1 F1000 X41.9171 Y-2.3076 Z-20.0000 S1000
G1 F1000 X41.3377 Y-2.6853 Z-20.0000 S1000
G1 F1000 X40.6872 Y-2.9203 Z-20.0000 S1000
G1 F1000 X40.0001 Y-3.0000 Z-20.0000 S1000
; retracting back to z-safe
G0 Z10

M5 S0; Spindle Off
