<?xml version="1.0" encoding="UTF-8" standalone="no"?>
<!-- Created with Inkscape (http://www.inkscape.org/) -->

<svg
   xmlns:dc="http://purl.org/dc/elements/1.1/"
   xmlns:cc="http://creativecommons.org/ns#"
   xmlns:rdf="http://www.w3.org/1999/02/22-rdf-syntax-ns#"
   xmlns:svg="http://www.w3.org/2000/svg"
   xmlns="http://www.w3.org/2000/svg"
   xmlns:sodipodi="http://sodipodi.sourceforge.net/DTD/sodipodi-0.dtd"
   xmlns:inkscape="http://www.inkscape.org/namespaces/inkscape"
   width="75mm"
   height="75mm"
   viewBox="0 0 74.999999 75"
   version="1.1"
   id="svg965"
   inkscape:version="0.92.5 (2060ec1f9f, 2020-04-08)"
   sodipodi:docname="sensor_box_front_2.svg">
  <defs
     id="defs959" />
  <sodipodi:namedview
     id="base"
     pagecolor="#ffffff"
     bordercolor="#666666"
     borderopacity="1.0"
     inkscape:pageopacity="0.0"
     inkscape:pageshadow="2"
     inkscape:zoom="1.4"
     inkscape:cx="366.25843"
     inkscape:cy="56.831978"
     inkscape:document-units="mm"
     inkscape:current-layer="layer1"
     showgrid="false"
     inkscape:window-width="1920"
     inkscape:window-height="1029"
     inkscape:window-x="0"
     inkscape:window-y="0"
     inkscape:window-maximized="1"
     fit-margin-top="0"
     fit-margin-left="0"
     fit-margin-right="0"
     fit-margin-bottom="0"
     inkscape:showpageshadow="false" />
  <metadata
     id="metadata962">
    <rdf:RDF>
      <cc:Work
         rdf:about="">
        <dc:format>image/svg+xml</dc:format>
        <dc:type
           rdf:resource="http://purl.org/dc/dcmitype/StillImage" />
        <dc:title />
      </cc:Work>
    </rdf:RDF>
  </metadata>
  <g
     inkscape:label="Calque 1"
     inkscape:groupmode="layer"
     id="layer1"
     transform="translate(-289.82748,-194.48808)">
    <rect
       y="194.48808"
       x="-137.88097"
       height="75"
       width="75"
       id="rect1626"
       style="opacity:1;vector-effect:none;fill:#000000;fill-opacity:1;stroke:none;stroke-width:3.78381991;stroke-linecap:square;stroke-linejoin:bevel;stroke-miterlimit:4;stroke-dasharray:3.78382004, 15.13528014;stroke-dashoffset:0;stroke-opacity:1;paint-order:stroke fill markers" />
    <circle
       r="7.5"
       style="opacity:1;vector-effect:none;fill:#800080;fill-opacity:1;stroke:none;stroke-width:14.99999905;stroke-linecap:square;stroke-linejoin:bevel;stroke-miterlimit:4;stroke-dasharray:14.9999992, 59.9999968;stroke-dashoffset:0;stroke-opacity:1;paint-order:stroke fill markers"
       id="circle984"
       cx="-100.38097"
       cy="231.98808" />
    <rect
       style="opacity:1;vector-effect:none;fill:#000000;fill-opacity:1;stroke:none;stroke-width:3.78381991;stroke-linecap:square;stroke-linejoin:bevel;stroke-miterlimit:4;stroke-dasharray:3.78382004, 15.13528014;stroke-dashoffset:0;stroke-opacity:1;paint-order:stroke fill markers"
       id="rect3186"
       width="75"
       height="75"
       x="289.82748"
       y="194.48808" />
    <circle
       cy="205.98807"
       cx="301.32782"
       id="circle3271"
       style="opacity:1;vector-effect:none;fill:#ff00ff;fill-opacity:1;stroke:none;stroke-width:6.99999952;stroke-linecap:square;stroke-linejoin:bevel;stroke-miterlimit:4;stroke-dasharray:6.99999999, 27.99999996;stroke-dashoffset:0;stroke-opacity:1;paint-order:stroke fill markers"
       r="3.5" />
    <circle
       r="3.5"
       style="opacity:1;vector-effect:none;fill:#ff00ff;fill-opacity:1;stroke:none;stroke-width:6.99999952;stroke-linecap:square;stroke-linejoin:bevel;stroke-miterlimit:4;stroke-dasharray:6.99999999, 27.99999996;stroke-dashoffset:0;stroke-opacity:1;paint-order:stroke fill markers"
       id="circle3273"
       cx="353.32764"
       cy="205.98807" />
    <circle
       r="3.5"
       style="opacity:1;vector-effect:none;fill:#ff00ff;fill-opacity:1;stroke:none;stroke-width:6.99999952;stroke-linecap:square;stroke-linejoin:bevel;stroke-miterlimit:4;stroke-dasharray:6.99999999, 27.99999996;stroke-dashoffset:0;stroke-opacity:1;paint-order:stroke fill markers"
       id="circle3275"
       cx="301.32782"
       cy="257.9881" />
    <circle
       cy="257.9881"
       cx="353.32764"
       id="circle3277"
       style="opacity:1;vector-effect:none;fill:#ff00ff;fill-opacity:1;stroke:none;stroke-width:6.99999952;stroke-linecap:square;stroke-linejoin:bevel;stroke-miterlimit:4;stroke-dasharray:6.99999999, 27.99999996;stroke-dashoffset:0;stroke-opacity:1;paint-order:stroke fill markers"
       r="3.5" />
    <circle
       r="3.5"
       style="opacity:1;vector-effect:none;fill:#ff00ff;fill-opacity:1;stroke:none;stroke-width:6.99999952;stroke-linecap:square;stroke-linejoin:bevel;stroke-miterlimit:4;stroke-dasharray:6.99999999, 27.99999996;stroke-dashoffset:0;stroke-opacity:1;paint-order:stroke fill markers"
       id="circle1630"
       cx="-126.38061"
       cy="205.98807" />
    <circle
       cy="205.98807"
       cx="-74.380669"
       id="circle1632"
       style="opacity:1;vector-effect:none;fill:#ff00ff;fill-opacity:1;stroke:none;stroke-width:6.99999952;stroke-linecap:square;stroke-linejoin:bevel;stroke-miterlimit:4;stroke-dasharray:6.99999999, 27.99999996;stroke-dashoffset:0;stroke-opacity:1;paint-order:stroke fill markers"
       r="3.5" />
    <circle
       cy="257.9881"
       cx="-126.38061"
       id="circle1634"
       style="opacity:1;vector-effect:none;fill:#ff00ff;fill-opacity:1;stroke:none;stroke-width:6.99999952;stroke-linecap:square;stroke-linejoin:bevel;stroke-miterlimit:4;stroke-dasharray:6.99999999, 27.99999996;stroke-dashoffset:0;stroke-opacity:1;paint-order:stroke fill markers"
       r="3.5" />
    <circle
       r="3.5"
       style="opacity:1;vector-effect:none;fill:#ff00ff;fill-opacity:1;stroke:none;stroke-width:6.99999952;stroke-linecap:square;stroke-linejoin:bevel;stroke-miterlimit:4;stroke-dasharray:6.99999999, 27.99999996;stroke-dashoffset:0;stroke-opacity:1;paint-order:stroke fill markers"
       id="circle1636"
       cx="-74.380669"
       cy="257.9881" />
    <rect
       y="194.48808"
       x="-52.29763"
       height="75"
       width="75"
       id="rect1638"
       style="opacity:1;vector-effect:none;fill:#000000;fill-opacity:1;stroke:none;stroke-width:3.78381991;stroke-linecap:square;stroke-linejoin:bevel;stroke-miterlimit:4;stroke-dasharray:3.78382004, 15.13528014;stroke-dashoffset:0;stroke-opacity:1;paint-order:stroke fill markers" />
    <circle
       r="3.5"
       style="opacity:1;vector-effect:none;fill:#ff00ff;fill-opacity:1;stroke:none;stroke-width:6.99999952;stroke-linecap:square;stroke-linejoin:bevel;stroke-miterlimit:4;stroke-dasharray:6.99999999, 27.99999996;stroke-dashoffset:0;stroke-opacity:1;paint-order:stroke fill markers"
       id="circle1642"
       cx="-40.797276"
       cy="205.98807" />
    <circle
       cy="205.98807"
       cx="11.202678"
       id="circle1644"
       style="opacity:1;vector-effect:none;fill:#ff00ff;fill-opacity:1;stroke:none;stroke-width:6.99999952;stroke-linecap:square;stroke-linejoin:bevel;stroke-miterlimit:4;stroke-dasharray:6.99999999, 27.99999996;stroke-dashoffset:0;stroke-opacity:1;paint-order:stroke fill markers"
       r="3.5" />
    <circle
       cy="257.9881"
       cx="-40.797276"
       id="circle1646"
       style="opacity:1;vector-effect:none;fill:#ff00ff;fill-opacity:1;stroke:none;stroke-width:6.99999952;stroke-linecap:square;stroke-linejoin:bevel;stroke-miterlimit:4;stroke-dasharray:6.99999999, 27.99999996;stroke-dashoffset:0;stroke-opacity:1;paint-order:stroke fill markers"
       r="3.5" />
    <circle
       r="3.5"
       style="opacity:1;vector-effect:none;fill:#ff00ff;fill-opacity:1;stroke:none;stroke-width:6.99999952;stroke-linecap:square;stroke-linejoin:bevel;stroke-miterlimit:4;stroke-dasharray:6.99999999, 27.99999996;stroke-dashoffset:0;stroke-opacity:1;paint-order:stroke fill markers"
       id="circle1648"
       cx="11.202678"
       cy="257.9881" />
    <rect
       style="opacity:1;vector-effect:none;fill:#000000;fill-opacity:1;stroke:none;stroke-width:3.78381991;stroke-linecap:square;stroke-linejoin:bevel;stroke-miterlimit:4;stroke-dasharray:3.78382004, 15.13528014;stroke-dashoffset:0;stroke-opacity:1;paint-order:stroke fill markers"
       id="rect1650"
       width="75"
       height="75"
       x="33.285622"
       y="194.48808" />
    <circle
       cy="205.98807"
       cx="44.785965"
       id="circle1654"
       style="opacity:1;vector-effect:none;fill:#ff00ff;fill-opacity:1;stroke:none;stroke-width:6.99999952;stroke-linecap:square;stroke-linejoin:bevel;stroke-miterlimit:4;stroke-dasharray:6.99999999, 27.99999996;stroke-dashoffset:0;stroke-opacity:1;paint-order:stroke fill markers"
       r="3.5" />
    <circle
       r="3.5"
       style="opacity:1;vector-effect:none;fill:#ff00ff;fill-opacity:1;stroke:none;stroke-width:6.99999952;stroke-linecap:square;stroke-linejoin:bevel;stroke-miterlimit:4;stroke-dasharray:6.99999999, 27.99999996;stroke-dashoffset:0;stroke-opacity:1;paint-order:stroke fill markers"
       id="circle1656"
       cx="96.785919"
       cy="205.98807" />
    <circle
       r="3.5"
       style="opacity:1;vector-effect:none;fill:#ff00ff;fill-opacity:1;stroke:none;stroke-width:6.99999952;stroke-linecap:square;stroke-linejoin:bevel;stroke-miterlimit:4;stroke-dasharray:6.99999999, 27.99999996;stroke-dashoffset:0;stroke-opacity:1;paint-order:stroke fill markers"
       id="circle1658"
       cx="44.785965"
       cy="257.9881" />
    <circle
       cy="257.9881"
       cx="96.785919"
       id="circle1660"
       style="opacity:1;vector-effect:none;fill:#ff00ff;fill-opacity:1;stroke:none;stroke-width:6.99999952;stroke-linecap:square;stroke-linejoin:bevel;stroke-miterlimit:4;stroke-dasharray:6.99999999, 27.99999996;stroke-dashoffset:0;stroke-opacity:1;paint-order:stroke fill markers"
       r="3.5" />
    <rect
       y="194.48808"
       x="118.86896"
       height="75"
       width="75"
       id="rect1662"
       style="opacity:1;vector-effect:none;fill:#000000;fill-opacity:1;stroke:none;stroke-width:3.78381991;stroke-linecap:square;stroke-linejoin:bevel;stroke-miterlimit:4;stroke-dasharray:3.78382004, 15.13528014;stroke-dashoffset:0;stroke-opacity:1;paint-order:stroke fill markers" />
    <circle
       style="opacity:1;vector-effect:none;fill:#ffffff;fill-opacity:1;stroke:none;stroke-width:3.16999984;stroke-linecap:square;stroke-linejoin:bevel;stroke-miterlimit:4;stroke-dasharray:3.17000002, 12.68000005;stroke-dashoffset:0;stroke-opacity:1;paint-order:stroke fill markers"
       id="circle1666"
       cx="130.36931"
       cy="205.98807"
       r="1.585" />
    <rect
       style="opacity:1;vector-effect:none;fill:#000000;fill-opacity:1;stroke:none;stroke-width:3.78381991;stroke-linecap:square;stroke-linejoin:bevel;stroke-miterlimit:4;stroke-dasharray:3.78382004, 15.13528014;stroke-dashoffset:0;stroke-opacity:1;paint-order:stroke fill markers"
       id="rect1674"
       width="75"
       height="75"
       x="204.4523"
       y="194.48808" />
    <rect
       style="opacity:1;vector-effect:none;fill:#00ff00;fill-opacity:1;stroke:none;stroke-width:1.97424746;stroke-linecap:square;stroke-linejoin:bevel;stroke-miterlimit:4;stroke-dasharray:1.97424747, 7.89698987;stroke-dashoffset:0;stroke-opacity:1;paint-order:stroke fill markers"
       id="rect1724"
       width="46"
       height="46"
       x="304.32748"
       y="208.98808" />
    <path
       style="opacity:1;vector-effect:none;fill:#00ff00;fill-opacity:1;stroke:none;stroke-width:0.42918205;stroke-linecap:square;stroke-linejoin:bevel;stroke-miterlimit:4;stroke-dasharray:0.42918207, 1.71672832;stroke-dashoffset:0;stroke-opacity:1;paint-order:stroke fill markers"
       d="m 322.32755,201.98808 h 9.9999 v 5.5 c 0,1.98438 4.23333,2.254 4.23333,2.254 1.67028,3.7626 0.0612,5.6733 0.0612,5.6733 l -19.48575,0.70505 1.48713,-6.37835 c 0,0 3.72778,-0.48224 3.70416,-2.254 z"
       id="rect1726"
       inkscape:connector-curvature="0"
       sodipodi:nodetypes="ccccccccc" />
    <rect
       style="opacity:1;vector-effect:none;fill:#ffffff;fill-opacity:1;stroke:none;stroke-width:0.24278206;stroke-linecap:square;stroke-linejoin:bevel;stroke-miterlimit:4;stroke-dasharray:0.24278205, 0.97112819;stroke-dashoffset:0;stroke-opacity:1;paint-order:stroke fill markers"
       id="rect1730"
       width="9.9998999"
       height="3.2"
       x="322.32755"
       y="201.98808" />
    <path
       style="fill:#ffffff;stroke:none;stroke-width:0.01"
       inkscape:connector-curvature="0"
       id="path23342"
       d="m -103.42597,236.49308 -0.11,-0.09 c -1.47,-1.02 -2.35,-2.67 -2.35,-4.42 0,-1.76 0.88,-3.41 2.35,-4.42 l 0.11,-0.08 h 6.090004 l 0.12,0.08 c 1.47,1.01 2.34,2.66 2.34,4.42 0,1.75 -0.87,3.4 -2.34,4.42 l -0.12,0.09 z" />
    <circle
       cy="231.98808"
       cx="-14.79763"
       id="circle986"
       style="opacity:1;vector-effect:none;fill:#800080;fill-opacity:1;stroke:none;stroke-width:14.99999905;stroke-linecap:square;stroke-linejoin:bevel;stroke-miterlimit:4;stroke-dasharray:14.9999992, 59.9999968;stroke-dashoffset:0;stroke-opacity:1;paint-order:stroke fill markers"
       r="7.5" />
    <path
       d="m -17.842632,236.49308 -0.11,-0.09 c -1.47,-1.02 -2.35,-2.67 -2.35,-4.42 0,-1.76 0.88,-3.41 2.35,-4.42 l 0.11,-0.08 h 6.090004 l 0.12,0.08 c 1.47,1.01 2.3399997,2.66 2.3399997,4.42 0,1.75 -0.8699997,3.4 -2.3399997,4.42 l -0.12,0.09 z"
       id="path2858"
       inkscape:connector-curvature="0"
       style="fill:#ffffff;stroke:none;stroke-width:0.01" />
    <circle
       r="5.0999999"
       style="opacity:1;vector-effect:none;fill:#f9f9f9;fill-opacity:1;stroke:none;stroke-width:10.19999886;stroke-linecap:square;stroke-linejoin:bevel;stroke-miterlimit:4;stroke-dasharray:10.19999999, 40.79999994;stroke-dashoffset:0;stroke-opacity:1;paint-order:stroke fill markers"
       id="circle2860"
       cx="70.785622"
       cy="231.98808" />
    <rect
       style="opacity:1;vector-effect:none;fill:#ff00ff;fill-opacity:1;stroke:none;stroke-width:0.79099041;stroke-linecap:square;stroke-linejoin:bevel;stroke-miterlimit:4;stroke-dasharray:0.79099036, 3.16396145;stroke-dashoffset:0;stroke-opacity:1;paint-order:stroke fill markers"
       id="rect2872"
       width="28.5"
       height="11.918182"
       x="142.11896"
       y="226.02899" />
    <rect
       y="227.73808"
       x="146.61896"
       height="8.5"
       width="19.5"
       id="rect2862"
       style="opacity:1;vector-effect:none;fill:#f9f9f9;fill-opacity:1;stroke:none;stroke-width:0.55254865;stroke-linecap:square;stroke-linejoin:bevel;stroke-miterlimit:4;stroke-dasharray:0.55254866, 2.21019462;stroke-dashoffset:0;stroke-opacity:1;paint-order:stroke fill markers" />
    <circle
       r="1.585"
       cy="205.98807"
       cx="182.36934"
       id="circle2866"
       style="opacity:1;vector-effect:none;fill:#ffffff;fill-opacity:1;stroke:none;stroke-width:3.16999984;stroke-linecap:square;stroke-linejoin:bevel;stroke-miterlimit:4;stroke-dasharray:3.17000002, 12.68000005;stroke-dashoffset:0;stroke-opacity:1;paint-order:stroke fill markers" />
    <circle
       style="opacity:1;vector-effect:none;fill:#ffffff;fill-opacity:1;stroke:none;stroke-width:3.16999984;stroke-linecap:square;stroke-linejoin:bevel;stroke-miterlimit:4;stroke-dasharray:3.17000002, 12.68000005;stroke-dashoffset:0;stroke-opacity:1;paint-order:stroke fill markers"
       id="circle2868"
       cx="182.36934"
       cy="257.9881"
       r="1.585" />
    <circle
       r="1.585"
       cy="257.9881"
       cx="130.36931"
       id="circle2870"
       style="opacity:1;vector-effect:none;fill:#ffffff;fill-opacity:1;stroke:none;stroke-width:3.16999984;stroke-linecap:square;stroke-linejoin:bevel;stroke-miterlimit:4;stroke-dasharray:3.17000002, 12.68000005;stroke-dashoffset:0;stroke-opacity:1;paint-order:stroke fill markers" />
    <rect
       y="225.23808"
       x="219.88086"
       height="13.5"
       width="45.5"
       id="rect2878"
       style="opacity:1;vector-effect:none;fill:#ff00ff;fill-opacity:1;stroke:none;stroke-width:1.06369317;stroke-linecap:square;stroke-linejoin:bevel;stroke-miterlimit:4;stroke-dasharray:1.06369307, 4.2547723;stroke-dashoffset:0;stroke-opacity:1;paint-order:stroke fill markers" />
    <rect
       style="opacity:1;vector-effect:none;fill:#f9f9f9;fill-opacity:1;stroke:none;stroke-width:0.72755903;stroke-linecap:square;stroke-linejoin:bevel;stroke-miterlimit:4;stroke-dasharray:0.72755905, 2.91023617;stroke-dashoffset:0;stroke-opacity:1;paint-order:stroke fill markers"
       id="rect2876"
       width="30.25"
       height="9.5"
       x="227.50586"
       y="227.23808" />
    <circle
       r="1.585"
       cy="205.98807"
       cx="215.95229"
       id="circle2880"
       style="opacity:1;vector-effect:none;fill:#ffffff;fill-opacity:1;stroke:none;stroke-width:3.16999984;stroke-linecap:square;stroke-linejoin:bevel;stroke-miterlimit:4;stroke-dasharray:3.17000002, 12.68000005;stroke-dashoffset:0;stroke-opacity:1;paint-order:stroke fill markers" />
    <circle
       style="opacity:1;vector-effect:none;fill:#ffffff;fill-opacity:1;stroke:none;stroke-width:3.16999984;stroke-linecap:square;stroke-linejoin:bevel;stroke-miterlimit:4;stroke-dasharray:3.17000002, 12.68000005;stroke-dashoffset:0;stroke-opacity:1;paint-order:stroke fill markers"
       id="circle2882"
       cx="267.9523"
       cy="205.98807"
       r="1.585" />
    <circle
       r="1.585"
       cy="257.9881"
       cx="267.9523"
       id="circle2884"
       style="opacity:1;vector-effect:none;fill:#ffffff;fill-opacity:1;stroke:none;stroke-width:3.16999984;stroke-linecap:square;stroke-linejoin:bevel;stroke-miterlimit:4;stroke-dasharray:3.17000002, 12.68000005;stroke-dashoffset:0;stroke-opacity:1;paint-order:stroke fill markers" />
    <circle
       style="opacity:1;vector-effect:none;fill:#ffffff;fill-opacity:1;stroke:none;stroke-width:3.16999984;stroke-linecap:square;stroke-linejoin:bevel;stroke-miterlimit:4;stroke-dasharray:3.17000002, 12.68000005;stroke-dashoffset:0;stroke-opacity:1;paint-order:stroke fill markers"
       id="circle2886"
       cx="215.95229"
       cy="257.9881"
       r="1.585" />
    <text
       xml:space="preserve"
       style="font-style:normal;font-variant:normal;font-weight:normal;font-stretch:normal;font-size:10.58333302px;line-height:1.25;font-family:'Signika Negative';-inkscape-font-specification:'Signika Negative';letter-spacing:0px;word-spacing:0px;fill:#000000;fill-opacity:1;stroke:none;stroke-width:0.26458332"
       x="214.59042"
       y="313.18665"
       id="text2900"><tspan
         sodipodi:role="line"
         id="tspan2898"
         x="214.59042"
         y="313.18665"
         style="stroke-width:0.26458332">2mm</tspan></text>
    <rect
       style="opacity:1;vector-effect:none;fill:#800080;fill-opacity:1;stroke:none;stroke-width:0.55129719;stroke-linecap:square;stroke-linejoin:bevel;stroke-miterlimit:4;stroke-dasharray:0.55129711, 2.20518847;stroke-dashoffset:0;stroke-opacity:1;paint-order:stroke fill markers"
       id="rect2902"
       width="11"
       height="15"
       x="237.13086"
       y="236.73808" />
    <text
       id="text2906"
       y="323.76996"
       x="214.59042"
       style="font-style:normal;font-variant:normal;font-weight:normal;font-stretch:normal;font-size:10.58333302px;line-height:1.25;font-family:'Signika Negative';-inkscape-font-specification:'Signika Negative';letter-spacing:0px;word-spacing:0px;fill:#000000;fill-opacity:1;stroke:none;stroke-width:0.26458332"
       xml:space="preserve"><tspan
         style="stroke-width:0.26458332"
         y="323.76996"
         x="214.59042"
         id="tspan2904"
         sodipodi:role="line">5mm</tspan></text>
    <text
       id="text2910"
       y="306.23764"
       x="154.18752"
       style="font-style:normal;font-variant:normal;font-weight:normal;font-stretch:normal;font-size:10.58333302px;line-height:1.25;font-family:'Signika Negative';-inkscape-font-specification:'Signika Negative';letter-spacing:0px;word-spacing:0px;fill:#000000;fill-opacity:1;stroke:none;stroke-width:0.26458332"
       xml:space="preserve"><tspan
         style="stroke-width:0.26458332"
         y="306.23764"
         x="154.18752"
         sodipodi:role="line"
         id="tspan2912">4mm</tspan></text>
    <text
       id="text1831"
       y="313.18665"
       x="325.71533"
       style="font-style:normal;font-variant:normal;font-weight:normal;font-stretch:normal;font-size:10.58333302px;line-height:1.25;font-family:'Signika Negative';-inkscape-font-specification:'Signika Negative';letter-spacing:0px;word-spacing:0px;fill:#000000;fill-opacity:1;stroke:none;stroke-width:0.26458332"
       xml:space="preserve"><tspan
         style="stroke-width:0.26458332"
         y="313.18665"
         x="325.71533"
         id="tspan1829"
         sodipodi:role="line">0.6mm</tspan></text>
    <text
       xml:space="preserve"
       style="font-style:normal;font-variant:normal;font-weight:normal;font-stretch:normal;font-size:10.58333302px;line-height:1.25;font-family:'Signika Negative';-inkscape-font-specification:'Signika Negative';letter-spacing:0px;word-spacing:0px;fill:#000000;fill-opacity:1;stroke:none;stroke-width:0.26458332"
       x="-113.56439"
       y="291.09174"
       id="text990"><tspan
         id="tspan988"
         sodipodi:role="line"
         x="-113.56439"
         y="291.09174"
         style="stroke-width:0.26458332">5.25mm</tspan></text>
    <circle
       r="1.585"
       cy="210.12108"
       cx="305.42349"
       id="circle873"
       style="opacity:1;vector-effect:none;fill:#ffffff;fill-opacity:1;stroke:none;stroke-width:3.16999984;stroke-linecap:square;stroke-linejoin:bevel;stroke-miterlimit:4;stroke-dasharray:3.17000002, 12.68000005;stroke-dashoffset:0;stroke-opacity:1;paint-order:stroke fill markers" />
    <circle
       style="opacity:1;vector-effect:none;fill:#ffffff;fill-opacity:1;stroke:none;stroke-width:3.16999984;stroke-linecap:square;stroke-linejoin:bevel;stroke-miterlimit:4;stroke-dasharray:3.17000002, 12.68000005;stroke-dashoffset:0;stroke-opacity:1;paint-order:stroke fill markers"
       id="circle875"
       cx="305.42349"
       cy="253.84209"
       r="1.585" />
    <circle
       style="opacity:1;vector-effect:none;fill:#ffffff;fill-opacity:1;stroke:none;stroke-width:3.16999984;stroke-linecap:square;stroke-linejoin:bevel;stroke-miterlimit:4;stroke-dasharray:3.17000002, 12.68000005;stroke-dashoffset:0;stroke-opacity:1;paint-order:stroke fill markers"
       id="circle877"
       cx="349.24448"
       cy="210.12108"
       r="1.585" />
    <circle
       r="1.585"
       cy="253.84209"
       cx="349.24448"
       id="circle879"
       style="opacity:1;vector-effect:none;fill:#ffffff;fill-opacity:1;stroke:none;stroke-width:3.16999984;stroke-linecap:square;stroke-linejoin:bevel;stroke-miterlimit:4;stroke-dasharray:3.17000002, 12.68000005;stroke-dashoffset:0;stroke-opacity:1;paint-order:stroke fill markers" />
  </g>
</svg>
