<?xml version="1.0" standalone="no"?>
 <!DOCTYPE svg PUBLIC "-//W3C//DTD SVG 1.1//EN" 
 "http://www.w3.org/Graphics/SVG/1.1/DTD/svg11.dtd"> 
<svg xmlns="http://www.w3.org/2000/svg" version="1.1" 
    width="29.7002cm" height="21.0007cm" viewBox="0 0 116930 82680 ">
<title>SVG Picture created as MalinetteUSBShield-B.Cu.svg date 2016/07/12 12:54:40 </title>
  <desc>Picture generated by PCBNEW </desc>
<g style="fill:#000000; fill-opacity:1;stroke:#000000; stroke-opacity:1;
stroke-linecap:round; stroke-linejoin:round; "
 transform="translate(0 0) scale(1 1)">
</g>
<g style="fill:#000000; fill-opacity:0.0; 
stroke:#000000; stroke-width:-0.000393701; stroke-opacity:1; 
stroke-linecap:round; stroke-linejoin:round;">
</g>
<g style="fill:#000000; fill-opacity:0.0; 
stroke:#000000; stroke-width:59.0551; stroke-opacity:1; 
stroke-linecap:round; stroke-linejoin:round;">
<path d="M81496 55905
L81496 22440
" />
<path d="M43700 55905
L81496 55905
" />
<path d="M43700 22440
L43700 55905
" />
<path d="M81496 22440
L43700 22440
" />
</g>
<g style="fill:#000000; fill-opacity:0.0; 
stroke:#000000; stroke-width:787.402; stroke-opacity:1; 
stroke-linecap:round; stroke-linejoin:round;">
<path d="M65348 26010
L65348 25616
" />
<path d="M66309 26010
L66309 25616
" />
<path d="M67266 26010
L67266 25616
" />
<path d="M68227 26010
L68227 25616
" />
</g>
<g style="fill:#000000; fill-opacity:1.0; 
stroke:#000000; stroke-width:0; stroke-opacity:1; 
stroke-linecap:round; stroke-linejoin:round;">
<circle cx="64187.9" cy="24763.8" r="590.5" /> 
</g>
<g style="fill:#000000; fill-opacity:1.0; 
stroke:#000000; stroke-width:39.3701; stroke-opacity:1; 
stroke-linecap:round; stroke-linejoin:round;">
</g>
<g style="fill:#000000; fill-opacity:1.0; 
stroke:#000000; stroke-width:0; stroke-opacity:1; 
stroke-linecap:round; stroke-linejoin:round;">
<circle cx="69587.9" cy="24763.8" r="590.5" /> 
</g>
<g style="fill:#000000; fill-opacity:1.0; 
stroke:#000000; stroke-width:39.3701; stroke-opacity:1; 
stroke-linecap:round; stroke-linejoin:round;">
</g>
<g style="fill:#000000; fill-opacity:1.0; 
stroke:#000000; stroke-width:0; stroke-opacity:1; 
stroke-linecap:round; stroke-linejoin:round;">
<polyline style="fill-rule:evenodd;"
points="55707,34966
55707,35753
54526,35753
54526,34966
55707,34966
" /> 
</g>
<g style="fill:#000000; fill-opacity:1.0; 
stroke:#000000; stroke-width:787.402; stroke-opacity:1; 
stroke-linecap:round; stroke-linejoin:round;">
</g>
<g style="fill:#000000; fill-opacity:0.0; 
stroke:#000000; stroke-width:787.402; stroke-opacity:1; 
stroke-linecap:round; stroke-linejoin:round;">
<path d="M55314 34281
L54920 34281
" />
<path d="M55314 33281
L54920 33281
" />
</g>
<g style="fill:#000000; fill-opacity:0.0; 
stroke:#000000; stroke-width:708.661; stroke-opacity:1; 
stroke-linecap:round; stroke-linejoin:round;">
<path d="M63700 48474
L63700 49025
" />
<path d="M64700 48474
L64700 49025
" />
<path d="M65700 48474
L65700 49025
" />
<path d="M66700 48474
L66700 49025
" />
<path d="M67700 48474
L67700 49025
" />
<path d="M68700 48474
L68700 49025
" />
<path d="M54700 48474
L54700 49025
" />
<path d="M55700 48474
L55700 49025
" />
<path d="M56700 48474
L56700 49025
" />
<path d="M57700 48474
L57700 49025
" />
<path d="M58700 48474
L58700 49025
" />
<path d="M59700 48474
L59700 49025
" />
<path d="M60700 48474
L60700 49025
" />
<path d="M61700 48474
L61700 49025
" />
<path d="M61700 29474
L61700 30025
" />
<path d="M62700 29474
L62700 30025
" />
<path d="M63700 29474
L63700 30025
" />
<path d="M64700 29474
L64700 30025
" />
<path d="M65700 29474
L65700 30025
" />
<path d="M66700 29474
L66700 30025
" />
<path d="M67700 29474
L67700 30025
" />
<path d="M68700 29474
L68700 30025
" />
<path d="M51100 29494
L51100 30005
" />
<path d="M52100 29494
L52100 30005
" />
<path d="M53100 29494
L53100 30005
" />
<path d="M54100 29494
L54100 30005
" />
<path d="M55100 29494
L55100 30005
" />
<path d="M56100 29494
L56100 30005
" />
<path d="M57100 29494
L57100 30005
" />
<path d="M58100 29494
L58100 30005
" />
<path d="M59100 29494
L59100 30005
" />
<path d="M60100 29494
L60100 30005
" />
</g>
<g style="fill:#000000; fill-opacity:0.0; 
stroke:#000000; stroke-width:787.402; stroke-opacity:1; 
stroke-linecap:round; stroke-linejoin:round;">
<path d="M51421 52544
L51421 52938
" />
<path d="M50460 52544
L50460 52938
" />
<path d="M49503 52544
L49503 52938
" />
<path d="M48542 52544
L48542 52938
" />
</g>
<g style="fill:#000000; fill-opacity:1.0; 
stroke:#000000; stroke-width:0; stroke-opacity:1; 
stroke-linecap:round; stroke-linejoin:round;">
<circle cx="52582.2" cy="53791.3" r="590.5" /> 
</g>
<g style="fill:#000000; fill-opacity:1.0; 
stroke:#000000; stroke-width:39.3701; stroke-opacity:1; 
stroke-linecap:round; stroke-linejoin:round;">
</g>
<g style="fill:#000000; fill-opacity:1.0; 
stroke:#000000; stroke-width:0; stroke-opacity:1; 
stroke-linecap:round; stroke-linejoin:round;">
<circle cx="47182.2" cy="53791.3" r="590.5" /> 
</g>
<g style="fill:#000000; fill-opacity:1.0; 
stroke:#000000; stroke-width:39.3701; stroke-opacity:1; 
stroke-linecap:round; stroke-linejoin:round;">
</g>
<g style="fill:#000000; fill-opacity:1.0; 
stroke:#000000; stroke-width:787.402; stroke-opacity:1; 
stroke-linecap:round; stroke-linejoin:round;">
</g>
<g style="fill:#000000; fill-opacity:0.0; 
stroke:#000000; stroke-width:787.402; stroke-opacity:1; 
stroke-linecap:round; stroke-linejoin:round;">
<path d="M59925 52544
L59925 52938
" />
<path d="M58964 52544
L58964 52938
" />
<path d="M58007 52544
L58007 52938
" />
<path d="M57046 52544
L57046 52938
" />
</g>
<g style="fill:#000000; fill-opacity:1.0; 
stroke:#000000; stroke-width:0; stroke-opacity:1; 
stroke-linecap:round; stroke-linejoin:round;">
<circle cx="61086.2" cy="53791.3" r="590.5" /> 
</g>
<g style="fill:#000000; fill-opacity:1.0; 
stroke:#000000; stroke-width:39.3701; stroke-opacity:1; 
stroke-linecap:round; stroke-linejoin:round;">
</g>
<g style="fill:#000000; fill-opacity:1.0; 
stroke:#000000; stroke-width:0; stroke-opacity:1; 
stroke-linecap:round; stroke-linejoin:round;">
<circle cx="55686.2" cy="53791.3" r="590.5" /> 
</g>
<g style="fill:#000000; fill-opacity:1.0; 
stroke:#000000; stroke-width:39.3701; stroke-opacity:1; 
stroke-linecap:round; stroke-linejoin:round;">
</g>
<g style="fill:#000000; fill-opacity:1.0; 
stroke:#000000; stroke-width:787.402; stroke-opacity:1; 
stroke-linecap:round; stroke-linejoin:round;">
</g>
<g style="fill:#000000; fill-opacity:0.0; 
stroke:#000000; stroke-width:787.402; stroke-opacity:1; 
stroke-linecap:round; stroke-linejoin:round;">
<path d="M48358 25957
L48358 25563
" />
<path d="M49318 25957
L49318 25563
" />
<path d="M50276 25957
L50276 25563
" />
<path d="M51237 25957
L51237 25563
" />
</g>
<g style="fill:#000000; fill-opacity:1.0; 
stroke:#000000; stroke-width:0; stroke-opacity:1; 
stroke-linecap:round; stroke-linejoin:round;">
<circle cx="47197.6" cy="24710.6" r="590.5" /> 
</g>
<g style="fill:#000000; fill-opacity:1.0; 
stroke:#000000; stroke-width:39.3701; stroke-opacity:1; 
stroke-linecap:round; stroke-linejoin:round;">
</g>
<g style="fill:#000000; fill-opacity:1.0; 
stroke:#000000; stroke-width:0; stroke-opacity:1; 
stroke-linecap:round; stroke-linejoin:round;">
<circle cx="52597.6" cy="24710.6" r="590.5" /> 
</g>
<g style="fill:#000000; fill-opacity:1.0; 
stroke:#000000; stroke-width:39.3701; stroke-opacity:1; 
stroke-linecap:round; stroke-linejoin:round;">
</g>
<g style="fill:#000000; fill-opacity:1.0; 
stroke:#000000; stroke-width:787.402; stroke-opacity:1; 
stroke-linecap:round; stroke-linejoin:round;">
</g>
<g style="fill:#000000; fill-opacity:0.0; 
stroke:#000000; stroke-width:787.402; stroke-opacity:1; 
stroke-linecap:round; stroke-linejoin:round;">
<path d="M68429 52544
L68429 52938
" />
<path d="M67468 52544
L67468 52938
" />
<path d="M66511 52544
L66511 52938
" />
<path d="M65550 52544
L65550 52938
" />
</g>
<g style="fill:#000000; fill-opacity:1.0; 
stroke:#000000; stroke-width:0; stroke-opacity:1; 
stroke-linecap:round; stroke-linejoin:round;">
<circle cx="69590.1" cy="53791.3" r="590.5" /> 
</g>
<g style="fill:#000000; fill-opacity:1.0; 
stroke:#000000; stroke-width:39.3701; stroke-opacity:1; 
stroke-linecap:round; stroke-linejoin:round;">
</g>
<g style="fill:#000000; fill-opacity:1.0; 
stroke:#000000; stroke-width:0; stroke-opacity:1; 
stroke-linecap:round; stroke-linejoin:round;">
<circle cx="64190.1" cy="53791.3" r="590.5" /> 
</g>
<g style="fill:#000000; fill-opacity:1.0; 
stroke:#000000; stroke-width:39.3701; stroke-opacity:1; 
stroke-linecap:round; stroke-linejoin:round;">
</g>
<g style="fill:#000000; fill-opacity:1.0; 
stroke:#000000; stroke-width:787.402; stroke-opacity:1; 
stroke-linecap:round; stroke-linejoin:round;">
</g>
<g style="fill:#000000; fill-opacity:0.0; 
stroke:#000000; stroke-width:787.402; stroke-opacity:1; 
stroke-linecap:round; stroke-linejoin:round;">
<path d="M73852 26010
L73852 25616
" />
<path d="M74813 26010
L74813 25616
" />
<path d="M75770 26010
L75770 25616
" />
<path d="M76731 26010
L76731 25616
" />
</g>
<g style="fill:#000000; fill-opacity:1.0; 
stroke:#000000; stroke-width:0; stroke-opacity:1; 
stroke-linecap:round; stroke-linejoin:round;">
<circle cx="72691.8" cy="24763.8" r="590.5" /> 
</g>
<g style="fill:#000000; fill-opacity:1.0; 
stroke:#000000; stroke-width:39.3701; stroke-opacity:1; 
stroke-linecap:round; stroke-linejoin:round;">
</g>
<g style="fill:#000000; fill-opacity:1.0; 
stroke:#000000; stroke-width:0; stroke-opacity:1; 
stroke-linecap:round; stroke-linejoin:round;">
<circle cx="78091.8" cy="24763.8" r="590.5" /> 
</g>
<g style="fill:#000000; fill-opacity:1.0; 
stroke:#000000; stroke-width:39.3701; stroke-opacity:1; 
stroke-linecap:round; stroke-linejoin:round;">
</g>
<g style="fill:#000000; fill-opacity:1.0; 
stroke:#000000; stroke-width:787.402; stroke-opacity:1; 
stroke-linecap:round; stroke-linejoin:round;">
</g>
<g style="fill:#000000; fill-opacity:0.0; 
stroke:#000000; stroke-width:787.402; stroke-opacity:1; 
stroke-linecap:round; stroke-linejoin:round;">
<path d="M76933 52544
L76933 52938
" />
<path d="M75972 52544
L75972 52938
" />
<path d="M75015 52544
L75015 52938
" />
<path d="M74054 52544
L74054 52938
" />
</g>
<g style="fill:#000000; fill-opacity:1.0; 
stroke:#000000; stroke-width:0; stroke-opacity:1; 
stroke-linecap:round; stroke-linejoin:round;">
<circle cx="78094" cy="53791.3" r="590.5" /> 
</g>
<g style="fill:#000000; fill-opacity:1.0; 
stroke:#000000; stroke-width:39.3701; stroke-opacity:1; 
stroke-linecap:round; stroke-linejoin:round;">
</g>
<g style="fill:#000000; fill-opacity:1.0; 
stroke:#000000; stroke-width:0; stroke-opacity:1; 
stroke-linecap:round; stroke-linejoin:round;">
<circle cx="72694" cy="53791.3" r="590.5" /> 
</g>
<g style="fill:#000000; fill-opacity:1.0; 
stroke:#000000; stroke-width:39.3701; stroke-opacity:1; 
stroke-linecap:round; stroke-linejoin:round;">
</g>
<g style="fill:#000000; fill-opacity:1.0; 
stroke:#000000; stroke-width:0; stroke-opacity:1; 
stroke-linecap:round; stroke-linejoin:round;">
<polyline style="fill-rule:evenodd;"
points="63581,34966
63581,35753
62400,35753
62400,34966
63581,34966
" /> 
</g>
<g style="fill:#000000; fill-opacity:1.0; 
stroke:#000000; stroke-width:787.402; stroke-opacity:1; 
stroke-linecap:round; stroke-linejoin:round;">
</g>
<g style="fill:#000000; fill-opacity:0.0; 
stroke:#000000; stroke-width:787.402; stroke-opacity:1; 
stroke-linecap:round; stroke-linejoin:round;">
<path d="M63188 34281
L62794 34281
" />
<path d="M63188 33281
L62794 33281
" />
</g>
<g style="fill:#000000; fill-opacity:0.0; 
stroke:#000000; stroke-width:0; stroke-opacity:1; 
stroke-linecap:round; stroke-linejoin:round;">
</g>
<g style="fill:#000000; fill-opacity:1.0; 
stroke:#000000; stroke-width:0; stroke-opacity:1; 
stroke-linecap:round; stroke-linejoin:round;">
<polyline style="fill-rule:evenodd;"
points="65944,34966
65944,35753
64762,35753
64762,34966
65944,34966
" /> 
</g>
<g style="fill:#000000; fill-opacity:1.0; 
stroke:#000000; stroke-width:787.402; stroke-opacity:1; 
stroke-linecap:round; stroke-linejoin:round;">
</g>
<g style="fill:#000000; fill-opacity:0.0; 
stroke:#000000; stroke-width:787.402; stroke-opacity:1; 
stroke-linecap:round; stroke-linejoin:round;">
<path d="M65550 34281
L65156 34281
" />
<path d="M65550 33281
L65156 33281
" />
</g>
<g style="fill:#000000; fill-opacity:0.0; 
stroke:#000000; stroke-width:0; stroke-opacity:1; 
stroke-linecap:round; stroke-linejoin:round;">
</g>
<g style="fill:#000000; fill-opacity:1.0; 
stroke:#000000; stroke-width:0; stroke-opacity:1; 
stroke-linecap:round; stroke-linejoin:round;">
<polyline style="fill-rule:evenodd;"
points="58070,34966
58070,35753
56888,35753
56888,34966
58070,34966
" /> 
</g>
<g style="fill:#000000; fill-opacity:1.0; 
stroke:#000000; stroke-width:787.402; stroke-opacity:1; 
stroke-linecap:round; stroke-linejoin:round;">
</g>
<g style="fill:#000000; fill-opacity:0.0; 
stroke:#000000; stroke-width:787.402; stroke-opacity:1; 
stroke-linecap:round; stroke-linejoin:round;">
<path d="M57676 34281
L57282 34281
" />
<path d="M57676 33281
L57282 33281
" />
</g>
<g style="fill:#000000; fill-opacity:0.0; 
stroke:#000000; stroke-width:0; stroke-opacity:1; 
stroke-linecap:round; stroke-linejoin:round;">
</g>
<g style="fill:#000000; fill-opacity:1.0; 
stroke:#000000; stroke-width:0; stroke-opacity:1; 
stroke-linecap:round; stroke-linejoin:round;">
<polyline style="fill-rule:evenodd;"
points="68306,34966
68306,35753
67125,35753
67125,34966
68306,34966
" /> 
</g>
<g style="fill:#000000; fill-opacity:1.0; 
stroke:#000000; stroke-width:787.402; stroke-opacity:1; 
stroke-linecap:round; stroke-linejoin:round;">
</g>
<g style="fill:#000000; fill-opacity:0.0; 
stroke:#000000; stroke-width:787.402; stroke-opacity:1; 
stroke-linecap:round; stroke-linejoin:round;">
<path d="M67912 34281
L67518 34281
" />
<path d="M67912 33281
L67518 33281
" />
</g>
<g style="fill:#000000; fill-opacity:0.0; 
stroke:#000000; stroke-width:0; stroke-opacity:1; 
stroke-linecap:round; stroke-linejoin:round;">
</g>
<g style="fill:#000000; fill-opacity:1.0; 
stroke:#000000; stroke-width:0; stroke-opacity:1; 
stroke-linecap:round; stroke-linejoin:round;">
<polyline style="fill-rule:evenodd;"
points="60432,34966
60432,35753
59251,35753
59251,34966
60432,34966
" /> 
</g>
<g style="fill:#000000; fill-opacity:1.0; 
stroke:#000000; stroke-width:787.402; stroke-opacity:1; 
stroke-linecap:round; stroke-linejoin:round;">
</g>
<g style="fill:#000000; fill-opacity:0.0; 
stroke:#000000; stroke-width:787.402; stroke-opacity:1; 
stroke-linecap:round; stroke-linejoin:round;">
<path d="M60038 34281
L59644 34281
" />
<path d="M60038 33281
L59644 33281
" />
<path d="M56874 25981
L56874 25587
" />
<path d="M57834 25981
L57834 25587
" />
<path d="M58792 25981
L58792 25587
" />
<path d="M59752 25981
L59752 25587
" />
</g>
<g style="fill:#000000; fill-opacity:1.0; 
stroke:#000000; stroke-width:0; stroke-opacity:1; 
stroke-linecap:round; stroke-linejoin:round;">
<circle cx="55713.4" cy="24734.3" r="590.5" /> 
</g>
<g style="fill:#000000; fill-opacity:1.0; 
stroke:#000000; stroke-width:39.3701; stroke-opacity:1; 
stroke-linecap:round; stroke-linejoin:round;">
</g>
<g style="fill:#000000; fill-opacity:1.0; 
stroke:#000000; stroke-width:0; stroke-opacity:1; 
stroke-linecap:round; stroke-linejoin:round;">
<circle cx="61113.4" cy="24734.3" r="590.5" /> 
</g>
<g style="fill:#000000; fill-opacity:1.0; 
stroke:#000000; stroke-width:39.3701; stroke-opacity:1; 
stroke-linecap:round; stroke-linejoin:round;">
</g>
<g style="fill:#000000; fill-opacity:1.0; 
stroke:#000000; stroke-width:0; stroke-opacity:1; 
stroke-linecap:round; stroke-linejoin:round;">
<circle cx="58739.4" cy="45813" r="433.071" /> 
</g>
<g style="fill:#000000; fill-opacity:1.0; 
stroke:#000000; stroke-width:39.3701; stroke-opacity:1; 
stroke-linecap:round; stroke-linejoin:round;">
</g>
<g style="fill:#000000; fill-opacity:1.0; 
stroke:#000000; stroke-width:0; stroke-opacity:1; 
stroke-linecap:round; stroke-linejoin:round;">
<circle cx="59841.7" cy="37072.8" r="433.071" /> 
</g>
<g style="fill:#000000; fill-opacity:1.0; 
stroke:#000000; stroke-width:39.3701; stroke-opacity:1; 
stroke-linecap:round; stroke-linejoin:round;">
</g>
<g style="fill:#000000; fill-opacity:1.0; 
stroke:#000000; stroke-width:0; stroke-opacity:1; 
stroke-linecap:round; stroke-linejoin:round;">
<circle cx="58739.4" cy="49986.2" r="433.071" /> 
</g>
<g style="fill:#000000; fill-opacity:1.0; 
stroke:#000000; stroke-width:39.3701; stroke-opacity:1; 
stroke-linecap:round; stroke-linejoin:round;">
</g>
<g style="fill:#000000; fill-opacity:1.0; 
stroke:#000000; stroke-width:0; stroke-opacity:1; 
stroke-linecap:round; stroke-linejoin:round;">
<circle cx="57479.5" cy="36994.1" r="433.071" /> 
</g>
<g style="fill:#000000; fill-opacity:1.0; 
stroke:#000000; stroke-width:39.3701; stroke-opacity:1; 
stroke-linecap:round; stroke-linejoin:round;">
</g>
<g style="fill:#000000; fill-opacity:1.0; 
stroke:#000000; stroke-width:0; stroke-opacity:1; 
stroke-linecap:round; stroke-linejoin:round;">
<circle cx="67715.7" cy="47072.8" r="433.071" /> 
</g>
<g style="fill:#000000; fill-opacity:1.0; 
stroke:#000000; stroke-width:39.3701; stroke-opacity:1; 
stroke-linecap:round; stroke-linejoin:round;">
</g>
<g style="fill:#000000; fill-opacity:1.0; 
stroke:#000000; stroke-width:0; stroke-opacity:1; 
stroke-linecap:round; stroke-linejoin:round;">
<circle cx="68896.9" cy="47151.6" r="433.071" /> 
</g>
<g style="fill:#000000; fill-opacity:1.0; 
stroke:#000000; stroke-width:39.3701; stroke-opacity:1; 
stroke-linecap:round; stroke-linejoin:round;">
</g>
<g style="fill:#000000; fill-opacity:1.0; 
stroke:#000000; stroke-width:0; stroke-opacity:1; 
stroke-linecap:round; stroke-linejoin:round;">
<circle cx="66140.9" cy="36836.6" r="433.071" /> 
</g>
<g style="fill:#000000; fill-opacity:1.0; 
stroke:#000000; stroke-width:39.3701; stroke-opacity:1; 
stroke-linecap:round; stroke-linejoin:round;">
</g>
<g style="fill:#000000; fill-opacity:1.0; 
stroke:#000000; stroke-width:236.22; stroke-opacity:1; 
stroke-linecap:round; stroke-linejoin:round;">
</g>
<g style="fill:#000000; fill-opacity:0.0; 
stroke:#000000; stroke-width:236.22; stroke-opacity:1; 
stroke-linecap:round; stroke-linejoin:round;">
<path d="M58739 45812
L58739 48710
" />
<path d="M58739 48710
L58700 48750
" />
<path d="M59841 35281
L59841 37072
" />
<path d="M58700 48750
L58700 49946
" />
<path d="M58700 49946
L58739 49986
" />
<path d="M58700 47230
L58700 48750
" />
<path d="M48582 49434
L50786 47230
" />
<path d="M50786 47230
L58700 47230
" />
<path d="M48582 52741
L48582 49434
" />
<path d="M63700 48750
L63700 49750
" />
<path d="M62676 50773
L51337 50773
" />
<path d="M63700 49750
L62676 50773
" />
<path d="M51337 50773
L50382 51729
" />
<path d="M50382 51729
L50382 52741
" />
<path d="M59369 51403
L58886 51886
" />
<path d="M58886 51886
L58886 52741
" />
<path d="M63070 51403
L59369 51403
" />
<path d="M64700 49773
L63070 51403
" />
<path d="M64700 48750
L64700 49773
" />
<path d="M65700 49624
L67390 51314
" />
<path d="M67390 51314
L67390 52741
" />
<path d="M65700 48750
L65700 49624
" />
<path d="M75432 51324
L75894 51786
" />
<path d="M75894 51786
L75894 52741
" />
<path d="M68638 51324
L75432 51324
" />
<path d="M66700 48750
L66700 49386
" />
<path d="M66700 49386
L68638 51324
" />
<path d="M60100 29750
L60100 33023
" />
<path d="M60100 33023
L59841 33281
" />
<path d="M61810 30694
L62991 31875
" />
<path d="M62991 31875
L62991 33281
" />
<path d="M61810 29920
L61810 30694
" />
<path d="M61700 29750
L61700 29810
" />
<path d="M61700 29810
L61810 29920
" />
<path d="M64700 30986
L65353 31639
" />
<path d="M65353 31639
L65353 33281
" />
<path d="M64700 29750
L64700 30986
" />
<path d="M66700 30938
L67715 31954
" />
<path d="M67715 31954
L67715 33281
" />
<path d="M66700 29750
L66700 30938
" />
<path d="M57479 36994
L57479 35281
" />
<path d="M67700 48750
L67700 47088
" />
<path d="M67700 47088
L67715 47072
" />
<path d="M67715 48734
L67700 48750
" />
<path d="M68896 47151
L68896 48553
" />
<path d="M68896 48553
L68700 48750
" />
<path d="M65353 35281
L65353 36049
" />
<path d="M65353 36049
L66140 36836
" />
<path d="M55100 29750
L55100 33264
" />
<path d="M55100 33264
L55117 33281
" />
<path d="M56100 29750
L56100 30596
" />
<path d="M56100 30596
L57479 31975
" />
<path d="M57479 31975
L57479 33281
" />
<path d="M49397 25760
L49397 26136
" />
<path d="M49397 26136
L52046 28785
" />
<path d="M52046 28785
L56981 28785
" />
<path d="M56981 28785
L57100 28903
" />
<path d="M57100 28903
L57100 29750
" />
<path d="M52475 28253
L57450 28253
" />
<path d="M57450 28253
L58100 28903
" />
<path d="M58100 28903
L58100 29750
" />
<path d="M50197 25760
L50197 25975
" />
<path d="M50197 25975
L52475 28253
" />
<path d="M52991 27624
L57820 27624
" />
<path d="M57820 27624
L59100 28903
" />
<path d="M59100 28903
L59100 29750
" />
<path d="M51197 25830
L52991 27624
" />
<path d="M51197 25760
L51197 25830
" />
<path d="M51197 25760
L51197 25909
" />
<path d="M60164 28411
L62227 28411
" />
<path d="M62227 28411
L62700 28883
" />
<path d="M62700 28883
L62700 29750
" />
<path d="M57913 25784
L57913 26160
" />
<path d="M57913 26160
L60164 28411
" />
<path d="M60495 27781
L62597 27781
" />
<path d="M62597 27781
L63700 28883
" />
<path d="M63700 28883
L63700 29750
" />
<path d="M58713 25784
L58713 25999
" />
<path d="M58713 25999
L60495 27781
" />
<path d="M59713 26078
L60944 27309
" />
<path d="M60944 27309
L64125 27309
" />
<path d="M64125 27309
L65700 28883
" />
<path d="M65700 28883
L65700 29750
" />
<path d="M59713 25784
L59713 26078
" />
<path d="M61101 37230
L61101 34714
" />
<path d="M61101 34714
L60668 34281
" />
<path d="M60668 34281
L59841 34281
" />
<path d="M62440 38568
L61101 37230
" />
<path d="M68188 38568
L62440 38568
" />
<path d="M76691 30065
L68188 38568
" />
<path d="M76691 25813
L76691 30065
" />
<path d="M69762 28017
L69762 33061
" />
<path d="M69762 33061
L68542 34281
" />
<path d="M68542 34281
L67715 34281
" />
<path d="M68187 26442
L69762 28017
" />
<path d="M68187 25813
L68187 26442
" />
<path d="M75691 25813
L75691 24608
" />
<path d="M58424 37230
L58424 34399
" />
<path d="M75691 24608
L76481 23818
" />
<path d="M76481 23818
L78871 23818
" />
<path d="M78871 23818
L79036 23984
" />
<path d="M79036 23984
L79036 28507
" />
<path d="M79036 28507
L68503 39041
" />
<path d="M68503 39041
L60235 39041
" />
<path d="M60235 39041
L58424 37230
" />
<path d="M58424 34399
L58306 34281
" />
<path d="M58306 34281
L57479 34281
" />
<path d="M70532 33232
L68660 35104
" />
<path d="M68660 35104
L68660 36037
" />
<path d="M66841 36108
L66298 35564
" />
<path d="M66298 35564
L66298 34399
" />
<path d="M68660 36037
L68589 36108
" />
<path d="M68589 36108
L66841 36108
" />
<path d="M66298 34399
L66180 34281
" />
<path d="M66180 34281
L65353 34281
" />
<path d="M67187 25813
L67187 25598
" />
<path d="M67187 25598
L68967 23818
" />
<path d="M68967 23818
L70041 23818
" />
<path d="M70041 23818
L70532 24310
" />
<path d="M70532 24310
L70532 33232
" />
<path d="M74891 25813
L74891 24740
" />
<path d="M79067 23346
L79509 23788
" />
<path d="M74891 24740
L76285 23346
" />
<path d="M76285 23346
L79067 23346
" />
<path d="M79509 23788
L79509 28703
" />
<path d="M79509 28703
L68698 39513
" />
<path d="M56062 37151
L56062 34399
" />
<path d="M68698 39513
L58424 39513
" />
<path d="M58424 39513
L56062 37151
" />
<path d="M56062 34399
L55944 34281
" />
<path d="M55944 34281
L55117 34281
" />
<path d="M68479 23346
L70237 23346
" />
<path d="M64251 35970
L64251 34714
" />
<path d="M63818 34281
L62991 34281
" />
<path d="M64251 34714
L63818 34281
" />
<path d="M67899 37860
L65274 37860
" />
<path d="M65274 37860
L64251 35970
" />
<path d="M66387 25813
L66387 25437
" />
<path d="M66387 25437
L68479 23346
" />
<path d="M71005 34361
L67899 37860
" />
<path d="M70237 23346
L71005 24114
" />
<path d="M71005 24114
L71005 34361
" />
</g>
<g style="fill:#000000; fill-opacity:1.0; 
stroke:#000000; stroke-width:100; stroke-opacity:1; 
stroke-linecap:round; stroke-linejoin:round;">
<polyline style="fill-rule:evenodd;"
points="81216,55625
43980,55625
43980,53964
46305,53964
46438,54287
46684,54534
47007,54667
47355,54668
47678,54534
47925,54288
48058,53966
48059,53617
47925,53295
47679,53048
47357,52914
47008,52914
46686,53047
46439,53294
46305,53616
46305,53964
43980,53964
43980,52527
47862,52527
47862,52955
47914,53215
48062,53436
48282,53583
48542,53635
48803,53583
49023,53436
49243,53583
49503,53635
49763,53583
49982,53437
50200,53583
50460,53635
50721,53583
50941,53436
50972,53390
51001,53428
51221,53551
51271,53564
51371,53517
51371,52791
51471,52791
51471,53517
51571,53564
51621,53551
51765,53471
51705,53616
51705,53964
51838,54287
52084,54534
52407,54667
52755,54668
53078,54534
53325,54288
53458,53966
53458,53964
54809,53964
54942,54287
55188,54534
55511,54667
55859,54668
56182,54534
56428,54288
56562,53966
56563,53617
56429,53295
56183,53048
55861,52914
55512,52914
55190,53047
54943,53294
54809,53616
54809,53964
53458,53964
53459,53617
53325,53295
53079,53048
52757,52914
52408,52914
52086,53047
52033,53099
52065,52988
52065,52791
51471,52791
51371,52791
51363,52791
51363,52691
51371,52691
51371,51965
51471,51965
51471,52691
52065,52691
52065,52494
51997,52251
51841,52053
51621,51930
51571,51918
51471,51965
51371,51965
51271,51918
51221,51930
51001,52053
50972,52091
50941,52046
50786,51942
50786,51896
51505,51177
59023,51177
58600,51600
58512,51731
58481,51886
58481,52042
58267,51899
58007,51847
57747,51899
57527,52046
57306,51899
57046,51847
56786,51899
56566,52046
56418,52267
56366,52527
56366,52955
56418,53215
56566,53436
56786,53583
57046,53635
57306,53583
57527,53436
57747,53583
58007,53635
58267,53583
58486,53437
58704,53583
58964,53635
59225,53583
59445,53436
59475,53390
59505,53428
59725,53551
59775,53564
59875,53517
59875,52791
59975,52791
59975,53517
60075,53564
60125,53551
60269,53471
60209,53616
60209,53964
60342,54287
60588,54534
60911,54667
61259,54668
61582,54534
61828,54288
61962,53966
61962,53964
63313,53964
63446,54287
63692,54534
64014,54667
64363,54668
64686,54534
64932,54288
65066,53966
65066,53617
64933,53295
64687,53048
64365,52914
64016,52914
63694,53047
63447,53294
63313,53616
63313,53964
61962,53964
61963,53617
61829,53295
61583,53048
61261,52914
60912,52914
60590,53047
60537,53099
60569,52988
60569,52791
59975,52791
59875,52791
59867,52791
59867,52691
59875,52691
59875,51965
59975,51965
59975,52691
60569,52691
60569,52494
60501,52251
60345,52053
60125,51930
60075,51918
59975,51965
59875,51965
59775,51918
59725,51930
59505,52053
59475,52091
59445,52046
59357,51987
59536,51807
63070,51807
63224,51777
63355,51689
64985,50059
65073,49928
65104,49773
65104,49528
65152,49496
65200,49426
65247,49496
65295,49528
65295,49624
65326,49778
65414,49909
66985,51481
66985,52042
66771,51899
66511,51847
66251,51899
66031,52046
65810,51899
65550,51847
65290,51899
65069,52046
64922,52267
64870,52527
64870,52955
64922,53215
65069,53436
65290,53583
65550,53635
65810,53583
66031,53436
66251,53583
66511,53635
66771,53583
66990,53437
67208,53583
67468,53635
67729,53583
67949,53436
67979,53390
68009,53428
68229,53551
68279,53564
68379,53517
68379,52791
68479,52791
68479,53517
68579,53564
68629,53551
68773,53471
68713,53616
68713,53964
68846,54287
69092,54534
69414,54667
69763,54668
70086,54534
70332,54288
70466,53966
70466,53964
71817,53964
71950,54287
72196,54534
72518,54667
72867,54668
73190,54534
73436,54288
73570,53966
73570,53617
73437,53295
73191,53048
72869,52914
72520,52914
72198,53047
71951,53294
71817,53616
71817,53964
70466,53964
70466,53617
70333,53295
70087,53048
69765,52914
69416,52914
69094,53047
69041,53099
69073,52988
69073,52791
68479,52791
68379,52791
68371,52791
68371,52691
68379,52691
68379,51965
68479,51965
68479,52691
69073,52691
69073,52494
69005,52251
68849,52053
68629,51930
68579,51918
68479,51965
68379,51965
68279,51918
68229,51930
68009,52053
67979,52091
67949,52046
67794,51942
67794,51314
67794,51314
67763,51159
67763,51159
67676,51028
66147,49499
66152,49496
66200,49426
66247,49496
66336,49556
66414,49672
68352,51610
68352,51610
68483,51698
68509,51703
68638,51729
68638,51729
75264,51729
75489,51954
75489,52042
75275,51899
75015,51847
74755,51899
74534,52046
74314,51899
74054,51847
73794,51899
73573,52046
73426,52267
73374,52527
73374,52955
73426,53215
73573,53436
73794,53583
74054,53635
74314,53583
74534,53436
74755,53583
75015,53635
75275,53583
75494,53437
75712,53583
75972,53635
76232,53583
76453,53436
76483,53390
76513,53428
76733,53551
76783,53564
76883,53517
76883,52791
76983,52791
76983,53517
77083,53564
77133,53551
77277,53471
77217,53616
77217,53964
77350,54287
77596,54534
77918,54667
78267,54668
78590,54534
78836,54288
78970,53966
78970,53617
78837,53295
78591,53048
78269,52914
77920,52914
77598,53047
77545,53099
77577,52988
77577,52791
76983,52791
76883,52791
76875,52791
76875,52691
76883,52691
76883,51965
76983,51965
76983,52691
77577,52691
77577,52494
77508,52251
77353,52053
77133,51930
77083,51918
76983,51965
76883,51965
76783,51918
76733,51930
76513,52053
76483,52091
76453,52046
76298,51942
76298,51786
76298,51786
76267,51631
76188,51513
76179,51500
76179,51500
75718,51038
75587,50951
75432,50920
68806,50920
67537,49651
67700,49684
67945,49635
68152,49496
68200,49426
68247,49496
68454,49635
68700,49684
68945,49635
69152,49496
69291,49288
69340,49043
69340,48456
69301,48258
69301,47762
69303,47761
69506,47559
69616,47295
69616,47009
69506,46744
69304,46542
69040,46432
68754,46432
68489,46541
68337,46693
68325,46665
68123,46463
67859,46353
67573,46353
67308,46462
67106,46664
66996,46929
66996,47215
67105,47479
67295,47670
67295,47971
67247,48003
67200,48073
67152,48003
66945,47864
66700,47815
66454,47864
66247,48003
66200,48073
66152,48003
65945,47864
65700,47815
65454,47864
65247,48003
65200,48073
65152,48003
64945,47864
64700,47815
64454,47864
64247,48003
64200,48073
64152,48003
63945,47864
63700,47815
63454,47864
63247,48003
63108,48211
63059,48456
63059,49043
63108,49288
63247,49496
63295,49528
63295,49582
62508,50369
59359,50369
59458,50129
59458,49843
59349,49579
59198,49428
59226,49386
59308,49488
59514,49603
59556,49612
59650,49565
59650,48800
59750,48800
59750,49565
59843,49612
59885,49603
60091,49488
60200,49352
60308,49488
60514,49603
60556,49612
60650,49565
60650,48800
59750,48800
59650,48800
59642,48800
59642,48700
59650,48700
59650,47934
59750,47934
59750,48700
60650,48700
60650,47934
60750,47934
60750,48700
60757,48700
60757,48800
60750,48800
60750,49565
60843,49612
60885,49603
61091,49488
61173,49386
61247,49496
61454,49635
61700,49684
61945,49635
62152,49496
62291,49288
62340,49043
62340,48456
62291,48211
62152,48003
61945,47864
61700,47815
61454,47864
61247,48003
61173,48113
61091,48011
60885,47896
60843,47887
60750,47934
60650,47934
60556,47887
60514,47896
60308,48011
60200,48147
60091,48011
59885,47896
59843,47887
59750,47934
59650,47934
59556,47887
59514,47896
59308,48011
59226,48113
59152,48003
59143,47997
59143,46424
59146,46423
59348,46220
59458,45956
59458,45670
59349,45406
59147,45203
58883,45093
58596,45093
58332,45202
58129,45405
58020,45669
58019,45955
58129,46219
58331,46422
58335,46423
58335,46825
50786,46825
50786,46825
50657,46851
50631,46856
50500,46944
50500,46944
48296,49148
48208,49279
48177,49434
48177,51969
48062,52046
47914,52267
47862,52527
43980,52527
43980,35472
54276,35472
54276,35803
54314,35895
54385,35965
54477,36003
55004,36003
55067,35941
55067,35410
54339,35410
54276,35472
43980,35472
43980,25810
47714,25810
47714,26007
47782,26250
47938,26448
48158,26571
48208,26583
48308,26536
48308,25810
47714,25810
43980,25810
43980,24884
46320,24884
46453,25206
46700,25453
47022,25587
47371,25587
47693,25454
47745,25402
47714,25513
47714,25710
48308,25710
48308,24984
48408,24984
48408,25710
48416,25710
48416,25810
48408,25810
48408,26536
48508,26583
48558,26571
48778,26448
48807,26410
48838,26455
49058,26602
49318,26654
49339,26650
51686,28997
51647,29023
51600,29094
51552,29023
51345,28884
51100,28835
50854,28884
50647,29023
50508,29231
50459,29476
50459,30023
50508,30268
50647,30476
50854,30615
51100,30664
51345,30615
51552,30476
51600,30405
51647,30476
51854,30615
52100,30664
52345,30615
52552,30476
52600,30405
52647,30476
52854,30615
53100,30664
53345,30615
53552,30476
53626,30366
53708,30468
53914,30583
53956,30592
54050,30545
54050,29800
54042,29800
54042,29700
54050,29700
54050,29692
54150,29692
54150,29700
54157,29700
54157,29800
54150,29800
54150,30545
54243,30592
54285,30583
54491,30468
54573,30366
54647,30476
54695,30508
54695,32642
54643,32653
54422,32800
54275,33021
54223,33281
54275,33541
54422,33762
54451,33781
54422,33800
54275,34021
54223,34281
54275,34541
54410,34744
54385,34754
54314,34824
54276,34916
54276,35247
54339,35310
55067,35310
55067,35302
55167,35302
55167,35310
55175,35310
55175,35410
55167,35410
55167,35941
55229,36003
55657,36003
55657,37151
55688,37306
55776,37437
58138,39799
58138,39799
58269,39887
58424,39918
68698,39918
68853,39887
68984,39799
68984,39799
79794,28989
79794,28989
79882,28858
79891,28815
79913,28703
79913,28703
79913,23788
79882,23633
79794,23502
79352,23060
79221,22972
79067,22942
76285,22942
76130,22972
75999,23060
75999,23060
74605,24454
74518,24585
74487,24740
74487,25015
74332,25119
74302,25164
74272,25126
74052,25003
74002,24990
73902,25037
73902,25763
73910,25763
73910,25863
73902,25863
73902,26589
74002,26636
74052,26624
74272,26501
74302,26463
74332,26508
74552,26656
74813,26707
75073,26656
75291,26509
75510,26656
75770,26707
76030,26656
76250,26508
76287,26533
76287,29897
69348,36836
71307,34629
71341,34571
71378,34515
71381,34503
71387,34493
71396,34426
71409,34361
71409,25863
73208,25863
73208,26060
73276,26303
73432,26501
73652,26624
73702,26636
73802,26589
73802,25863
73208,25863
71409,25863
71409,24937
71814,24937
71948,25259
72194,25506
72516,25640
72865,25640
73187,25507
73240,25455
73208,25566
73208,25763
73802,25763
73802,25037
73702,24990
73652,25003
73508,25084
73568,24938
73568,24590
73435,24267
73189,24021
72866,23887
72518,23886
72195,24020
71948,24266
71815,24588
71814,24937
71409,24937
71409,24114
71378,23959
71291,23828
71291,23828
70522,23060
70391,22972
70237,22942
68479,22942
68324,22972
68193,23060
68193,23060
66329,24924
66309,24919
66048,24971
65828,25119
65798,25164
65768,25126
65548,25003
65498,24990
65398,25037
65398,25763
65406,25763
65406,25863
65398,25863
65398,26589
65498,26636
65548,26624
65768,26501
65798,26463
65828,26508
66048,26656
66309,26707
66569,26656
66787,26509
67006,26656
67266,26707
67526,26656
67746,26508
67804,26547
67814,26597
67901,26728
69358,28185
69358,32893
68426,33825
68410,33800
68381,33781
68410,33762
68557,33541
68609,33281
68557,33021
68410,32800
68189,32653
68120,32639
68120,31954
68089,31799
68001,31668
67104,30771
67104,30528
67152,30496
67200,30426
67247,30496
67454,30635
67700,30684
67945,30635
68152,30496
68200,30426
68247,30496
68454,30635
68700,30684
68945,30635
69152,30496
69291,30288
69340,30043
69340,29456
69291,29211
69152,29003
68945,28864
68700,28815
68454,28864
68247,29003
68200,29073
68152,29003
67945,28864
67700,28815
67454,28864
67247,29003
67200,29073
67152,29003
66945,28864
66700,28815
66454,28864
66247,29003
66200,29073
66152,29003
66104,28971
66104,28883
66073,28729
65985,28597
65985,28597
64411,27023
64279,26935
64125,26904
61111,26904
60394,26188
60432,25998
60432,25863
64704,25863
64704,26060
64772,26303
64928,26501
65148,26624
65198,26636
65298,26589
65298,25863
64704,25863
60432,25863
60432,25570
60380,25310
60233,25089
60013,24942
59841,24907
60236,24907
60369,25230
60616,25477
60938,25610
61287,25611
61609,25477
61856,25231
61978,24937
63310,24937
63444,25259
63690,25506
64012,25640
64361,25640
64683,25507
64736,25455
64704,25566
64704,25763
65298,25763
65298,25037
65198,24990
65148,25003
65004,25084
65064,24938
65064,24590
64931,24267
64685,24021
64363,23887
64014,23886
63691,24020
63445,24266
63311,24588
63310,24937
61978,24937
61990,24909
61990,24560
61857,24238
61610,23991
61288,23857
60939,23857
60617,23990
60370,24237
60236,24559
60236,24907
59841,24907
59752,24890
59492,24942
59272,25089
59052,24942
58792,24890
58531,24942
58313,25088
58094,24942
57834,24890
57574,24942
57353,25089
57323,25134
57293,25096
57074,24973
57023,24961
56924,25008
56924,25734
56931,25734
56931,25834
56924,25834
56924,26560
57023,26607
57074,26594
57293,26471
57323,26433
57353,26479
57574,26626
57834,26678
57855,26674
59878,28697
59878,28697
60009,28784
60035,28790
60164,28815
60164,28815
62060,28815
62247,29003
62247,29003
62200,29073
62152,29003
61945,28864
61700,28815
61454,28864
61247,29003
61108,29211
61059,29456
61059,30043
61108,30288
61247,30496
61405,30602
61405,30694
61436,30849
61524,30980
62587,32043
62587,32639
62517,32653
62296,32800
62149,33021
62097,33281
62149,33541
62296,33762
62325,33781
62296,33800
62149,34021
62097,34281
62149,34541
62284,34744
62259,34754
62188,34824
62150,34916
62150,35247
62213,35310
62941,35310
62941,35302
63041,35302
63041,35310
63769,35310
63831,35247
63831,34916
63796,34831
63846,34882
63846,35970
63850,35991
63849,36012
63866,36068
63877,36125
63889,36142
63895,36163
64919,38052
64956,38097
64988,38146
65006,38157
65012,38164
62607,38164
61505,37062
61505,35472
62150,35472
62150,35803
62188,35895
62259,35965
62351,36003
62878,36003
62941,35941
62941,35410
63041,35410
63041,35941
63103,36003
63631,36003
63723,35965
63793,35895
63831,35803
63831,35472
63769,35410
63041,35410
62941,35410
62213,35410
62150,35472
61505,35472
61505,34714
61505,34714
61475,34559
61387,34428
60954,33995
60823,33907
60668,33877
60587,33877
60536,33800
60507,33781
60536,33762
60683,33541
60735,33281
60683,33021
60536,32800
60504,32779
60504,30508
60552,30476
60691,30268
60740,30023
60740,29476
60691,29231
60552,29023
60345,28884
60100,28835
59854,28884
59647,29023
59600,29094
59552,29023
59504,28991
59504,28903
59473,28748
59385,28617
58106,27338
57975,27250
57820,27219
53158,27219
51916,25977
51916,25974
51916,25834
56230,25834
56230,26031
56298,26273
56454,26471
56673,26594
56724,26607
56824,26560
56824,25834
56230,25834
51916,25834
51916,25546
51865,25286
51717,25065
51497,24918
51325,24884
51720,24884
51853,25206
52100,25453
52422,25587
52771,25587
53093,25454
53340,25207
53465,24907
54836,24907
54969,25230
55216,25477
55538,25610
55887,25611
56209,25477
56261,25425
56230,25537
56230,25734
56824,25734
56824,25008
56724,24961
56673,24973
56529,25054
56590,24909
56590,24560
56457,24238
56210,23991
55888,23857
55539,23857
55217,23990
54970,24237
54836,24559
54836,24907
53465,24907
53474,24885
53474,24537
53341,24214
53094,23967
52772,23834
52424,23833
52101,23966
51854,24213
51721,24535
51720,24884
51325,24884
51237,24866
50976,24918
50756,25065
50536,24918
50276,24866
50016,24918
49797,25064
49579,24918
49318,24866
49058,24918
48838,25065
48807,25111
48778,25073
48558,24949
48508,24937
48408,24984
48308,24984
48208,24937
48158,24949
48013,25030
48074,24885
48074,24537
47941,24214
47694,23967
47372,23834
47024,23833
46701,23966
46454,24213
46321,24535
46320,24884
43980,24884
43980,22720
81216,22720
81216,55625
" /> 
</g>
<g style="fill:#FFFFFF; fill-opacity:1.0; 
stroke:#FFFFFF; stroke-width:100; stroke-opacity:1; 
stroke-linecap:round; stroke-linejoin:round;">
</g>
<g style="fill:#FFFFFF; fill-opacity:1.0; 
stroke:#FFFFFF; stroke-width:0; stroke-opacity:1; 
stroke-linecap:round; stroke-linejoin:round;">
<circle cx="58739.4" cy="45813" r="68.8976" /> 
</g>
<g style="fill:#FFFFFF; fill-opacity:1.0; 
stroke:#FFFFFF; stroke-width:39.3701; stroke-opacity:1; 
stroke-linecap:round; stroke-linejoin:round;">
</g>
<g style="fill:#FFFFFF; fill-opacity:1.0; 
stroke:#FFFFFF; stroke-width:0; stroke-opacity:1; 
stroke-linecap:round; stroke-linejoin:round;">
<circle cx="59841.7" cy="37072.8" r="68.8976" /> 
</g>
<g style="fill:#FFFFFF; fill-opacity:1.0; 
stroke:#FFFFFF; stroke-width:39.3701; stroke-opacity:1; 
stroke-linecap:round; stroke-linejoin:round;">
</g>
<g style="fill:#FFFFFF; fill-opacity:1.0; 
stroke:#FFFFFF; stroke-width:0; stroke-opacity:1; 
stroke-linecap:round; stroke-linejoin:round;">
<circle cx="58739.4" cy="49986.2" r="68.8976" /> 
</g>
<g style="fill:#FFFFFF; fill-opacity:1.0; 
stroke:#FFFFFF; stroke-width:39.3701; stroke-opacity:1; 
stroke-linecap:round; stroke-linejoin:round;">
</g>
<g style="fill:#FFFFFF; fill-opacity:1.0; 
stroke:#FFFFFF; stroke-width:0; stroke-opacity:1; 
stroke-linecap:round; stroke-linejoin:round;">
<circle cx="57479.5" cy="36994.1" r="68.8976" /> 
</g>
<g style="fill:#FFFFFF; fill-opacity:1.0; 
stroke:#FFFFFF; stroke-width:39.3701; stroke-opacity:1; 
stroke-linecap:round; stroke-linejoin:round;">
</g>
<g style="fill:#FFFFFF; fill-opacity:1.0; 
stroke:#FFFFFF; stroke-width:0; stroke-opacity:1; 
stroke-linecap:round; stroke-linejoin:round;">
<circle cx="67715.7" cy="47072.8" r="68.8976" /> 
</g>
<g style="fill:#FFFFFF; fill-opacity:1.0; 
stroke:#FFFFFF; stroke-width:39.3701; stroke-opacity:1; 
stroke-linecap:round; stroke-linejoin:round;">
</g>
<g style="fill:#FFFFFF; fill-opacity:1.0; 
stroke:#FFFFFF; stroke-width:0; stroke-opacity:1; 
stroke-linecap:round; stroke-linejoin:round;">
<circle cx="68896.9" cy="47151.6" r="68.8976" /> 
</g>
<g style="fill:#FFFFFF; fill-opacity:1.0; 
stroke:#FFFFFF; stroke-width:39.3701; stroke-opacity:1; 
stroke-linecap:round; stroke-linejoin:round;">
</g>
<g style="fill:#FFFFFF; fill-opacity:1.0; 
stroke:#FFFFFF; stroke-width:0; stroke-opacity:1; 
stroke-linecap:round; stroke-linejoin:round;">
<circle cx="66140.9" cy="36836.6" r="68.8976" /> 
</g>
<g style="fill:#FFFFFF; fill-opacity:1.0; 
stroke:#FFFFFF; stroke-width:39.3701; stroke-opacity:1; 
stroke-linecap:round; stroke-linejoin:round;">
</g>
<g style="fill:#FFFFFF; fill-opacity:1.0; 
stroke:#FFFFFF; stroke-width:0; stroke-opacity:1; 
stroke-linecap:round; stroke-linejoin:round;">
<circle cx="65387.9" cy="25813.8" r="68.8976" /> 
</g>
<g style="fill:#FFFFFF; fill-opacity:1.0; 
stroke:#FFFFFF; stroke-width:39.3701; stroke-opacity:1; 
stroke-linecap:round; stroke-linejoin:round;">
</g>
<g style="fill:#FFFFFF; fill-opacity:1.0; 
stroke:#FFFFFF; stroke-width:0; stroke-opacity:1; 
stroke-linecap:round; stroke-linejoin:round;">
<circle cx="66387.9" cy="25813.8" r="68.8976" /> 
</g>
<g style="fill:#FFFFFF; fill-opacity:1.0; 
stroke:#FFFFFF; stroke-width:39.3701; stroke-opacity:1; 
stroke-linecap:round; stroke-linejoin:round;">
</g>
<g style="fill:#FFFFFF; fill-opacity:1.0; 
stroke:#FFFFFF; stroke-width:0; stroke-opacity:1; 
stroke-linecap:round; stroke-linejoin:round;">
<circle cx="67187.9" cy="25813.8" r="68.8976" /> 
</g>
<g style="fill:#FFFFFF; fill-opacity:1.0; 
stroke:#FFFFFF; stroke-width:39.3701; stroke-opacity:1; 
stroke-linecap:round; stroke-linejoin:round;">
</g>
<g style="fill:#FFFFFF; fill-opacity:1.0; 
stroke:#FFFFFF; stroke-width:0; stroke-opacity:1; 
stroke-linecap:round; stroke-linejoin:round;">
<circle cx="68187.9" cy="25813.8" r="68.8976" /> 
</g>
<g style="fill:#FFFFFF; fill-opacity:1.0; 
stroke:#FFFFFF; stroke-width:39.3701; stroke-opacity:1; 
stroke-linecap:round; stroke-linejoin:round;">
</g>
<g style="fill:#FFFFFF; fill-opacity:1.0; 
stroke:#FFFFFF; stroke-width:0; stroke-opacity:1; 
stroke-linecap:round; stroke-linejoin:round;">
<circle cx="64187.9" cy="24763.8" r="68.8976" /> 
</g>
<g style="fill:#FFFFFF; fill-opacity:1.0; 
stroke:#FFFFFF; stroke-width:39.3701; stroke-opacity:1; 
stroke-linecap:round; stroke-linejoin:round;">
</g>
<g style="fill:#FFFFFF; fill-opacity:1.0; 
stroke:#FFFFFF; stroke-width:0; stroke-opacity:1; 
stroke-linecap:round; stroke-linejoin:round;">
<circle cx="69587.9" cy="24763.8" r="68.8976" /> 
</g>
<g style="fill:#FFFFFF; fill-opacity:1.0; 
stroke:#FFFFFF; stroke-width:39.3701; stroke-opacity:1; 
stroke-linecap:round; stroke-linejoin:round;">
</g>
<g style="fill:#FFFFFF; fill-opacity:1.0; 
stroke:#FFFFFF; stroke-width:0; stroke-opacity:1; 
stroke-linecap:round; stroke-linejoin:round;">
<circle cx="55117.3" cy="35281.5" r="68.8976" /> 
</g>
<g style="fill:#FFFFFF; fill-opacity:1.0; 
stroke:#FFFFFF; stroke-width:39.3701; stroke-opacity:1; 
stroke-linecap:round; stroke-linejoin:round;">
</g>
<g style="fill:#FFFFFF; fill-opacity:1.0; 
stroke:#FFFFFF; stroke-width:0; stroke-opacity:1; 
stroke-linecap:round; stroke-linejoin:round;">
<circle cx="55117.3" cy="34281.5" r="68.8976" /> 
</g>
<g style="fill:#FFFFFF; fill-opacity:1.0; 
stroke:#FFFFFF; stroke-width:39.3701; stroke-opacity:1; 
stroke-linecap:round; stroke-linejoin:round;">
</g>
<g style="fill:#FFFFFF; fill-opacity:1.0; 
stroke:#FFFFFF; stroke-width:0; stroke-opacity:1; 
stroke-linecap:round; stroke-linejoin:round;">
<circle cx="55117.3" cy="33281.5" r="68.8976" /> 
</g>
<g style="fill:#FFFFFF; fill-opacity:1.0; 
stroke:#FFFFFF; stroke-width:39.3701; stroke-opacity:1; 
stroke-linecap:round; stroke-linejoin:round;">
</g>
<g style="fill:#FFFFFF; fill-opacity:1.0; 
stroke:#FFFFFF; stroke-width:0; stroke-opacity:1; 
stroke-linecap:round; stroke-linejoin:round;">
<circle cx="63700" cy="48750" r="68.8976" /> 
</g>
<g style="fill:#FFFFFF; fill-opacity:1.0; 
stroke:#FFFFFF; stroke-width:39.3701; stroke-opacity:1; 
stroke-linecap:round; stroke-linejoin:round;">
</g>
<g style="fill:#FFFFFF; fill-opacity:1.0; 
stroke:#FFFFFF; stroke-width:0; stroke-opacity:1; 
stroke-linecap:round; stroke-linejoin:round;">
<circle cx="64700" cy="48750" r="68.8976" /> 
</g>
<g style="fill:#FFFFFF; fill-opacity:1.0; 
stroke:#FFFFFF; stroke-width:39.3701; stroke-opacity:1; 
stroke-linecap:round; stroke-linejoin:round;">
</g>
<g style="fill:#FFFFFF; fill-opacity:1.0; 
stroke:#FFFFFF; stroke-width:0; stroke-opacity:1; 
stroke-linecap:round; stroke-linejoin:round;">
<circle cx="65700" cy="48750" r="68.8976" /> 
</g>
<g style="fill:#FFFFFF; fill-opacity:1.0; 
stroke:#FFFFFF; stroke-width:39.3701; stroke-opacity:1; 
stroke-linecap:round; stroke-linejoin:round;">
</g>
<g style="fill:#FFFFFF; fill-opacity:1.0; 
stroke:#FFFFFF; stroke-width:0; stroke-opacity:1; 
stroke-linecap:round; stroke-linejoin:round;">
<circle cx="66700" cy="48750" r="68.8976" /> 
</g>
<g style="fill:#FFFFFF; fill-opacity:1.0; 
stroke:#FFFFFF; stroke-width:39.3701; stroke-opacity:1; 
stroke-linecap:round; stroke-linejoin:round;">
</g>
<g style="fill:#FFFFFF; fill-opacity:1.0; 
stroke:#FFFFFF; stroke-width:0; stroke-opacity:1; 
stroke-linecap:round; stroke-linejoin:round;">
<circle cx="67700" cy="48750" r="68.8976" /> 
</g>
<g style="fill:#FFFFFF; fill-opacity:1.0; 
stroke:#FFFFFF; stroke-width:39.3701; stroke-opacity:1; 
stroke-linecap:round; stroke-linejoin:round;">
</g>
<g style="fill:#FFFFFF; fill-opacity:1.0; 
stroke:#FFFFFF; stroke-width:0; stroke-opacity:1; 
stroke-linecap:round; stroke-linejoin:round;">
<circle cx="68700" cy="48750" r="68.8976" /> 
</g>
<g style="fill:#FFFFFF; fill-opacity:1.0; 
stroke:#FFFFFF; stroke-width:39.3701; stroke-opacity:1; 
stroke-linecap:round; stroke-linejoin:round;">
</g>
<g style="fill:#FFFFFF; fill-opacity:1.0; 
stroke:#FFFFFF; stroke-width:0; stroke-opacity:1; 
stroke-linecap:round; stroke-linejoin:round;">
<circle cx="54700" cy="48750" r="68.8976" /> 
</g>
<g style="fill:#FFFFFF; fill-opacity:1.0; 
stroke:#FFFFFF; stroke-width:39.3701; stroke-opacity:1; 
stroke-linecap:round; stroke-linejoin:round;">
</g>
<g style="fill:#FFFFFF; fill-opacity:1.0; 
stroke:#FFFFFF; stroke-width:0; stroke-opacity:1; 
stroke-linecap:round; stroke-linejoin:round;">
<circle cx="55700" cy="48750" r="68.8976" /> 
</g>
<g style="fill:#FFFFFF; fill-opacity:1.0; 
stroke:#FFFFFF; stroke-width:39.3701; stroke-opacity:1; 
stroke-linecap:round; stroke-linejoin:round;">
</g>
<g style="fill:#FFFFFF; fill-opacity:1.0; 
stroke:#FFFFFF; stroke-width:0; stroke-opacity:1; 
stroke-linecap:round; stroke-linejoin:round;">
<circle cx="56700" cy="48750" r="68.8976" /> 
</g>
<g style="fill:#FFFFFF; fill-opacity:1.0; 
stroke:#FFFFFF; stroke-width:39.3701; stroke-opacity:1; 
stroke-linecap:round; stroke-linejoin:round;">
</g>
<g style="fill:#FFFFFF; fill-opacity:1.0; 
stroke:#FFFFFF; stroke-width:0; stroke-opacity:1; 
stroke-linecap:round; stroke-linejoin:round;">
<circle cx="57700" cy="48750" r="68.8976" /> 
</g>
<g style="fill:#FFFFFF; fill-opacity:1.0; 
stroke:#FFFFFF; stroke-width:39.3701; stroke-opacity:1; 
stroke-linecap:round; stroke-linejoin:round;">
</g>
<g style="fill:#FFFFFF; fill-opacity:1.0; 
stroke:#FFFFFF; stroke-width:0; stroke-opacity:1; 
stroke-linecap:round; stroke-linejoin:round;">
<circle cx="58700" cy="48750" r="68.8976" /> 
</g>
<g style="fill:#FFFFFF; fill-opacity:1.0; 
stroke:#FFFFFF; stroke-width:39.3701; stroke-opacity:1; 
stroke-linecap:round; stroke-linejoin:round;">
</g>
<g style="fill:#FFFFFF; fill-opacity:1.0; 
stroke:#FFFFFF; stroke-width:0; stroke-opacity:1; 
stroke-linecap:round; stroke-linejoin:round;">
<circle cx="59700" cy="48750" r="68.8976" /> 
</g>
<g style="fill:#FFFFFF; fill-opacity:1.0; 
stroke:#FFFFFF; stroke-width:39.3701; stroke-opacity:1; 
stroke-linecap:round; stroke-linejoin:round;">
</g>
<g style="fill:#FFFFFF; fill-opacity:1.0; 
stroke:#FFFFFF; stroke-width:0; stroke-opacity:1; 
stroke-linecap:round; stroke-linejoin:round;">
<circle cx="60700" cy="48750" r="68.8976" /> 
</g>
<g style="fill:#FFFFFF; fill-opacity:1.0; 
stroke:#FFFFFF; stroke-width:39.3701; stroke-opacity:1; 
stroke-linecap:round; stroke-linejoin:round;">
</g>
<g style="fill:#FFFFFF; fill-opacity:1.0; 
stroke:#FFFFFF; stroke-width:0; stroke-opacity:1; 
stroke-linecap:round; stroke-linejoin:round;">
<circle cx="61700" cy="48750" r="68.8976" /> 
</g>
<g style="fill:#FFFFFF; fill-opacity:1.0; 
stroke:#FFFFFF; stroke-width:39.3701; stroke-opacity:1; 
stroke-linecap:round; stroke-linejoin:round;">
</g>
<g style="fill:#FFFFFF; fill-opacity:1.0; 
stroke:#FFFFFF; stroke-width:0; stroke-opacity:1; 
stroke-linecap:round; stroke-linejoin:round;">
<circle cx="61700" cy="29750" r="68.8976" /> 
</g>
<g style="fill:#FFFFFF; fill-opacity:1.0; 
stroke:#FFFFFF; stroke-width:39.3701; stroke-opacity:1; 
stroke-linecap:round; stroke-linejoin:round;">
</g>
<g style="fill:#FFFFFF; fill-opacity:1.0; 
stroke:#FFFFFF; stroke-width:0; stroke-opacity:1; 
stroke-linecap:round; stroke-linejoin:round;">
<circle cx="62700" cy="29750" r="68.8976" /> 
</g>
<g style="fill:#FFFFFF; fill-opacity:1.0; 
stroke:#FFFFFF; stroke-width:39.3701; stroke-opacity:1; 
stroke-linecap:round; stroke-linejoin:round;">
</g>
<g style="fill:#FFFFFF; fill-opacity:1.0; 
stroke:#FFFFFF; stroke-width:0; stroke-opacity:1; 
stroke-linecap:round; stroke-linejoin:round;">
<circle cx="63700" cy="29750" r="68.8976" /> 
</g>
<g style="fill:#FFFFFF; fill-opacity:1.0; 
stroke:#FFFFFF; stroke-width:39.3701; stroke-opacity:1; 
stroke-linecap:round; stroke-linejoin:round;">
</g>
<g style="fill:#FFFFFF; fill-opacity:1.0; 
stroke:#FFFFFF; stroke-width:0; stroke-opacity:1; 
stroke-linecap:round; stroke-linejoin:round;">
<circle cx="64700" cy="29750" r="68.8976" /> 
</g>
<g style="fill:#FFFFFF; fill-opacity:1.0; 
stroke:#FFFFFF; stroke-width:39.3701; stroke-opacity:1; 
stroke-linecap:round; stroke-linejoin:round;">
</g>
<g style="fill:#FFFFFF; fill-opacity:1.0; 
stroke:#FFFFFF; stroke-width:0; stroke-opacity:1; 
stroke-linecap:round; stroke-linejoin:round;">
<circle cx="65700" cy="29750" r="68.8976" /> 
</g>
<g style="fill:#FFFFFF; fill-opacity:1.0; 
stroke:#FFFFFF; stroke-width:39.3701; stroke-opacity:1; 
stroke-linecap:round; stroke-linejoin:round;">
</g>
<g style="fill:#FFFFFF; fill-opacity:1.0; 
stroke:#FFFFFF; stroke-width:0; stroke-opacity:1; 
stroke-linecap:round; stroke-linejoin:round;">
<circle cx="66700" cy="29750" r="68.8976" /> 
</g>
<g style="fill:#FFFFFF; fill-opacity:1.0; 
stroke:#FFFFFF; stroke-width:39.3701; stroke-opacity:1; 
stroke-linecap:round; stroke-linejoin:round;">
</g>
<g style="fill:#FFFFFF; fill-opacity:1.0; 
stroke:#FFFFFF; stroke-width:0; stroke-opacity:1; 
stroke-linecap:round; stroke-linejoin:round;">
<circle cx="67700" cy="29750" r="68.8976" /> 
</g>
<g style="fill:#FFFFFF; fill-opacity:1.0; 
stroke:#FFFFFF; stroke-width:39.3701; stroke-opacity:1; 
stroke-linecap:round; stroke-linejoin:round;">
</g>
<g style="fill:#FFFFFF; fill-opacity:1.0; 
stroke:#FFFFFF; stroke-width:0; stroke-opacity:1; 
stroke-linecap:round; stroke-linejoin:round;">
<circle cx="68700" cy="29750" r="68.8976" /> 
</g>
<g style="fill:#FFFFFF; fill-opacity:1.0; 
stroke:#FFFFFF; stroke-width:39.3701; stroke-opacity:1; 
stroke-linecap:round; stroke-linejoin:round;">
</g>
<g style="fill:#FFFFFF; fill-opacity:1.0; 
stroke:#FFFFFF; stroke-width:0; stroke-opacity:1; 
stroke-linecap:round; stroke-linejoin:round;">
<circle cx="51100" cy="29750" r="68.8976" /> 
</g>
<g style="fill:#FFFFFF; fill-opacity:1.0; 
stroke:#FFFFFF; stroke-width:39.3701; stroke-opacity:1; 
stroke-linecap:round; stroke-linejoin:round;">
</g>
<g style="fill:#FFFFFF; fill-opacity:1.0; 
stroke:#FFFFFF; stroke-width:0; stroke-opacity:1; 
stroke-linecap:round; stroke-linejoin:round;">
<circle cx="52100" cy="29750" r="68.8976" /> 
</g>
<g style="fill:#FFFFFF; fill-opacity:1.0; 
stroke:#FFFFFF; stroke-width:39.3701; stroke-opacity:1; 
stroke-linecap:round; stroke-linejoin:round;">
</g>
<g style="fill:#FFFFFF; fill-opacity:1.0; 
stroke:#FFFFFF; stroke-width:0; stroke-opacity:1; 
stroke-linecap:round; stroke-linejoin:round;">
<circle cx="53100" cy="29750" r="68.8976" /> 
</g>
<g style="fill:#FFFFFF; fill-opacity:1.0; 
stroke:#FFFFFF; stroke-width:39.3701; stroke-opacity:1; 
stroke-linecap:round; stroke-linejoin:round;">
</g>
<g style="fill:#FFFFFF; fill-opacity:1.0; 
stroke:#FFFFFF; stroke-width:0; stroke-opacity:1; 
stroke-linecap:round; stroke-linejoin:round;">
<circle cx="54100" cy="29750" r="68.8976" /> 
</g>
<g style="fill:#FFFFFF; fill-opacity:1.0; 
stroke:#FFFFFF; stroke-width:39.3701; stroke-opacity:1; 
stroke-linecap:round; stroke-linejoin:round;">
</g>
<g style="fill:#FFFFFF; fill-opacity:1.0; 
stroke:#FFFFFF; stroke-width:0; stroke-opacity:1; 
stroke-linecap:round; stroke-linejoin:round;">
<circle cx="55100" cy="29750" r="68.8976" /> 
</g>
<g style="fill:#FFFFFF; fill-opacity:1.0; 
stroke:#FFFFFF; stroke-width:39.3701; stroke-opacity:1; 
stroke-linecap:round; stroke-linejoin:round;">
</g>
<g style="fill:#FFFFFF; fill-opacity:1.0; 
stroke:#FFFFFF; stroke-width:0; stroke-opacity:1; 
stroke-linecap:round; stroke-linejoin:round;">
<circle cx="56100" cy="29750" r="68.8976" /> 
</g>
<g style="fill:#FFFFFF; fill-opacity:1.0; 
stroke:#FFFFFF; stroke-width:39.3701; stroke-opacity:1; 
stroke-linecap:round; stroke-linejoin:round;">
</g>
<g style="fill:#FFFFFF; fill-opacity:1.0; 
stroke:#FFFFFF; stroke-width:0; stroke-opacity:1; 
stroke-linecap:round; stroke-linejoin:round;">
<circle cx="57100" cy="29750" r="68.8976" /> 
</g>
<g style="fill:#FFFFFF; fill-opacity:1.0; 
stroke:#FFFFFF; stroke-width:39.3701; stroke-opacity:1; 
stroke-linecap:round; stroke-linejoin:round;">
</g>
<g style="fill:#FFFFFF; fill-opacity:1.0; 
stroke:#FFFFFF; stroke-width:0; stroke-opacity:1; 
stroke-linecap:round; stroke-linejoin:round;">
<circle cx="58100" cy="29750" r="68.8976" /> 
</g>
<g style="fill:#FFFFFF; fill-opacity:1.0; 
stroke:#FFFFFF; stroke-width:39.3701; stroke-opacity:1; 
stroke-linecap:round; stroke-linejoin:round;">
</g>
<g style="fill:#FFFFFF; fill-opacity:1.0; 
stroke:#FFFFFF; stroke-width:0; stroke-opacity:1; 
stroke-linecap:round; stroke-linejoin:round;">
<circle cx="59100" cy="29750" r="68.8976" /> 
</g>
<g style="fill:#FFFFFF; fill-opacity:1.0; 
stroke:#FFFFFF; stroke-width:39.3701; stroke-opacity:1; 
stroke-linecap:round; stroke-linejoin:round;">
</g>
<g style="fill:#FFFFFF; fill-opacity:1.0; 
stroke:#FFFFFF; stroke-width:0; stroke-opacity:1; 
stroke-linecap:round; stroke-linejoin:round;">
<circle cx="60100" cy="29750" r="68.8976" /> 
</g>
<g style="fill:#FFFFFF; fill-opacity:1.0; 
stroke:#FFFFFF; stroke-width:39.3701; stroke-opacity:1; 
stroke-linecap:round; stroke-linejoin:round;">
</g>
<g style="fill:#FFFFFF; fill-opacity:1.0; 
stroke:#FFFFFF; stroke-width:0; stroke-opacity:1; 
stroke-linecap:round; stroke-linejoin:round;">
<circle cx="51382.2" cy="52741.3" r="68.8976" /> 
</g>
<g style="fill:#FFFFFF; fill-opacity:1.0; 
stroke:#FFFFFF; stroke-width:39.3701; stroke-opacity:1; 
stroke-linecap:round; stroke-linejoin:round;">
</g>
<g style="fill:#FFFFFF; fill-opacity:1.0; 
stroke:#FFFFFF; stroke-width:0; stroke-opacity:1; 
stroke-linecap:round; stroke-linejoin:round;">
<circle cx="50382.2" cy="52741.3" r="68.8976" /> 
</g>
<g style="fill:#FFFFFF; fill-opacity:1.0; 
stroke:#FFFFFF; stroke-width:39.3701; stroke-opacity:1; 
stroke-linecap:round; stroke-linejoin:round;">
</g>
<g style="fill:#FFFFFF; fill-opacity:1.0; 
stroke:#FFFFFF; stroke-width:0; stroke-opacity:1; 
stroke-linecap:round; stroke-linejoin:round;">
<circle cx="49582.2" cy="52741.3" r="68.8976" /> 
</g>
<g style="fill:#FFFFFF; fill-opacity:1.0; 
stroke:#FFFFFF; stroke-width:39.3701; stroke-opacity:1; 
stroke-linecap:round; stroke-linejoin:round;">
</g>
<g style="fill:#FFFFFF; fill-opacity:1.0; 
stroke:#FFFFFF; stroke-width:0; stroke-opacity:1; 
stroke-linecap:round; stroke-linejoin:round;">
<circle cx="48582.2" cy="52741.3" r="68.8976" /> 
</g>
<g style="fill:#FFFFFF; fill-opacity:1.0; 
stroke:#FFFFFF; stroke-width:39.3701; stroke-opacity:1; 
stroke-linecap:round; stroke-linejoin:round;">
</g>
<g style="fill:#FFFFFF; fill-opacity:1.0; 
stroke:#FFFFFF; stroke-width:0; stroke-opacity:1; 
stroke-linecap:round; stroke-linejoin:round;">
<circle cx="52582.2" cy="53791.3" r="68.8976" /> 
</g>
<g style="fill:#FFFFFF; fill-opacity:1.0; 
stroke:#FFFFFF; stroke-width:39.3701; stroke-opacity:1; 
stroke-linecap:round; stroke-linejoin:round;">
</g>
<g style="fill:#FFFFFF; fill-opacity:1.0; 
stroke:#FFFFFF; stroke-width:0; stroke-opacity:1; 
stroke-linecap:round; stroke-linejoin:round;">
<circle cx="47182.2" cy="53791.3" r="68.8976" /> 
</g>
<g style="fill:#FFFFFF; fill-opacity:1.0; 
stroke:#FFFFFF; stroke-width:39.3701; stroke-opacity:1; 
stroke-linecap:round; stroke-linejoin:round;">
</g>
<g style="fill:#FFFFFF; fill-opacity:1.0; 
stroke:#FFFFFF; stroke-width:0; stroke-opacity:1; 
stroke-linecap:round; stroke-linejoin:round;">
<circle cx="59886.2" cy="52741.3" r="68.8976" /> 
</g>
<g style="fill:#FFFFFF; fill-opacity:1.0; 
stroke:#FFFFFF; stroke-width:39.3701; stroke-opacity:1; 
stroke-linecap:round; stroke-linejoin:round;">
</g>
<g style="fill:#FFFFFF; fill-opacity:1.0; 
stroke:#FFFFFF; stroke-width:0; stroke-opacity:1; 
stroke-linecap:round; stroke-linejoin:round;">
<circle cx="58886.2" cy="52741.3" r="68.8976" /> 
</g>
<g style="fill:#FFFFFF; fill-opacity:1.0; 
stroke:#FFFFFF; stroke-width:39.3701; stroke-opacity:1; 
stroke-linecap:round; stroke-linejoin:round;">
</g>
<g style="fill:#FFFFFF; fill-opacity:1.0; 
stroke:#FFFFFF; stroke-width:0; stroke-opacity:1; 
stroke-linecap:round; stroke-linejoin:round;">
<circle cx="58086.2" cy="52741.3" r="68.8976" /> 
</g>
<g style="fill:#FFFFFF; fill-opacity:1.0; 
stroke:#FFFFFF; stroke-width:39.3701; stroke-opacity:1; 
stroke-linecap:round; stroke-linejoin:round;">
</g>
<g style="fill:#FFFFFF; fill-opacity:1.0; 
stroke:#FFFFFF; stroke-width:0; stroke-opacity:1; 
stroke-linecap:round; stroke-linejoin:round;">
<circle cx="57086.2" cy="52741.3" r="68.8976" /> 
</g>
<g style="fill:#FFFFFF; fill-opacity:1.0; 
stroke:#FFFFFF; stroke-width:39.3701; stroke-opacity:1; 
stroke-linecap:round; stroke-linejoin:round;">
</g>
<g style="fill:#FFFFFF; fill-opacity:1.0; 
stroke:#FFFFFF; stroke-width:0; stroke-opacity:1; 
stroke-linecap:round; stroke-linejoin:round;">
<circle cx="61086.2" cy="53791.3" r="68.8976" /> 
</g>
<g style="fill:#FFFFFF; fill-opacity:1.0; 
stroke:#FFFFFF; stroke-width:39.3701; stroke-opacity:1; 
stroke-linecap:round; stroke-linejoin:round;">
</g>
<g style="fill:#FFFFFF; fill-opacity:1.0; 
stroke:#FFFFFF; stroke-width:0; stroke-opacity:1; 
stroke-linecap:round; stroke-linejoin:round;">
<circle cx="55686.2" cy="53791.3" r="68.8976" /> 
</g>
<g style="fill:#FFFFFF; fill-opacity:1.0; 
stroke:#FFFFFF; stroke-width:39.3701; stroke-opacity:1; 
stroke-linecap:round; stroke-linejoin:round;">
</g>
<g style="fill:#FFFFFF; fill-opacity:1.0; 
stroke:#FFFFFF; stroke-width:0; stroke-opacity:1; 
stroke-linecap:round; stroke-linejoin:round;">
<circle cx="48397.6" cy="25760.6" r="68.8976" /> 
</g>
<g style="fill:#FFFFFF; fill-opacity:1.0; 
stroke:#FFFFFF; stroke-width:39.3701; stroke-opacity:1; 
stroke-linecap:round; stroke-linejoin:round;">
</g>
<g style="fill:#FFFFFF; fill-opacity:1.0; 
stroke:#FFFFFF; stroke-width:0; stroke-opacity:1; 
stroke-linecap:round; stroke-linejoin:round;">
<circle cx="49397.6" cy="25760.6" r="68.8976" /> 
</g>
<g style="fill:#FFFFFF; fill-opacity:1.0; 
stroke:#FFFFFF; stroke-width:39.3701; stroke-opacity:1; 
stroke-linecap:round; stroke-linejoin:round;">
</g>
<g style="fill:#FFFFFF; fill-opacity:1.0; 
stroke:#FFFFFF; stroke-width:0; stroke-opacity:1; 
stroke-linecap:round; stroke-linejoin:round;">
<circle cx="50197.6" cy="25760.6" r="68.8976" /> 
</g>
<g style="fill:#FFFFFF; fill-opacity:1.0; 
stroke:#FFFFFF; stroke-width:39.3701; stroke-opacity:1; 
stroke-linecap:round; stroke-linejoin:round;">
</g>
<g style="fill:#FFFFFF; fill-opacity:1.0; 
stroke:#FFFFFF; stroke-width:0; stroke-opacity:1; 
stroke-linecap:round; stroke-linejoin:round;">
<circle cx="51197.6" cy="25760.6" r="68.8976" /> 
</g>
<g style="fill:#FFFFFF; fill-opacity:1.0; 
stroke:#FFFFFF; stroke-width:39.3701; stroke-opacity:1; 
stroke-linecap:round; stroke-linejoin:round;">
</g>
<g style="fill:#FFFFFF; fill-opacity:1.0; 
stroke:#FFFFFF; stroke-width:0; stroke-opacity:1; 
stroke-linecap:round; stroke-linejoin:round;">
<circle cx="47197.6" cy="24710.6" r="68.8976" /> 
</g>
<g style="fill:#FFFFFF; fill-opacity:1.0; 
stroke:#FFFFFF; stroke-width:39.3701; stroke-opacity:1; 
stroke-linecap:round; stroke-linejoin:round;">
</g>
<g style="fill:#FFFFFF; fill-opacity:1.0; 
stroke:#FFFFFF; stroke-width:0; stroke-opacity:1; 
stroke-linecap:round; stroke-linejoin:round;">
<circle cx="52597.6" cy="24710.6" r="68.8976" /> 
</g>
<g style="fill:#FFFFFF; fill-opacity:1.0; 
stroke:#FFFFFF; stroke-width:39.3701; stroke-opacity:1; 
stroke-linecap:round; stroke-linejoin:round;">
</g>
<g style="fill:#FFFFFF; fill-opacity:1.0; 
stroke:#FFFFFF; stroke-width:0; stroke-opacity:1; 
stroke-linecap:round; stroke-linejoin:round;">
<circle cx="68390.1" cy="52741.3" r="68.8976" /> 
</g>
<g style="fill:#FFFFFF; fill-opacity:1.0; 
stroke:#FFFFFF; stroke-width:39.3701; stroke-opacity:1; 
stroke-linecap:round; stroke-linejoin:round;">
</g>
<g style="fill:#FFFFFF; fill-opacity:1.0; 
stroke:#FFFFFF; stroke-width:0; stroke-opacity:1; 
stroke-linecap:round; stroke-linejoin:round;">
<circle cx="67390.1" cy="52741.3" r="68.8976" /> 
</g>
<g style="fill:#FFFFFF; fill-opacity:1.0; 
stroke:#FFFFFF; stroke-width:39.3701; stroke-opacity:1; 
stroke-linecap:round; stroke-linejoin:round;">
</g>
<g style="fill:#FFFFFF; fill-opacity:1.0; 
stroke:#FFFFFF; stroke-width:0; stroke-opacity:1; 
stroke-linecap:round; stroke-linejoin:round;">
<circle cx="66590.1" cy="52741.3" r="68.8976" /> 
</g>
<g style="fill:#FFFFFF; fill-opacity:1.0; 
stroke:#FFFFFF; stroke-width:39.3701; stroke-opacity:1; 
stroke-linecap:round; stroke-linejoin:round;">
</g>
<g style="fill:#FFFFFF; fill-opacity:1.0; 
stroke:#FFFFFF; stroke-width:0; stroke-opacity:1; 
stroke-linecap:round; stroke-linejoin:round;">
<circle cx="65590.1" cy="52741.3" r="68.8976" /> 
</g>
<g style="fill:#FFFFFF; fill-opacity:1.0; 
stroke:#FFFFFF; stroke-width:39.3701; stroke-opacity:1; 
stroke-linecap:round; stroke-linejoin:round;">
</g>
<g style="fill:#FFFFFF; fill-opacity:1.0; 
stroke:#FFFFFF; stroke-width:0; stroke-opacity:1; 
stroke-linecap:round; stroke-linejoin:round;">
<circle cx="69590.1" cy="53791.3" r="68.8976" /> 
</g>
<g style="fill:#FFFFFF; fill-opacity:1.0; 
stroke:#FFFFFF; stroke-width:39.3701; stroke-opacity:1; 
stroke-linecap:round; stroke-linejoin:round;">
</g>
<g style="fill:#FFFFFF; fill-opacity:1.0; 
stroke:#FFFFFF; stroke-width:0; stroke-opacity:1; 
stroke-linecap:round; stroke-linejoin:round;">
<circle cx="64190.1" cy="53791.3" r="68.8976" /> 
</g>
<g style="fill:#FFFFFF; fill-opacity:1.0; 
stroke:#FFFFFF; stroke-width:39.3701; stroke-opacity:1; 
stroke-linecap:round; stroke-linejoin:round;">
</g>
<g style="fill:#FFFFFF; fill-opacity:1.0; 
stroke:#FFFFFF; stroke-width:0; stroke-opacity:1; 
stroke-linecap:round; stroke-linejoin:round;">
<circle cx="73891.8" cy="25813.8" r="68.8976" /> 
</g>
<g style="fill:#FFFFFF; fill-opacity:1.0; 
stroke:#FFFFFF; stroke-width:39.3701; stroke-opacity:1; 
stroke-linecap:round; stroke-linejoin:round;">
</g>
<g style="fill:#FFFFFF; fill-opacity:1.0; 
stroke:#FFFFFF; stroke-width:0; stroke-opacity:1; 
stroke-linecap:round; stroke-linejoin:round;">
<circle cx="74891.8" cy="25813.8" r="68.8976" /> 
</g>
<g style="fill:#FFFFFF; fill-opacity:1.0; 
stroke:#FFFFFF; stroke-width:39.3701; stroke-opacity:1; 
stroke-linecap:round; stroke-linejoin:round;">
</g>
<g style="fill:#FFFFFF; fill-opacity:1.0; 
stroke:#FFFFFF; stroke-width:0; stroke-opacity:1; 
stroke-linecap:round; stroke-linejoin:round;">
<circle cx="75691.8" cy="25813.8" r="68.8976" /> 
</g>
<g style="fill:#FFFFFF; fill-opacity:1.0; 
stroke:#FFFFFF; stroke-width:39.3701; stroke-opacity:1; 
stroke-linecap:round; stroke-linejoin:round;">
</g>
<g style="fill:#FFFFFF; fill-opacity:1.0; 
stroke:#FFFFFF; stroke-width:0; stroke-opacity:1; 
stroke-linecap:round; stroke-linejoin:round;">
<circle cx="76691.8" cy="25813.8" r="68.8976" /> 
</g>
<g style="fill:#FFFFFF; fill-opacity:1.0; 
stroke:#FFFFFF; stroke-width:39.3701; stroke-opacity:1; 
stroke-linecap:round; stroke-linejoin:round;">
</g>
<g style="fill:#FFFFFF; fill-opacity:1.0; 
stroke:#FFFFFF; stroke-width:0; stroke-opacity:1; 
stroke-linecap:round; stroke-linejoin:round;">
<circle cx="72691.8" cy="24763.8" r="68.8976" /> 
</g>
<g style="fill:#FFFFFF; fill-opacity:1.0; 
stroke:#FFFFFF; stroke-width:39.3701; stroke-opacity:1; 
stroke-linecap:round; stroke-linejoin:round;">
</g>
<g style="fill:#FFFFFF; fill-opacity:1.0; 
stroke:#FFFFFF; stroke-width:0; stroke-opacity:1; 
stroke-linecap:round; stroke-linejoin:round;">
<circle cx="78091.8" cy="24763.8" r="68.8976" /> 
</g>
<g style="fill:#FFFFFF; fill-opacity:1.0; 
stroke:#FFFFFF; stroke-width:39.3701; stroke-opacity:1; 
stroke-linecap:round; stroke-linejoin:round;">
</g>
<g style="fill:#FFFFFF; fill-opacity:1.0; 
stroke:#FFFFFF; stroke-width:0; stroke-opacity:1; 
stroke-linecap:round; stroke-linejoin:round;">
<circle cx="76894" cy="52741.3" r="68.8976" /> 
</g>
<g style="fill:#FFFFFF; fill-opacity:1.0; 
stroke:#FFFFFF; stroke-width:39.3701; stroke-opacity:1; 
stroke-linecap:round; stroke-linejoin:round;">
</g>
<g style="fill:#FFFFFF; fill-opacity:1.0; 
stroke:#FFFFFF; stroke-width:0; stroke-opacity:1; 
stroke-linecap:round; stroke-linejoin:round;">
<circle cx="75894" cy="52741.3" r="68.8976" /> 
</g>
<g style="fill:#FFFFFF; fill-opacity:1.0; 
stroke:#FFFFFF; stroke-width:39.3701; stroke-opacity:1; 
stroke-linecap:round; stroke-linejoin:round;">
</g>
<g style="fill:#FFFFFF; fill-opacity:1.0; 
stroke:#FFFFFF; stroke-width:0; stroke-opacity:1; 
stroke-linecap:round; stroke-linejoin:round;">
<circle cx="75094" cy="52741.3" r="68.8976" /> 
</g>
<g style="fill:#FFFFFF; fill-opacity:1.0; 
stroke:#FFFFFF; stroke-width:39.3701; stroke-opacity:1; 
stroke-linecap:round; stroke-linejoin:round;">
</g>
<g style="fill:#FFFFFF; fill-opacity:1.0; 
stroke:#FFFFFF; stroke-width:0; stroke-opacity:1; 
stroke-linecap:round; stroke-linejoin:round;">
<circle cx="74094" cy="52741.3" r="68.8976" /> 
</g>
<g style="fill:#FFFFFF; fill-opacity:1.0; 
stroke:#FFFFFF; stroke-width:39.3701; stroke-opacity:1; 
stroke-linecap:round; stroke-linejoin:round;">
</g>
<g style="fill:#FFFFFF; fill-opacity:1.0; 
stroke:#FFFFFF; stroke-width:0; stroke-opacity:1; 
stroke-linecap:round; stroke-linejoin:round;">
<circle cx="78094" cy="53791.3" r="68.8976" /> 
</g>
<g style="fill:#FFFFFF; fill-opacity:1.0; 
stroke:#FFFFFF; stroke-width:39.3701; stroke-opacity:1; 
stroke-linecap:round; stroke-linejoin:round;">
</g>
<g style="fill:#FFFFFF; fill-opacity:1.0; 
stroke:#FFFFFF; stroke-width:0; stroke-opacity:1; 
stroke-linecap:round; stroke-linejoin:round;">
<circle cx="72694" cy="53791.3" r="68.8976" /> 
</g>
<g style="fill:#FFFFFF; fill-opacity:1.0; 
stroke:#FFFFFF; stroke-width:39.3701; stroke-opacity:1; 
stroke-linecap:round; stroke-linejoin:round;">
</g>
<g style="fill:#FFFFFF; fill-opacity:1.0; 
stroke:#FFFFFF; stroke-width:0; stroke-opacity:1; 
stroke-linecap:round; stroke-linejoin:round;">
<circle cx="62991.3" cy="35281.5" r="68.8976" /> 
</g>
<g style="fill:#FFFFFF; fill-opacity:1.0; 
stroke:#FFFFFF; stroke-width:39.3701; stroke-opacity:1; 
stroke-linecap:round; stroke-linejoin:round;">
</g>
<g style="fill:#FFFFFF; fill-opacity:1.0; 
stroke:#FFFFFF; stroke-width:0; stroke-opacity:1; 
stroke-linecap:round; stroke-linejoin:round;">
<circle cx="62991.3" cy="34281.5" r="68.8976" /> 
</g>
<g style="fill:#FFFFFF; fill-opacity:1.0; 
stroke:#FFFFFF; stroke-width:39.3701; stroke-opacity:1; 
stroke-linecap:round; stroke-linejoin:round;">
</g>
<g style="fill:#FFFFFF; fill-opacity:1.0; 
stroke:#FFFFFF; stroke-width:0; stroke-opacity:1; 
stroke-linecap:round; stroke-linejoin:round;">
<circle cx="62991.3" cy="33281.5" r="68.8976" /> 
</g>
<g style="fill:#FFFFFF; fill-opacity:1.0; 
stroke:#FFFFFF; stroke-width:39.3701; stroke-opacity:1; 
stroke-linecap:round; stroke-linejoin:round;">
</g>
<g style="fill:#FFFFFF; fill-opacity:1.0; 
stroke:#FFFFFF; stroke-width:0; stroke-opacity:1; 
stroke-linecap:round; stroke-linejoin:round;">
<circle cx="65353.5" cy="35281.5" r="68.8976" /> 
</g>
<g style="fill:#FFFFFF; fill-opacity:1.0; 
stroke:#FFFFFF; stroke-width:39.3701; stroke-opacity:1; 
stroke-linecap:round; stroke-linejoin:round;">
</g>
<g style="fill:#FFFFFF; fill-opacity:1.0; 
stroke:#FFFFFF; stroke-width:0; stroke-opacity:1; 
stroke-linecap:round; stroke-linejoin:round;">
<circle cx="65353.5" cy="34281.5" r="68.8976" /> 
</g>
<g style="fill:#FFFFFF; fill-opacity:1.0; 
stroke:#FFFFFF; stroke-width:39.3701; stroke-opacity:1; 
stroke-linecap:round; stroke-linejoin:round;">
</g>
<g style="fill:#FFFFFF; fill-opacity:1.0; 
stroke:#FFFFFF; stroke-width:0; stroke-opacity:1; 
stroke-linecap:round; stroke-linejoin:round;">
<circle cx="65353.5" cy="33281.5" r="68.8976" /> 
</g>
<g style="fill:#FFFFFF; fill-opacity:1.0; 
stroke:#FFFFFF; stroke-width:39.3701; stroke-opacity:1; 
stroke-linecap:round; stroke-linejoin:round;">
</g>
<g style="fill:#FFFFFF; fill-opacity:1.0; 
stroke:#FFFFFF; stroke-width:0; stroke-opacity:1; 
stroke-linecap:round; stroke-linejoin:round;">
<circle cx="57479.5" cy="35281.5" r="68.8976" /> 
</g>
<g style="fill:#FFFFFF; fill-opacity:1.0; 
stroke:#FFFFFF; stroke-width:39.3701; stroke-opacity:1; 
stroke-linecap:round; stroke-linejoin:round;">
</g>
<g style="fill:#FFFFFF; fill-opacity:1.0; 
stroke:#FFFFFF; stroke-width:0; stroke-opacity:1; 
stroke-linecap:round; stroke-linejoin:round;">
<circle cx="57479.5" cy="34281.5" r="68.8976" /> 
</g>
<g style="fill:#FFFFFF; fill-opacity:1.0; 
stroke:#FFFFFF; stroke-width:39.3701; stroke-opacity:1; 
stroke-linecap:round; stroke-linejoin:round;">
</g>
<g style="fill:#FFFFFF; fill-opacity:1.0; 
stroke:#FFFFFF; stroke-width:0; stroke-opacity:1; 
stroke-linecap:round; stroke-linejoin:round;">
<circle cx="57479.5" cy="33281.5" r="68.8976" /> 
</g>
<g style="fill:#FFFFFF; fill-opacity:1.0; 
stroke:#FFFFFF; stroke-width:39.3701; stroke-opacity:1; 
stroke-linecap:round; stroke-linejoin:round;">
</g>
<g style="fill:#FFFFFF; fill-opacity:1.0; 
stroke:#FFFFFF; stroke-width:0; stroke-opacity:1; 
stroke-linecap:round; stroke-linejoin:round;">
<circle cx="67715.7" cy="35281.5" r="68.8976" /> 
</g>
<g style="fill:#FFFFFF; fill-opacity:1.0; 
stroke:#FFFFFF; stroke-width:39.3701; stroke-opacity:1; 
stroke-linecap:round; stroke-linejoin:round;">
</g>
<g style="fill:#FFFFFF; fill-opacity:1.0; 
stroke:#FFFFFF; stroke-width:0; stroke-opacity:1; 
stroke-linecap:round; stroke-linejoin:round;">
<circle cx="67715.7" cy="34281.5" r="68.8976" /> 
</g>
<g style="fill:#FFFFFF; fill-opacity:1.0; 
stroke:#FFFFFF; stroke-width:39.3701; stroke-opacity:1; 
stroke-linecap:round; stroke-linejoin:round;">
</g>
<g style="fill:#FFFFFF; fill-opacity:1.0; 
stroke:#FFFFFF; stroke-width:0; stroke-opacity:1; 
stroke-linecap:round; stroke-linejoin:round;">
<circle cx="67715.7" cy="33281.5" r="68.8976" /> 
</g>
<g style="fill:#FFFFFF; fill-opacity:1.0; 
stroke:#FFFFFF; stroke-width:39.3701; stroke-opacity:1; 
stroke-linecap:round; stroke-linejoin:round;">
</g>
<g style="fill:#FFFFFF; fill-opacity:1.0; 
stroke:#FFFFFF; stroke-width:0; stroke-opacity:1; 
stroke-linecap:round; stroke-linejoin:round;">
<circle cx="59841.7" cy="35281.5" r="68.8976" /> 
</g>
<g style="fill:#FFFFFF; fill-opacity:1.0; 
stroke:#FFFFFF; stroke-width:39.3701; stroke-opacity:1; 
stroke-linecap:round; stroke-linejoin:round;">
</g>
<g style="fill:#FFFFFF; fill-opacity:1.0; 
stroke:#FFFFFF; stroke-width:0; stroke-opacity:1; 
stroke-linecap:round; stroke-linejoin:round;">
<circle cx="59841.7" cy="34281.5" r="68.8976" /> 
</g>
<g style="fill:#FFFFFF; fill-opacity:1.0; 
stroke:#FFFFFF; stroke-width:39.3701; stroke-opacity:1; 
stroke-linecap:round; stroke-linejoin:round;">
</g>
<g style="fill:#FFFFFF; fill-opacity:1.0; 
stroke:#FFFFFF; stroke-width:0; stroke-opacity:1; 
stroke-linecap:round; stroke-linejoin:round;">
<circle cx="59841.7" cy="33281.5" r="68.8976" /> 
</g>
<g style="fill:#FFFFFF; fill-opacity:1.0; 
stroke:#FFFFFF; stroke-width:39.3701; stroke-opacity:1; 
stroke-linecap:round; stroke-linejoin:round;">
</g>
<g style="fill:#FFFFFF; fill-opacity:1.0; 
stroke:#FFFFFF; stroke-width:0; stroke-opacity:1; 
stroke-linecap:round; stroke-linejoin:round;">
<circle cx="56913.4" cy="25784.3" r="68.8976" /> 
</g>
<g style="fill:#FFFFFF; fill-opacity:1.0; 
stroke:#FFFFFF; stroke-width:39.3701; stroke-opacity:1; 
stroke-linecap:round; stroke-linejoin:round;">
</g>
<g style="fill:#FFFFFF; fill-opacity:1.0; 
stroke:#FFFFFF; stroke-width:0; stroke-opacity:1; 
stroke-linecap:round; stroke-linejoin:round;">
<circle cx="57913.4" cy="25784.3" r="68.8976" /> 
</g>
<g style="fill:#FFFFFF; fill-opacity:1.0; 
stroke:#FFFFFF; stroke-width:39.3701; stroke-opacity:1; 
stroke-linecap:round; stroke-linejoin:round;">
</g>
<g style="fill:#FFFFFF; fill-opacity:1.0; 
stroke:#FFFFFF; stroke-width:0; stroke-opacity:1; 
stroke-linecap:round; stroke-linejoin:round;">
<circle cx="58713.4" cy="25784.3" r="68.8976" /> 
</g>
<g style="fill:#FFFFFF; fill-opacity:1.0; 
stroke:#FFFFFF; stroke-width:39.3701; stroke-opacity:1; 
stroke-linecap:round; stroke-linejoin:round;">
</g>
<g style="fill:#FFFFFF; fill-opacity:1.0; 
stroke:#FFFFFF; stroke-width:0; stroke-opacity:1; 
stroke-linecap:round; stroke-linejoin:round;">
<circle cx="59713.4" cy="25784.3" r="68.8976" /> 
</g>
<g style="fill:#FFFFFF; fill-opacity:1.0; 
stroke:#FFFFFF; stroke-width:39.3701; stroke-opacity:1; 
stroke-linecap:round; stroke-linejoin:round;">
</g>
<g style="fill:#FFFFFF; fill-opacity:1.0; 
stroke:#FFFFFF; stroke-width:0; stroke-opacity:1; 
stroke-linecap:round; stroke-linejoin:round;">
<circle cx="55713.4" cy="24734.3" r="68.8976" /> 
</g>
<g style="fill:#FFFFFF; fill-opacity:1.0; 
stroke:#FFFFFF; stroke-width:39.3701; stroke-opacity:1; 
stroke-linecap:round; stroke-linejoin:round;">
</g>
<g style="fill:#FFFFFF; fill-opacity:1.0; 
stroke:#FFFFFF; stroke-width:0; stroke-opacity:1; 
stroke-linecap:round; stroke-linejoin:round;">
<circle cx="61113.4" cy="24734.3" r="68.8976" /> 
</g>
<g style="fill:#FFFFFF; fill-opacity:1.0; 
stroke:#FFFFFF; stroke-width:39.3701; stroke-opacity:1; 
stroke-linecap:round; stroke-linejoin:round;">
</g>
<g style="fill:#000000; fill-opacity:1.0; 
stroke:#000000; stroke-width:39.3701; stroke-opacity:1; 
stroke-linecap:round; stroke-linejoin:round;">
</g> 
</svg>
